%TF.GenerationSoftware,KiCad,Pcbnew,(5.1.9)-1*%
%TF.CreationDate,2021-02-10T22:23:45+01:00*%
%TF.ProjectId,Trigger board,54726967-6765-4722-9062-6f6172642e6b,rev?*%
%TF.SameCoordinates,Original*%
%TF.FileFunction,Profile,NP*%
%FSLAX46Y46*%
G04 Gerber Fmt 4.6, Leading zero omitted, Abs format (unit mm)*
G04 Created by KiCad (PCBNEW (5.1.9)-1) date 2021-02-10 22:23:45*
%MOMM*%
%LPD*%
G01*
G04 APERTURE LIST*
%TA.AperFunction,Profile*%
%ADD10C,0.050000*%
%TD*%
G04 APERTURE END LIST*
D10*
X93154500Y-148463000D02*
X93154500Y-66040000D01*
X216598500Y-148463000D02*
X93154500Y-148463000D01*
X216598500Y-66040000D02*
X216598500Y-148463000D01*
X93154500Y-66040000D02*
X216598500Y-66040000D01*
M02*
