%TF.GenerationSoftware,KiCad,Pcbnew,(5.1.9)-1*%
%TF.CreationDate,2021-07-20T16:37:49+02:00*%
%TF.ProjectId,Trigger board,54726967-6765-4722-9062-6f6172642e6b,rev?*%
%TF.SameCoordinates,Original*%
%TF.FileFunction,Copper,L4,Bot*%
%TF.FilePolarity,Positive*%
%FSLAX46Y46*%
G04 Gerber Fmt 4.6, Leading zero omitted, Abs format (unit mm)*
G04 Created by KiCad (PCBNEW (5.1.9)-1) date 2021-07-20 16:37:49*
%MOMM*%
%LPD*%
G01*
G04 APERTURE LIST*
%TA.AperFunction,ComponentPad*%
%ADD10C,1.524000*%
%TD*%
%TA.AperFunction,ComponentPad*%
%ADD11C,2.020000*%
%TD*%
%TA.AperFunction,ComponentPad*%
%ADD12C,3.048000*%
%TD*%
%TA.AperFunction,ComponentPad*%
%ADD13C,4.000000*%
%TD*%
%TA.AperFunction,ComponentPad*%
%ADD14C,1.600000*%
%TD*%
%TA.AperFunction,ComponentPad*%
%ADD15R,1.600000X1.600000*%
%TD*%
%TA.AperFunction,ComponentPad*%
%ADD16C,2.600000*%
%TD*%
%TA.AperFunction,ComponentPad*%
%ADD17R,2.400000X2.400000*%
%TD*%
%TA.AperFunction,ComponentPad*%
%ADD18C,2.400000*%
%TD*%
%TA.AperFunction,ComponentPad*%
%ADD19R,2.200000X2.200000*%
%TD*%
%TA.AperFunction,ComponentPad*%
%ADD20C,2.200000*%
%TD*%
%TA.AperFunction,ComponentPad*%
%ADD21R,2.000000X2.000000*%
%TD*%
%TA.AperFunction,ComponentPad*%
%ADD22C,2.000000*%
%TD*%
%TA.AperFunction,ComponentPad*%
%ADD23C,2.032000*%
%TD*%
%TA.AperFunction,ComponentPad*%
%ADD24R,1.700000X1.700000*%
%TD*%
%TA.AperFunction,ComponentPad*%
%ADD25O,1.700000X1.700000*%
%TD*%
%TA.AperFunction,ComponentPad*%
%ADD26R,1.900000X1.900000*%
%TD*%
%TA.AperFunction,ComponentPad*%
%ADD27C,1.900000*%
%TD*%
%TA.AperFunction,ComponentPad*%
%ADD28C,2.100000*%
%TD*%
%TA.AperFunction,ComponentPad*%
%ADD29C,1.440000*%
%TD*%
%TA.AperFunction,ViaPad*%
%ADD30C,0.800000*%
%TD*%
%TA.AperFunction,ViaPad*%
%ADD31C,1.000000*%
%TD*%
%TA.AperFunction,Conductor*%
%ADD32C,0.250000*%
%TD*%
G04 APERTURE END LIST*
D10*
%TO.P,XU48,8*%
%TO.N,+5V*%
X123444000Y-78740000D03*
%TO.P,XU48,7*%
%TO.N,/Comparator relative humidity/HUM_SCL*%
X123444000Y-81280000D03*
%TO.P,XU48,6*%
%TO.N,Net-(J2-Pad3)*%
X123444000Y-83820000D03*
%TO.P,XU48,5*%
%TO.N,/Comparator relative humidity/HUM_SDA*%
X123444000Y-86360000D03*
%TO.P,XU48,4*%
%TO.N,GND*%
X115824000Y-86360000D03*
%TO.P,XU48,3*%
%TO.N,Net-(J2-Pad1)*%
X115824000Y-83820000D03*
%TO.P,XU48,2*%
%TO.N,Net-(XU48-Pad2)*%
X115824000Y-81280000D03*
%TO.P,XU48,1*%
%TO.N,Net-(JP2-Pad2)*%
X115824000Y-78740000D03*
%TD*%
D11*
%TO.P,J8,3*%
%TO.N,+5V*%
X110794800Y-72796400D03*
%TO.P,J8,1*%
X110794800Y-67716400D03*
%TO.P,J8,2*%
%TO.N,GND*%
X110794800Y-70256400D03*
%TD*%
D12*
%TO.P,TP5,1*%
%TO.N,GND*%
X124372500Y-132207000D03*
%TD*%
%TO.P,TP4,1*%
%TO.N,GND*%
X199961500Y-93472000D03*
%TD*%
D13*
%TO.P,J1,0*%
%TO.N,GND*%
X208874500Y-103830000D03*
X208874500Y-137130000D03*
D14*
%TO.P,J1,15*%
%TO.N,/Back connectors/Power regulator/Vin*%
X210294500Y-112170000D03*
%TO.P,J1,14*%
%TO.N,Net-(J1-Pad14)*%
X210294500Y-114940000D03*
%TO.P,J1,13*%
%TO.N,!ARM*%
X210294500Y-117710000D03*
%TO.P,J1,12*%
%TO.N,T_SELECT*%
X210294500Y-120480000D03*
%TO.P,J1,11*%
%TO.N,!T_arm_high*%
X210294500Y-123250000D03*
%TO.P,J1,10*%
%TO.N,!T_arm_low*%
X210294500Y-126020000D03*
%TO.P,J1,9*%
%TO.N,!V_arm*%
X210294500Y-128790000D03*
%TO.P,J1,8*%
%TO.N,+5V*%
X207454500Y-110785000D03*
%TO.P,J1,7*%
%TO.N,/Back connectors/!T_hi_interlock*%
X207454500Y-113555000D03*
%TO.P,J1,6*%
%TO.N,/Back connectors/!T_lo_interlock*%
X207454500Y-116325000D03*
%TO.P,J1,5*%
%TO.N,/Back connectors/!RH_interlock*%
X207454500Y-119095000D03*
%TO.P,J1,4*%
%TO.N,/Back connectors/!DA_interlock*%
X207454500Y-121865000D03*
%TO.P,J1,3*%
%TO.N,/Back connectors/!ALT_SW_interlock*%
X207454500Y-124635000D03*
%TO.P,J1,2*%
%TO.N,/Back connectors/!BSW_interlock*%
X207454500Y-127405000D03*
D15*
%TO.P,J1,1*%
%TO.N,/Back connectors/!V_interlock*%
X207454500Y-130175000D03*
%TD*%
D16*
%TO.P,L1,1*%
%TO.N,Net-(C35-Pad2)*%
X214185500Y-89789000D03*
%TO.P,L1,2*%
%TO.N,/Back connectors/Power regulator/Vout*%
X209185500Y-89789000D03*
%TD*%
D17*
%TO.P,C30,1*%
%TO.N,+5V*%
X209359500Y-81534000D03*
D18*
%TO.P,C30,2*%
%TO.N,GND*%
X209359500Y-76534000D03*
%TD*%
D19*
%TO.P,S1,1*%
%TO.N,+5V*%
X178879500Y-74422000D03*
D20*
%TO.P,S1,2*%
X178879500Y-67922000D03*
%TO.P,S1,4*%
%TO.N,Net-(R31-Pad1)*%
X183379500Y-67922000D03*
%TO.P,S1,3*%
X183379500Y-74422000D03*
%TD*%
D21*
%TO.P,BZ1,1*%
%TO.N,Net-(BZ1-Pad1)*%
X202120500Y-139700000D03*
D22*
%TO.P,BZ1,2*%
%TO.N,GND*%
X197120500Y-139700000D03*
%TD*%
D11*
%TO.P,J7,1*%
%TO.N,Net-(J7-Pad1)*%
X170497500Y-71374000D03*
%TO.P,J7,2*%
%TO.N,Net-(C87-Pad1)*%
X167957500Y-71374000D03*
%TO.P,J7,4*%
%TO.N,Net-(J7-Pad4)*%
X162877500Y-71374000D03*
%TO.P,J7,3*%
%TO.N,Net-(C87-Pad2)*%
X165417500Y-71374000D03*
%TD*%
D23*
%TO.P,J5,1*%
%TO.N,/Front connectors/Flow_sense*%
X104025700Y-106680000D03*
%TO.P,J5,2*%
%TO.N,+5V*%
X104025700Y-109220000D03*
%TO.P,J5,3*%
%TO.N,GND*%
X104025700Y-111760000D03*
%TO.P,J5,4*%
%TO.N,/Front connectors/Alt_sw*%
X104025700Y-114300000D03*
%TO.P,J5,5*%
%TO.N,/Front connectors/Box_sw*%
X104025700Y-116840000D03*
%TO.P,J5,6*%
%TO.N,+5V*%
X104025700Y-119380000D03*
%TO.P,J5,3*%
%TO.N,GND*%
X98945700Y-111760000D03*
%TO.P,J5,5*%
%TO.N,/Front connectors/Box_sw*%
X98945700Y-116840000D03*
%TO.P,J5,6*%
%TO.N,+5V*%
X98945700Y-119380000D03*
%TO.P,J5,4*%
%TO.N,/Front connectors/Alt_sw*%
X98945700Y-114300000D03*
%TO.P,J5,2*%
%TO.N,+5V*%
X98945700Y-109220000D03*
%TO.P,J5,1*%
%TO.N,/Front connectors/Flow_sense*%
X98945700Y-106680000D03*
%TD*%
D24*
%TO.P,JP1,1*%
%TO.N,Net-(JP1-Pad1)*%
X110426500Y-103632000D03*
D25*
%TO.P,JP1,2*%
%TO.N,Net-(C17-Pad1)*%
X110426500Y-101092000D03*
%TD*%
D19*
%TO.P,S3,1*%
%TO.N,GND*%
X178879500Y-83947000D03*
D20*
%TO.P,S3,2*%
X178879500Y-77447000D03*
%TO.P,S3,4*%
%TO.N,Net-(R83-Pad2)*%
X183379500Y-77447000D03*
%TO.P,S3,3*%
X183379500Y-83947000D03*
%TD*%
D26*
%TO.P,S2,1*%
%TO.N,GND*%
X181546500Y-94107000D03*
D27*
%TO.P,S2,2*%
%TO.N,Net-(R53-Pad1)*%
X181546500Y-91607000D03*
%TO.P,S2,3*%
%TO.N,+5V*%
X181546500Y-89107000D03*
%TD*%
D24*
%TO.P,JP2,1*%
%TO.N,GND*%
X121793000Y-72771000D03*
D25*
%TO.P,JP2,2*%
%TO.N,Net-(JP2-Pad2)*%
X121793000Y-75311000D03*
%TD*%
D23*
%TO.P,J6,1*%
%TO.N,+5V*%
X104076500Y-79603600D03*
%TO.P,J6,2*%
%TO.N,/Comparator relative humidity/HUM_SCL*%
X104076500Y-82143600D03*
%TO.P,J6,3*%
%TO.N,/Comparator relative humidity/HUM_SDA*%
X104076500Y-84683600D03*
%TO.P,J6,4*%
%TO.N,GND*%
X104076500Y-87223600D03*
%TO.P,J6,5*%
%TO.N,+5V*%
X104076500Y-89763600D03*
%TO.P,J6,6*%
%TO.N,/NTC signal conditioner/NTC_in*%
X104076500Y-92303600D03*
%TO.P,J6,3*%
%TO.N,/Comparator relative humidity/HUM_SDA*%
X98996500Y-84683600D03*
%TO.P,J6,5*%
%TO.N,+5V*%
X98996500Y-89763600D03*
%TO.P,J6,6*%
%TO.N,/NTC signal conditioner/NTC_in*%
X98996500Y-92303600D03*
%TO.P,J6,4*%
%TO.N,GND*%
X98996500Y-87223600D03*
%TO.P,J6,2*%
%TO.N,/Comparator relative humidity/HUM_SCL*%
X98996500Y-82143600D03*
%TO.P,J6,1*%
%TO.N,+5V*%
X98996500Y-79603600D03*
%TD*%
%TO.P,J4,1*%
%TO.N,/Input protection/Input*%
X104178100Y-133502400D03*
%TO.P,J4,2*%
%TO.N,GND1*%
X104178100Y-136042400D03*
X99098100Y-136042400D03*
%TO.P,J4,1*%
%TO.N,/Input protection/Input*%
X99098100Y-133502400D03*
%TD*%
D28*
%TO.P,J3,3*%
%TO.N,/NTC Digitizer/In*%
X150177500Y-78486000D03*
%TO.P,J3,2*%
%TO.N,Net-(C56-Pad1)*%
X147637500Y-78486000D03*
%TO.P,J3,1*%
%TO.N,Net-(J3-Pad1)*%
X145097500Y-78486000D03*
%TD*%
D25*
%TO.P,J2,6*%
%TO.N,Net-(J2-Pad2)*%
X132082500Y-75186000D03*
%TO.P,J2,5*%
%TO.N,/Comparator relative humidity/HUM_SDA*%
X132082500Y-77726000D03*
%TO.P,J2,4*%
%TO.N,Net-(J2-Pad2)*%
X129542500Y-75186000D03*
%TO.P,J2,3*%
%TO.N,Net-(J2-Pad3)*%
X129542500Y-77726000D03*
%TO.P,J2,2*%
%TO.N,Net-(J2-Pad2)*%
X127002500Y-75186000D03*
D24*
%TO.P,J2,1*%
%TO.N,Net-(J2-Pad1)*%
X127002500Y-77726000D03*
%TD*%
D29*
%TO.P,RV1,1*%
%TO.N,+5V*%
X119189500Y-111125000D03*
%TO.P,RV1,2*%
%TO.N,Net-(C18-Pad1)*%
X119189500Y-113665000D03*
%TO.P,RV1,3*%
%TO.N,GND*%
X119189500Y-116205000D03*
%TD*%
D30*
%TO.N,/Back connectors/!RH_interlock*%
X154749500Y-79248000D03*
X203771500Y-109854998D03*
%TO.N,/Back connectors/!BSW_interlock*%
X110807500Y-121666000D03*
%TO.N,/Back connectors/!T_hi_interlock*%
X150939500Y-87122000D03*
%TO.N,/Back connectors/!T_lo_interlock*%
X151447500Y-95123000D03*
%TO.N,/Back connectors/!DA_interlock*%
X127444500Y-111125002D03*
%TO.N,/Back connectors/!ALT_SW_interlock*%
X125539497Y-121107200D03*
%TO.N,!T_arm_low*%
X109537500Y-124358400D03*
X174942500Y-89408000D03*
X148780500Y-71120000D03*
X124169616Y-106167481D03*
X202750840Y-109859660D03*
%TO.N,!T_arm_high*%
X169354500Y-98679000D03*
%TO.N,/Comparator temperature alarm/T_ARM_alarm_hi*%
X184086500Y-135255000D03*
X176085500Y-128948043D03*
%TO.N,/Comparator temperature alarm/T_ARM_alarm_lo*%
X184086500Y-140081000D03*
X174959171Y-128948043D03*
%TO.N,!LE*%
X202247500Y-72009000D03*
X150939500Y-69850000D03*
X147764500Y-92964000D03*
X147854500Y-86473882D03*
X181292500Y-72009000D03*
X155836347Y-133674847D03*
X177609500Y-128651000D03*
X177609500Y-98933000D03*
X147764496Y-98679000D03*
%TO.N,!ARM*%
X123761500Y-127889000D03*
X122200501Y-108110341D03*
X112204500Y-124587000D03*
X125285500Y-129286000D03*
X149161500Y-73660000D03*
X154683490Y-86223990D03*
X193268510Y-95161010D03*
X201485500Y-109855000D03*
X193230500Y-87630000D03*
%TO.N,/Comparator dry air flow/sheet5EDB2AFE/Cntrl*%
X124396500Y-109220000D03*
X142049500Y-104394000D03*
X144589500Y-104394000D03*
X121454027Y-106389010D03*
%TO.N,/Comparator relative humidity/sheet5ED1C466/Cntrl*%
X141428500Y-72249000D03*
X124904500Y-88773002D03*
D31*
%TO.N,GND*%
X207835500Y-95123000D03*
X209740500Y-93218000D03*
X208978500Y-96012000D03*
X128206500Y-69596000D03*
X148399500Y-90424000D03*
D30*
X162496500Y-140843000D03*
X162496500Y-142113000D03*
X162496500Y-143383000D03*
X161734500Y-142875000D03*
X161734500Y-144145000D03*
X162496500Y-144653000D03*
X161734500Y-145415000D03*
X162496500Y-145923000D03*
X161734500Y-146685000D03*
D31*
X166560500Y-144399000D03*
X132397500Y-99568000D03*
X132397500Y-106426000D03*
X132270500Y-113919000D03*
X157924500Y-106934000D03*
X157924500Y-114300000D03*
X157924500Y-100139010D03*
X134556500Y-69469000D03*
X164274500Y-98552000D03*
X164274500Y-113157000D03*
X138620500Y-120205010D03*
X132524500Y-121422020D03*
X164274500Y-105727010D03*
X115172500Y-112602000D03*
X103968498Y-99295002D03*
X143878300Y-132207000D03*
X165468300Y-132613400D03*
X121272300Y-120142000D03*
X117106700Y-121462800D03*
X136156700Y-132156200D03*
X107099100Y-121666000D03*
D30*
X125539507Y-126492000D03*
X118046498Y-126365000D03*
X103103497Y-128058999D03*
D31*
X94170500Y-125349000D03*
D30*
X112077500Y-125603000D03*
D31*
X110172500Y-128143000D03*
X115252500Y-127889000D03*
X140125508Y-75673000D03*
X116395496Y-107315004D03*
X124904500Y-110998000D03*
X116649500Y-101600000D03*
D30*
X150177500Y-84836000D03*
D31*
X148399500Y-88011000D03*
X132524500Y-93091000D03*
D30*
X129857498Y-86995002D03*
D31*
X135445500Y-91059000D03*
X162433000Y-93980000D03*
X162877500Y-88265000D03*
D30*
X165417500Y-91948000D03*
D31*
X171259500Y-93980000D03*
X172529500Y-90170000D03*
D30*
X169227500Y-85979000D03*
D31*
X141934370Y-69226872D03*
X145478500Y-75311000D03*
X152844500Y-76200000D03*
D30*
X150812500Y-68833996D03*
D31*
X160591500Y-77216000D03*
D30*
X159575500Y-81153000D03*
D31*
X179641500Y-140716000D03*
X193357500Y-136144000D03*
X202247500Y-135382000D03*
X179548496Y-136144000D03*
X136715500Y-82169000D03*
X137858500Y-79629000D03*
X148018500Y-81661000D03*
X204787500Y-69469000D03*
X194246500Y-70104000D03*
D30*
X194881500Y-82677000D03*
D31*
X200417010Y-86998010D03*
D30*
X196776499Y-77685001D03*
D31*
X187642500Y-89281000D03*
X195262500Y-93726000D03*
X193103500Y-81026000D03*
D30*
X188912500Y-94107000D03*
D31*
X116471700Y-90271600D03*
D30*
X116852700Y-92811600D03*
X118884700Y-94208600D03*
D31*
X136715500Y-88011000D03*
X139509500Y-94869000D03*
X154876500Y-95123000D03*
X193357500Y-140970000D03*
D30*
X195770500Y-134239000D03*
D31*
X196659500Y-123190000D03*
X184594500Y-118745000D03*
X184594500Y-111887000D03*
X184594500Y-105156000D03*
X196532500Y-102870000D03*
X196532500Y-116332000D03*
X189039500Y-75946000D03*
D30*
X124904500Y-118364000D03*
X150177500Y-93599000D03*
D31*
X137604500Y-113919000D03*
X179641500Y-131413022D03*
X158420629Y-131392032D03*
X193205100Y-131508010D03*
X196363191Y-109660435D03*
X172148500Y-85471000D03*
D30*
X215328500Y-82042000D03*
X213804500Y-83312000D03*
D31*
X209232500Y-99314000D03*
X206692500Y-142621000D03*
X165417500Y-137160000D03*
X183578500Y-98806000D03*
D30*
X196913500Y-69378990D03*
D31*
X199098329Y-71056010D03*
X203797511Y-74930000D03*
D30*
X208978500Y-69087999D03*
D31*
X121884628Y-104711990D03*
D30*
X146584510Y-72898000D03*
D31*
X137477500Y-106553000D03*
X137477500Y-99568000D03*
X167640000Y-83814989D03*
X167640000Y-76898500D03*
X120904000Y-100126800D03*
X116738400Y-97129600D03*
%TO.N,+5V*%
X125675500Y-72635000D03*
X148399500Y-132334000D03*
X129222500Y-123444000D03*
X129086500Y-108467000D03*
X129077500Y-116096002D03*
X129077500Y-101745000D03*
X113592500Y-102288000D03*
X154613500Y-116323000D03*
X154604500Y-108730000D03*
X154604500Y-101836000D03*
X120205500Y-122834400D03*
X106362500Y-125603000D03*
X122300510Y-111379000D03*
X126555500Y-90932000D03*
X126555500Y-95377000D03*
X134429500Y-74295000D03*
X155448000Y-92964000D03*
X155892500Y-87249000D03*
X152844500Y-90424000D03*
X167703500Y-86614000D03*
X169227500Y-94107000D03*
X143963504Y-68643010D03*
X152844500Y-71755000D03*
X158559500Y-79375000D03*
X192088496Y-134113871D03*
X192215496Y-143765871D03*
X192214500Y-139065000D03*
X198183500Y-131572000D03*
X166560500Y-140208000D03*
X198056500Y-67056000D03*
X203009500Y-82423000D03*
X198691500Y-85598000D03*
X190944500Y-90805000D03*
X199453500Y-73914000D03*
X192976500Y-73152000D03*
X119773700Y-91287600D03*
X139890500Y-83312000D03*
X139763500Y-91059000D03*
X144335500Y-93599000D03*
X144335500Y-85852000D03*
X136842500Y-70993000D03*
X152463500Y-82042000D03*
X202247500Y-131254000D03*
X191833500Y-123063000D03*
X191833500Y-116205000D03*
X191706500Y-109474000D03*
X191706500Y-102616000D03*
X189293500Y-84836000D03*
X106997500Y-95250000D03*
X136461500Y-85979000D03*
X206692500Y-147447000D03*
X165417500Y-138938000D03*
X202882500Y-86741000D03*
D30*
X209232500Y-71882002D03*
D31*
X93916500Y-99314000D03*
X163131500Y-79756000D03*
X167345317Y-80715280D03*
X113436400Y-86004400D03*
X114808000Y-75793600D03*
%TO.N,GND1*%
X104787700Y-142392400D03*
X143446500Y-137541000D03*
X154495500Y-144780000D03*
D30*
X159194500Y-146685000D03*
X158432500Y-145923000D03*
X159194500Y-145415000D03*
X158432500Y-144653000D03*
X159194500Y-144145000D03*
X158432500Y-143383000D03*
X159194500Y-142875000D03*
X158432500Y-140843000D03*
X140779500Y-140843000D03*
D31*
X158559500Y-138684000D03*
X124079000Y-137731500D03*
X112268000Y-147447000D03*
X133446500Y-143383000D03*
X134810500Y-137668000D03*
X128968500Y-147193000D03*
D30*
X126301500Y-139065000D03*
D31*
X149923500Y-144145000D03*
X138620500Y-146685000D03*
X146748500Y-143891002D03*
X145732498Y-146177000D03*
X125095000Y-147447000D03*
X120954800Y-143357600D03*
D30*
X113639600Y-140868400D03*
X113639600Y-139547600D03*
D31*
%TO.N,+5VA*%
X148399500Y-137541000D03*
X114418000Y-143201500D03*
X129730500Y-145669000D03*
X132016500Y-138811000D03*
D30*
X127698500Y-144145000D03*
D31*
X143065500Y-144145000D03*
X148018500Y-142367000D03*
X153479500Y-141478000D03*
X121022000Y-138780500D03*
X106934000Y-138125200D03*
D30*
%TO.N,Net-(J1-Pad14)*%
X195643500Y-69723000D03*
%TO.N,/V sense interconnects/VSens_ARM_alarm*%
X142811500Y-146304000D03*
X154622500Y-139192000D03*
%TO.N,T_SELECT*%
X129857500Y-85491000D03*
X127190500Y-88265000D03*
X195193988Y-104970512D03*
%TO.N,Net-(C35-Pad2)*%
X204660500Y-91059000D03*
%TO.N,Net-(C35-Pad1)*%
X205930500Y-93980000D03*
X210883500Y-94107000D03*
%TO.N,Net-(R34-Pad2)*%
X213042500Y-97917000D03*
X204597000Y-103695500D03*
%TO.N,Net-(R37-Pad1)*%
X197675500Y-132969000D03*
X198564500Y-144526000D03*
%TO.N,Net-(C87-Pad2)*%
X170878500Y-75819000D03*
%TO.N,Net-(C87-Pad1)*%
X171522500Y-81290500D03*
%TO.N,Net-(U2-Pad7)*%
X151217152Y-92305348D03*
X144081500Y-94869000D03*
%TO.N,Net-(U16-Pad4)*%
X168592500Y-90043000D03*
X168529501Y-87694001D03*
%TO.N,Net-(J7-Pad4)*%
X172466000Y-79756000D03*
%TO.N,/Comparator temperature high/sheet5FDA4C55/Cntrl*%
X150363347Y-83761153D03*
X144208500Y-84582000D03*
X142594500Y-106934000D03*
X128587500Y-118110000D03*
%TD*%
D32*
%TO.N,/Back connectors/!RH_interlock*%
X160141489Y-84639989D02*
X169793489Y-84639989D01*
X154749500Y-79248000D02*
X160141489Y-84639989D01*
X169793489Y-84639989D02*
X171513500Y-86360000D01*
X202228501Y-108311999D02*
X203771500Y-109854998D01*
X202228501Y-98679000D02*
X202228501Y-108311999D01*
X202170511Y-98679000D02*
X202170510Y-98600600D01*
X202228501Y-98679000D02*
X202170511Y-98679000D01*
X189929910Y-86360000D02*
X189674500Y-86360000D01*
X202170510Y-98600600D02*
X189929910Y-86360000D01*
X171513500Y-86360000D02*
X189674500Y-86360000D01*
%TO.N,/Back connectors/!BSW_interlock*%
X207086480Y-127773020D02*
X207454500Y-127405000D01*
X110807500Y-125406002D02*
X115449498Y-130048000D01*
X127190500Y-130048000D02*
X129465480Y-127773020D01*
X115449498Y-130048000D02*
X127190500Y-130048000D01*
X110807500Y-121666000D02*
X110807500Y-125406002D01*
X129465480Y-127773020D02*
X207086480Y-127773020D01*
%TO.N,/Back connectors/!T_hi_interlock*%
X154749500Y-93257001D02*
X157562489Y-96069990D01*
X188081490Y-96069990D02*
X196463489Y-104451989D01*
X154749500Y-90932000D02*
X154749500Y-93257001D01*
X150939500Y-87122000D02*
X154749500Y-90932000D01*
X196463489Y-104451989D02*
X196464900Y-104451989D01*
X157562489Y-96069990D02*
X188081490Y-96069990D01*
X196463489Y-104451989D02*
X197294500Y-105283000D01*
X197294500Y-106805590D02*
X204043910Y-113555000D01*
X204043910Y-113555000D02*
X207454500Y-113555000D01*
X197294500Y-105283000D02*
X197294500Y-106805590D01*
%TO.N,/Back connectors/!T_lo_interlock*%
X207454500Y-116205705D02*
X207454500Y-116325000D01*
X206177500Y-116325000D02*
X207454500Y-116325000D01*
X196844489Y-106991989D02*
X206177500Y-116325000D01*
X196844489Y-105548011D02*
X196844489Y-106991989D01*
X151447500Y-95123000D02*
X152844500Y-96520000D01*
X187816478Y-96520000D02*
X196844489Y-105548011D01*
X152844500Y-96520000D02*
X187816478Y-96520000D01*
%TO.N,/Back connectors/!DA_interlock*%
X202446500Y-126873000D02*
X207454500Y-121865000D01*
X129476500Y-126873000D02*
X202446500Y-126873000D01*
X127044501Y-124441001D02*
X129476500Y-126873000D01*
X127444500Y-111125002D02*
X127044501Y-111525001D01*
X127044501Y-111525001D02*
X127044501Y-124441001D01*
%TO.N,/Back connectors/!ALT_SW_interlock*%
X204766490Y-127323010D02*
X207454500Y-124635000D01*
X125539497Y-121107200D02*
X125539497Y-123572407D01*
X129290100Y-127323010D02*
X204766490Y-127323010D01*
X125539497Y-123572407D02*
X129290100Y-127323010D01*
%TO.N,!T_arm_low*%
X109410500Y-124231400D02*
X109537500Y-124358400D01*
X123671499Y-88805997D02*
X141357496Y-71120000D01*
X148214815Y-71120000D02*
X148780500Y-71120000D01*
X123671499Y-96356001D02*
X123671499Y-88805997D01*
X141357496Y-71120000D02*
X148214815Y-71120000D01*
X123671499Y-105669364D02*
X123671499Y-96356001D01*
X124169616Y-106167481D02*
X123671499Y-105669364D01*
X172402500Y-86868000D02*
X174942500Y-89408000D01*
X171259500Y-86868000D02*
X172402500Y-86868000D01*
X169481500Y-85090000D02*
X171259500Y-86868000D01*
X159575500Y-85090000D02*
X169481500Y-85090000D01*
X149669500Y-71120000D02*
X153860500Y-75311000D01*
X148780500Y-71120000D02*
X149669500Y-71120000D01*
X153860500Y-75311000D02*
X153860500Y-79432002D01*
X154585501Y-80100001D02*
X159575500Y-85090000D01*
X153860500Y-79432002D02*
X154528499Y-80100001D01*
X154528499Y-80100001D02*
X154585501Y-80100001D01*
X189801500Y-86868000D02*
X172402500Y-86868000D01*
X201720501Y-98787001D02*
X189801500Y-86868000D01*
X202750840Y-109859660D02*
X201720501Y-108829321D01*
X201720501Y-108829321D02*
X201720501Y-98787001D01*
X114363500Y-105664000D02*
X123671499Y-105664000D01*
X109537500Y-124358400D02*
X109537500Y-110490000D01*
X109537500Y-110490000D02*
X114363500Y-105664000D01*
%TO.N,!T_arm_high*%
X170135499Y-97898001D02*
X169354500Y-98679000D01*
X205930500Y-118061002D02*
X185767499Y-97898001D01*
X210294500Y-122118630D02*
X208698870Y-120523000D01*
X205930500Y-119634000D02*
X205930500Y-118061002D01*
X185767499Y-97898001D02*
X170135499Y-97898001D01*
X206819500Y-120523000D02*
X205930500Y-119634000D01*
X208698870Y-120523000D02*
X206819500Y-120523000D01*
X210294500Y-123250000D02*
X210294500Y-122118630D01*
%TO.N,/Comparator temperature alarm/T_ARM_alarm_hi*%
X182276479Y-135255000D02*
X176085500Y-129064021D01*
X176085500Y-129064021D02*
X176085500Y-128948043D01*
X184086500Y-135255000D02*
X182276479Y-135255000D01*
%TO.N,/Comparator temperature alarm/T_ARM_alarm_lo*%
X184086500Y-138075372D02*
X174959171Y-128948043D01*
X184086500Y-140081000D02*
X184086500Y-138075372D01*
%TO.N,!LE*%
X147454501Y-92654001D02*
X147764500Y-92964000D01*
X147454501Y-86873881D02*
X147454501Y-92654001D01*
X147854500Y-86473882D02*
X147454501Y-86873881D01*
X202247500Y-72009000D02*
X181292500Y-72009000D01*
X177181533Y-128223033D02*
X177609500Y-128651000D01*
X155836347Y-132617290D02*
X160230604Y-128223033D01*
X160230604Y-128223033D02*
X177181533Y-128223033D01*
X155836347Y-133674847D02*
X155836347Y-132617290D01*
X177609500Y-98933000D02*
X177138499Y-99404001D01*
X167920501Y-99404001D02*
X166211510Y-97695010D01*
X148748486Y-97695010D02*
X147764496Y-98679000D01*
X166211510Y-97695010D02*
X148748486Y-97695010D01*
X177138499Y-99404001D02*
X167920501Y-99404001D01*
X159194500Y-69850000D02*
X150939500Y-69850000D01*
X160148501Y-68895999D02*
X159194500Y-69850000D01*
X181292500Y-72009000D02*
X178498500Y-72009000D01*
X175385499Y-68895999D02*
X160148501Y-68895999D01*
X178498500Y-72009000D02*
X175385499Y-68895999D01*
%TO.N,!ARM*%
X123761500Y-127889000D02*
X123361501Y-127489001D01*
X123361501Y-109836001D02*
X122200501Y-108675001D01*
X122200501Y-108675001D02*
X122200501Y-108110341D01*
X112204500Y-124587000D02*
X123342502Y-124587000D01*
X123361501Y-127489001D02*
X123361501Y-124568001D01*
X123342502Y-124587000D02*
X123361501Y-124568001D01*
X123761500Y-127889000D02*
X125158500Y-129286000D01*
X125158500Y-129286000D02*
X125285500Y-129286000D01*
X123361501Y-124568001D02*
X123361501Y-109836001D01*
X124736497Y-109945001D02*
X123470501Y-109945001D01*
X123470501Y-109945001D02*
X123361501Y-109836001D01*
X125730499Y-108950999D02*
X124736497Y-109945001D01*
X149161500Y-73660000D02*
X148595815Y-73660000D01*
X145420815Y-76835000D02*
X137478912Y-76835000D01*
X148595815Y-73660000D02*
X145420815Y-76835000D01*
X137478912Y-76835000D02*
X125730499Y-88583413D01*
X125730499Y-88583413D02*
X125730499Y-108950999D01*
X150561502Y-76835000D02*
X145420815Y-76835000D01*
X154683490Y-80956988D02*
X150561502Y-76835000D01*
X154683490Y-86223990D02*
X154683490Y-80956988D01*
X192925520Y-95504000D02*
X193268510Y-95161010D01*
X188531500Y-95504000D02*
X192925520Y-95504000D01*
X210186500Y-117602000D02*
X210294500Y-117710000D01*
X197802500Y-106172000D02*
X201485500Y-109855000D01*
X197802500Y-102918998D02*
X197802500Y-106172000D01*
X188531500Y-95504000D02*
X190387502Y-95504000D01*
X190387502Y-95504000D02*
X197802500Y-102918998D01*
X208719489Y-113151989D02*
X208719489Y-116134989D01*
X207997499Y-112429999D02*
X208719489Y-113151989D01*
X201485500Y-109855000D02*
X204060499Y-112429999D01*
X208719489Y-116134989D02*
X210294500Y-117710000D01*
X204060499Y-112429999D02*
X207997499Y-112429999D01*
X161607500Y-95504000D02*
X188531500Y-95504000D01*
X154683490Y-86223990D02*
X154683490Y-88579990D01*
X154683490Y-88579990D02*
X161607500Y-95504000D01*
%TO.N,/Comparator dry air flow/sheet5EDB2AFE/Cntrl*%
X142049500Y-104394000D02*
X144589500Y-104394000D01*
X121565510Y-106389010D02*
X121454027Y-106389010D01*
X124396500Y-109220000D02*
X121565510Y-106389010D01*
%TO.N,/Comparator relative humidity/sheet5ED1C466/Cntrl*%
X141028501Y-72649001D02*
X124904500Y-88773002D01*
X141428500Y-72249000D02*
X141028501Y-72649001D01*
%TO.N,Net-(J1-Pad14)*%
X196208502Y-70231000D02*
X201542502Y-70231000D01*
X202972501Y-71660999D02*
X202972501Y-80989001D01*
X195643500Y-69723000D02*
X195643500Y-69665998D01*
X202755500Y-107823000D02*
X203898500Y-108966000D01*
X201542502Y-70231000D02*
X202972501Y-71660999D01*
X210375500Y-108966000D02*
X212153500Y-110744000D01*
X195643500Y-69665998D02*
X196208502Y-70231000D01*
X203898500Y-108966000D02*
X210375500Y-108966000D01*
X212153500Y-113081000D02*
X210294500Y-114940000D01*
X212153500Y-110744000D02*
X212153500Y-113081000D01*
X202972501Y-80989001D02*
X203834501Y-81851001D01*
X203834501Y-81851001D02*
X203834501Y-87439999D01*
X203834501Y-87439999D02*
X202755500Y-88519000D01*
X202755500Y-88519000D02*
X202755500Y-107823000D01*
%TO.N,/V sense interconnects/VSens_ARM_alarm*%
X142811500Y-146304000D02*
X149669500Y-139446000D01*
X149669500Y-139446000D02*
X154495500Y-139446000D01*
X154495500Y-139446000D02*
X154495500Y-139319000D01*
X154495500Y-139319000D02*
X154622500Y-139192000D01*
%TO.N,T_SELECT*%
X129857500Y-85491000D02*
X128597500Y-86751000D01*
X128597500Y-86751000D02*
X127190500Y-88158000D01*
X127190500Y-88158000D02*
X127190500Y-88265000D01*
X187319780Y-96970010D02*
X195193988Y-104844218D01*
X128597500Y-86808006D02*
X138759504Y-96970010D01*
X195193988Y-104844218D02*
X195193988Y-104970512D01*
X138759504Y-96970010D02*
X187319780Y-96970010D01*
X128597500Y-86751000D02*
X128597500Y-86808006D01*
X195193988Y-104970512D02*
X195193988Y-105977898D01*
X195193988Y-105977898D02*
X206818090Y-117602000D01*
X210294500Y-119348630D02*
X210294500Y-120480000D01*
X208547870Y-117602000D02*
X210294500Y-119348630D01*
X206818090Y-117602000D02*
X208547870Y-117602000D01*
%TO.N,Net-(C35-Pad2)*%
X205060499Y-91458999D02*
X204660500Y-91059000D01*
X214185500Y-89789000D02*
X212515501Y-91458999D01*
X212515501Y-91458999D02*
X205060499Y-91458999D01*
%TO.N,Net-(C35-Pad1)*%
X205930500Y-93980000D02*
X207581500Y-92329000D01*
X210883500Y-93139998D02*
X210883500Y-94107000D01*
X207581500Y-92329000D02*
X210072502Y-92329000D01*
X210072502Y-92329000D02*
X210883500Y-93139998D01*
%TO.N,Net-(R34-Pad2)*%
X209454501Y-101504999D02*
X206787501Y-101504999D01*
X213042500Y-97917000D02*
X209454501Y-101504999D01*
X206787501Y-101504999D02*
X204597000Y-103695500D01*
%TO.N,Net-(R37-Pad1)*%
X198445501Y-144407001D02*
X198564500Y-144526000D01*
X197675500Y-132969000D02*
X198445501Y-133739001D01*
X198445501Y-133739001D02*
X198445501Y-144407001D01*
%TO.N,Net-(U2-Pad7)*%
X150398150Y-92305348D02*
X147834498Y-94869000D01*
X151217152Y-92305348D02*
X150398150Y-92305348D01*
X147834498Y-94869000D02*
X144081500Y-94869000D01*
%TO.N,Net-(U16-Pad4)*%
X168592500Y-87757000D02*
X168529501Y-87694001D01*
X168592500Y-90043000D02*
X168592500Y-87757000D01*
%TO.N,Net-(J7-Pad4)*%
X167132000Y-75628500D02*
X162877500Y-71374000D01*
X172466000Y-79756000D02*
X168338500Y-75628500D01*
X168338500Y-75628500D02*
X167132000Y-75628500D01*
%TO.N,/Comparator temperature high/sheet5FDA4C55/Cntrl*%
X145029347Y-83761153D02*
X150363347Y-83761153D01*
X144208500Y-84582000D02*
X145029347Y-83761153D01*
X142594500Y-106934000D02*
X131418500Y-118110000D01*
X131418500Y-118110000D02*
X128587500Y-118110000D01*
%TD*%
M02*
