(kicad_symbol_lib (version 20211014) (generator kicad_symbol_editor)
  (symbol "MCP3221" (pin_names (offset 1.016)) (in_bom yes) (on_board yes)
    (property "Reference" "U" (id 0) (at 11.43 12.7 0)
      (effects (font (size 1.27 1.27)))
    )
    (property "Value" "MCP3221" (id 1) (at -13.97 19.05 0)
      (effects (font (size 1.27 1.27)))
    )
    (property "Footprint" "Package_TO_SOT_SMD:SOT-23-5" (id 2) (at -8.89 15.24 0)
      (effects (font (size 1.27 1.27)) hide)
    )
    (property "Datasheet" "https://ww1.microchip.com/downloads/en/DeviceDoc/20001732E.pdf" (id 3) (at -8.89 15.24 0)
      (effects (font (size 1.27 1.27)) hide)
    )
    (symbol "MCP3221_1_1"
      (polyline
        (pts
          (xy -5.08 6.35)
          (xy 8.89 6.35)
          (xy 8.89 0)
          (xy 8.89 -6.35)
          (xy -5.08 -6.35)
          (xy -11.43 0)
          (xy -5.08 6.35)
        )
        (stroke (width 0.254) (type default) (color 0 0 0 0))
        (fill (type background))
      )
      (pin power_in line (at 0 10.16 270) (length 3.81)
        (name "Vdd" (effects (font (size 1.27 1.27))))
        (number "1" (effects (font (size 1.27 1.27))))
      )
      (pin power_in line (at 0 -10.16 90) (length 3.81)
        (name "Vss" (effects (font (size 1.27 1.27))))
        (number "2" (effects (font (size 1.27 1.27))))
      )
      (pin passive line (at -15.24 0 0) (length 3.81)
        (name "A_IN" (effects (font (size 1.27 1.27))))
        (number "3" (effects (font (size 1.27 1.27))))
      )
      (pin bidirectional line (at 12.7 -2.54 180) (length 3.81)
        (name "SDA" (effects (font (size 1.27 1.27))))
        (number "4" (effects (font (size 1.27 1.27))))
      )
      (pin input line (at 12.7 2.54 180) (length 3.81)
        (name "SCL" (effects (font (size 1.27 1.27))))
        (number "5" (effects (font (size 1.27 1.27))))
      )
    )
  )
)
