(kicad_symbol_lib (version 20211014) (generator kicad_symbol_editor)
  (symbol "ADuM5010ARSZ" (pin_names (offset 1.016)) (in_bom yes) (on_board yes)
    (property "Reference" "U" (id 0) (at 17.78 15.24 0)
      (effects (font (size 1.27 1.27)))
    )
    (property "Value" "ADuM5010ARSZ" (id 1) (at 2.54 15.24 0)
      (effects (font (size 1.27 1.27)))
    )
    (property "Footprint" "Package_SO:SSOP-20_5.3x7.2mm_P0.65mm" (id 2) (at 15.24 -3.81 0)
      (effects (font (size 1.27 1.27)) hide)
    )
    (property "Datasheet" "" (id 3) (at 15.24 -3.81 0)
      (effects (font (size 1.27 1.27)) hide)
    )
    (symbol "ADuM5010ARSZ_0_1"
      (polyline
        (pts
          (xy 8.89 0.635)
          (xy 8.89 1.905)
        )
        (stroke (width 0) (type default) (color 0 0 0 0))
        (fill (type none))
      )
      (rectangle (start 0 0) (end 17.78 12.7)
        (stroke (width 0) (type default) (color 0 0 0 0))
        (fill (type background))
      )
    )
    (symbol "ADuM5010ARSZ_1_1"
      (polyline
        (pts
          (xy 8.89 3.175)
          (xy 8.89 4.445)
        )
        (stroke (width 0) (type default) (color 0 0 0 0))
        (fill (type none))
      )
      (polyline
        (pts
          (xy 8.89 5.715)
          (xy 8.89 6.985)
        )
        (stroke (width 0) (type default) (color 0 0 0 0))
        (fill (type none))
      )
      (polyline
        (pts
          (xy 8.89 8.255)
          (xy 8.89 9.525)
        )
        (stroke (width 0) (type default) (color 0 0 0 0))
        (fill (type none))
      )
      (polyline
        (pts
          (xy 8.89 10.795)
          (xy 8.89 12.065)
        )
        (stroke (width 0) (type default) (color 0 0 0 0))
        (fill (type none))
      )
      (pin no_connect line (at -2.54 5.08 0) (length 2.54)
        (name "NC" (effects (font (size 1.27 1.27))))
        (number "1" (effects (font (size 1.27 1.27))))
      )
      (pin input line (at -2.54 2.54 0) (length 2.54) hide
        (name "GNDP" (effects (font (size 1.27 1.27))))
        (number "10" (effects (font (size 1.27 1.27))))
      )
      (pin input line (at 20.32 2.54 180) (length 2.54) hide
        (name "GNDISO" (effects (font (size 1.27 1.27))))
        (number "11" (effects (font (size 1.27 1.27))))
      )
      (pin power_in line (at 20.32 10.16 180) (length 2.54)
        (name "VISO" (effects (font (size 1.27 1.27))))
        (number "12" (effects (font (size 1.27 1.27))))
      )
      (pin power_in line (at 20.32 7.62 180) (length 2.54)
        (name "VSEL" (effects (font (size 1.27 1.27))))
        (number "13" (effects (font (size 1.27 1.27))))
      )
      (pin no_connect line (at 20.32 5.08 180) (length 2.54)
        (name "NC" (effects (font (size 1.27 1.27))))
        (number "14" (effects (font (size 1.27 1.27))))
      )
      (pin input line (at 20.32 2.54 180) (length 2.54) hide
        (name "GNDISO" (effects (font (size 1.27 1.27))))
        (number "15" (effects (font (size 1.27 1.27))))
      )
      (pin input line (at 20.32 2.54 180) (length 2.54) hide
        (name "GNDISO" (effects (font (size 1.27 1.27))))
        (number "16" (effects (font (size 1.27 1.27))))
      )
      (pin no_connect line (at 20.32 5.08 180) (length 2.54) hide
        (name "NC" (effects (font (size 1.27 1.27))))
        (number "17" (effects (font (size 1.27 1.27))))
      )
      (pin no_connect line (at 20.32 5.08 180) (length 2.54) hide
        (name "NC" (effects (font (size 1.27 1.27))))
        (number "18" (effects (font (size 1.27 1.27))))
      )
      (pin power_in line (at 20.32 2.54 180) (length 2.54)
        (name "GNDISO" (effects (font (size 1.27 1.27))))
        (number "19" (effects (font (size 1.27 1.27))))
      )
      (pin power_in line (at -2.54 2.54 0) (length 2.54)
        (name "GNDP" (effects (font (size 1.27 1.27))))
        (number "2" (effects (font (size 1.27 1.27))))
      )
      (pin no_connect line (at 20.32 5.08 180) (length 2.54) hide
        (name "NC" (effects (font (size 1.27 1.27))))
        (number "20" (effects (font (size 1.27 1.27))))
      )
      (pin no_connect line (at -2.54 5.08 0) (length 2.54) hide
        (name "NC" (effects (font (size 1.27 1.27))))
        (number "3" (effects (font (size 1.27 1.27))))
      )
      (pin no_connect line (at -2.54 5.08 0) (length 2.54) hide
        (name "NC" (effects (font (size 1.27 1.27))))
        (number "4" (effects (font (size 1.27 1.27))))
      )
      (pin input line (at -2.54 2.54 0) (length 2.54) hide
        (name "GNDP" (effects (font (size 1.27 1.27))))
        (number "5" (effects (font (size 1.27 1.27))))
      )
      (pin input line (at -2.54 2.54 0) (length 2.54) hide
        (name "GNDP" (effects (font (size 1.27 1.27))))
        (number "6" (effects (font (size 1.27 1.27))))
      )
      (pin no_connect line (at -2.54 5.08 0) (length 2.54) hide
        (name "NC" (effects (font (size 1.27 1.27))))
        (number "7" (effects (font (size 1.27 1.27))))
      )
      (pin input line (at -2.54 7.62 0) (length 2.54)
        (name "PDIS" (effects (font (size 1.27 1.27))))
        (number "8" (effects (font (size 1.27 1.27))))
      )
      (pin power_in line (at -2.54 10.16 0) (length 2.54)
        (name "VDDP" (effects (font (size 1.27 1.27))))
        (number "9" (effects (font (size 1.27 1.27))))
      )
    )
  )
  (symbol "MAX20008" (pin_names (offset 1.016)) (in_bom yes) (on_board yes)
    (property "Reference" "U" (id 0) (at 12.7 39.37 0)
      (effects (font (size 1.27 1.27)))
    )
    (property "Value" "MAX20008" (id 1) (at 3.81 39.37 0)
      (effects (font (size 1.27 1.27)))
    )
    (property "Footprint" "magne_footprints:MAX20008AFOC&slash_VY&plus_" (id 2) (at 12.7 16.51 0)
      (effects (font (size 1.27 1.27)) hide)
    )
    (property "Datasheet" "https://media.digikey.com/pdf/Data%20Sheets/Maxim%20PDFs/MAX20004_06_08_3-24-19.pdf" (id 3) (at 12.7 16.51 0)
      (effects (font (size 1.27 1.27)) hide)
    )
    (symbol "MAX20008_0_1"
      (rectangle (start 0 30.48) (end 16.51 0)
        (stroke (width 0) (type default) (color 0 0 0 0))
        (fill (type none))
      )
    )
    (symbol "MAX20008_1_1"
      (pin power_in line (at -5.08 19.05 0) (length 5.08)
        (name "OUT" (effects (font (size 1.27 1.27))))
        (number "1" (effects (font (size 1.27 1.27))))
      )
      (pin input line (at -5.08 26.67 0) (length 5.08)
        (name "SUP" (effects (font (size 1.27 1.27))))
        (number "10" (effects (font (size 1.27 1.27))))
      )
      (pin input line (at -5.08 24.13 0) (length 5.08)
        (name "EN" (effects (font (size 1.27 1.27))))
        (number "11" (effects (font (size 1.27 1.27))))
      )
      (pin input line (at 21.59 25.4 180) (length 5.08)
        (name "SYNC" (effects (font (size 1.27 1.27))))
        (number "12" (effects (font (size 1.27 1.27))))
      )
      (pin input line (at 21.59 7.62 180) (length 5.08)
        (name "BIAS" (effects (font (size 1.27 1.27))))
        (number "13" (effects (font (size 1.27 1.27))))
      )
      (pin power_in line (at 21.59 1.27 180) (length 5.08)
        (name "GND" (effects (font (size 1.27 1.27))))
        (number "14" (effects (font (size 1.27 1.27))))
      )
      (pin input line (at 21.59 13.97 180) (length 5.08)
        (name "COMP" (effects (font (size 1.27 1.27))))
        (number "15" (effects (font (size 1.27 1.27))))
      )
      (pin input line (at -5.08 1.27 0) (length 5.08)
        (name "FB" (effects (font (size 1.27 1.27))))
        (number "16" (effects (font (size 1.27 1.27))))
      )
      (pin input line (at 21.59 19.05 180) (length 5.08)
        (name "FOSC" (effects (font (size 1.27 1.27))))
        (number "17" (effects (font (size 1.27 1.27))))
      )
      (pin input line (at 21.59 29.21 180) (length 5.08)
        (name "~{RESET}" (effects (font (size 1.27 1.27))))
        (number "2" (effects (font (size 1.27 1.27))))
      )
      (pin input line (at -5.08 16.51 0) (length 5.08)
        (name "BST" (effects (font (size 1.27 1.27))))
        (number "3" (effects (font (size 1.27 1.27))))
      )
      (pin power_in line (at -5.08 6.35 0) (length 5.08)
        (name "PGND" (effects (font (size 1.27 1.27))))
        (number "4" (effects (font (size 1.27 1.27))))
      )
      (pin power_in line (at -5.08 6.35 0) (length 5.08) hide
        (name "PGND" (effects (font (size 1.27 1.27))))
        (number "5" (effects (font (size 1.27 1.27))))
      )
      (pin input line (at -5.08 13.97 0) (length 5.08)
        (name "LX" (effects (font (size 1.27 1.27))))
        (number "6" (effects (font (size 1.27 1.27))))
      )
      (pin power_in line (at -5.08 6.35 0) (length 5.08) hide
        (name "PGND" (effects (font (size 1.27 1.27))))
        (number "7" (effects (font (size 1.27 1.27))))
      )
      (pin power_in line (at -5.08 6.35 0) (length 5.08) hide
        (name "PGND" (effects (font (size 1.27 1.27))))
        (number "8" (effects (font (size 1.27 1.27))))
      )
      (pin input line (at -5.08 29.21 0) (length 5.08)
        (name "SUPSW" (effects (font (size 1.27 1.27))))
        (number "9" (effects (font (size 1.27 1.27))))
      )
    )
  )
)
