(kicad_symbol_lib (version 20211014) (generator kicad_symbol_editor)
  (symbol "SI8602" (pin_names (offset 1.016)) (in_bom yes) (on_board yes)
    (property "Reference" "U" (id 0) (at 5.08 13.97 0)
      (effects (font (size 1.27 1.27)))
    )
    (property "Value" "SI8602" (id 1) (at -7.62 13.97 0)
      (effects (font (size 1.27 1.27)))
    )
    (property "Footprint" "" (id 2) (at 0 8.255 0)
      (effects (font (size 1.27 1.27)) hide)
    )
    (property "Datasheet" "" (id 3) (at 0 8.255 0)
      (effects (font (size 1.27 1.27)) hide)
    )
    (symbol "SI8602_0_1"
      (polyline
        (pts
          (xy 0 2.54)
          (xy 1.27 1.905)
          (xy 0 1.27)
          (xy -1.27 1.905)
          (xy 0 2.54)
          (xy 0 1.27)
        )
        (stroke (width 0) (type default) (color 0 0 0 0))
        (fill (type none))
      )
    )
    (symbol "SI8602_1_1"
      (rectangle (start -10.16 7.62) (end 10.16 -7.62)
        (stroke (width 0.254) (type default) (color 0 0 0 0))
        (fill (type background))
      )
      (polyline
        (pts
          (xy -1.905 -4.445)
          (xy -1.905 -6.985)
        )
        (stroke (width 0.254) (type default) (color 0 0 0 0))
        (fill (type none))
      )
      (polyline
        (pts
          (xy -1.905 -0.635)
          (xy -1.905 -3.175)
        )
        (stroke (width 0.254) (type default) (color 0 0 0 0))
        (fill (type none))
      )
      (polyline
        (pts
          (xy -1.905 3.175)
          (xy -1.905 0.635)
        )
        (stroke (width 0.254) (type default) (color 0 0 0 0))
        (fill (type none))
      )
      (polyline
        (pts
          (xy -1.905 6.985)
          (xy -1.905 4.445)
        )
        (stroke (width 0.254) (type default) (color 0 0 0 0))
        (fill (type none))
      )
      (polyline
        (pts
          (xy 1.905 -4.445)
          (xy 1.905 -6.985)
        )
        (stroke (width 0.254) (type default) (color 0 0 0 0))
        (fill (type none))
      )
      (polyline
        (pts
          (xy 1.905 -0.635)
          (xy 1.905 -3.175)
        )
        (stroke (width 0.254) (type default) (color 0 0 0 0))
        (fill (type none))
      )
      (polyline
        (pts
          (xy 1.905 3.175)
          (xy 1.905 0.635)
        )
        (stroke (width 0.254) (type default) (color 0 0 0 0))
        (fill (type none))
      )
      (polyline
        (pts
          (xy 1.905 6.985)
          (xy 1.905 4.445)
        )
        (stroke (width 0.254) (type default) (color 0 0 0 0))
        (fill (type none))
      )
      (polyline
        (pts
          (xy -0.635 -1.27)
          (xy -0.635 -2.54)
          (xy 0.635 -1.905)
          (xy -0.635 -1.27)
        )
        (stroke (width 0.254) (type default) (color 0 0 0 0))
        (fill (type none))
      )
      (pin power_in line (at -12.7 5.08 0) (length 2.54)
        (name "AVDD" (effects (font (size 1.27 1.27))))
        (number "1" (effects (font (size 1.27 1.27))))
      )
      (pin bidirectional line (at -12.7 2.54 0) (length 2.54)
        (name "ASDA" (effects (font (size 1.27 1.27))))
        (number "2" (effects (font (size 1.27 1.27))))
      )
      (pin input line (at -12.7 -2.54 0) (length 2.54)
        (name "ASCL" (effects (font (size 1.27 1.27))))
        (number "3" (effects (font (size 1.27 1.27))))
      )
      (pin power_in line (at -12.7 -5.08 0) (length 2.54)
        (name "AGND" (effects (font (size 1.27 1.27))))
        (number "4" (effects (font (size 1.27 1.27))))
      )
      (pin power_in line (at 12.7 -5.08 180) (length 2.54)
        (name "BGND" (effects (font (size 1.27 1.27))))
        (number "5" (effects (font (size 1.27 1.27))))
      )
      (pin output line (at 12.7 -2.54 180) (length 2.54)
        (name "BSCL" (effects (font (size 1.27 1.27))))
        (number "6" (effects (font (size 1.27 1.27))))
      )
      (pin bidirectional line (at 12.7 2.54 180) (length 2.54)
        (name "BSDA" (effects (font (size 1.27 1.27))))
        (number "7" (effects (font (size 1.27 1.27))))
      )
      (pin power_in line (at 12.7 5.08 180) (length 2.54)
        (name "BVDD" (effects (font (size 1.27 1.27))))
        (number "8" (effects (font (size 1.27 1.27))))
      )
    )
  )
  (symbol "SI8620BB-B-IS" (pin_names (offset 1.016)) (in_bom yes) (on_board yes)
    (property "Reference" "U" (id 0) (at 7.62 12.7 0)
      (effects (font (size 1.27 1.27)))
    )
    (property "Value" "SI8620BB-B-IS" (id 1) (at -7.62 10.16 0)
      (effects (font (size 1.27 1.27)))
    )
    (property "Footprint" "" (id 2) (at 0 0 0)
      (effects (font (size 1.27 1.27)) hide)
    )
    (property "Datasheet" "" (id 3) (at 0 0 0)
      (effects (font (size 1.27 1.27)) hide)
    )
    (symbol "SI8620BB-B-IS_1_1"
      (rectangle (start -10.16 7.62) (end 10.16 -7.62)
        (stroke (width 0.254) (type default) (color 0 0 0 0))
        (fill (type background))
      )
      (polyline
        (pts
          (xy -1.27 -4.445)
          (xy -1.27 -6.985)
        )
        (stroke (width 0.254) (type default) (color 0 0 0 0))
        (fill (type none))
      )
      (polyline
        (pts
          (xy -1.27 -0.635)
          (xy -1.27 -3.175)
        )
        (stroke (width 0.254) (type default) (color 0 0 0 0))
        (fill (type none))
      )
      (polyline
        (pts
          (xy -1.27 3.175)
          (xy -1.27 0.635)
        )
        (stroke (width 0.254) (type default) (color 0 0 0 0))
        (fill (type none))
      )
      (polyline
        (pts
          (xy -1.27 6.985)
          (xy -1.27 4.445)
        )
        (stroke (width 0.254) (type default) (color 0 0 0 0))
        (fill (type none))
      )
      (polyline
        (pts
          (xy 1.27 -4.445)
          (xy 1.27 -6.985)
        )
        (stroke (width 0.254) (type default) (color 0 0 0 0))
        (fill (type none))
      )
      (polyline
        (pts
          (xy 1.27 -0.635)
          (xy 1.27 -3.175)
        )
        (stroke (width 0.254) (type default) (color 0 0 0 0))
        (fill (type none))
      )
      (polyline
        (pts
          (xy 1.27 3.175)
          (xy 1.27 0.635)
        )
        (stroke (width 0.254) (type default) (color 0 0 0 0))
        (fill (type none))
      )
      (polyline
        (pts
          (xy 1.27 6.985)
          (xy 1.27 4.445)
        )
        (stroke (width 0.254) (type default) (color 0 0 0 0))
        (fill (type none))
      )
      (polyline
        (pts
          (xy -0.635 -1.27)
          (xy -0.635 -2.54)
          (xy 0.635 -1.905)
          (xy -0.635 -1.27)
        )
        (stroke (width 0.254) (type default) (color 0 0 0 0))
        (fill (type none))
      )
      (polyline
        (pts
          (xy -0.635 1.27)
          (xy 0.635 1.905)
          (xy -0.635 2.54)
          (xy -0.635 1.27)
        )
        (stroke (width 0.254) (type default) (color 0 0 0 0))
        (fill (type none))
      )
      (pin power_in line (at -12.7 5.08 0) (length 2.54)
        (name "VDD1" (effects (font (size 1.27 1.27))))
        (number "1" (effects (font (size 1.27 1.27))))
      )
      (pin input line (at -12.7 2.54 0) (length 2.54)
        (name "A1" (effects (font (size 1.27 1.27))))
        (number "2" (effects (font (size 1.27 1.27))))
      )
      (pin input line (at -12.7 -2.54 0) (length 2.54)
        (name "A2" (effects (font (size 1.27 1.27))))
        (number "3" (effects (font (size 1.27 1.27))))
      )
      (pin power_in line (at -12.7 -5.08 0) (length 2.54)
        (name "GND1" (effects (font (size 1.27 1.27))))
        (number "4" (effects (font (size 1.27 1.27))))
      )
      (pin power_in line (at 12.7 -5.08 180) (length 2.54)
        (name "GND2" (effects (font (size 1.27 1.27))))
        (number "5" (effects (font (size 1.27 1.27))))
      )
      (pin output line (at 12.7 -2.54 180) (length 2.54)
        (name "B2" (effects (font (size 1.27 1.27))))
        (number "6" (effects (font (size 1.27 1.27))))
      )
      (pin output line (at 12.7 2.54 180) (length 2.54)
        (name "B1" (effects (font (size 1.27 1.27))))
        (number "7" (effects (font (size 1.27 1.27))))
      )
      (pin power_in line (at 12.7 5.08 180) (length 2.54)
        (name "VDD2" (effects (font (size 1.27 1.27))))
        (number "8" (effects (font (size 1.27 1.27))))
      )
    )
  )
  (symbol "SI8652AB-B" (pin_names (offset 1.016)) (in_bom yes) (on_board yes)
    (property "Reference" "U" (id 0) (at 19.05 30.48 0)
      (effects (font (size 1.27 1.27)))
    )
    (property "Value" "SI8652AB-B" (id 1) (at -2.54 33.02 0)
      (effects (font (size 1.27 1.27)))
    )
    (property "Footprint" "Package_SO:SOIC-16_3.9x9.9mm_P1.27mm" (id 2) (at 0 1.27 0)
      (effects (font (size 1.27 1.27)) hide)
    )
    (property "Datasheet" "" (id 3) (at 0 1.27 0)
      (effects (font (size 1.27 1.27)) hide)
    )
    (symbol "SI8652AB-B_1_1"
      (polyline
        (pts
          (xy 6.35 2.54)
          (xy 6.35 1.27)
        )
        (stroke (width 0) (type default) (color 0 0 0 0))
        (fill (type none))
      )
      (polyline
        (pts
          (xy 6.35 5.08)
          (xy 6.35 3.81)
        )
        (stroke (width 0) (type default) (color 0 0 0 0))
        (fill (type none))
      )
      (polyline
        (pts
          (xy 6.35 7.62)
          (xy 6.35 6.35)
        )
        (stroke (width 0) (type default) (color 0 0 0 0))
        (fill (type none))
      )
      (polyline
        (pts
          (xy 6.35 10.16)
          (xy 6.35 8.89)
        )
        (stroke (width 0) (type default) (color 0 0 0 0))
        (fill (type none))
      )
      (polyline
        (pts
          (xy 6.35 12.7)
          (xy 6.35 11.43)
        )
        (stroke (width 0) (type default) (color 0 0 0 0))
        (fill (type none))
      )
      (polyline
        (pts
          (xy 6.35 15.24)
          (xy 6.35 13.97)
        )
        (stroke (width 0) (type default) (color 0 0 0 0))
        (fill (type none))
      )
      (polyline
        (pts
          (xy 6.35 17.78)
          (xy 6.35 16.51)
        )
        (stroke (width 0) (type default) (color 0 0 0 0))
        (fill (type none))
      )
      (polyline
        (pts
          (xy 6.35 20.32)
          (xy 6.35 19.05)
        )
        (stroke (width 0) (type default) (color 0 0 0 0))
        (fill (type none))
      )
      (polyline
        (pts
          (xy 6.35 22.86)
          (xy 6.35 21.59)
        )
        (stroke (width 0) (type default) (color 0 0 0 0))
        (fill (type none))
      )
      (polyline
        (pts
          (xy 6.35 25.4)
          (xy 6.35 24.13)
        )
        (stroke (width 0) (type default) (color 0 0 0 0))
        (fill (type none))
      )
      (polyline
        (pts
          (xy 6.35 27.94)
          (xy 6.35 26.67)
        )
        (stroke (width 0) (type default) (color 0 0 0 0))
        (fill (type none))
      )
      (polyline
        (pts
          (xy 8.89 2.54)
          (xy 8.89 1.27)
        )
        (stroke (width 0) (type default) (color 0 0 0 0))
        (fill (type none))
      )
      (polyline
        (pts
          (xy 8.89 5.08)
          (xy 8.89 3.81)
        )
        (stroke (width 0) (type default) (color 0 0 0 0))
        (fill (type none))
      )
      (polyline
        (pts
          (xy 8.89 7.62)
          (xy 8.89 6.35)
        )
        (stroke (width 0) (type default) (color 0 0 0 0))
        (fill (type none))
      )
      (polyline
        (pts
          (xy 8.89 10.16)
          (xy 8.89 8.89)
        )
        (stroke (width 0) (type default) (color 0 0 0 0))
        (fill (type none))
      )
      (polyline
        (pts
          (xy 8.89 12.7)
          (xy 8.89 11.43)
        )
        (stroke (width 0) (type default) (color 0 0 0 0))
        (fill (type none))
      )
      (polyline
        (pts
          (xy 8.89 15.24)
          (xy 8.89 13.97)
        )
        (stroke (width 0) (type default) (color 0 0 0 0))
        (fill (type none))
      )
      (polyline
        (pts
          (xy 8.89 17.78)
          (xy 8.89 16.51)
        )
        (stroke (width 0) (type default) (color 0 0 0 0))
        (fill (type none))
      )
      (polyline
        (pts
          (xy 8.89 20.32)
          (xy 8.89 19.05)
        )
        (stroke (width 0) (type default) (color 0 0 0 0))
        (fill (type none))
      )
      (polyline
        (pts
          (xy 8.89 22.86)
          (xy 8.89 21.59)
        )
        (stroke (width 0) (type default) (color 0 0 0 0))
        (fill (type none))
      )
      (polyline
        (pts
          (xy 8.89 25.4)
          (xy 8.89 24.13)
        )
        (stroke (width 0) (type default) (color 0 0 0 0))
        (fill (type none))
      )
      (polyline
        (pts
          (xy 8.89 27.94)
          (xy 8.89 26.67)
        )
        (stroke (width 0) (type default) (color 0 0 0 0))
        (fill (type none))
      )
      (polyline
        (pts
          (xy 6.985 8.89)
          (xy 8.255 9.525)
          (xy 8.255 8.255)
          (xy 6.985 8.89)
        )
        (stroke (width 0) (type default) (color 0 0 0 0))
        (fill (type none))
      )
      (polyline
        (pts
          (xy 6.985 11.43)
          (xy 8.255 12.065)
          (xy 8.255 10.795)
          (xy 6.985 11.43)
        )
        (stroke (width 0) (type default) (color 0 0 0 0))
        (fill (type none))
      )
      (polyline
        (pts
          (xy 6.985 14.605)
          (xy 6.985 13.335)
          (xy 8.255 13.97)
          (xy 6.985 14.605)
        )
        (stroke (width 0) (type default) (color 0 0 0 0))
        (fill (type none))
      )
      (polyline
        (pts
          (xy 6.985 17.145)
          (xy 6.985 15.875)
          (xy 8.255 16.51)
          (xy 6.985 17.145)
        )
        (stroke (width 0) (type default) (color 0 0 0 0))
        (fill (type none))
      )
      (polyline
        (pts
          (xy 6.985 19.685)
          (xy 6.985 18.415)
          (xy 8.255 19.05)
          (xy 6.985 19.685)
        )
        (stroke (width 0) (type default) (color 0 0 0 0))
        (fill (type none))
      )
      (rectangle (start 0 29.21) (end 15.24 0)
        (stroke (width 0.254) (type default) (color 0 0 0 0))
        (fill (type background))
      )
      (pin power_in line (at -2.54 26.67 0) (length 2.54)
        (name "VDD1" (effects (font (size 1.27 1.27))))
        (number "1" (effects (font (size 1.27 1.27))))
      )
      (pin input line (at 17.78 24.13 180) (length 2.54)
        (name "EN2" (effects (font (size 1.27 1.27))))
        (number "10" (effects (font (size 1.27 1.27))))
      )
      (pin input line (at 17.78 8.89 180) (length 2.54)
        (name "B5" (effects (font (size 1.27 1.27))))
        (number "11" (effects (font (size 1.27 1.27))))
      )
      (pin input line (at 17.78 11.43 180) (length 2.54)
        (name "B4" (effects (font (size 1.27 1.27))))
        (number "12" (effects (font (size 1.27 1.27))))
      )
      (pin output line (at 17.78 13.97 180) (length 2.54)
        (name "B3" (effects (font (size 1.27 1.27))))
        (number "13" (effects (font (size 1.27 1.27))))
      )
      (pin output line (at 17.78 16.51 180) (length 2.54)
        (name "B2" (effects (font (size 1.27 1.27))))
        (number "14" (effects (font (size 1.27 1.27))))
      )
      (pin output line (at 17.78 19.05 180) (length 2.54)
        (name "B1" (effects (font (size 1.27 1.27))))
        (number "15" (effects (font (size 1.27 1.27))))
      )
      (pin power_in line (at 17.78 26.67 180) (length 2.54)
        (name "VDD2" (effects (font (size 1.27 1.27))))
        (number "16" (effects (font (size 1.27 1.27))))
      )
      (pin input line (at -2.54 19.05 0) (length 2.54)
        (name "A1" (effects (font (size 1.27 1.27))))
        (number "3" (effects (font (size 1.27 1.27))))
      )
      (pin input line (at -2.54 16.51 0) (length 2.54)
        (name "A2" (effects (font (size 1.27 1.27))))
        (number "4" (effects (font (size 1.27 1.27))))
      )
      (pin input line (at -2.54 13.97 0) (length 2.54)
        (name "A3" (effects (font (size 1.27 1.27))))
        (number "5" (effects (font (size 1.27 1.27))))
      )
      (pin output line (at -2.54 11.43 0) (length 2.54)
        (name "A4" (effects (font (size 1.27 1.27))))
        (number "6" (effects (font (size 1.27 1.27))))
      )
      (pin output line (at -2.54 8.89 0) (length 2.54)
        (name "A5" (effects (font (size 1.27 1.27))))
        (number "7" (effects (font (size 1.27 1.27))))
      )
      (pin input line (at -2.54 24.13 0) (length 2.54)
        (name "EN1" (effects (font (size 1.27 1.27))))
        (number "7" (effects (font (size 1.27 1.27))))
      )
      (pin power_in line (at -2.54 3.81 0) (length 2.54)
        (name "GND1" (effects (font (size 1.27 1.27))))
        (number "8" (effects (font (size 1.27 1.27))))
      )
      (pin power_in line (at 17.78 3.81 180) (length 2.54)
        (name "GND2" (effects (font (size 1.27 1.27))))
        (number "9" (effects (font (size 1.27 1.27))))
      )
    )
  )
  (symbol "SI8662EC-B" (pin_names (offset 1.016)) (in_bom yes) (on_board yes)
    (property "Reference" "U" (id 0) (at 22.86 33.02 0)
      (effects (font (size 1.27 1.27)))
    )
    (property "Value" "SI8662EC-B" (id 1) (at -6.35 34.29 0)
      (effects (font (size 1.27 1.27)))
    )
    (property "Footprint" "" (id 2) (at 0 0 0)
      (effects (font (size 1.27 1.27)) hide)
    )
    (property "Datasheet" "" (id 3) (at 0 0 0)
      (effects (font (size 1.27 1.27)) hide)
    )
    (symbol "SI8662EC-B_1_1"
      (polyline
        (pts
          (xy 6.35 2.54)
          (xy 6.35 1.27)
        )
        (stroke (width 0) (type default) (color 0 0 0 0))
        (fill (type none))
      )
      (polyline
        (pts
          (xy 6.35 5.08)
          (xy 6.35 3.81)
        )
        (stroke (width 0) (type default) (color 0 0 0 0))
        (fill (type none))
      )
      (polyline
        (pts
          (xy 6.35 7.62)
          (xy 6.35 6.35)
        )
        (stroke (width 0) (type default) (color 0 0 0 0))
        (fill (type none))
      )
      (polyline
        (pts
          (xy 6.35 10.16)
          (xy 6.35 8.89)
        )
        (stroke (width 0) (type default) (color 0 0 0 0))
        (fill (type none))
      )
      (polyline
        (pts
          (xy 6.35 12.7)
          (xy 6.35 11.43)
        )
        (stroke (width 0) (type default) (color 0 0 0 0))
        (fill (type none))
      )
      (polyline
        (pts
          (xy 6.35 15.24)
          (xy 6.35 13.97)
        )
        (stroke (width 0) (type default) (color 0 0 0 0))
        (fill (type none))
      )
      (polyline
        (pts
          (xy 6.35 17.78)
          (xy 6.35 16.51)
        )
        (stroke (width 0) (type default) (color 0 0 0 0))
        (fill (type none))
      )
      (polyline
        (pts
          (xy 6.35 20.32)
          (xy 6.35 19.05)
        )
        (stroke (width 0) (type default) (color 0 0 0 0))
        (fill (type none))
      )
      (polyline
        (pts
          (xy 6.35 22.86)
          (xy 6.35 21.59)
        )
        (stroke (width 0) (type default) (color 0 0 0 0))
        (fill (type none))
      )
      (polyline
        (pts
          (xy 6.35 25.4)
          (xy 6.35 24.13)
        )
        (stroke (width 0) (type default) (color 0 0 0 0))
        (fill (type none))
      )
      (polyline
        (pts
          (xy 6.35 25.4)
          (xy 6.35 24.13)
        )
        (stroke (width 0) (type default) (color 0 0 0 0))
        (fill (type none))
      )
      (polyline
        (pts
          (xy 6.35 27.94)
          (xy 6.35 26.67)
        )
        (stroke (width 0) (type default) (color 0 0 0 0))
        (fill (type none))
      )
      (polyline
        (pts
          (xy 8.89 2.54)
          (xy 8.89 1.27)
        )
        (stroke (width 0) (type default) (color 0 0 0 0))
        (fill (type none))
      )
      (polyline
        (pts
          (xy 8.89 5.08)
          (xy 8.89 3.81)
        )
        (stroke (width 0) (type default) (color 0 0 0 0))
        (fill (type none))
      )
      (polyline
        (pts
          (xy 8.89 7.62)
          (xy 8.89 6.35)
        )
        (stroke (width 0) (type default) (color 0 0 0 0))
        (fill (type none))
      )
      (polyline
        (pts
          (xy 8.89 10.16)
          (xy 8.89 8.89)
        )
        (stroke (width 0) (type default) (color 0 0 0 0))
        (fill (type none))
      )
      (polyline
        (pts
          (xy 8.89 12.7)
          (xy 8.89 11.43)
        )
        (stroke (width 0) (type default) (color 0 0 0 0))
        (fill (type none))
      )
      (polyline
        (pts
          (xy 8.89 15.24)
          (xy 8.89 13.97)
        )
        (stroke (width 0) (type default) (color 0 0 0 0))
        (fill (type none))
      )
      (polyline
        (pts
          (xy 8.89 17.78)
          (xy 8.89 16.51)
        )
        (stroke (width 0) (type default) (color 0 0 0 0))
        (fill (type none))
      )
      (polyline
        (pts
          (xy 8.89 20.32)
          (xy 8.89 19.05)
        )
        (stroke (width 0) (type default) (color 0 0 0 0))
        (fill (type none))
      )
      (polyline
        (pts
          (xy 8.89 22.86)
          (xy 8.89 21.59)
        )
        (stroke (width 0) (type default) (color 0 0 0 0))
        (fill (type none))
      )
      (polyline
        (pts
          (xy 8.89 25.4)
          (xy 8.89 24.13)
        )
        (stroke (width 0) (type default) (color 0 0 0 0))
        (fill (type none))
      )
      (polyline
        (pts
          (xy 8.89 25.4)
          (xy 8.89 24.13)
        )
        (stroke (width 0) (type default) (color 0 0 0 0))
        (fill (type none))
      )
      (polyline
        (pts
          (xy 8.89 27.94)
          (xy 8.89 26.67)
        )
        (stroke (width 0) (type default) (color 0 0 0 0))
        (fill (type none))
      )
      (polyline
        (pts
          (xy 6.985 8.89)
          (xy 8.255 9.525)
          (xy 8.255 8.255)
          (xy 6.985 8.89)
        )
        (stroke (width 0) (type default) (color 0 0 0 0))
        (fill (type none))
      )
      (polyline
        (pts
          (xy 6.985 11.43)
          (xy 8.255 12.065)
          (xy 8.255 10.795)
          (xy 6.985 11.43)
        )
        (stroke (width 0) (type default) (color 0 0 0 0))
        (fill (type none))
      )
      (polyline
        (pts
          (xy 6.985 14.605)
          (xy 6.985 13.335)
          (xy 8.255 13.97)
          (xy 6.985 14.605)
        )
        (stroke (width 0) (type default) (color 0 0 0 0))
        (fill (type none))
      )
      (polyline
        (pts
          (xy 6.985 17.145)
          (xy 6.985 15.875)
          (xy 8.255 16.51)
          (xy 6.985 17.145)
        )
        (stroke (width 0) (type default) (color 0 0 0 0))
        (fill (type none))
      )
      (polyline
        (pts
          (xy 6.985 19.685)
          (xy 6.985 18.415)
          (xy 8.255 19.05)
          (xy 6.985 19.685)
        )
        (stroke (width 0) (type default) (color 0 0 0 0))
        (fill (type none))
      )
      (polyline
        (pts
          (xy 6.985 22.225)
          (xy 6.985 20.955)
          (xy 8.255 21.59)
          (xy 6.985 22.225)
        )
        (stroke (width 0) (type default) (color 0 0 0 0))
        (fill (type none))
      )
      (rectangle (start 0 29.21) (end 15.24 0)
        (stroke (width 0.254) (type default) (color 0 0 0 0))
        (fill (type background))
      )
      (pin power_in line (at -2.54 26.67 0) (length 2.54)
        (name "VDD1" (effects (font (size 1.27 1.27))))
        (number "1" (effects (font (size 1.27 1.27))))
      )
      (pin input line (at 17.78 8.89 180) (length 2.54)
        (name "B6" (effects (font (size 1.27 1.27))))
        (number "10" (effects (font (size 1.27 1.27))))
      )
      (pin input line (at 17.78 11.43 180) (length 2.54)
        (name "B5" (effects (font (size 1.27 1.27))))
        (number "11" (effects (font (size 1.27 1.27))))
      )
      (pin output line (at 17.78 13.97 180) (length 2.54)
        (name "B4" (effects (font (size 1.27 1.27))))
        (number "12" (effects (font (size 1.27 1.27))))
      )
      (pin output line (at 17.78 16.51 180) (length 2.54)
        (name "B3" (effects (font (size 1.27 1.27))))
        (number "13" (effects (font (size 1.27 1.27))))
      )
      (pin output line (at 17.78 19.05 180) (length 2.54)
        (name "B2" (effects (font (size 1.27 1.27))))
        (number "14" (effects (font (size 1.27 1.27))))
      )
      (pin output line (at 17.78 21.59 180) (length 2.54)
        (name "B1" (effects (font (size 1.27 1.27))))
        (number "15" (effects (font (size 1.27 1.27))))
      )
      (pin power_in line (at 17.78 26.67 180) (length 2.54)
        (name "VDD2" (effects (font (size 1.27 1.27))))
        (number "16" (effects (font (size 1.27 1.27))))
      )
      (pin input line (at -2.54 21.59 0) (length 2.54)
        (name "A1" (effects (font (size 1.27 1.27))))
        (number "2" (effects (font (size 1.27 1.27))))
      )
      (pin input line (at -2.54 19.05 0) (length 2.54)
        (name "A2" (effects (font (size 1.27 1.27))))
        (number "3" (effects (font (size 1.27 1.27))))
      )
      (pin input line (at -2.54 16.51 0) (length 2.54)
        (name "A3" (effects (font (size 1.27 1.27))))
        (number "4" (effects (font (size 1.27 1.27))))
      )
      (pin input line (at -2.54 13.97 0) (length 2.54)
        (name "A4" (effects (font (size 1.27 1.27))))
        (number "5" (effects (font (size 1.27 1.27))))
      )
      (pin output line (at -2.54 11.43 0) (length 2.54)
        (name "A5" (effects (font (size 1.27 1.27))))
        (number "6" (effects (font (size 1.27 1.27))))
      )
      (pin output line (at -2.54 8.89 0) (length 2.54)
        (name "A6" (effects (font (size 1.27 1.27))))
        (number "7" (effects (font (size 1.27 1.27))))
      )
      (pin power_in line (at -2.54 3.81 0) (length 2.54)
        (name "GND1" (effects (font (size 1.27 1.27))))
        (number "8" (effects (font (size 1.27 1.27))))
      )
      (pin power_in line (at 17.78 3.81 180) (length 2.54)
        (name "GND2" (effects (font (size 1.27 1.27))))
        (number "9" (effects (font (size 1.27 1.27))))
      )
    )
  )
)
