%TF.GenerationSoftware,KiCad,Pcbnew,(6.0.6)*%
%TF.CreationDate,2022-10-13T14:35:30+02:00*%
%TF.ProjectId,Trigger board,54726967-6765-4722-9062-6f6172642e6b,rev?*%
%TF.SameCoordinates,Original*%
%TF.FileFunction,Paste,Top*%
%TF.FilePolarity,Positive*%
%FSLAX46Y46*%
G04 Gerber Fmt 4.6, Leading zero omitted, Abs format (unit mm)*
G04 Created by KiCad (PCBNEW (6.0.6)) date 2022-10-13 14:35:30*
%MOMM*%
%LPD*%
G01*
G04 APERTURE LIST*
G04 Aperture macros list*
%AMRoundRect*
0 Rectangle with rounded corners*
0 $1 Rounding radius*
0 $2 $3 $4 $5 $6 $7 $8 $9 X,Y pos of 4 corners*
0 Add a 4 corners polygon primitive as box body*
4,1,4,$2,$3,$4,$5,$6,$7,$8,$9,$2,$3,0*
0 Add four circle primitives for the rounded corners*
1,1,$1+$1,$2,$3*
1,1,$1+$1,$4,$5*
1,1,$1+$1,$6,$7*
1,1,$1+$1,$8,$9*
0 Add four rect primitives between the rounded corners*
20,1,$1+$1,$2,$3,$4,$5,0*
20,1,$1+$1,$4,$5,$6,$7,0*
20,1,$1+$1,$6,$7,$8,$9,0*
20,1,$1+$1,$8,$9,$2,$3,0*%
G04 Aperture macros list end*
%ADD10R,0.900000X0.400000*%
%ADD11RoundRect,0.250000X-0.475000X0.337500X-0.475000X-0.337500X0.475000X-0.337500X0.475000X0.337500X0*%
%ADD12RoundRect,0.150000X-0.825000X-0.150000X0.825000X-0.150000X0.825000X0.150000X-0.825000X0.150000X0*%
%ADD13RoundRect,0.250000X0.350000X0.450000X-0.350000X0.450000X-0.350000X-0.450000X0.350000X-0.450000X0*%
%ADD14R,0.700000X0.450000*%
%ADD15RoundRect,0.250000X0.337500X0.475000X-0.337500X0.475000X-0.337500X-0.475000X0.337500X-0.475000X0*%
%ADD16RoundRect,0.250000X-0.337500X-0.475000X0.337500X-0.475000X0.337500X0.475000X-0.337500X0.475000X0*%
%ADD17R,1.200000X1.200000*%
%ADD18RoundRect,0.250000X-0.350000X-0.450000X0.350000X-0.450000X0.350000X0.450000X-0.350000X0.450000X0*%
%ADD19RoundRect,0.250000X-0.450000X0.350000X-0.450000X-0.350000X0.450000X-0.350000X0.450000X0.350000X0*%
%ADD20RoundRect,0.250000X0.475000X-0.337500X0.475000X0.337500X-0.475000X0.337500X-0.475000X-0.337500X0*%
%ADD21R,0.400000X0.650000*%
%ADD22R,0.450000X0.600000*%
%ADD23RoundRect,0.237500X0.287500X0.237500X-0.287500X0.237500X-0.287500X-0.237500X0.287500X-0.237500X0*%
%ADD24R,0.650000X0.400000*%
%ADD25R,1.500000X0.400000*%
%ADD26R,0.800000X1.900000*%
%ADD27R,1.000000X1.000000*%
%ADD28R,0.400000X1.500000*%
%ADD29R,1.500000X0.450000*%
%ADD30R,0.600000X1.050000*%
%ADD31RoundRect,0.125000X0.825000X0.125000X-0.825000X0.125000X-0.825000X-0.125000X0.825000X-0.125000X0*%
%ADD32RoundRect,0.150000X0.150000X-0.825000X0.150000X0.825000X-0.150000X0.825000X-0.150000X-0.825000X0*%
%ADD33RoundRect,0.200000X-0.200000X-0.275000X0.200000X-0.275000X0.200000X0.275000X-0.200000X0.275000X0*%
%ADD34RoundRect,0.237500X0.237500X-0.287500X0.237500X0.287500X-0.237500X0.287500X-0.237500X-0.287500X0*%
%ADD35RoundRect,0.237500X-0.237500X0.287500X-0.237500X-0.287500X0.237500X-0.287500X0.237500X0.287500X0*%
%ADD36RoundRect,0.225000X-0.225000X-0.250000X0.225000X-0.250000X0.225000X0.250000X-0.225000X0.250000X0*%
%ADD37RoundRect,0.200000X0.200000X0.275000X-0.200000X0.275000X-0.200000X-0.275000X0.200000X-0.275000X0*%
%ADD38RoundRect,0.250000X0.450000X-0.350000X0.450000X0.350000X-0.450000X0.350000X-0.450000X-0.350000X0*%
%ADD39R,1.100000X0.400000*%
%ADD40RoundRect,0.075000X-0.650000X-0.075000X0.650000X-0.075000X0.650000X0.075000X-0.650000X0.075000X0*%
%ADD41RoundRect,0.225000X0.225000X0.250000X-0.225000X0.250000X-0.225000X-0.250000X0.225000X-0.250000X0*%
%ADD42RoundRect,0.225000X-0.250000X0.225000X-0.250000X-0.225000X0.250000X-0.225000X0.250000X0.225000X0*%
%ADD43R,0.800000X0.300000*%
%ADD44R,1.050000X0.600000*%
%ADD45R,0.300000X0.800000*%
%ADD46R,0.400000X1.100000*%
%ADD47RoundRect,0.200000X-0.275000X0.200000X-0.275000X-0.200000X0.275000X-0.200000X0.275000X0.200000X0*%
%ADD48RoundRect,0.237500X0.250000X0.237500X-0.250000X0.237500X-0.250000X-0.237500X0.250000X-0.237500X0*%
%ADD49R,0.450000X0.700000*%
%ADD50RoundRect,0.225000X0.250000X-0.225000X0.250000X0.225000X-0.250000X0.225000X-0.250000X-0.225000X0*%
%ADD51R,1.600000X0.300000*%
%ADD52R,1.550000X0.250000*%
%ADD53RoundRect,0.200000X0.275000X-0.200000X0.275000X0.200000X-0.275000X0.200000X-0.275000X-0.200000X0*%
%ADD54RoundRect,0.150000X-0.512500X-0.150000X0.512500X-0.150000X0.512500X0.150000X-0.512500X0.150000X0*%
%ADD55RoundRect,0.150000X0.825000X0.150000X-0.825000X0.150000X-0.825000X-0.150000X0.825000X-0.150000X0*%
%ADD56RoundRect,0.237500X-0.300000X-0.237500X0.300000X-0.237500X0.300000X0.237500X-0.300000X0.237500X0*%
%ADD57R,0.400000X0.900000*%
%ADD58RoundRect,0.237500X0.344715X-0.008839X-0.008839X0.344715X-0.344715X0.008839X0.008839X-0.344715X0*%
G04 APERTURE END LIST*
D10*
%TO.C,U23*%
X118089500Y-124318000D03*
X118089500Y-124968000D03*
X118089500Y-125618000D03*
X120289500Y-125618000D03*
X120289500Y-124318000D03*
%TD*%
D11*
%TO.C,C18*%
X115172500Y-109345500D03*
X115172500Y-111420500D03*
%TD*%
D12*
%TO.C,U12*%
X114809500Y-103505000D03*
X114809500Y-104775000D03*
X114809500Y-106045000D03*
X114809500Y-107315000D03*
X119759500Y-107315000D03*
X119759500Y-106045000D03*
X119759500Y-104775000D03*
X119759500Y-103505000D03*
%TD*%
D13*
%TO.C,R67*%
X97329500Y-125349000D03*
X95329500Y-125349000D03*
%TD*%
D14*
%TO.C,Q8*%
X190420500Y-104282000D03*
X190420500Y-102982000D03*
X188420500Y-103632000D03*
%TD*%
D15*
%TO.C,C17*%
X107400000Y-99314000D03*
X105325000Y-99314000D03*
%TD*%
D16*
%TO.C,C43*%
X114684900Y-98196400D03*
X116759900Y-98196400D03*
%TD*%
%TO.C,C83*%
X193082000Y-102870000D03*
X195157000Y-102870000D03*
%TD*%
D17*
%TO.C,D18*%
X184594500Y-101634000D03*
X184594500Y-99534000D03*
%TD*%
D16*
%TO.C,C22*%
X160824000Y-89281000D03*
X162899000Y-89281000D03*
%TD*%
D18*
%TO.C,R19*%
X99203000Y-99314000D03*
X101203000Y-99314000D03*
%TD*%
D11*
%TO.C,C2*%
X138239500Y-93323500D03*
X138239500Y-95398500D03*
%TD*%
D16*
%TO.C,C79*%
X199686000Y-85598000D03*
X201761000Y-85598000D03*
%TD*%
D11*
%TO.C,C72*%
X166560500Y-141075500D03*
X166560500Y-143150500D03*
%TD*%
%TO.C,C7*%
X138366500Y-85957500D03*
X138366500Y-88032500D03*
%TD*%
D14*
%TO.C,Q7*%
X190420500Y-111074000D03*
X190420500Y-109774000D03*
X188420500Y-110424000D03*
%TD*%
D17*
%TO.C,D17*%
X184594500Y-108365000D03*
X184594500Y-106265000D03*
%TD*%
D15*
%TO.C,C49*%
X186902000Y-90678000D03*
X184827000Y-90678000D03*
%TD*%
D11*
%TO.C,C1*%
X135064500Y-85957500D03*
X135064500Y-88032500D03*
%TD*%
D15*
%TO.C,C70*%
X147024000Y-137541000D03*
X144949000Y-137541000D03*
%TD*%
D13*
%TO.C,R68*%
X104254700Y-144678400D03*
X102254700Y-144678400D03*
%TD*%
D10*
%TO.C,U8*%
X103103500Y-125969000D03*
X103103500Y-126619000D03*
X103103500Y-127269000D03*
X105303500Y-127269000D03*
X105303500Y-125969000D03*
%TD*%
D19*
%TO.C,R59*%
X113334800Y-75809600D03*
X113334800Y-77809600D03*
%TD*%
D16*
%TO.C,C12*%
X99356000Y-127381000D03*
X101431000Y-127381000D03*
%TD*%
%TO.C,C23*%
X160379500Y-94996000D03*
X162454500Y-94996000D03*
%TD*%
%TO.C,C82*%
X193082000Y-109601000D03*
X195157000Y-109601000D03*
%TD*%
D11*
%TO.C,C44*%
X116268500Y-125826500D03*
X116268500Y-127901500D03*
%TD*%
D20*
%TO.C,C69*%
X154495500Y-143531500D03*
X154495500Y-141456500D03*
%TD*%
D16*
%TO.C,C19*%
X113580000Y-101600000D03*
X115655000Y-101600000D03*
%TD*%
D12*
%TO.C,U29*%
X138337500Y-71863000D03*
X138337500Y-73133000D03*
X138337500Y-74403000D03*
X138337500Y-75673000D03*
X143287500Y-75673000D03*
X143287500Y-74403000D03*
X143287500Y-73133000D03*
X143287500Y-71863000D03*
%TD*%
D20*
%TO.C,C80*%
X194246500Y-73173500D03*
X194246500Y-71098500D03*
%TD*%
D21*
%TO.C,U41*%
X194358500Y-78039000D03*
X195008500Y-78039000D03*
X195658500Y-78039000D03*
X195658500Y-76139000D03*
X194358500Y-76139000D03*
%TD*%
D18*
%TO.C,R3*%
X126562500Y-96520000D03*
X128562500Y-96520000D03*
%TD*%
D22*
%TO.C,D15*%
X146748500Y-142714000D03*
X146748500Y-144814000D03*
%TD*%
D18*
%TO.C,R65*%
X133683500Y-101092000D03*
X135683500Y-101092000D03*
%TD*%
%TO.C,R45*%
X114709700Y-96113600D03*
X116709700Y-96113600D03*
%TD*%
%TO.C,R60*%
X129502500Y-71626000D03*
X131502500Y-71626000D03*
%TD*%
D23*
%TO.C,F1*%
X104354700Y-146968400D03*
X102604700Y-146968400D03*
%TD*%
D15*
%TO.C,C62*%
X108581200Y-142396400D03*
X106506200Y-142396400D03*
%TD*%
D24*
%TO.C,U31*%
X131315500Y-103774000D03*
X131315500Y-103124000D03*
X131315500Y-102474000D03*
X129415500Y-102474000D03*
X129415500Y-103124000D03*
X129415500Y-103774000D03*
%TD*%
%TO.C,U14*%
X156842500Y-103774000D03*
X156842500Y-103124000D03*
X156842500Y-102474000D03*
X154942500Y-102474000D03*
X154942500Y-103124000D03*
X154942500Y-103774000D03*
%TD*%
D25*
%TO.C,U9*%
X110867500Y-126253000D03*
X110867500Y-125603000D03*
X110867500Y-124953000D03*
X108207500Y-124953000D03*
X108207500Y-125603000D03*
X108207500Y-126253000D03*
%TD*%
D18*
%TO.C,R21*%
X159464500Y-103632000D03*
X161464500Y-103632000D03*
%TD*%
%TO.C,R64*%
X133683500Y-103632000D03*
X135683500Y-103632000D03*
%TD*%
%TO.C,R22*%
X159464500Y-101092000D03*
X161464500Y-101092000D03*
%TD*%
D25*
%TO.C,U28*%
X149260500Y-70190000D03*
X149260500Y-69540000D03*
X149260500Y-68890000D03*
X146600500Y-68890000D03*
X146600500Y-70190000D03*
%TD*%
D13*
%TO.C,R66*%
X108543700Y-146837400D03*
X106543700Y-146837400D03*
%TD*%
D26*
%TO.C,D12*%
X137670500Y-102592000D03*
X139570500Y-102592000D03*
X138620500Y-99592000D03*
%TD*%
D27*
%TO.C,D14*%
X108773700Y-144682400D03*
X106273700Y-144682400D03*
%TD*%
%TO.C,D13*%
X108470700Y-138094400D03*
X108470700Y-140594400D03*
%TD*%
D20*
%TO.C,C53*%
X124650500Y-71649500D03*
X124650500Y-69574500D03*
%TD*%
D16*
%TO.C,C16*%
X122851000Y-112395000D03*
X124926000Y-112395000D03*
%TD*%
D15*
%TO.C,C45*%
X120227000Y-121539000D03*
X118152000Y-121539000D03*
%TD*%
%TO.C,C8*%
X138760000Y-83312000D03*
X136685000Y-83312000D03*
%TD*%
D26*
%TO.C,D4*%
X163324500Y-102719000D03*
X165224500Y-102719000D03*
X164274500Y-99719000D03*
%TD*%
D15*
%TO.C,C57*%
X143976000Y-69900800D03*
X141901000Y-69900800D03*
%TD*%
D20*
%TO.C,C58*%
X135572500Y-71663500D03*
X135572500Y-69588500D03*
%TD*%
D16*
%TO.C,C21*%
X154592000Y-100584000D03*
X156667000Y-100584000D03*
%TD*%
%TO.C,C61*%
X129065000Y-100584000D03*
X131140000Y-100584000D03*
%TD*%
D12*
%TO.C,U6*%
X140844500Y-83312000D03*
X140844500Y-84582000D03*
X140844500Y-85852000D03*
X140844500Y-87122000D03*
X145794500Y-87122000D03*
X145794500Y-85852000D03*
X145794500Y-84582000D03*
X145794500Y-83312000D03*
%TD*%
D20*
%TO.C,C56*%
X133540500Y-71649500D03*
X133540500Y-69574500D03*
%TD*%
%TO.C,C54*%
X126936500Y-71649500D03*
X126936500Y-69574500D03*
%TD*%
D15*
%TO.C,C42*%
X119795200Y-90271600D03*
X117720200Y-90271600D03*
%TD*%
D16*
%TO.C,C13*%
X106976000Y-128143000D03*
X109051000Y-128143000D03*
%TD*%
D12*
%TO.C,U3*%
X140844500Y-91059000D03*
X140844500Y-92329000D03*
X140844500Y-93599000D03*
X140844500Y-94869000D03*
X145794500Y-94869000D03*
X145794500Y-93599000D03*
X145794500Y-92329000D03*
X145794500Y-91059000D03*
%TD*%
D16*
%TO.C,C15*%
X154601000Y-115062000D03*
X156676000Y-115062000D03*
%TD*%
D15*
%TO.C,C4*%
X151723000Y-90424000D03*
X149648000Y-90424000D03*
%TD*%
D18*
%TO.C,R18*%
X159464500Y-115570000D03*
X161464500Y-115570000D03*
%TD*%
D26*
%TO.C,D3*%
X163324500Y-117070000D03*
X165224500Y-117070000D03*
X164274500Y-114070000D03*
%TD*%
%TO.C,D9*%
X163267500Y-109892000D03*
X165167500Y-109892000D03*
X164217500Y-106892000D03*
%TD*%
D16*
%TO.C,C78*%
X129201000Y-122047000D03*
X131276000Y-122047000D03*
%TD*%
D18*
%TO.C,R81*%
X133810500Y-125095000D03*
X135810500Y-125095000D03*
%TD*%
D16*
%TO.C,C47*%
X154592000Y-107696000D03*
X156667000Y-107696000D03*
%TD*%
D24*
%TO.C,U10*%
X156842500Y-118252000D03*
X156842500Y-117602000D03*
X156842500Y-116952000D03*
X154942500Y-116952000D03*
X154942500Y-117602000D03*
X154942500Y-118252000D03*
%TD*%
%TO.C,U25*%
X156842500Y-110956000D03*
X156842500Y-110306000D03*
X156842500Y-109656000D03*
X154942500Y-109656000D03*
X154942500Y-110306000D03*
X154942500Y-110956000D03*
%TD*%
D18*
%TO.C,R51*%
X159356500Y-110794000D03*
X161356500Y-110794000D03*
%TD*%
D19*
%TO.C,R69*%
X114236500Y-125864000D03*
X114236500Y-127864000D03*
%TD*%
D12*
%TO.C,U32*%
X132040500Y-139615000D03*
X132040500Y-140885000D03*
X132040500Y-142155000D03*
X132040500Y-143425000D03*
X136990500Y-143425000D03*
X136990500Y-142155000D03*
X136990500Y-140885000D03*
X136990500Y-139615000D03*
%TD*%
D16*
%TO.C,C63*%
X131614000Y-137668000D03*
X133689000Y-137668000D03*
%TD*%
D11*
%TO.C,C66*%
X144335500Y-144123500D03*
X144335500Y-146198500D03*
%TD*%
D25*
%TO.C,U36*%
X139449500Y-144199000D03*
X139449500Y-144849000D03*
X139449500Y-145499000D03*
X142109500Y-145499000D03*
X142109500Y-144199000D03*
%TD*%
D18*
%TO.C,R70*%
X95266000Y-99314000D03*
X97266000Y-99314000D03*
%TD*%
D26*
%TO.C,D16*%
X137670500Y-124055000D03*
X139570500Y-124055000D03*
X138620500Y-121055000D03*
%TD*%
D28*
%TO.C,U24*%
X123111500Y-126479800D03*
X123761500Y-126479800D03*
X124411500Y-126479800D03*
X124411500Y-123819800D03*
X123111500Y-123819800D03*
%TD*%
D18*
%TO.C,R71*%
X135334500Y-145638000D03*
X137334500Y-145638000D03*
%TD*%
%TO.C,R82*%
X133810500Y-122555000D03*
X135810500Y-122555000D03*
%TD*%
D29*
%TO.C,U37*%
X113605000Y-146162000D03*
X113605000Y-147462000D03*
X116265000Y-146812000D03*
%TD*%
D18*
%TO.C,R77*%
X150828500Y-146177000D03*
X152828500Y-146177000D03*
%TD*%
%TO.C,R52*%
X159356500Y-108294000D03*
X161356500Y-108294000D03*
%TD*%
D16*
%TO.C,C65*%
X121009500Y-137731500D03*
X123084500Y-137731500D03*
%TD*%
D15*
%TO.C,C71*%
X147151000Y-132207000D03*
X145076000Y-132207000D03*
%TD*%
D13*
%TO.C,R75*%
X116443000Y-144462500D03*
X114443000Y-144462500D03*
%TD*%
D18*
%TO.C,R72*%
X131016500Y-145638000D03*
X133016500Y-145638000D03*
%TD*%
%TO.C,R73*%
X122380500Y-145923000D03*
X124380500Y-145923000D03*
%TD*%
D28*
%TO.C,U13*%
X124030500Y-107255000D03*
X123380500Y-107255000D03*
X122730500Y-107255000D03*
X122730500Y-109915000D03*
X123380500Y-109915000D03*
X124030500Y-109915000D03*
%TD*%
D12*
%TO.C,U34*%
X119254500Y-139573000D03*
X119254500Y-140843000D03*
X119254500Y-142113000D03*
X119254500Y-143383000D03*
X124204500Y-143383000D03*
X124204500Y-142113000D03*
X124204500Y-140843000D03*
X124204500Y-139573000D03*
%TD*%
D30*
%TO.C,U35*%
X142745500Y-139747000D03*
X141795500Y-139747000D03*
X140845500Y-139747000D03*
X140845500Y-142447000D03*
X142745500Y-142447000D03*
%TD*%
D13*
%TO.C,R74*%
X120308500Y-145923000D03*
X118308500Y-145923000D03*
%TD*%
D19*
%TO.C,R76*%
X152463500Y-141494000D03*
X152463500Y-143494000D03*
%TD*%
%TO.C,R62*%
X135826500Y-74311000D03*
X135826500Y-76311000D03*
%TD*%
D18*
%TO.C,R17*%
X159464500Y-118110000D03*
X161464500Y-118110000D03*
%TD*%
D24*
%TO.C,U40*%
X131442500Y-125237000D03*
X131442500Y-124587000D03*
X131442500Y-123937000D03*
X129542500Y-123937000D03*
X129542500Y-124587000D03*
X129542500Y-125237000D03*
%TD*%
D13*
%TO.C,R61*%
X137842500Y-78232000D03*
X135842500Y-78232000D03*
%TD*%
D31*
%TO.C,U39*%
X163964500Y-146562000D03*
X163964500Y-145912000D03*
X163964500Y-145262000D03*
X163964500Y-144612000D03*
X163964500Y-143962000D03*
X163964500Y-143312000D03*
X163964500Y-142662000D03*
X163964500Y-142012000D03*
X163964500Y-141362000D03*
X163964500Y-140712000D03*
X156964500Y-140712000D03*
X156964500Y-141362000D03*
X156964500Y-142012000D03*
X156964500Y-142662000D03*
X156964500Y-143312000D03*
X156964500Y-143962000D03*
X156964500Y-144612000D03*
X156964500Y-145262000D03*
X156964500Y-145912000D03*
X156964500Y-146562000D03*
%TD*%
D11*
%TO.C,C64*%
X127698500Y-145148500D03*
X127698500Y-147223500D03*
%TD*%
D28*
%TO.C,U33*%
X127586500Y-140529000D03*
X126936500Y-140529000D03*
X126286500Y-140529000D03*
X126286500Y-143189000D03*
X127586500Y-143189000D03*
%TD*%
D32*
%TO.C,U38*%
X149542500Y-137349000D03*
X150812500Y-137349000D03*
X152082500Y-137349000D03*
X153352500Y-137349000D03*
X154622500Y-137349000D03*
X155892500Y-137349000D03*
X157162500Y-137349000D03*
X158432500Y-137349000D03*
X158432500Y-132399000D03*
X157162500Y-132399000D03*
X155892500Y-132399000D03*
X154622500Y-132399000D03*
X153352500Y-132399000D03*
X152082500Y-132399000D03*
X150812500Y-132399000D03*
X149542500Y-132399000D03*
%TD*%
D33*
%TO.C,R63*%
X149225500Y-74930000D03*
X150875500Y-74930000D03*
%TD*%
D34*
%TO.C,C67*%
X149034500Y-144131000D03*
X149034500Y-142381000D03*
%TD*%
D35*
%TO.C,C73*%
X164274500Y-137174000D03*
X164274500Y-138924000D03*
%TD*%
D34*
%TO.C,C68*%
X150685500Y-144131000D03*
X150685500Y-142381000D03*
%TD*%
D36*
%TO.C,C25*%
X170103500Y-96901000D03*
X171653500Y-96901000D03*
%TD*%
D35*
%TO.C,C74*%
X166560500Y-137174000D03*
X166560500Y-138924000D03*
%TD*%
D37*
%TO.C,R27*%
X168582500Y-96901000D03*
X166932500Y-96901000D03*
%TD*%
D18*
%TO.C,R1*%
X126571500Y-94361000D03*
X128571500Y-94361000D03*
%TD*%
%TO.C,R2*%
X130508500Y-94361000D03*
X132508500Y-94361000D03*
%TD*%
%TO.C,R4*%
X130499500Y-96520000D03*
X132499500Y-96520000D03*
%TD*%
%TO.C,R8*%
X126571500Y-91948000D03*
X128571500Y-91948000D03*
%TD*%
%TO.C,R9*%
X130499500Y-91948000D03*
X132499500Y-91948000D03*
%TD*%
%TO.C,R10*%
X126571500Y-89789000D03*
X128571500Y-89789000D03*
%TD*%
%TO.C,R11*%
X130499500Y-89789000D03*
X132499500Y-89789000D03*
%TD*%
D13*
%TO.C,R24*%
X158480000Y-92964000D03*
X156480000Y-92964000D03*
%TD*%
D18*
%TO.C,R25*%
X160861500Y-87249000D03*
X162861500Y-87249000D03*
%TD*%
%TO.C,R26*%
X160417000Y-92964000D03*
X162417000Y-92964000D03*
%TD*%
D38*
%TO.C,R47*%
X122059700Y-95208600D03*
X122059700Y-93208600D03*
%TD*%
D13*
%TO.C,R44*%
X110283500Y-95250000D03*
X108283500Y-95250000D03*
%TD*%
%TO.C,R90*%
X186610500Y-103632000D03*
X184610500Y-103632000D03*
%TD*%
D18*
%TO.C,R53*%
X184864500Y-92710000D03*
X186864500Y-92710000D03*
%TD*%
D13*
%TO.C,R83*%
X187889500Y-84836000D03*
X185889500Y-84836000D03*
%TD*%
%TO.C,R87*%
X194103500Y-111633000D03*
X192103500Y-111633000D03*
%TD*%
%TO.C,R89*%
X194103500Y-104902000D03*
X192103500Y-104902000D03*
%TD*%
D39*
%TO.C,U22*%
X115591700Y-92217600D03*
X115591700Y-92867600D03*
X115591700Y-93517600D03*
X115591700Y-94167600D03*
X119891700Y-94167600D03*
X119891700Y-93517600D03*
X119891700Y-92867600D03*
X119891700Y-92217600D03*
%TD*%
D40*
%TO.C,U1*%
X128546500Y-85741000D03*
X128546500Y-86241000D03*
X128546500Y-86741000D03*
X128546500Y-87241000D03*
X128546500Y-87741000D03*
X132946500Y-87741000D03*
X132946500Y-87241000D03*
X132946500Y-86741000D03*
X132946500Y-86241000D03*
X132946500Y-85741000D03*
%TD*%
D10*
%TO.C,U26*%
X188701500Y-92060000D03*
X188701500Y-92710000D03*
X188701500Y-93360000D03*
X190901500Y-93360000D03*
X190901500Y-92060000D03*
%TD*%
D28*
%TO.C,U11*%
X122730500Y-117408000D03*
X123380500Y-117408000D03*
X124030500Y-117408000D03*
X124030500Y-114748000D03*
X122730500Y-114748000D03*
%TD*%
D13*
%TO.C,R56*%
X186610500Y-123952000D03*
X184610500Y-123952000D03*
%TD*%
D15*
%TO.C,C3*%
X138633000Y-91059000D03*
X136558000Y-91059000D03*
%TD*%
D16*
%TO.C,C52*%
X193082000Y-116332000D03*
X195157000Y-116332000D03*
%TD*%
D41*
%TO.C,C29*%
X174955500Y-85471000D03*
X173405500Y-85471000D03*
%TD*%
%TO.C,C75*%
X138975100Y-132156200D03*
X137425100Y-132156200D03*
%TD*%
D42*
%TO.C,C20*%
X122491500Y-103492000D03*
X122491500Y-105042000D03*
%TD*%
D41*
%TO.C,C46*%
X123774500Y-120294400D03*
X122224500Y-120294400D03*
%TD*%
D43*
%TO.C,U5*%
X149116500Y-83407000D03*
X149116500Y-83907000D03*
X149116500Y-84407000D03*
X149116500Y-84907000D03*
X152216500Y-84907000D03*
X152216500Y-84407000D03*
X152216500Y-83907000D03*
X152216500Y-83407000D03*
%TD*%
D16*
%TO.C,C26*%
X169206000Y-93091000D03*
X171281000Y-93091000D03*
%TD*%
D41*
%TO.C,C28*%
X174955500Y-93345000D03*
X173405500Y-93345000D03*
%TD*%
D16*
%TO.C,C51*%
X193209000Y-123190000D03*
X195284000Y-123190000D03*
%TD*%
D17*
%TO.C,D11*%
X184594500Y-115096000D03*
X184594500Y-112996000D03*
%TD*%
D36*
%TO.C,C5*%
X152196500Y-95123000D03*
X153746500Y-95123000D03*
%TD*%
D41*
%TO.C,C14*%
X109866700Y-121666000D03*
X108316700Y-121666000D03*
%TD*%
D18*
%TO.C,R49*%
X114370500Y-123952000D03*
X116370500Y-123952000D03*
%TD*%
D43*
%TO.C,U44*%
X197776500Y-76085000D03*
X197776500Y-76585000D03*
X197776500Y-77085000D03*
X197776500Y-77585000D03*
X200876500Y-77585000D03*
X200876500Y-77085000D03*
X200876500Y-76585000D03*
X200876500Y-76085000D03*
%TD*%
D14*
%TO.C,Q5*%
X190547500Y-124602000D03*
X190547500Y-123302000D03*
X188547500Y-123952000D03*
%TD*%
D18*
%TO.C,R23*%
X156924500Y-87249000D03*
X158924500Y-87249000D03*
%TD*%
D13*
%TO.C,R58*%
X186610500Y-117094000D03*
X184610500Y-117094000D03*
%TD*%
D18*
%TO.C,R15*%
X99384500Y-125349000D03*
X101384500Y-125349000D03*
%TD*%
D19*
%TO.C,R46*%
X122034300Y-97069400D03*
X122034300Y-99069400D03*
%TD*%
D13*
%TO.C,R88*%
X186610500Y-110363000D03*
X184610500Y-110363000D03*
%TD*%
D44*
%TO.C,U43*%
X199119500Y-87569000D03*
X199119500Y-88519000D03*
X199119500Y-89469000D03*
X201819500Y-89469000D03*
X201819500Y-87569000D03*
%TD*%
D43*
%TO.C,U2*%
X149135500Y-92214000D03*
X149135500Y-92714000D03*
X149135500Y-93214000D03*
X149135500Y-93714000D03*
X152235500Y-93714000D03*
X152235500Y-93214000D03*
X152235500Y-92714000D03*
X152235500Y-92214000D03*
%TD*%
D14*
%TO.C,Q6*%
X190420500Y-117744000D03*
X190420500Y-116444000D03*
X188420500Y-117094000D03*
%TD*%
D13*
%TO.C,R55*%
X194230500Y-125222000D03*
X192230500Y-125222000D03*
%TD*%
D44*
%TO.C,U16*%
X164956500Y-85791000D03*
X164956500Y-86741000D03*
X164956500Y-87691000D03*
X167656500Y-87691000D03*
X167656500Y-85791000D03*
%TD*%
D13*
%TO.C,R57*%
X194103500Y-118364000D03*
X192103500Y-118364000D03*
%TD*%
D45*
%TO.C,U17*%
X170866500Y-86969000D03*
X170366500Y-86969000D03*
X169866500Y-86969000D03*
X169366500Y-86969000D03*
X169366500Y-90069000D03*
X169866500Y-90069000D03*
X170366500Y-90069000D03*
X170866500Y-90069000D03*
%TD*%
D17*
%TO.C,D10*%
X184594500Y-121954000D03*
X184594500Y-119854000D03*
%TD*%
D41*
%TO.C,C27*%
X174955500Y-90170000D03*
X173405500Y-90170000D03*
%TD*%
D46*
%TO.C,U15*%
X167408500Y-90941000D03*
X166758500Y-90941000D03*
X166108500Y-90941000D03*
X165458500Y-90941000D03*
X165458500Y-95241000D03*
X166108500Y-95241000D03*
X166758500Y-95241000D03*
X167408500Y-95241000D03*
%TD*%
D15*
%TO.C,C9*%
X151215000Y-81661000D03*
X149140000Y-81661000D03*
%TD*%
D41*
%TO.C,C10*%
X150825500Y-88011000D03*
X149275500Y-88011000D03*
%TD*%
D16*
%TO.C,C24*%
X169206000Y-95123000D03*
X171281000Y-95123000D03*
%TD*%
D36*
%TO.C,C76*%
X163869100Y-131800600D03*
X165419100Y-131800600D03*
%TD*%
D37*
%TO.C,R28*%
X175005500Y-88646000D03*
X173355500Y-88646000D03*
%TD*%
%TO.C,R30*%
X175005500Y-87122000D03*
X173355500Y-87122000D03*
%TD*%
D36*
%TO.C,C77*%
X163513500Y-133527800D03*
X165063500Y-133527800D03*
%TD*%
D37*
%TO.C,R79*%
X162116300Y-131800600D03*
X160466300Y-131800600D03*
%TD*%
%TO.C,R5*%
X150723000Y-95123000D03*
X149073000Y-95123000D03*
%TD*%
%TO.C,R12*%
X150861500Y-86360000D03*
X149211500Y-86360000D03*
%TD*%
%TO.C,R16*%
X109916700Y-123190000D03*
X108266700Y-123190000D03*
%TD*%
D47*
%TO.C,R20*%
X124015500Y-103442000D03*
X124015500Y-105092000D03*
%TD*%
D37*
%TO.C,R29*%
X175005500Y-91821000D03*
X173355500Y-91821000D03*
%TD*%
%TO.C,R50*%
X123835900Y-121920000D03*
X122185900Y-121920000D03*
%TD*%
D33*
%TO.C,R78*%
X140716500Y-132156200D03*
X142366500Y-132156200D03*
%TD*%
D16*
%TO.C,C84*%
X158538000Y-76200000D03*
X160613000Y-76200000D03*
%TD*%
%TO.C,C85*%
X158538000Y-78232000D03*
X160613000Y-78232000D03*
%TD*%
D15*
%TO.C,C87*%
X171535000Y-82613500D03*
X169460000Y-82613500D03*
%TD*%
D48*
%TO.C,JP3*%
X199604000Y-78867000D03*
X197779000Y-78867000D03*
%TD*%
D18*
%TO.C,R84*%
X199596500Y-82423000D03*
X201596500Y-82423000D03*
%TD*%
D19*
%TO.C,R92*%
X163131500Y-80724500D03*
X163131500Y-82724500D03*
%TD*%
D30*
%TO.C,U42*%
X197863500Y-82978000D03*
X196913500Y-82978000D03*
X195963500Y-82978000D03*
X195963500Y-85678000D03*
X197863500Y-85678000D03*
%TD*%
D25*
%TO.C,U30*%
X147958500Y-71994000D03*
X147958500Y-72644000D03*
X147958500Y-73294000D03*
X150618500Y-73294000D03*
X150618500Y-72644000D03*
X150618500Y-71994000D03*
%TD*%
D38*
%TO.C,R94*%
X173482000Y-78597000D03*
X173482000Y-76597000D03*
%TD*%
D13*
%TO.C,R39*%
X184959500Y-133985000D03*
X182959500Y-133985000D03*
%TD*%
D18*
%TO.C,R37*%
X198707500Y-146177000D03*
X200707500Y-146177000D03*
%TD*%
D49*
%TO.C,Q1*%
X203121500Y-146288000D03*
X204421500Y-146288000D03*
X203771500Y-144288000D03*
%TD*%
D50*
%TO.C,C81*%
X197421500Y-88913000D03*
X197421500Y-87363000D03*
%TD*%
D13*
%TO.C,R41*%
X184959500Y-138811000D03*
X182959500Y-138811000D03*
%TD*%
D14*
%TO.C,Q3*%
X189436500Y-137272000D03*
X189436500Y-138572000D03*
X191436500Y-137922000D03*
%TD*%
D17*
%TO.C,D8*%
X180911500Y-143671000D03*
X180911500Y-141571000D03*
%TD*%
D20*
%TO.C,C39*%
X193230500Y-134133500D03*
X193230500Y-132058500D03*
%TD*%
D11*
%TO.C,C38*%
X202247500Y-132058500D03*
X202247500Y-134133500D03*
%TD*%
D50*
%TO.C,C50*%
X194119500Y-95263000D03*
X194119500Y-93713000D03*
%TD*%
D14*
%TO.C,Q2*%
X189309500Y-132446000D03*
X189309500Y-133746000D03*
X191309500Y-133096000D03*
%TD*%
D17*
%TO.C,D6*%
X180911500Y-134019000D03*
X180911500Y-131919000D03*
%TD*%
D20*
%TO.C,C37*%
X206692500Y-146198500D03*
X206692500Y-144123500D03*
%TD*%
%TO.C,C40*%
X193357500Y-138959500D03*
X193357500Y-136884500D03*
%TD*%
D15*
%TO.C,C48*%
X190839000Y-89408000D03*
X188764000Y-89408000D03*
%TD*%
D51*
%TO.C,U21*%
X196229500Y-131613000D03*
X196229500Y-132263000D03*
X196229500Y-132913000D03*
X196229500Y-133563000D03*
X199629500Y-133563000D03*
X199629500Y-132913000D03*
D52*
X199629500Y-132263000D03*
D51*
X199629500Y-131613000D03*
%TD*%
D17*
%TO.C,D7*%
X180911500Y-138718000D03*
X180911500Y-136618000D03*
%TD*%
D13*
%TO.C,R43*%
X184959500Y-143637000D03*
X182959500Y-143637000D03*
%TD*%
D53*
%TO.C,R86*%
X195770500Y-88963000D03*
X195770500Y-87313000D03*
%TD*%
D37*
%TO.C,R80*%
X161772100Y-133527800D03*
X160122100Y-133527800D03*
%TD*%
D16*
%TO.C,C86*%
X165586500Y-82613500D03*
X167661500Y-82613500D03*
%TD*%
D38*
%TO.C,R91*%
X163131500Y-78851000D03*
X163131500Y-76851000D03*
%TD*%
D18*
%TO.C,R40*%
X182959500Y-136652000D03*
X184959500Y-136652000D03*
%TD*%
D53*
%TO.C,R54*%
X192468500Y-95313000D03*
X192468500Y-93663000D03*
%TD*%
D13*
%TO.C,R85*%
X196135500Y-81026000D03*
X194135500Y-81026000D03*
%TD*%
D38*
%TO.C,R93*%
X173418500Y-82724500D03*
X173418500Y-80724500D03*
%TD*%
D54*
%TO.C,U45*%
X158438000Y-80203000D03*
X158438000Y-81153000D03*
X158438000Y-82103000D03*
X160713000Y-82103000D03*
X160713000Y-80203000D03*
%TD*%
D41*
%TO.C,C60*%
X147777500Y-74930000D03*
X146227500Y-74930000D03*
%TD*%
D11*
%TO.C,C59*%
X152844500Y-72876500D03*
X152844500Y-74951500D03*
%TD*%
D18*
%TO.C,R38*%
X182959500Y-131953000D03*
X184959500Y-131953000D03*
%TD*%
%TO.C,R42*%
X182959500Y-141605000D03*
X184959500Y-141605000D03*
%TD*%
D14*
%TO.C,Q4*%
X189436500Y-142098000D03*
X189436500Y-143398000D03*
X191436500Y-142748000D03*
%TD*%
D20*
%TO.C,C41*%
X193357500Y-143785500D03*
X193357500Y-141710500D03*
%TD*%
D16*
%TO.C,C6*%
X129074000Y-107251500D03*
X131149000Y-107251500D03*
%TD*%
%TO.C,C11*%
X129001500Y-114808000D03*
X131076500Y-114808000D03*
%TD*%
D26*
%TO.C,D1*%
X137734000Y-109640500D03*
X139634000Y-109640500D03*
X138684000Y-106640500D03*
%TD*%
%TO.C,D2*%
X137734000Y-116919000D03*
X139634000Y-116919000D03*
X138684000Y-113919000D03*
%TD*%
D18*
%TO.C,R6*%
X133747000Y-110363000D03*
X135747000Y-110363000D03*
%TD*%
%TO.C,R7*%
X133738000Y-108077000D03*
X135738000Y-108077000D03*
%TD*%
%TO.C,R13*%
X133747000Y-117729000D03*
X135747000Y-117729000D03*
%TD*%
%TO.C,R14*%
X133738000Y-115316000D03*
X135738000Y-115316000D03*
%TD*%
D24*
%TO.C,U4*%
X131315500Y-110632000D03*
X131315500Y-109982000D03*
X131315500Y-109332000D03*
X129415500Y-109332000D03*
X129415500Y-109982000D03*
X129415500Y-110632000D03*
%TD*%
%TO.C,U7*%
X131252000Y-117998000D03*
X131252000Y-117348000D03*
X131252000Y-116698000D03*
X129352000Y-116698000D03*
X129352000Y-117348000D03*
X129352000Y-117998000D03*
%TD*%
D55*
%TO.C,U46*%
X170940500Y-80708500D03*
X170940500Y-79438500D03*
X170940500Y-78168500D03*
X170940500Y-76898500D03*
X165990500Y-76898500D03*
X165990500Y-78168500D03*
X165990500Y-79438500D03*
X165990500Y-80708500D03*
%TD*%
D39*
%TO.C,U47*%
X112353200Y-138928200D03*
X112353200Y-139578200D03*
X112353200Y-140228200D03*
X112353200Y-140878200D03*
X116653200Y-140878200D03*
X116653200Y-140228200D03*
X116653200Y-139578200D03*
X116653200Y-138928200D03*
%TD*%
D19*
%TO.C,R35*%
X113233200Y-82667600D03*
X113233200Y-84667600D03*
%TD*%
D38*
%TO.C,R36*%
X113233200Y-89239600D03*
X113233200Y-87239600D03*
%TD*%
D48*
%TO.C,JP4*%
X199618000Y-80518000D03*
X197793000Y-80518000D03*
%TD*%
D56*
%TO.C,C55*%
X129566500Y-69596000D03*
X131291500Y-69596000D03*
%TD*%
D37*
%TO.C,R33*%
X202275000Y-72800000D03*
X200625000Y-72800000D03*
%TD*%
D25*
%TO.C,U18*%
X196637600Y-67320400D03*
X196637600Y-67970400D03*
X196637600Y-68620400D03*
X199297600Y-68620400D03*
X199297600Y-67320400D03*
%TD*%
D57*
%TO.C,U19*%
X198211200Y-70578800D03*
X197561200Y-70578800D03*
X196911200Y-70578800D03*
X196911200Y-72778800D03*
X198211200Y-72778800D03*
%TD*%
D16*
%TO.C,C32*%
X201362500Y-69400000D03*
X203437500Y-69400000D03*
%TD*%
D58*
%TO.C,C35*%
X208695235Y-94245235D03*
X207404765Y-92954765D03*
%TD*%
D41*
%TO.C,C33*%
X202225000Y-71250000D03*
X200675000Y-71250000D03*
%TD*%
D16*
%TO.C,C31*%
X200662500Y-74600000D03*
X202737500Y-74600000D03*
%TD*%
D20*
%TO.C,C34*%
X204600000Y-94037500D03*
X204600000Y-91962500D03*
%TD*%
D17*
%TO.C,FB1*%
X206300000Y-86850000D03*
X206300000Y-88950000D03*
%TD*%
D15*
%TO.C,C30*%
X212637500Y-99300000D03*
X210562500Y-99300000D03*
%TD*%
D54*
%TO.C,U20*%
X210825500Y-95189000D03*
X210825500Y-96139000D03*
X210825500Y-97089000D03*
X213100500Y-97089000D03*
X213100500Y-96139000D03*
X213100500Y-95189000D03*
%TD*%
D18*
%TO.C,R31*%
X185700000Y-75950000D03*
X187700000Y-75950000D03*
%TD*%
D27*
%TO.C,D5*%
X215341200Y-85832000D03*
X215341200Y-83332000D03*
%TD*%
D19*
%TO.C,R34*%
X203100000Y-102800000D03*
X203100000Y-104800000D03*
%TD*%
D18*
%TO.C,R32*%
X201450000Y-67400000D03*
X203450000Y-67400000D03*
%TD*%
M02*
