(kicad_sch (version 20211123) (generator eeschema)

  (uuid a06b8ea8-44f1-4697-845a-8c339fbdbc21)

  (paper "A4")

  (title_block
    (title "ATLAS-ITK-PIXEL-MODULES HW INTERLOCK LOGIC")
    (rev "0.3")
  )

  (lib_symbols
    (symbol "Connector:DB15_Female_MountingHoles" (pin_names (offset 1.016) hide) (in_bom yes) (on_board yes)
      (property "Reference" "J" (id 0) (at 0 24.13 0)
        (effects (font (size 1.27 1.27)))
      )
      (property "Value" "DB15_Female_MountingHoles" (id 1) (at 0 22.225 0)
        (effects (font (size 1.27 1.27)))
      )
      (property "Footprint" "" (id 2) (at 0 0 0)
        (effects (font (size 1.27 1.27)) hide)
      )
      (property "Datasheet" " ~" (id 3) (at 0 0 0)
        (effects (font (size 1.27 1.27)) hide)
      )
      (property "ki_keywords" "female D-SUB connector" (id 4) (at 0 0 0)
        (effects (font (size 1.27 1.27)) hide)
      )
      (property "ki_description" "15-pin female D-SUB connector (low-density/2 columns), Mounting Hole" (id 5) (at 0 0 0)
        (effects (font (size 1.27 1.27)) hide)
      )
      (property "ki_fp_filters" "DSUB*Female*" (id 6) (at 0 0 0)
        (effects (font (size 1.27 1.27)) hide)
      )
      (symbol "DB15_Female_MountingHoles_0_1"
        (circle (center -1.778 -17.78) (radius 0.762)
          (stroke (width 0) (type default) (color 0 0 0 0))
          (fill (type none))
        )
        (circle (center -1.778 -12.7) (radius 0.762)
          (stroke (width 0) (type default) (color 0 0 0 0))
          (fill (type none))
        )
        (circle (center -1.778 -7.62) (radius 0.762)
          (stroke (width 0) (type default) (color 0 0 0 0))
          (fill (type none))
        )
        (circle (center -1.778 -2.54) (radius 0.762)
          (stroke (width 0) (type default) (color 0 0 0 0))
          (fill (type none))
        )
        (circle (center -1.778 2.54) (radius 0.762)
          (stroke (width 0) (type default) (color 0 0 0 0))
          (fill (type none))
        )
        (circle (center -1.778 7.62) (radius 0.762)
          (stroke (width 0) (type default) (color 0 0 0 0))
          (fill (type none))
        )
        (circle (center -1.778 12.7) (radius 0.762)
          (stroke (width 0) (type default) (color 0 0 0 0))
          (fill (type none))
        )
        (circle (center -1.778 17.78) (radius 0.762)
          (stroke (width 0) (type default) (color 0 0 0 0))
          (fill (type none))
        )
        (polyline
          (pts
            (xy -3.81 -17.78)
            (xy -2.54 -17.78)
          )
          (stroke (width 0) (type default) (color 0 0 0 0))
          (fill (type none))
        )
        (polyline
          (pts
            (xy -3.81 -15.24)
            (xy 0.508 -15.24)
          )
          (stroke (width 0) (type default) (color 0 0 0 0))
          (fill (type none))
        )
        (polyline
          (pts
            (xy -3.81 -12.7)
            (xy -2.54 -12.7)
          )
          (stroke (width 0) (type default) (color 0 0 0 0))
          (fill (type none))
        )
        (polyline
          (pts
            (xy -3.81 -10.16)
            (xy 0.508 -10.16)
          )
          (stroke (width 0) (type default) (color 0 0 0 0))
          (fill (type none))
        )
        (polyline
          (pts
            (xy -3.81 -7.62)
            (xy -2.54 -7.62)
          )
          (stroke (width 0) (type default) (color 0 0 0 0))
          (fill (type none))
        )
        (polyline
          (pts
            (xy -3.81 -5.08)
            (xy 0.508 -5.08)
          )
          (stroke (width 0) (type default) (color 0 0 0 0))
          (fill (type none))
        )
        (polyline
          (pts
            (xy -3.81 -2.54)
            (xy -2.54 -2.54)
          )
          (stroke (width 0) (type default) (color 0 0 0 0))
          (fill (type none))
        )
        (polyline
          (pts
            (xy -3.81 0)
            (xy 0.508 0)
          )
          (stroke (width 0) (type default) (color 0 0 0 0))
          (fill (type none))
        )
        (polyline
          (pts
            (xy -3.81 2.54)
            (xy -2.54 2.54)
          )
          (stroke (width 0) (type default) (color 0 0 0 0))
          (fill (type none))
        )
        (polyline
          (pts
            (xy -3.81 5.08)
            (xy 0.508 5.08)
          )
          (stroke (width 0) (type default) (color 0 0 0 0))
          (fill (type none))
        )
        (polyline
          (pts
            (xy -3.81 7.62)
            (xy -2.54 7.62)
          )
          (stroke (width 0) (type default) (color 0 0 0 0))
          (fill (type none))
        )
        (polyline
          (pts
            (xy -3.81 10.16)
            (xy 0.508 10.16)
          )
          (stroke (width 0) (type default) (color 0 0 0 0))
          (fill (type none))
        )
        (polyline
          (pts
            (xy -3.81 12.7)
            (xy -2.54 12.7)
          )
          (stroke (width 0) (type default) (color 0 0 0 0))
          (fill (type none))
        )
        (polyline
          (pts
            (xy -3.81 15.24)
            (xy 0.508 15.24)
          )
          (stroke (width 0) (type default) (color 0 0 0 0))
          (fill (type none))
        )
        (polyline
          (pts
            (xy -3.81 17.78)
            (xy -2.54 17.78)
          )
          (stroke (width 0) (type default) (color 0 0 0 0))
          (fill (type none))
        )
        (polyline
          (pts
            (xy -3.81 20.955)
            (xy 3.175 17.145)
            (xy 3.175 -17.145)
            (xy -3.81 -20.955)
            (xy -3.81 20.955)
          )
          (stroke (width 0.254) (type default) (color 0 0 0 0))
          (fill (type background))
        )
        (circle (center 1.27 -15.24) (radius 0.762)
          (stroke (width 0) (type default) (color 0 0 0 0))
          (fill (type none))
        )
        (circle (center 1.27 -10.16) (radius 0.762)
          (stroke (width 0) (type default) (color 0 0 0 0))
          (fill (type none))
        )
        (circle (center 1.27 -5.08) (radius 0.762)
          (stroke (width 0) (type default) (color 0 0 0 0))
          (fill (type none))
        )
        (circle (center 1.27 0) (radius 0.762)
          (stroke (width 0) (type default) (color 0 0 0 0))
          (fill (type none))
        )
        (circle (center 1.27 5.08) (radius 0.762)
          (stroke (width 0) (type default) (color 0 0 0 0))
          (fill (type none))
        )
        (circle (center 1.27 10.16) (radius 0.762)
          (stroke (width 0) (type default) (color 0 0 0 0))
          (fill (type none))
        )
        (circle (center 1.27 15.24) (radius 0.762)
          (stroke (width 0) (type default) (color 0 0 0 0))
          (fill (type none))
        )
      )
      (symbol "DB15_Female_MountingHoles_1_1"
        (pin passive line (at 0 -22.86 90) (length 3.81)
          (name "PAD" (effects (font (size 1.27 1.27))))
          (number "0" (effects (font (size 1.27 1.27))))
        )
        (pin passive line (at -7.62 17.78 0) (length 3.81)
          (name "1" (effects (font (size 1.27 1.27))))
          (number "1" (effects (font (size 1.27 1.27))))
        )
        (pin passive line (at -7.62 10.16 0) (length 3.81)
          (name "P10" (effects (font (size 1.27 1.27))))
          (number "10" (effects (font (size 1.27 1.27))))
        )
        (pin passive line (at -7.62 5.08 0) (length 3.81)
          (name "P111" (effects (font (size 1.27 1.27))))
          (number "11" (effects (font (size 1.27 1.27))))
        )
        (pin passive line (at -7.62 0 0) (length 3.81)
          (name "P12" (effects (font (size 1.27 1.27))))
          (number "12" (effects (font (size 1.27 1.27))))
        )
        (pin passive line (at -7.62 -5.08 0) (length 3.81)
          (name "P13" (effects (font (size 1.27 1.27))))
          (number "13" (effects (font (size 1.27 1.27))))
        )
        (pin passive line (at -7.62 -10.16 0) (length 3.81)
          (name "P14" (effects (font (size 1.27 1.27))))
          (number "14" (effects (font (size 1.27 1.27))))
        )
        (pin passive line (at -7.62 -15.24 0) (length 3.81)
          (name "P15" (effects (font (size 1.27 1.27))))
          (number "15" (effects (font (size 1.27 1.27))))
        )
        (pin passive line (at -7.62 12.7 0) (length 3.81)
          (name "2" (effects (font (size 1.27 1.27))))
          (number "2" (effects (font (size 1.27 1.27))))
        )
        (pin passive line (at -7.62 7.62 0) (length 3.81)
          (name "3" (effects (font (size 1.27 1.27))))
          (number "3" (effects (font (size 1.27 1.27))))
        )
        (pin passive line (at -7.62 2.54 0) (length 3.81)
          (name "4" (effects (font (size 1.27 1.27))))
          (number "4" (effects (font (size 1.27 1.27))))
        )
        (pin passive line (at -7.62 -2.54 0) (length 3.81)
          (name "5" (effects (font (size 1.27 1.27))))
          (number "5" (effects (font (size 1.27 1.27))))
        )
        (pin passive line (at -7.62 -7.62 0) (length 3.81)
          (name "6" (effects (font (size 1.27 1.27))))
          (number "6" (effects (font (size 1.27 1.27))))
        )
        (pin passive line (at -7.62 -12.7 0) (length 3.81)
          (name "7" (effects (font (size 1.27 1.27))))
          (number "7" (effects (font (size 1.27 1.27))))
        )
        (pin passive line (at -7.62 -17.78 0) (length 3.81)
          (name "8" (effects (font (size 1.27 1.27))))
          (number "8" (effects (font (size 1.27 1.27))))
        )
        (pin passive line (at -7.62 15.24 0) (length 3.81)
          (name "P9" (effects (font (size 1.27 1.27))))
          (number "9" (effects (font (size 1.27 1.27))))
        )
      )
    )
    (symbol "Device:C" (pin_numbers hide) (pin_names (offset 0.254)) (in_bom yes) (on_board yes)
      (property "Reference" "C" (id 0) (at 0.635 2.54 0)
        (effects (font (size 1.27 1.27)) (justify left))
      )
      (property "Value" "C" (id 1) (at 0.635 -2.54 0)
        (effects (font (size 1.27 1.27)) (justify left))
      )
      (property "Footprint" "" (id 2) (at 0.9652 -3.81 0)
        (effects (font (size 1.27 1.27)) hide)
      )
      (property "Datasheet" "~" (id 3) (at 0 0 0)
        (effects (font (size 1.27 1.27)) hide)
      )
      (property "ki_keywords" "cap capacitor" (id 4) (at 0 0 0)
        (effects (font (size 1.27 1.27)) hide)
      )
      (property "ki_description" "Unpolarized capacitor" (id 5) (at 0 0 0)
        (effects (font (size 1.27 1.27)) hide)
      )
      (property "ki_fp_filters" "C_*" (id 6) (at 0 0 0)
        (effects (font (size 1.27 1.27)) hide)
      )
      (symbol "C_0_1"
        (polyline
          (pts
            (xy -2.032 -0.762)
            (xy 2.032 -0.762)
          )
          (stroke (width 0.508) (type default) (color 0 0 0 0))
          (fill (type none))
        )
        (polyline
          (pts
            (xy -2.032 0.762)
            (xy 2.032 0.762)
          )
          (stroke (width 0.508) (type default) (color 0 0 0 0))
          (fill (type none))
        )
      )
      (symbol "C_1_1"
        (pin passive line (at 0 3.81 270) (length 2.794)
          (name "~" (effects (font (size 1.27 1.27))))
          (number "1" (effects (font (size 1.27 1.27))))
        )
        (pin passive line (at 0 -3.81 90) (length 2.794)
          (name "~" (effects (font (size 1.27 1.27))))
          (number "2" (effects (font (size 1.27 1.27))))
        )
      )
    )
    (symbol "Device:R" (pin_numbers hide) (pin_names (offset 0)) (in_bom yes) (on_board yes)
      (property "Reference" "R" (id 0) (at 2.032 0 90)
        (effects (font (size 1.27 1.27)))
      )
      (property "Value" "R" (id 1) (at 0 0 90)
        (effects (font (size 1.27 1.27)))
      )
      (property "Footprint" "" (id 2) (at -1.778 0 90)
        (effects (font (size 1.27 1.27)) hide)
      )
      (property "Datasheet" "~" (id 3) (at 0 0 0)
        (effects (font (size 1.27 1.27)) hide)
      )
      (property "ki_keywords" "R res resistor" (id 4) (at 0 0 0)
        (effects (font (size 1.27 1.27)) hide)
      )
      (property "ki_description" "Resistor" (id 5) (at 0 0 0)
        (effects (font (size 1.27 1.27)) hide)
      )
      (property "ki_fp_filters" "R_*" (id 6) (at 0 0 0)
        (effects (font (size 1.27 1.27)) hide)
      )
      (symbol "R_0_1"
        (rectangle (start -1.016 -2.54) (end 1.016 2.54)
          (stroke (width 0.254) (type default) (color 0 0 0 0))
          (fill (type none))
        )
      )
      (symbol "R_1_1"
        (pin passive line (at 0 3.81 270) (length 1.27)
          (name "~" (effects (font (size 1.27 1.27))))
          (number "1" (effects (font (size 1.27 1.27))))
        )
        (pin passive line (at 0 -3.81 90) (length 1.27)
          (name "~" (effects (font (size 1.27 1.27))))
          (number "2" (effects (font (size 1.27 1.27))))
        )
      )
    )
    (symbol "dk_Interface-Analog-Switches-Multiplexers-Demultiplexers:CD74HC4067SM96" (pin_names (offset 1.016)) (in_bom yes) (on_board yes)
      (property "Reference" "U" (id 0) (at -5.08 24.13 0)
        (effects (font (size 1.524 1.524)))
      )
      (property "Value" "CD74HC4067SM96" (id 1) (at 12.7 -33.02 0)
        (effects (font (size 1.524 1.524)))
      )
      (property "Footprint" "digikey-footprints:SSOP-24_W5.30mm" (id 2) (at 5.08 5.08 0)
        (effects (font (size 1.524 1.524)) (justify left) hide)
      )
      (property "Datasheet" "http://www.ti.com/general/docs/suppproductinfo.tsp?distId=10&gotoUrl=http%3A%2F%2Fwww.ti.com%2Flit%2Fgpn%2Fcd74hc4067" (id 3) (at 5.08 7.62 0)
        (effects (font (size 1.524 1.524)) (justify left) hide)
      )
      (property "Digi-Key_PN" "296-9226-1-ND" (id 4) (at 5.08 10.16 0)
        (effects (font (size 1.524 1.524)) (justify left) hide)
      )
      (property "MPN" "CD74HC4067SM96" (id 5) (at 5.08 12.7 0)
        (effects (font (size 1.524 1.524)) (justify left) hide)
      )
      (property "Category" "Integrated Circuits (ICs)" (id 6) (at 5.08 15.24 0)
        (effects (font (size 1.524 1.524)) (justify left) hide)
      )
      (property "Family" "Interface - Analog Switches, Multiplexers, Demultiplexers" (id 7) (at 5.08 17.78 0)
        (effects (font (size 1.524 1.524)) (justify left) hide)
      )
      (property "DK_Datasheet_Link" "http://www.ti.com/general/docs/suppproductinfo.tsp?distId=10&gotoUrl=http%3A%2F%2Fwww.ti.com%2Flit%2Fgpn%2Fcd74hc4067" (id 8) (at 5.08 20.32 0)
        (effects (font (size 1.524 1.524)) (justify left) hide)
      )
      (property "DK_Detail_Page" "/product-detail/en/texas-instruments/CD74HC4067SM96/296-9226-1-ND/376978" (id 9) (at 5.08 22.86 0)
        (effects (font (size 1.524 1.524)) (justify left) hide)
      )
      (property "Description" "IC MUX/DEMUX 1X16 24SSOP" (id 10) (at 5.08 25.4 0)
        (effects (font (size 1.524 1.524)) (justify left) hide)
      )
      (property "Manufacturer" "Texas Instruments" (id 11) (at 5.08 27.94 0)
        (effects (font (size 1.524 1.524)) (justify left) hide)
      )
      (property "Status" "Active" (id 12) (at 5.08 30.48 0)
        (effects (font (size 1.524 1.524)) (justify left) hide)
      )
      (property "ki_keywords" "296-9226-1-ND" (id 13) (at 0 0 0)
        (effects (font (size 1.27 1.27)) hide)
      )
      (property "ki_description" "IC MUX/DEMUX 1X16 24SSOP" (id 14) (at 0 0 0)
        (effects (font (size 1.27 1.27)) hide)
      )
      (symbol "CD74HC4067SM96_0_1"
        (rectangle (start -7.62 22.86) (end 5.08 -25.4)
          (stroke (width 0) (type default) (color 0 0 0 0))
          (fill (type background))
        )
      )
      (symbol "CD74HC4067SM96_1_1"
        (pin bidirectional line (at -12.7 20.32 0) (length 5.08)
          (name "COM" (effects (font (size 1.27 1.27))))
          (number "1" (effects (font (size 1.27 1.27))))
        )
        (pin input line (at 10.16 15.24 180) (length 5.08)
          (name "S0" (effects (font (size 1.27 1.27))))
          (number "10" (effects (font (size 1.27 1.27))))
        )
        (pin input line (at 10.16 12.7 180) (length 5.08)
          (name "S1" (effects (font (size 1.27 1.27))))
          (number "11" (effects (font (size 1.27 1.27))))
        )
        (pin power_in line (at 0 -30.48 90) (length 5.08)
          (name "GND" (effects (font (size 1.27 1.27))))
          (number "12" (effects (font (size 1.27 1.27))))
        )
        (pin input line (at 10.16 10.16 180) (length 5.08)
          (name "S3" (effects (font (size 1.27 1.27))))
          (number "13" (effects (font (size 1.27 1.27))))
        )
        (pin input line (at 10.16 7.62 180) (length 5.08)
          (name "S2" (effects (font (size 1.27 1.27))))
          (number "14" (effects (font (size 1.27 1.27))))
        )
        (pin input line (at -12.7 -22.86 0) (length 5.08)
          (name "E" (effects (font (size 1.27 1.27))))
          (number "15" (effects (font (size 1.27 1.27))))
        )
        (pin input line (at -12.7 -20.32 0) (length 5.08)
          (name "I15" (effects (font (size 1.27 1.27))))
          (number "16" (effects (font (size 1.27 1.27))))
        )
        (pin input line (at -12.7 -17.78 0) (length 5.08)
          (name "I14" (effects (font (size 1.27 1.27))))
          (number "17" (effects (font (size 1.27 1.27))))
        )
        (pin input line (at -12.7 -15.24 0) (length 5.08)
          (name "I13" (effects (font (size 1.27 1.27))))
          (number "18" (effects (font (size 1.27 1.27))))
        )
        (pin input line (at -12.7 -12.7 0) (length 5.08)
          (name "I12" (effects (font (size 1.27 1.27))))
          (number "19" (effects (font (size 1.27 1.27))))
        )
        (pin input line (at -12.7 0 0) (length 5.08)
          (name "I7" (effects (font (size 1.27 1.27))))
          (number "2" (effects (font (size 1.27 1.27))))
        )
        (pin input line (at -12.7 -10.16 0) (length 5.08)
          (name "I11" (effects (font (size 1.27 1.27))))
          (number "20" (effects (font (size 1.27 1.27))))
        )
        (pin input line (at -12.7 -7.62 0) (length 5.08)
          (name "I10" (effects (font (size 1.27 1.27))))
          (number "21" (effects (font (size 1.27 1.27))))
        )
        (pin input line (at -12.7 -5.08 0) (length 5.08)
          (name "I9" (effects (font (size 1.27 1.27))))
          (number "22" (effects (font (size 1.27 1.27))))
        )
        (pin input line (at -12.7 -2.54 0) (length 5.08)
          (name "I8" (effects (font (size 1.27 1.27))))
          (number "23" (effects (font (size 1.27 1.27))))
        )
        (pin power_in line (at 0 27.94 270) (length 5.08)
          (name "VCC" (effects (font (size 1.27 1.27))))
          (number "24" (effects (font (size 1.27 1.27))))
        )
        (pin input line (at -12.7 2.54 0) (length 5.08)
          (name "I6" (effects (font (size 1.27 1.27))))
          (number "3" (effects (font (size 1.27 1.27))))
        )
        (pin input line (at -12.7 5.08 0) (length 5.08)
          (name "I5" (effects (font (size 1.27 1.27))))
          (number "4" (effects (font (size 1.27 1.27))))
        )
        (pin input line (at -12.7 7.62 0) (length 5.08)
          (name "I4" (effects (font (size 1.27 1.27))))
          (number "5" (effects (font (size 1.27 1.27))))
        )
        (pin input line (at -12.7 10.16 0) (length 5.08)
          (name "I3" (effects (font (size 1.27 1.27))))
          (number "6" (effects (font (size 1.27 1.27))))
        )
        (pin input line (at -12.7 12.7 0) (length 5.08)
          (name "I2" (effects (font (size 1.27 1.27))))
          (number "7" (effects (font (size 1.27 1.27))))
        )
        (pin input line (at -12.7 15.24 0) (length 5.08)
          (name "I1" (effects (font (size 1.27 1.27))))
          (number "8" (effects (font (size 1.27 1.27))))
        )
        (pin input line (at -12.7 17.78 0) (length 5.08)
          (name "I0" (effects (font (size 1.27 1.27))))
          (number "9" (effects (font (size 1.27 1.27))))
        )
      )
    )
    (symbol "dk_Slide-Switches:EG1218" (pin_names (offset 0)) (in_bom yes) (on_board yes)
      (property "Reference" "S" (id 0) (at -3.81 2.286 0)
        (effects (font (size 1.27 1.27)))
      )
      (property "Value" "EG1218" (id 1) (at 0 -5.334 0)
        (effects (font (size 1.27 1.27)))
      )
      (property "Footprint" "digikey-footprints:Switch_Slide_11.6x4mm_EG1218" (id 2) (at 5.08 5.08 0)
        (effects (font (size 1.27 1.27)) (justify left) hide)
      )
      (property "Datasheet" "http://spec_sheets.e-switch.com/specs/P040040.pdf" (id 3) (at 5.08 7.62 0)
        (effects (font (size 1.524 1.524)) (justify left) hide)
      )
      (property "Digi-Key_PN" "EG1903-ND" (id 4) (at 5.08 10.16 0)
        (effects (font (size 1.524 1.524)) (justify left) hide)
      )
      (property "MPN" "EG1218" (id 5) (at 5.08 12.7 0)
        (effects (font (size 1.524 1.524)) (justify left) hide)
      )
      (property "Category" "Switches" (id 6) (at 5.08 15.24 0)
        (effects (font (size 1.524 1.524)) (justify left) hide)
      )
      (property "Family" "Slide Switches" (id 7) (at 5.08 17.78 0)
        (effects (font (size 1.524 1.524)) (justify left) hide)
      )
      (property "DK_Datasheet_Link" "http://spec_sheets.e-switch.com/specs/P040040.pdf" (id 8) (at 5.08 20.32 0)
        (effects (font (size 1.524 1.524)) (justify left) hide)
      )
      (property "DK_Detail_Page" "/product-detail/en/e-switch/EG1218/EG1903-ND/101726" (id 9) (at 5.08 22.86 0)
        (effects (font (size 1.524 1.524)) (justify left) hide)
      )
      (property "Description" "SWITCH SLIDE SPDT 200MA 30V" (id 10) (at 5.08 25.4 0)
        (effects (font (size 1.524 1.524)) (justify left) hide)
      )
      (property "Manufacturer" "E-Switch" (id 11) (at 5.08 27.94 0)
        (effects (font (size 1.524 1.524)) (justify left) hide)
      )
      (property "Status" "Active" (id 12) (at 5.08 30.48 0)
        (effects (font (size 1.524 1.524)) (justify left) hide)
      )
      (property "ki_keywords" "EG1903-ND EG" (id 13) (at 0 0 0)
        (effects (font (size 1.27 1.27)) hide)
      )
      (property "ki_description" "SWITCH SLIDE SPDT 200MA 30V" (id 14) (at 0 0 0)
        (effects (font (size 1.27 1.27)) hide)
      )
      (symbol "EG1218_0_1"
        (circle (center -2.286 0) (radius 0.3556)
          (stroke (width 0) (type default) (color 0 0 0 0))
          (fill (type outline))
        )
        (polyline
          (pts
            (xy -2.032 0)
            (xy 3.048 2.286)
          )
          (stroke (width 0) (type default) (color 0 0 0 0))
          (fill (type none))
        )
        (circle (center 2.286 -2.54) (radius 0.3556)
          (stroke (width 0) (type default) (color 0 0 0 0))
          (fill (type outline))
        )
        (circle (center 2.54 2.54) (radius 0.3556)
          (stroke (width 0) (type default) (color 0 0 0 0))
          (fill (type outline))
        )
      )
      (symbol "EG1218_1_1"
        (pin passive line (at 5.08 2.54 180) (length 2.54)
          (name "~" (effects (font (size 1.27 1.27))))
          (number "1" (effects (font (size 1.27 1.27))))
        )
        (pin passive line (at -5.08 0 0) (length 2.54)
          (name "~" (effects (font (size 1.27 1.27))))
          (number "2" (effects (font (size 1.27 1.27))))
        )
        (pin passive line (at 5.08 -2.54 180) (length 2.54)
          (name "~" (effects (font (size 1.27 1.27))))
          (number "3" (effects (font (size 1.27 1.27))))
        )
      )
    )
    (symbol "power:+5V" (power) (pin_names (offset 0)) (in_bom yes) (on_board yes)
      (property "Reference" "#PWR" (id 0) (at 0 -3.81 0)
        (effects (font (size 1.27 1.27)) hide)
      )
      (property "Value" "+5V" (id 1) (at 0 3.556 0)
        (effects (font (size 1.27 1.27)))
      )
      (property "Footprint" "" (id 2) (at 0 0 0)
        (effects (font (size 1.27 1.27)) hide)
      )
      (property "Datasheet" "" (id 3) (at 0 0 0)
        (effects (font (size 1.27 1.27)) hide)
      )
      (property "ki_keywords" "power-flag" (id 4) (at 0 0 0)
        (effects (font (size 1.27 1.27)) hide)
      )
      (property "ki_description" "Power symbol creates a global label with name \"+5V\"" (id 5) (at 0 0 0)
        (effects (font (size 1.27 1.27)) hide)
      )
      (symbol "+5V_0_1"
        (polyline
          (pts
            (xy -0.762 1.27)
            (xy 0 2.54)
          )
          (stroke (width 0) (type default) (color 0 0 0 0))
          (fill (type none))
        )
        (polyline
          (pts
            (xy 0 0)
            (xy 0 2.54)
          )
          (stroke (width 0) (type default) (color 0 0 0 0))
          (fill (type none))
        )
        (polyline
          (pts
            (xy 0 2.54)
            (xy 0.762 1.27)
          )
          (stroke (width 0) (type default) (color 0 0 0 0))
          (fill (type none))
        )
      )
      (symbol "+5V_1_1"
        (pin power_in line (at 0 0 90) (length 0) hide
          (name "+5V" (effects (font (size 1.27 1.27))))
          (number "1" (effects (font (size 1.27 1.27))))
        )
      )
    )
    (symbol "power:+VDC" (power) (pin_names (offset 0)) (in_bom yes) (on_board yes)
      (property "Reference" "#PWR" (id 0) (at 0 -2.54 0)
        (effects (font (size 1.27 1.27)) hide)
      )
      (property "Value" "+VDC" (id 1) (at 0 6.35 0)
        (effects (font (size 1.27 1.27)))
      )
      (property "Footprint" "" (id 2) (at 0 0 0)
        (effects (font (size 1.27 1.27)) hide)
      )
      (property "Datasheet" "" (id 3) (at 0 0 0)
        (effects (font (size 1.27 1.27)) hide)
      )
      (property "ki_keywords" "power-flag" (id 4) (at 0 0 0)
        (effects (font (size 1.27 1.27)) hide)
      )
      (property "ki_description" "Power symbol creates a global label with name \"+VDC\"" (id 5) (at 0 0 0)
        (effects (font (size 1.27 1.27)) hide)
      )
      (symbol "+VDC_0_1"
        (polyline
          (pts
            (xy -1.143 3.175)
            (xy 1.143 3.175)
          )
          (stroke (width 0.508) (type default) (color 0 0 0 0))
          (fill (type none))
        )
        (polyline
          (pts
            (xy 0 0)
            (xy 0 1.27)
          )
          (stroke (width 0) (type default) (color 0 0 0 0))
          (fill (type none))
        )
        (polyline
          (pts
            (xy 0 2.032)
            (xy 0 4.318)
          )
          (stroke (width 0.508) (type default) (color 0 0 0 0))
          (fill (type none))
        )
        (circle (center 0 3.175) (radius 1.905)
          (stroke (width 0.254) (type default) (color 0 0 0 0))
          (fill (type none))
        )
      )
      (symbol "+VDC_1_1"
        (pin power_in line (at 0 0 90) (length 0) hide
          (name "+VDC" (effects (font (size 1.27 1.27))))
          (number "1" (effects (font (size 1.27 1.27))))
        )
      )
    )
    (symbol "power:GND" (power) (pin_names (offset 0)) (in_bom yes) (on_board yes)
      (property "Reference" "#PWR" (id 0) (at 0 -6.35 0)
        (effects (font (size 1.27 1.27)) hide)
      )
      (property "Value" "GND" (id 1) (at 0 -3.81 0)
        (effects (font (size 1.27 1.27)))
      )
      (property "Footprint" "" (id 2) (at 0 0 0)
        (effects (font (size 1.27 1.27)) hide)
      )
      (property "Datasheet" "" (id 3) (at 0 0 0)
        (effects (font (size 1.27 1.27)) hide)
      )
      (property "ki_keywords" "power-flag" (id 4) (at 0 0 0)
        (effects (font (size 1.27 1.27)) hide)
      )
      (property "ki_description" "Power symbol creates a global label with name \"GND\" , ground" (id 5) (at 0 0 0)
        (effects (font (size 1.27 1.27)) hide)
      )
      (symbol "GND_0_1"
        (polyline
          (pts
            (xy 0 0)
            (xy 0 -1.27)
            (xy 1.27 -1.27)
            (xy 0 -2.54)
            (xy -1.27 -1.27)
            (xy 0 -1.27)
          )
          (stroke (width 0) (type default) (color 0 0 0 0))
          (fill (type none))
        )
      )
      (symbol "GND_1_1"
        (pin power_in line (at 0 0 270) (length 0) hide
          (name "GND" (effects (font (size 1.27 1.27))))
          (number "1" (effects (font (size 1.27 1.27))))
        )
      )
    )
  )

  (junction (at 168.91 123.19) (diameter 0) (color 0 0 0 0)
    (uuid 2f9b4eb8-812b-448a-b699-f01924e22ca3)
  )
  (junction (at 147.32 53.34) (diameter 0) (color 0 0 0 0)
    (uuid 9eea2193-59bf-4be3-b18b-6cdd65c932a4)
  )
  (junction (at 143.51 123.19) (diameter 0) (color 0 0 0 0)
    (uuid d17c15ef-f4bd-4007-ae32-f5e7f3296fd8)
  )
  (junction (at 92.71 123.19) (diameter 0) (color 0 0 0 0)
    (uuid edbe86e7-3341-4cd2-b1c7-ae718f8a1aa4)
  )

  (no_connect (at 156.21 102.87) (uuid 05965919-0d28-4bd0-a7d3-22e26170b347))
  (no_connect (at 156.21 105.41) (uuid 20ee71a0-e951-45ac-bb46-4fbb13e2624a))
  (no_connect (at 156.21 107.95) (uuid f83b22d1-46dc-4897-9d27-576db4cdb605))

  (wire (pts (xy 127 109.22) (xy 127 82.55))
    (stroke (width 0) (type default) (color 0 0 0 0))
    (uuid 00f130c8-5f14-4dc5-96eb-7122900f2606)
  )
  (wire (pts (xy 156.21 87.63) (xy 143.51 87.63))
    (stroke (width 0) (type default) (color 0 0 0 0))
    (uuid 02895931-81db-4479-ac38-0e2bc6f42808)
  )
  (wire (pts (xy 124.46 111.76) (xy 124.46 92.71))
    (stroke (width 0) (type default) (color 0 0 0 0))
    (uuid 08b63da0-7c72-4526-beb0-65f44001af8a)
  )
  (wire (pts (xy 147.32 95.25) (xy 147.32 109.22))
    (stroke (width 0) (type default) (color 0 0 0 0))
    (uuid 09adf5e0-193d-4d13-91bd-cf0e4e1ae663)
  )
  (wire (pts (xy 101.6 102.87) (xy 101.6 114.3))
    (stroke (width 0) (type default) (color 0 0 0 0))
    (uuid 09ed4735-223a-407b-8990-bbf86c820a26)
  )
  (wire (pts (xy 147.32 109.22) (xy 127 109.22))
    (stroke (width 0) (type default) (color 0 0 0 0))
    (uuid 09edc0f9-d142-4d48-832a-e803b2e99482)
  )
  (wire (pts (xy 139.7 80.01) (xy 139.7 90.17))
    (stroke (width 0) (type default) (color 0 0 0 0))
    (uuid 0e90ab00-58f0-4f07-b545-2f374f679bcb)
  )
  (wire (pts (xy 137.16 80.01) (xy 100.33 80.01))
    (stroke (width 0) (type default) (color 0 0 0 0))
    (uuid 101134c2-e840-40df-beff-e0d5a9a5f0d8)
  )
  (wire (pts (xy 156.21 90.17) (xy 144.78 90.17))
    (stroke (width 0) (type default) (color 0 0 0 0))
    (uuid 15509b90-1b90-4ee2-aa0b-881740063877)
  )
  (wire (pts (xy 156.21 72.39) (xy 135.89 72.39))
    (stroke (width 0) (type default) (color 0 0 0 0))
    (uuid 1b07572c-410b-4e6a-9100-4cb2ff800395)
  )
  (wire (pts (xy 143.51 87.63) (xy 143.51 105.41))
    (stroke (width 0) (type default) (color 0 0 0 0))
    (uuid 1f1e91fb-b9a6-4d18-9a91-3f9b9353d2ac)
  )
  (wire (pts (xy 146.05 92.71) (xy 146.05 107.95))
    (stroke (width 0) (type default) (color 0 0 0 0))
    (uuid 21baa77d-34bc-4d2c-84bb-335da82d3567)
  )
  (wire (pts (xy 140.97 82.55) (xy 140.97 95.25))
    (stroke (width 0) (type default) (color 0 0 0 0))
    (uuid 22d921d9-b17d-4b30-9bdb-c7fe29b2cbd6)
  )
  (wire (pts (xy 135.89 74.93) (xy 100.33 74.93))
    (stroke (width 0) (type default) (color 0 0 0 0))
    (uuid 3070a447-394c-4dcb-802e-24b122127c6b)
  )
  (wire (pts (xy 156.21 74.93) (xy 137.16 74.93))
    (stroke (width 0) (type default) (color 0 0 0 0))
    (uuid 33ec4133-6c68-4be0-98eb-03d1e54afbb9)
  )
  (wire (pts (xy 92.71 110.49) (xy 92.71 123.19))
    (stroke (width 0) (type default) (color 0 0 0 0))
    (uuid 397e50bc-264a-42b6-a562-89df64eb1ced)
  )
  (wire (pts (xy 147.32 53.34) (xy 156.21 53.34))
    (stroke (width 0) (type default) (color 0 0 0 0))
    (uuid 3e724af6-8937-41fb-9f6e-3b2e75544f6a)
  )
  (wire (pts (xy 138.43 85.09) (xy 100.33 85.09))
    (stroke (width 0) (type default) (color 0 0 0 0))
    (uuid 404e0b40-df7c-4bb3-8eb1-2356a8b94ffe)
  )
  (wire (pts (xy 143.51 105.41) (xy 100.33 105.41))
    (stroke (width 0) (type default) (color 0 0 0 0))
    (uuid 480d02f3-ee81-4bf8-b899-c393365fef2f)
  )
  (wire (pts (xy 179.07 77.47) (xy 181.61 77.47))
    (stroke (width 0) (type default) (color 0 0 0 0))
    (uuid 499eb709-eb4e-4daf-bcf1-16cf0829f7fb)
  )
  (wire (pts (xy 143.51 53.34) (xy 147.32 53.34))
    (stroke (width 0) (type default) (color 0 0 0 0))
    (uuid 4ae344b9-e937-44a6-8af1-2a914af69abc)
  )
  (wire (pts (xy 168.91 58.42) (xy 168.91 59.69))
    (stroke (width 0) (type default) (color 0 0 0 0))
    (uuid 4d174c03-a225-4e8b-be7b-dbcdaccb5cf9)
  )
  (wire (pts (xy 144.78 106.68) (xy 129.54 106.68))
    (stroke (width 0) (type default) (color 0 0 0 0))
    (uuid 4f73197f-aa01-4f63-8ba5-23d27d6ea1f4)
  )
  (wire (pts (xy 179.07 80.01) (xy 181.61 80.01))
    (stroke (width 0) (type default) (color 0 0 0 0))
    (uuid 54987f14-5fee-406b-8aa1-5ade36f2f63f)
  )
  (wire (pts (xy 129.54 72.39) (xy 100.33 72.39))
    (stroke (width 0) (type default) (color 0 0 0 0))
    (uuid 56f43b8c-3aa0-4439-a276-312e6d43780a)
  )
  (wire (pts (xy 148.59 110.49) (xy 125.73 110.49))
    (stroke (width 0) (type default) (color 0 0 0 0))
    (uuid 5f16782e-b764-4357-9024-5f0d36bc5118)
  )
  (wire (pts (xy 156.21 77.47) (xy 138.43 77.47))
    (stroke (width 0) (type default) (color 0 0 0 0))
    (uuid 65456996-bca6-4daa-b951-f3ba450c1461)
  )
  (wire (pts (xy 143.51 120.65) (xy 143.51 123.19))
    (stroke (width 0) (type default) (color 0 0 0 0))
    (uuid 65bb06ba-0085-4454-ba36-b5fd28d34689)
  )
  (wire (pts (xy 127 82.55) (xy 100.33 82.55))
    (stroke (width 0) (type default) (color 0 0 0 0))
    (uuid 6d140afd-28dd-4d32-a728-5a5a24075176)
  )
  (wire (pts (xy 149.86 111.76) (xy 124.46 111.76))
    (stroke (width 0) (type default) (color 0 0 0 0))
    (uuid 6d1bf53b-5fbf-4e16-9d2b-efcff6599c6d)
  )
  (wire (pts (xy 143.51 115.57) (xy 146.05 115.57))
    (stroke (width 0) (type default) (color 0 0 0 0))
    (uuid 7230b4f1-b617-44c9-bcd4-4a2da7426e4b)
  )
  (wire (pts (xy 137.16 74.93) (xy 137.16 80.01))
    (stroke (width 0) (type default) (color 0 0 0 0))
    (uuid 7edceb2b-1dca-4238-bd18-4a36844dd404)
  )
  (wire (pts (xy 156.21 97.79) (xy 148.59 97.79))
    (stroke (width 0) (type default) (color 0 0 0 0))
    (uuid 7fa2c6e9-afe2-4763-bb45-b5d21ab1ca00)
  )
  (wire (pts (xy 177.8 114.3) (xy 177.8 115.57))
    (stroke (width 0) (type default) (color 0 0 0 0))
    (uuid 8693fc2f-de37-4604-8c81-71f3095138e9)
  )
  (wire (pts (xy 148.59 97.79) (xy 148.59 110.49))
    (stroke (width 0) (type default) (color 0 0 0 0))
    (uuid 87d08b04-17ba-4759-8a83-feb169e7c5f7)
  )
  (wire (pts (xy 125.73 110.49) (xy 125.73 87.63))
    (stroke (width 0) (type default) (color 0 0 0 0))
    (uuid 88e09e69-a579-4e82-a2f0-1058c67f8e25)
  )
  (wire (pts (xy 143.51 123.19) (xy 168.91 123.19))
    (stroke (width 0) (type default) (color 0 0 0 0))
    (uuid 9258de5e-5765-4873-bfc3-aabc5261b70b)
  )
  (wire (pts (xy 125.73 87.63) (xy 100.33 87.63))
    (stroke (width 0) (type default) (color 0 0 0 0))
    (uuid 949cf27a-48ee-49a7-8e18-19ebbc795af3)
  )
  (wire (pts (xy 156.21 82.55) (xy 140.97 82.55))
    (stroke (width 0) (type default) (color 0 0 0 0))
    (uuid 97845aa1-9c48-400a-9929-01a2a5cd6fda)
  )
  (wire (pts (xy 179.07 72.39) (xy 181.61 72.39))
    (stroke (width 0) (type default) (color 0 0 0 0))
    (uuid 9b81bd04-736f-4d68-9061-b9ca14d0f5c8)
  )
  (wire (pts (xy 146.05 107.95) (xy 128.27 107.95))
    (stroke (width 0) (type default) (color 0 0 0 0))
    (uuid 9ddc1811-d90f-4d0e-97e3-740e5bc302fb)
  )
  (wire (pts (xy 143.51 120.65) (xy 146.05 120.65))
    (stroke (width 0) (type default) (color 0 0 0 0))
    (uuid 9e9e70b0-6293-45e6-8fb2-808d79e846b9)
  )
  (wire (pts (xy 124.46 92.71) (xy 100.33 92.71))
    (stroke (width 0) (type default) (color 0 0 0 0))
    (uuid a0968b02-db81-4251-8408-6d3123b602ed)
  )
  (wire (pts (xy 142.24 100.33) (xy 100.33 100.33))
    (stroke (width 0) (type default) (color 0 0 0 0))
    (uuid ad8b3171-ada0-407f-85a8-5e7934f881c1)
  )
  (wire (pts (xy 101.6 114.3) (xy 105.41 114.3))
    (stroke (width 0) (type default) (color 0 0 0 0))
    (uuid ae6b02d6-9cf7-4323-b346-6916a40bec84)
  )
  (wire (pts (xy 156.21 110.49) (xy 156.21 118.11))
    (stroke (width 0) (type default) (color 0 0 0 0))
    (uuid b0d9cf77-9fc9-4d62-9a8a-c8acfe39a148)
  )
  (wire (pts (xy 128.27 107.95) (xy 128.27 77.47))
    (stroke (width 0) (type default) (color 0 0 0 0))
    (uuid b205a32d-c4a1-4926-8b8e-cd932b4c6b78)
  )
  (wire (pts (xy 138.43 77.47) (xy 138.43 85.09))
    (stroke (width 0) (type default) (color 0 0 0 0))
    (uuid b5602d41-1279-4dce-8f91-50f81b5e6bea)
  )
  (wire (pts (xy 142.24 85.09) (xy 142.24 100.33))
    (stroke (width 0) (type default) (color 0 0 0 0))
    (uuid b8bfbdf8-449e-427f-b3ca-6ae494c4030e)
  )
  (wire (pts (xy 168.91 123.19) (xy 168.91 118.11))
    (stroke (width 0) (type default) (color 0 0 0 0))
    (uuid c61b75c3-551c-4978-899a-0dbf15d77b76)
  )
  (wire (pts (xy 128.27 77.47) (xy 100.33 77.47))
    (stroke (width 0) (type default) (color 0 0 0 0))
    (uuid c77e96f2-2eb9-4d80-b36d-9c8b026fe0e0)
  )
  (wire (pts (xy 144.78 90.17) (xy 144.78 106.68))
    (stroke (width 0) (type default) (color 0 0 0 0))
    (uuid ca4d97a8-57e1-4df0-ac60-2aebab4253c0)
  )
  (wire (pts (xy 92.71 123.19) (xy 92.71 128.27))
    (stroke (width 0) (type default) (color 0 0 0 0))
    (uuid ca92ccca-6d49-4c84-a09d-5cccafd197ee)
  )
  (wire (pts (xy 149.86 100.33) (xy 149.86 111.76))
    (stroke (width 0) (type default) (color 0 0 0 0))
    (uuid cba06b97-c3b2-40f7-ab03-1ed9091c2d5b)
  )
  (wire (pts (xy 156.21 53.34) (xy 156.21 67.31))
    (stroke (width 0) (type default) (color 0 0 0 0))
    (uuid cf902eec-dd42-404b-bcbf-a6d752b51e51)
  )
  (wire (pts (xy 139.7 90.17) (xy 100.33 90.17))
    (stroke (width 0) (type default) (color 0 0 0 0))
    (uuid cfac6f6e-4d64-4a38-932d-3a208f5826d6)
  )
  (wire (pts (xy 156.21 100.33) (xy 149.86 100.33))
    (stroke (width 0) (type default) (color 0 0 0 0))
    (uuid d0176a28-da02-4bb0-9d4c-b406406d298a)
  )
  (wire (pts (xy 156.21 85.09) (xy 142.24 85.09))
    (stroke (width 0) (type default) (color 0 0 0 0))
    (uuid d1ef9bdf-344e-468a-af48-cc6fdc446f20)
  )
  (wire (pts (xy 140.97 95.25) (xy 100.33 95.25))
    (stroke (width 0) (type default) (color 0 0 0 0))
    (uuid d4ad95db-aacf-4d46-a86e-3fe32e4e4a41)
  )
  (wire (pts (xy 179.07 74.93) (xy 181.61 74.93))
    (stroke (width 0) (type default) (color 0 0 0 0))
    (uuid d523ef14-30b8-4a00-90af-67f4e6e12739)
  )
  (wire (pts (xy 156.21 69.85) (xy 100.33 69.85))
    (stroke (width 0) (type default) (color 0 0 0 0))
    (uuid d5c4db61-9378-44c5-8d90-3a2a0fd6a938)
  )
  (wire (pts (xy 100.33 97.79) (xy 102.87 97.79))
    (stroke (width 0) (type default) (color 0 0 0 0))
    (uuid d71b4d1f-98f2-4d78-b5f3-6988cd842053)
  )
  (wire (pts (xy 156.21 92.71) (xy 146.05 92.71))
    (stroke (width 0) (type default) (color 0 0 0 0))
    (uuid d7a4008c-4117-4670-9666-2a79c957d103)
  )
  (wire (pts (xy 100.33 102.87) (xy 101.6 102.87))
    (stroke (width 0) (type default) (color 0 0 0 0))
    (uuid d80786a3-e140-45c6-8baa-bd15cf3e536d)
  )
  (wire (pts (xy 143.51 123.19) (xy 92.71 123.19))
    (stroke (width 0) (type default) (color 0 0 0 0))
    (uuid e1ffd4be-36a8-424a-b62f-a5126aac4903)
  )
  (wire (pts (xy 135.89 72.39) (xy 135.89 74.93))
    (stroke (width 0) (type default) (color 0 0 0 0))
    (uuid e3f0cc67-cddb-44f1-8b0b-8d6f149b235c)
  )
  (wire (pts (xy 156.21 95.25) (xy 147.32 95.25))
    (stroke (width 0) (type default) (color 0 0 0 0))
    (uuid ee21a832-88c5-406d-922b-93fe745ca466)
  )
  (wire (pts (xy 129.54 106.68) (xy 129.54 72.39))
    (stroke (width 0) (type default) (color 0 0 0 0))
    (uuid eefd9aae-c5a2-4dbd-a65a-7ce53e459a65)
  )
  (wire (pts (xy 168.91 123.19) (xy 177.8 123.19))
    (stroke (width 0) (type default) (color 0 0 0 0))
    (uuid ef852888-78ee-41c1-8e22-f12a06b8b246)
  )
  (wire (pts (xy 153.67 107.95) (xy 156.21 107.95))
    (stroke (width 0) (type default) (color 0 0 0 0))
    (uuid f95328e4-bc26-4da2-ac5d-2c2ccdac1153)
  )
  (wire (pts (xy 156.21 80.01) (xy 139.7 80.01))
    (stroke (width 0) (type default) (color 0 0 0 0))
    (uuid fa32586a-c836-4994-919e-cdcab629a8b3)
  )
  (wire (pts (xy 147.32 60.96) (xy 147.32 62.23))
    (stroke (width 0) (type default) (color 0 0 0 0))
    (uuid fedaf455-c818-447f-bf54-122e7d5db38d)
  )

  (text "The trigger board D-SUB connector is accessed via a 16-channel multiplexer\nCD74HC4067M96. The Arduino Nano selects which signal line to propagate. The same \nsignal line is selected on all 8 input muxes."
    (at 88.9 44.45 0)
    (effects (font (size 1.27 1.27)) (justify left bottom))
    (uuid 20279fdb-67f1-439b-9282-667e49ae1866)
  )

  (global_label "inMux_S1" (shape input) (at 181.61 74.93 0) (fields_autoplaced)
    (effects (font (size 1.27 1.27)) (justify left))
    (uuid 00b6cc6d-4287-4860-8e6a-3304688768a6)
    (property "Intersheet References" "${INTERSHEET_REFS}" (id 0) (at 0 0 0)
      (effects (font (size 1.27 1.27)) hide)
    )
  )
  (global_label "inMux_S3" (shape input) (at 181.61 77.47 0) (fields_autoplaced)
    (effects (font (size 1.27 1.27)) (justify left))
    (uuid a495b74b-c0ce-48be-b238-26c13196f192)
    (property "Intersheet References" "${INTERSHEET_REFS}" (id 0) (at 0 0 0)
      (effects (font (size 1.27 1.27)) hide)
    )
  )
  (global_label "inMux_S2" (shape input) (at 181.61 80.01 0) (fields_autoplaced)
    (effects (font (size 1.27 1.27)) (justify left))
    (uuid a97f5a69-94a5-4c87-8254-2e1bba2869d2)
    (property "Intersheet References" "${INTERSHEET_REFS}" (id 0) (at 0 0 0)
      (effects (font (size 1.27 1.27)) hide)
    )
  )
  (global_label "inMux_S0" (shape input) (at 181.61 72.39 0) (fields_autoplaced)
    (effects (font (size 1.27 1.27)) (justify left))
    (uuid b73cdd16-d859-41ff-93ae-f074acf2dffd)
    (property "Intersheet References" "${INTERSHEET_REFS}" (id 0) (at 0 0 0)
      (effects (font (size 1.27 1.27)) hide)
    )
  )
  (global_label "RESET" (shape input) (at 102.87 97.79 0) (fields_autoplaced)
    (effects (font (size 1.27 1.27)) (justify left))
    (uuid df7e0286-9610-4c21-a8e5-b3cab68a1a94)
    (property "Intersheet References" "${INTERSHEET_REFS}" (id 0) (at 0 0 0)
      (effects (font (size 1.27 1.27)) hide)
    )
  )

  (hierarchical_label "out" (shape input) (at 143.51 53.34 180)
    (effects (font (size 1.27 1.27)) (justify right))
    (uuid 394127f3-8cff-4d17-90b1-b404cfed7bdf)
  )

  (symbol (lib_id "Device:C") (at 177.8 119.38 0) (unit 1)
    (in_bom yes) (on_board yes)
    (uuid 00000000-0000-0000-0000-00005fa8477f)
    (property "Reference" "C6" (id 0) (at 180.721 118.2116 0)
      (effects (font (size 1.27 1.27)) (justify left))
    )
    (property "Value" "100n" (id 1) (at 180.721 120.523 0)
      (effects (font (size 1.27 1.27)) (justify left))
    )
    (property "Footprint" "Capacitor_SMD:C_0805_2012Metric_Pad1.18x1.45mm_HandSolder" (id 2) (at 180.721 121.6914 0)
      (effects (font (size 1.27 1.27)) (justify left) hide)
    )
    (property "Datasheet" "~" (id 3) (at 177.8 119.38 0)
      (effects (font (size 1.27 1.27)) hide)
    )
    (property "Digi-Key_PN" "‎399-8000-1-ND‎" (id 4) (at 177.8 119.38 0)
      (effects (font (size 1.27 1.27)) hide)
    )
    (pin "1" (uuid b53932fd-2972-4b43-bb3c-50f0d08c63db))
    (pin "2" (uuid 1233810a-4287-45ed-9ceb-00f1ed86c5cd))
  )

  (symbol (lib_id "power:+5V") (at 168.91 58.42 0) (unit 1)
    (in_bom yes) (on_board yes)
    (uuid 00000000-0000-0000-0000-00005fa84786)
    (property "Reference" "#PWR0120" (id 0) (at 168.91 62.23 0)
      (effects (font (size 1.27 1.27)) hide)
    )
    (property "Value" "+5V" (id 1) (at 171.45 58.42 0))
    (property "Footprint" "" (id 2) (at 168.91 58.42 0)
      (effects (font (size 1.27 1.27)) hide)
    )
    (property "Datasheet" "" (id 3) (at 168.91 58.42 0)
      (effects (font (size 1.27 1.27)) hide)
    )
    (pin "1" (uuid 1fb6282d-a036-48da-adb0-4452f268fb5f))
  )

  (symbol (lib_id "power:GND") (at 92.71 128.27 0) (unit 1)
    (in_bom yes) (on_board yes)
    (uuid 00000000-0000-0000-0000-00005fa84793)
    (property "Reference" "#PWR0121" (id 0) (at 92.71 134.62 0)
      (effects (font (size 1.27 1.27)) hide)
    )
    (property "Value" "GND" (id 1) (at 92.837 132.6642 0))
    (property "Footprint" "" (id 2) (at 92.71 128.27 0)
      (effects (font (size 1.27 1.27)) hide)
    )
    (property "Datasheet" "" (id 3) (at 92.71 128.27 0)
      (effects (font (size 1.27 1.27)) hide)
    )
    (pin "1" (uuid bb35662a-103d-47b2-a8ee-d82e5588c489))
  )

  (symbol (lib_id "Connector:DB15_Female_MountingHoles") (at 92.71 87.63 0) (mirror y) (unit 1)
    (in_bom yes) (on_board yes)
    (uuid 00000000-0000-0000-0000-00005fa847ce)
    (property "Reference" "J6" (id 0) (at 95.0976 62.4332 0))
    (property "Value" "5747845-4" (id 1) (at 95.0976 64.7446 0))
    (property "Footprint" "Connector_Dsub:DSUB-15_Female_Horizontal_P2.77x2.84mm_EdgePinOffset7.70mm_Housed_MountingHolesOffset9.12mm" (id 2) (at 92.71 87.63 0)
      (effects (font (size 1.27 1.27)) hide)
    )
    (property "Datasheet" "https://www.te.com/commerce/DocumentDelivery/DDEController?Action=srchrtrv&DocNm=5747845&DocType=Customer+Drawing&DocLang=English" (id 3) (at 92.71 87.63 0)
      (effects (font (size 1.27 1.27)) hide)
    )
    (property "Digi-Key_PN" "A32121-ND" (id 4) (at 92.71 87.63 0)
      (effects (font (size 1.27 1.27)) hide)
    )
    (pin "0" (uuid 0932afc9-89b6-4162-90f2-0c217378ac20))
    (pin "1" (uuid 62eff1b1-a8a4-4804-ad83-94a440c05c31))
    (pin "10" (uuid 9ad590b5-d26b-4317-bbf5-4113ea548320))
    (pin "11" (uuid 5650fa0b-64f8-4b06-8a19-ce24abbe88c7))
    (pin "12" (uuid 80f99f51-8ef8-4386-868a-b8caae593710))
    (pin "13" (uuid 54c8bf53-3ab5-43fb-b3e3-054255a6a8a6))
    (pin "14" (uuid 761d420d-496e-47d9-ad0b-c1107030ad52))
    (pin "15" (uuid b4f402a6-ab86-446d-b982-fae88e5e1f1d))
    (pin "2" (uuid f32757ca-bab5-405c-a218-63eb7796da05))
    (pin "3" (uuid 3d298441-fda9-428b-9514-b1938dbfa1ba))
    (pin "4" (uuid c660ef1e-8e81-49b4-9c57-8c0bab3b8d54))
    (pin "5" (uuid 314bd172-4332-4e54-bd5c-a08de325afe1))
    (pin "6" (uuid 95e5d30c-2b01-4fa0-8d16-092edb9b5374))
    (pin "7" (uuid 23ed433e-dc41-471e-a656-cb46463fe249))
    (pin "8" (uuid 488c059a-1d7f-4455-8979-0a0cfb297c63))
    (pin "9" (uuid fe7593d2-3d0b-4164-83d0-693c5496f72d))
  )

  (symbol (lib_id "dk_Interface-Analog-Switches-Multiplexers-Demultiplexers:CD74HC4067SM96") (at 168.91 87.63 0) (unit 1)
    (in_bom yes) (on_board yes)
    (uuid 00000000-0000-0000-0000-00005fa847dd)
    (property "Reference" "U7" (id 0) (at 179.07 86.36 0)
      (effects (font (size 1.524 1.524)))
    )
    (property "Value" "CD74HC4067M96" (id 1) (at 186.69 88.9 0)
      (effects (font (size 1.524 1.524)))
    )
    (property "Footprint" "Package_SO:SOIC-24W_7.5x15.4mm_P1.27mm" (id 2) (at 173.99 82.55 0)
      (effects (font (size 1.524 1.524)) (justify left) hide)
    )
    (property "Datasheet" "http://www.ti.com/general/docs/suppproductinfo.tsp?distId=10&gotoUrl=http%3A%2F%2Fwww.ti.com%2Flit%2Fgpn%2Fcd74hc4067" (id 3) (at 173.99 80.01 0)
      (effects (font (size 1.524 1.524)) (justify left) hide)
    )
    (property "Digi-Key_PN" "296-29408-1-ND" (id 4) (at 173.99 77.47 0)
      (effects (font (size 1.524 1.524)) (justify left) hide)
    )
    (property "MPN" "CD74HC4067SM96" (id 5) (at 173.99 74.93 0)
      (effects (font (size 1.524 1.524)) (justify left) hide)
    )
    (property "Category" "Integrated Circuits (ICs)" (id 6) (at 173.99 72.39 0)
      (effects (font (size 1.524 1.524)) (justify left) hide)
    )
    (property "Family" "Interface - Analog Switches, Multiplexers, Demultiplexers" (id 7) (at 173.99 69.85 0)
      (effects (font (size 1.524 1.524)) (justify left) hide)
    )
    (property "DK_Datasheet_Link" "http://www.ti.com/general/docs/suppproductinfo.tsp?distId=10&gotoUrl=http%3A%2F%2Fwww.ti.com%2Flit%2Fgpn%2Fcd74hc4067" (id 8) (at 173.99 67.31 0)
      (effects (font (size 1.524 1.524)) (justify left) hide)
    )
    (property "DK_Detail_Page" "/product-detail/en/texas-instruments/CD74HC4067SM96/296-9226-1-ND/376978" (id 9) (at 173.99 64.77 0)
      (effects (font (size 1.524 1.524)) (justify left) hide)
    )
    (property "Description" "IC MUX/DEMUX 1X16 24SSOP" (id 10) (at 173.99 62.23 0)
      (effects (font (size 1.524 1.524)) (justify left) hide)
    )
    (property "Manufacturer" "Texas Instruments" (id 11) (at 173.99 59.69 0)
      (effects (font (size 1.524 1.524)) (justify left) hide)
    )
    (property "Status" "Active" (id 12) (at 173.99 57.15 0)
      (effects (font (size 1.524 1.524)) (justify left) hide)
    )
    (pin "1" (uuid 963ff84b-9986-47e1-bfe5-deecc485e626))
    (pin "10" (uuid f9070b72-3e94-46b4-9012-c6bf782714e0))
    (pin "11" (uuid d680fe50-4307-421a-a78e-1eb020d39270))
    (pin "12" (uuid 5a3daae9-60b0-4155-90ad-e86f31a4bed7))
    (pin "13" (uuid 697122aa-6651-4573-a32c-ae1b6ce4be0e))
    (pin "14" (uuid effa06c6-979a-4e9e-946c-1f46149d480c))
    (pin "15" (uuid cb10f2ec-d887-4801-b4bd-74b195e983d9))
    (pin "16" (uuid d9e96293-c76b-4f9f-abed-b79c7f9a1b6b))
    (pin "17" (uuid aa87bb9d-5e6b-473d-87f5-d7a679fbdb06))
    (pin "18" (uuid 6dd90bd1-d4d0-4c99-886c-b1091ba66cda))
    (pin "19" (uuid dd72353a-da99-4481-a305-af823d616142))
    (pin "2" (uuid 3eb45b83-2082-4170-b14c-f86b22f74eca))
    (pin "20" (uuid 9520b316-9157-47bc-9352-f0f575e068fd))
    (pin "21" (uuid 54b89db9-30ae-410e-aa06-08f2dcfb455b))
    (pin "22" (uuid 7205a7d7-a5c4-4d4e-b65c-92a1a9c7fbc8))
    (pin "23" (uuid b91ad316-eadf-4fba-b351-00c66c38cf26))
    (pin "24" (uuid 34c80ff4-1f29-4837-a07b-afc03aec01ea))
    (pin "3" (uuid 87b30f22-31f3-4536-a0d9-6e4f26f6c2cb))
    (pin "4" (uuid df95e593-1460-4cc4-94cb-bbe4798ee0c2))
    (pin "5" (uuid a249fd7e-8be6-4f1a-b267-66c6a67c57ca))
    (pin "6" (uuid 58e27e64-9558-4067-9866-737880fceaa1))
    (pin "7" (uuid 499c251d-ce1e-4785-8d02-f7e14d1192fa))
    (pin "8" (uuid eb7023a0-05c9-433a-8986-b43e34f912a5))
    (pin "9" (uuid bbe9b644-91e7-4675-9aa0-20ba3839b982))
  )

  (symbol (lib_id "power:+VDC") (at 105.41 114.3 0) (unit 1)
    (in_bom yes) (on_board yes)
    (uuid 00000000-0000-0000-0000-00005fd4ae51)
    (property "Reference" "#PWR0168" (id 0) (at 105.41 116.84 0)
      (effects (font (size 1.27 1.27)) hide)
    )
    (property "Value" "+VDC" (id 1) (at 105.41 107.315 0))
    (property "Footprint" "" (id 2) (at 105.41 114.3 0)
      (effects (font (size 1.27 1.27)) hide)
    )
    (property "Datasheet" "" (id 3) (at 105.41 114.3 0)
      (effects (font (size 1.27 1.27)) hide)
    )
    (pin "1" (uuid a815c3d1-f802-404b-9c48-8357c6660b95))
  )

  (symbol (lib_id "Device:R") (at 147.32 57.15 0) (unit 1)
    (in_bom yes) (on_board yes)
    (uuid 00000000-0000-0000-0000-00006014026b)
    (property "Reference" "R62" (id 0) (at 149.098 55.9816 0)
      (effects (font (size 1.27 1.27)) (justify left))
    )
    (property "Value" "10k" (id 1) (at 149.098 58.293 0)
      (effects (font (size 1.27 1.27)) (justify left))
    )
    (property "Footprint" "Resistor_SMD:R_0603_1608Metric" (id 2) (at 145.542 57.15 90)
      (effects (font (size 1.27 1.27)) hide)
    )
    (property "Datasheet" "~" (id 3) (at 147.32 57.15 0)
      (effects (font (size 1.27 1.27)) hide)
    )
    (property "Digi-Key_PN" "P10KGCT-ND" (id 4) (at 147.32 57.15 0)
      (effects (font (size 1.27 1.27)) hide)
    )
    (pin "1" (uuid 29b5a72e-3237-47ce-9c21-3674e0d738c2))
    (pin "2" (uuid acb3826f-4252-4743-9c13-6131522ac031))
  )

  (symbol (lib_id "power:GND") (at 147.32 62.23 0) (unit 1)
    (in_bom yes) (on_board yes)
    (uuid 00000000-0000-0000-0000-000060141187)
    (property "Reference" "#PWR0190" (id 0) (at 147.32 68.58 0)
      (effects (font (size 1.27 1.27)) hide)
    )
    (property "Value" "GND" (id 1) (at 147.447 66.6242 0))
    (property "Footprint" "" (id 2) (at 147.32 62.23 0)
      (effects (font (size 1.27 1.27)) hide)
    )
    (property "Datasheet" "" (id 3) (at 147.32 62.23 0)
      (effects (font (size 1.27 1.27)) hide)
    )
    (pin "1" (uuid 8f993fe1-08b8-41e4-b5c4-d98671d410c7))
  )

  (symbol (lib_id "power:+5V") (at 153.67 107.95 0) (unit 1)
    (in_bom yes) (on_board yes)
    (uuid 00000000-0000-0000-0000-0000601704dc)
    (property "Reference" "#PWR0191" (id 0) (at 153.67 111.76 0)
      (effects (font (size 1.27 1.27)) hide)
    )
    (property "Value" "+5V" (id 1) (at 152.4 109.22 0))
    (property "Footprint" "" (id 2) (at 153.67 107.95 0)
      (effects (font (size 1.27 1.27)) hide)
    )
    (property "Datasheet" "" (id 3) (at 153.67 107.95 0)
      (effects (font (size 1.27 1.27)) hide)
    )
    (pin "1" (uuid 657e4624-a5ae-411e-ae47-8444818f569a))
  )

  (symbol (lib_id "dk_Slide-Switches:EG1218") (at 151.13 118.11 180) (unit 1)
    (in_bom yes) (on_board yes)
    (uuid 00000000-0000-0000-0000-000060174f55)
    (property "Reference" "S9" (id 0) (at 153.67 120.65 0))
    (property "Value" "EG1218" (id 1) (at 154.94 115.57 0))
    (property "Footprint" "digikey-footprints:Switch_Slide_11.6x4mm_EG1218" (id 2) (at 146.05 123.19 0)
      (effects (font (size 1.27 1.27)) (justify left) hide)
    )
    (property "Datasheet" "http://spec_sheets.e-switch.com/specs/P040040.pdf" (id 3) (at 146.05 125.73 0)
      (effects (font (size 1.524 1.524)) (justify left) hide)
    )
    (property "Digi-Key_PN" "EG1903-ND" (id 4) (at 146.05 128.27 0)
      (effects (font (size 1.524 1.524)) (justify left) hide)
    )
    (property "MPN" "EG1218" (id 5) (at 146.05 130.81 0)
      (effects (font (size 1.524 1.524)) (justify left) hide)
    )
    (property "Category" "Switches" (id 6) (at 146.05 133.35 0)
      (effects (font (size 1.524 1.524)) (justify left) hide)
    )
    (property "Family" "Slide Switches" (id 7) (at 146.05 135.89 0)
      (effects (font (size 1.524 1.524)) (justify left) hide)
    )
    (property "DK_Datasheet_Link" "http://spec_sheets.e-switch.com/specs/P040040.pdf" (id 8) (at 146.05 138.43 0)
      (effects (font (size 1.524 1.524)) (justify left) hide)
    )
    (property "DK_Detail_Page" "/product-detail/en/e-switch/EG1218/EG1903-ND/101726" (id 9) (at 146.05 140.97 0)
      (effects (font (size 1.524 1.524)) (justify left) hide)
    )
    (property "Description" "SWITCH SLIDE SPDT 200MA 30V" (id 10) (at 146.05 143.51 0)
      (effects (font (size 1.524 1.524)) (justify left) hide)
    )
    (property "Manufacturer" "E-Switch" (id 11) (at 146.05 146.05 0)
      (effects (font (size 1.524 1.524)) (justify left) hide)
    )
    (property "Status" "Active" (id 12) (at 146.05 148.59 0)
      (effects (font (size 1.524 1.524)) (justify left) hide)
    )
    (pin "1" (uuid ca158138-4ca4-4f26-80f4-c948dc5ce6d8))
    (pin "2" (uuid 82873bbf-27a0-4c29-a46f-d3cec5ad1baa))
    (pin "3" (uuid 6448f3bf-1e62-42b0-a0ff-347cf592b386))
  )

  (symbol (lib_id "power:+5V") (at 143.51 115.57 0) (unit 1)
    (in_bom yes) (on_board yes)
    (uuid 00000000-0000-0000-0000-00006017f0e9)
    (property "Reference" "#PWR0192" (id 0) (at 143.51 119.38 0)
      (effects (font (size 1.27 1.27)) hide)
    )
    (property "Value" "+5V" (id 1) (at 140.97 114.3 0))
    (property "Footprint" "" (id 2) (at 143.51 115.57 0)
      (effects (font (size 1.27 1.27)) hide)
    )
    (property "Datasheet" "" (id 3) (at 143.51 115.57 0)
      (effects (font (size 1.27 1.27)) hide)
    )
    (pin "1" (uuid 432d3727-a28d-442a-a807-4f1c33f3a39e))
  )

  (symbol (lib_id "power:+5V") (at 177.8 114.3 0) (unit 1)
    (in_bom yes) (on_board yes)
    (uuid c0fb6b41-5149-4bab-bfb9-501bf7def058)
    (property "Reference" "#PWR?" (id 0) (at 177.8 118.11 0)
      (effects (font (size 1.27 1.27)) hide)
    )
    (property "Value" "+5V" (id 1) (at 177.8 110.49 0))
    (property "Footprint" "" (id 2) (at 177.8 114.3 0)
      (effects (font (size 1.27 1.27)) hide)
    )
    (property "Datasheet" "" (id 3) (at 177.8 114.3 0)
      (effects (font (size 1.27 1.27)) hide)
    )
    (pin "1" (uuid 8e981813-d4bd-49b6-baf7-9f6af74d4e59))
  )
)
