(kicad_sch (version 20211123) (generator eeschema)

  (uuid dce51166-f81d-4796-823a-d87cf63cdf9b)

  (paper "A4")

  (title_block
    (title "ATLAS-ITK-PIXEL-MODULES HW INTERLOCK LOGIC")
    (rev "0.3")
  )

  (lib_symbols
    (symbol "Device:C" (pin_numbers hide) (pin_names (offset 0.254)) (in_bom yes) (on_board yes)
      (property "Reference" "C" (id 0) (at 0.635 2.54 0)
        (effects (font (size 1.27 1.27)) (justify left))
      )
      (property "Value" "C" (id 1) (at 0.635 -2.54 0)
        (effects (font (size 1.27 1.27)) (justify left))
      )
      (property "Footprint" "" (id 2) (at 0.9652 -3.81 0)
        (effects (font (size 1.27 1.27)) hide)
      )
      (property "Datasheet" "~" (id 3) (at 0 0 0)
        (effects (font (size 1.27 1.27)) hide)
      )
      (property "ki_keywords" "cap capacitor" (id 4) (at 0 0 0)
        (effects (font (size 1.27 1.27)) hide)
      )
      (property "ki_description" "Unpolarized capacitor" (id 5) (at 0 0 0)
        (effects (font (size 1.27 1.27)) hide)
      )
      (property "ki_fp_filters" "C_*" (id 6) (at 0 0 0)
        (effects (font (size 1.27 1.27)) hide)
      )
      (symbol "C_0_1"
        (polyline
          (pts
            (xy -2.032 -0.762)
            (xy 2.032 -0.762)
          )
          (stroke (width 0.508) (type default) (color 0 0 0 0))
          (fill (type none))
        )
        (polyline
          (pts
            (xy -2.032 0.762)
            (xy 2.032 0.762)
          )
          (stroke (width 0.508) (type default) (color 0 0 0 0))
          (fill (type none))
        )
      )
      (symbol "C_1_1"
        (pin passive line (at 0 3.81 270) (length 2.794)
          (name "~" (effects (font (size 1.27 1.27))))
          (number "1" (effects (font (size 1.27 1.27))))
        )
        (pin passive line (at 0 -3.81 90) (length 2.794)
          (name "~" (effects (font (size 1.27 1.27))))
          (number "2" (effects (font (size 1.27 1.27))))
        )
      )
    )
    (symbol "Device:R_Small" (pin_numbers hide) (pin_names (offset 0.254) hide) (in_bom yes) (on_board yes)
      (property "Reference" "R" (id 0) (at 0.762 0.508 0)
        (effects (font (size 1.27 1.27)) (justify left))
      )
      (property "Value" "R_Small" (id 1) (at 0.762 -1.016 0)
        (effects (font (size 1.27 1.27)) (justify left))
      )
      (property "Footprint" "" (id 2) (at 0 0 0)
        (effects (font (size 1.27 1.27)) hide)
      )
      (property "Datasheet" "~" (id 3) (at 0 0 0)
        (effects (font (size 1.27 1.27)) hide)
      )
      (property "ki_keywords" "R resistor" (id 4) (at 0 0 0)
        (effects (font (size 1.27 1.27)) hide)
      )
      (property "ki_description" "Resistor, small symbol" (id 5) (at 0 0 0)
        (effects (font (size 1.27 1.27)) hide)
      )
      (property "ki_fp_filters" "R_*" (id 6) (at 0 0 0)
        (effects (font (size 1.27 1.27)) hide)
      )
      (symbol "R_Small_0_1"
        (rectangle (start -0.762 1.778) (end 0.762 -1.778)
          (stroke (width 0.2032) (type default) (color 0 0 0 0))
          (fill (type none))
        )
      )
      (symbol "R_Small_1_1"
        (pin passive line (at 0 2.54 270) (length 0.762)
          (name "~" (effects (font (size 1.27 1.27))))
          (number "1" (effects (font (size 1.27 1.27))))
        )
        (pin passive line (at 0 -2.54 90) (length 0.762)
          (name "~" (effects (font (size 1.27 1.27))))
          (number "2" (effects (font (size 1.27 1.27))))
        )
      )
    )
    (symbol "LEDs_magne:APHBM2012SURKCGKC" (pin_names (offset 1.016)) (in_bom yes) (on_board yes)
      (property "Reference" "D" (id 0) (at 6.35 7.62 0)
        (effects (font (size 1.27 1.27)))
      )
      (property "Value" "APHBM2012SURKCGKC" (id 1) (at 1.27 10.16 0)
        (effects (font (size 1.27 1.27)))
      )
      (property "Footprint" "" (id 2) (at 0 0 0)
        (effects (font (size 1.27 1.27)) hide)
      )
      (property "Datasheet" "" (id 3) (at 0 0 0)
        (effects (font (size 1.27 1.27)) hide)
      )
      (symbol "APHBM2012SURKCGKC_1_1"
        (polyline
          (pts
            (xy 0 -3.81)
            (xy -2.54 -3.81)
          )
          (stroke (width 0) (type default) (color 0 0 0 0))
          (fill (type none))
        )
        (polyline
          (pts
            (xy 0 -2.54)
            (xy 0 -5.08)
          )
          (stroke (width 0.254) (type default) (color 0 0 0 0))
          (fill (type none))
        )
        (polyline
          (pts
            (xy 0 3.81)
            (xy -2.54 3.81)
          )
          (stroke (width 0) (type default) (color 0 0 0 0))
          (fill (type none))
        )
        (polyline
          (pts
            (xy 0 5.08)
            (xy 0 2.54)
          )
          (stroke (width 0.254) (type default) (color 0 0 0 0))
          (fill (type none))
        )
        (polyline
          (pts
            (xy -2.54 -2.54)
            (xy -2.54 -5.08)
            (xy 0 -3.81)
            (xy -2.54 -2.54)
          )
          (stroke (width 0.254) (type default) (color 0 0 0 0))
          (fill (type none))
        )
        (polyline
          (pts
            (xy -2.54 5.08)
            (xy -2.54 2.54)
            (xy 0 3.81)
            (xy -2.54 5.08)
          )
          (stroke (width 0.254) (type default) (color 0 0 0 0))
          (fill (type none))
        )
        (polyline
          (pts
            (xy -2.032 -1.778)
            (xy -0.508 -0.254)
            (xy -1.27 -0.254)
            (xy -0.508 -0.254)
            (xy -0.508 -1.016)
          )
          (stroke (width 0) (type default) (color 0 0 0 0))
          (fill (type none))
        )
        (polyline
          (pts
            (xy -2.032 5.842)
            (xy -0.508 7.366)
            (xy -1.27 7.366)
            (xy -0.508 7.366)
            (xy -0.508 6.604)
          )
          (stroke (width 0) (type default) (color 0 0 0 0))
          (fill (type none))
        )
        (polyline
          (pts
            (xy -0.762 -1.778)
            (xy 0.762 -0.254)
            (xy 0 -0.254)
            (xy 0.762 -0.254)
            (xy 0.762 -1.016)
          )
          (stroke (width 0) (type default) (color 0 0 0 0))
          (fill (type none))
        )
        (polyline
          (pts
            (xy -0.762 5.842)
            (xy 0.762 7.366)
            (xy 0 7.366)
            (xy 0.762 7.366)
            (xy 0.762 6.604)
          )
          (stroke (width 0) (type default) (color 0 0 0 0))
          (fill (type none))
        )
        (pin passive line (at -5.08 3.81 0) (length 2.54)
          (name "RED" (effects (font (size 1.27 1.27))))
          (number "1" (effects (font (size 1.27 1.27))))
        )
        (pin passive line (at 2.54 3.81 180) (length 2.54)
          (name "~" (effects (font (size 1.27 1.27))))
          (number "2" (effects (font (size 1.27 1.27))))
        )
        (pin passive line (at 2.54 -3.81 180) (length 2.54)
          (name "C" (effects (font (size 1.27 1.27))))
          (number "3" (effects (font (size 1.27 1.27))))
        )
        (pin passive line (at -5.08 -3.81 0) (length 2.54)
          (name "GREEN" (effects (font (size 1.27 1.27))))
          (number "4" (effects (font (size 1.27 1.27))))
        )
      )
    )
    (symbol "power:+5V" (power) (pin_names (offset 0)) (in_bom yes) (on_board yes)
      (property "Reference" "#PWR" (id 0) (at 0 -3.81 0)
        (effects (font (size 1.27 1.27)) hide)
      )
      (property "Value" "+5V" (id 1) (at 0 3.556 0)
        (effects (font (size 1.27 1.27)))
      )
      (property "Footprint" "" (id 2) (at 0 0 0)
        (effects (font (size 1.27 1.27)) hide)
      )
      (property "Datasheet" "" (id 3) (at 0 0 0)
        (effects (font (size 1.27 1.27)) hide)
      )
      (property "ki_keywords" "power-flag" (id 4) (at 0 0 0)
        (effects (font (size 1.27 1.27)) hide)
      )
      (property "ki_description" "Power symbol creates a global label with name \"+5V\"" (id 5) (at 0 0 0)
        (effects (font (size 1.27 1.27)) hide)
      )
      (symbol "+5V_0_1"
        (polyline
          (pts
            (xy -0.762 1.27)
            (xy 0 2.54)
          )
          (stroke (width 0) (type default) (color 0 0 0 0))
          (fill (type none))
        )
        (polyline
          (pts
            (xy 0 0)
            (xy 0 2.54)
          )
          (stroke (width 0) (type default) (color 0 0 0 0))
          (fill (type none))
        )
        (polyline
          (pts
            (xy 0 2.54)
            (xy 0.762 1.27)
          )
          (stroke (width 0) (type default) (color 0 0 0 0))
          (fill (type none))
        )
      )
      (symbol "+5V_1_1"
        (pin power_in line (at 0 0 90) (length 0) hide
          (name "+5V" (effects (font (size 1.27 1.27))))
          (number "1" (effects (font (size 1.27 1.27))))
        )
      )
    )
    (symbol "power:GND" (power) (pin_names (offset 0)) (in_bom yes) (on_board yes)
      (property "Reference" "#PWR" (id 0) (at 0 -6.35 0)
        (effects (font (size 1.27 1.27)) hide)
      )
      (property "Value" "GND" (id 1) (at 0 -3.81 0)
        (effects (font (size 1.27 1.27)))
      )
      (property "Footprint" "" (id 2) (at 0 0 0)
        (effects (font (size 1.27 1.27)) hide)
      )
      (property "Datasheet" "" (id 3) (at 0 0 0)
        (effects (font (size 1.27 1.27)) hide)
      )
      (property "ki_keywords" "power-flag" (id 4) (at 0 0 0)
        (effects (font (size 1.27 1.27)) hide)
      )
      (property "ki_description" "Power symbol creates a global label with name \"GND\" , ground" (id 5) (at 0 0 0)
        (effects (font (size 1.27 1.27)) hide)
      )
      (symbol "GND_0_1"
        (polyline
          (pts
            (xy 0 0)
            (xy 0 -1.27)
            (xy 1.27 -1.27)
            (xy 0 -2.54)
            (xy -1.27 -1.27)
            (xy 0 -1.27)
          )
          (stroke (width 0) (type default) (color 0 0 0 0))
          (fill (type none))
        )
      )
      (symbol "GND_1_1"
        (pin power_in line (at 0 0 270) (length 0) hide
          (name "GND" (effects (font (size 1.27 1.27))))
          (number "1" (effects (font (size 1.27 1.27))))
        )
      )
    )
  )

  (junction (at 139.7 38.1) (diameter 0) (color 0 0 0 0)
    (uuid 02c1ba02-e24b-47dd-9110-79195a6ce031)
  )
  (junction (at 139.7 90.17) (diameter 0) (color 0 0 0 0)
    (uuid 17c35383-0cfe-4fc8-8a1a-a044d3fcfc97)
  )
  (junction (at 139.7 54.61) (diameter 0) (color 0 0 0 0)
    (uuid 21ba6a35-24a6-4e1d-813b-997d76bac412)
  )
  (junction (at 162.56 80.01) (diameter 0) (color 0 0 0 0)
    (uuid 43bc9865-af88-4e45-a879-ad3d8e9b5f40)
  )
  (junction (at 162.56 149.86) (diameter 0) (color 0 0 0 0)
    (uuid 475a91d0-107e-4e56-bdd7-d44333f4c128)
  )
  (junction (at 162.56 167.64) (diameter 0) (color 0 0 0 0)
    (uuid 48c682d9-d345-4a53-b6a1-cc5dfd0592aa)
  )
  (junction (at 162.56 97.79) (diameter 0) (color 0 0 0 0)
    (uuid 48ccb9e7-ade7-475e-b09e-1314cbc0cec7)
  )
  (junction (at 139.7 142.24) (diameter 0) (color 0 0 0 0)
    (uuid 5661cc58-e1c4-419d-b4fb-0193ec2d6bd1)
  )
  (junction (at 162.56 115.57) (diameter 0) (color 0 0 0 0)
    (uuid 569e1c7a-1b11-4b48-8a45-7fdad590e706)
  )
  (junction (at 139.7 72.39) (diameter 0) (color 0 0 0 0)
    (uuid 70ab5413-ea61-44e7-84c1-14fc741ab55c)
  )
  (junction (at 139.7 107.95) (diameter 0) (color 0 0 0 0)
    (uuid 8109fb54-20d6-4995-afc9-54cb43d041b5)
  )
  (junction (at 162.56 62.23) (diameter 0) (color 0 0 0 0)
    (uuid a4f530fd-7c7d-42d2-a8d7-8d69710474fa)
  )
  (junction (at 139.7 124.46) (diameter 0) (color 0 0 0 0)
    (uuid cec3bc74-f4d9-4b37-8b72-dfa93895bdd3)
  )
  (junction (at 139.7 34.29) (diameter 0) (color 0 0 0 0)
    (uuid d6f717ff-1e2a-4878-95f6-121d4ea57b44)
  )
  (junction (at 162.56 132.08) (diameter 0) (color 0 0 0 0)
    (uuid f48afb3a-ee6a-4f7a-b9c4-20a90189f285)
  )

  (wire (pts (xy 144.78 72.39) (xy 147.32 72.39))
    (stroke (width 0) (type default) (color 0 0 0 0))
    (uuid 07147fe2-7c4f-4a87-938c-945f0e9f6a3b)
  )
  (wire (pts (xy 144.78 107.95) (xy 147.32 107.95))
    (stroke (width 0) (type default) (color 0 0 0 0))
    (uuid 0b11a969-cb9b-4942-b14f-af35f49b9529)
  )
  (wire (pts (xy 129.54 34.29) (xy 139.7 34.29))
    (stroke (width 0) (type default) (color 0 0 0 0))
    (uuid 0b156805-1972-4fd4-b1ae-f8a1a0a6990a)
  )
  (wire (pts (xy 144.78 54.61) (xy 147.32 54.61))
    (stroke (width 0) (type default) (color 0 0 0 0))
    (uuid 0c1be4cb-d110-49f3-a7c4-0cbc5a48e25e)
  )
  (wire (pts (xy 154.94 167.64) (xy 157.48 167.64))
    (stroke (width 0) (type default) (color 0 0 0 0))
    (uuid 0d3a9741-37e0-428c-a50c-5d0f21428f21)
  )
  (wire (pts (xy 144.78 90.17) (xy 147.32 90.17))
    (stroke (width 0) (type default) (color 0 0 0 0))
    (uuid 0e54ff17-6f0f-4c77-b73d-c1e827be0c57)
  )
  (wire (pts (xy 154.94 90.17) (xy 154.94 93.98))
    (stroke (width 0) (type default) (color 0 0 0 0))
    (uuid 110a813b-d1e5-42d1-a0b4-96be885a271c)
  )
  (wire (pts (xy 154.94 149.86) (xy 157.48 149.86))
    (stroke (width 0) (type default) (color 0 0 0 0))
    (uuid 21cd731d-0f49-41b7-b5b0-bda248f03e46)
  )
  (wire (pts (xy 154.94 132.08) (xy 157.48 132.08))
    (stroke (width 0) (type default) (color 0 0 0 0))
    (uuid 21d7c09b-5f73-43d7-aa72-a6fa856ee246)
  )
  (wire (pts (xy 154.94 93.98) (xy 147.32 93.98))
    (stroke (width 0) (type default) (color 0 0 0 0))
    (uuid 2a449733-4822-4ab3-9e36-0b8a47af41f8)
  )
  (wire (pts (xy 139.7 90.17) (xy 139.7 107.95))
    (stroke (width 0) (type default) (color 0 0 0 0))
    (uuid 2c77b75d-c377-46d0-8364-7e32f16d35df)
  )
  (wire (pts (xy 154.94 107.95) (xy 154.94 111.76))
    (stroke (width 0) (type default) (color 0 0 0 0))
    (uuid 2d7ca529-afe0-4877-a1bd-6c4385aa3a5e)
  )
  (wire (pts (xy 147.32 111.76) (xy 147.32 115.57))
    (stroke (width 0) (type default) (color 0 0 0 0))
    (uuid 37586a73-4f56-4dfd-ac7b-990dbbd7f542)
  )
  (wire (pts (xy 162.56 115.57) (xy 162.56 132.08))
    (stroke (width 0) (type default) (color 0 0 0 0))
    (uuid 3b2795d5-4b46-4719-814a-e6dab5e2feb4)
  )
  (wire (pts (xy 144.78 124.46) (xy 147.32 124.46))
    (stroke (width 0) (type default) (color 0 0 0 0))
    (uuid 3de2682d-4731-4359-8563-818a749ce871)
  )
  (wire (pts (xy 139.7 54.61) (xy 139.7 72.39))
    (stroke (width 0) (type default) (color 0 0 0 0))
    (uuid 3e4140ad-2108-4678-af6f-232972f09e2e)
  )
  (wire (pts (xy 147.32 146.05) (xy 147.32 149.86))
    (stroke (width 0) (type default) (color 0 0 0 0))
    (uuid 4671827f-7714-44d0-90be-f9a20949973a)
  )
  (wire (pts (xy 162.56 62.23) (xy 162.56 80.01))
    (stroke (width 0) (type default) (color 0 0 0 0))
    (uuid 516de8cd-0484-488a-a30d-a8991846af1e)
  )
  (wire (pts (xy 154.94 76.2) (xy 147.32 76.2))
    (stroke (width 0) (type default) (color 0 0 0 0))
    (uuid 51c20097-22ef-4417-a942-ca885bb3cab3)
  )
  (wire (pts (xy 139.7 34.29) (xy 139.7 33.02))
    (stroke (width 0) (type default) (color 0 0 0 0))
    (uuid 572c1d6e-b91d-45ba-a55d-b9b3b7709133)
  )
  (wire (pts (xy 147.32 128.27) (xy 147.32 132.08))
    (stroke (width 0) (type default) (color 0 0 0 0))
    (uuid 57db3552-d3b1-4255-8a2d-d3d4f6a27435)
  )
  (wire (pts (xy 139.7 107.95) (xy 139.7 124.46))
    (stroke (width 0) (type default) (color 0 0 0 0))
    (uuid 5d06d0c1-0f06-4eec-96e9-33f2ba3c7ad8)
  )
  (wire (pts (xy 154.94 128.27) (xy 147.32 128.27))
    (stroke (width 0) (type default) (color 0 0 0 0))
    (uuid 62cc675f-6fc9-49fd-bc8a-d1721adfff98)
  )
  (wire (pts (xy 154.94 115.57) (xy 157.48 115.57))
    (stroke (width 0) (type default) (color 0 0 0 0))
    (uuid 6adf5d46-6fb9-42c5-863c-1f03502a86b5)
  )
  (wire (pts (xy 154.94 58.42) (xy 147.32 58.42))
    (stroke (width 0) (type default) (color 0 0 0 0))
    (uuid 70a6f9f3-b601-4af1-8a04-032a1efed858)
  )
  (wire (pts (xy 154.94 54.61) (xy 154.94 58.42))
    (stroke (width 0) (type default) (color 0 0 0 0))
    (uuid 7a0dfd3c-236c-4986-86da-2ce6dd7f805e)
  )
  (wire (pts (xy 139.7 38.1) (xy 139.7 54.61))
    (stroke (width 0) (type default) (color 0 0 0 0))
    (uuid 7c83e1e2-8c22-4303-9cfe-5c565f685fc8)
  )
  (wire (pts (xy 154.94 45.72) (xy 157.48 45.72))
    (stroke (width 0) (type default) (color 0 0 0 0))
    (uuid 816a8ad8-f0a7-4065-a666-bd6f3b1793e3)
  )
  (wire (pts (xy 154.94 124.46) (xy 154.94 128.27))
    (stroke (width 0) (type default) (color 0 0 0 0))
    (uuid 874fb801-f7e4-43e7-ac79-c6b01b3d03ec)
  )
  (wire (pts (xy 147.32 41.91) (xy 147.32 45.72))
    (stroke (width 0) (type default) (color 0 0 0 0))
    (uuid 883bb786-cdc0-41f9-b0c8-c4dac43adc5a)
  )
  (wire (pts (xy 147.32 76.2) (xy 147.32 80.01))
    (stroke (width 0) (type default) (color 0 0 0 0))
    (uuid 8dbaa38f-3e29-4996-85c5-8d940f4567bf)
  )
  (wire (pts (xy 162.56 97.79) (xy 162.56 115.57))
    (stroke (width 0) (type default) (color 0 0 0 0))
    (uuid 94f97f11-732b-442c-b527-abfc4e17c0de)
  )
  (wire (pts (xy 144.78 160.02) (xy 147.32 160.02))
    (stroke (width 0) (type default) (color 0 0 0 0))
    (uuid 9739a80e-f7b5-48f0-8a31-91087d05a63d)
  )
  (wire (pts (xy 139.7 142.24) (xy 139.7 160.02))
    (stroke (width 0) (type default) (color 0 0 0 0))
    (uuid 9a7f8d52-906f-46cf-ba9a-27ab2bae6255)
  )
  (wire (pts (xy 147.32 163.83) (xy 147.32 167.64))
    (stroke (width 0) (type default) (color 0 0 0 0))
    (uuid 9f9144e6-6826-401c-82e5-f74c08df36e0)
  )
  (wire (pts (xy 154.94 111.76) (xy 147.32 111.76))
    (stroke (width 0) (type default) (color 0 0 0 0))
    (uuid a0b9ce7c-a34c-44dc-ba10-060503c8c354)
  )
  (wire (pts (xy 139.7 72.39) (xy 139.7 90.17))
    (stroke (width 0) (type default) (color 0 0 0 0))
    (uuid a917ebee-c6f6-4152-bd94-159ef05de281)
  )
  (wire (pts (xy 154.94 80.01) (xy 157.48 80.01))
    (stroke (width 0) (type default) (color 0 0 0 0))
    (uuid ac144496-7188-4819-9bf2-9230f1aba717)
  )
  (wire (pts (xy 154.94 62.23) (xy 157.48 62.23))
    (stroke (width 0) (type default) (color 0 0 0 0))
    (uuid aea46af2-32f1-49af-9076-476b96428005)
  )
  (wire (pts (xy 144.78 142.24) (xy 147.32 142.24))
    (stroke (width 0) (type default) (color 0 0 0 0))
    (uuid b3999052-14f8-4d58-bdff-8abc6c3bfbab)
  )
  (wire (pts (xy 162.56 149.86) (xy 162.56 167.64))
    (stroke (width 0) (type default) (color 0 0 0 0))
    (uuid b7612495-d829-42b6-b6b0-0895a13ffad8)
  )
  (wire (pts (xy 154.94 146.05) (xy 147.32 146.05))
    (stroke (width 0) (type default) (color 0 0 0 0))
    (uuid b9f21117-81ff-4a9c-b028-4b8a54e72f01)
  )
  (wire (pts (xy 154.94 97.79) (xy 157.48 97.79))
    (stroke (width 0) (type default) (color 0 0 0 0))
    (uuid bf343a8b-41f7-4e1e-a800-64c67eb527db)
  )
  (wire (pts (xy 154.94 160.02) (xy 154.94 163.83))
    (stroke (width 0) (type default) (color 0 0 0 0))
    (uuid d3ff3f3e-15c2-49a6-8dbe-51a4707e2d3f)
  )
  (wire (pts (xy 154.94 41.91) (xy 147.32 41.91))
    (stroke (width 0) (type default) (color 0 0 0 0))
    (uuid d4a328b4-16ee-4091-947c-481cc9ac156e)
  )
  (wire (pts (xy 154.94 142.24) (xy 154.94 146.05))
    (stroke (width 0) (type default) (color 0 0 0 0))
    (uuid d569306a-8ac8-4dd5-a569-00ed436afebf)
  )
  (wire (pts (xy 154.94 38.1) (xy 154.94 41.91))
    (stroke (width 0) (type default) (color 0 0 0 0))
    (uuid d85b12e0-b31d-4b9c-9dd2-ea1021609015)
  )
  (wire (pts (xy 154.94 163.83) (xy 147.32 163.83))
    (stroke (width 0) (type default) (color 0 0 0 0))
    (uuid da1af677-5df6-4abe-a663-149781745b79)
  )
  (wire (pts (xy 144.78 38.1) (xy 147.32 38.1))
    (stroke (width 0) (type default) (color 0 0 0 0))
    (uuid dbc54328-a2e0-446e-82a7-c0663512d709)
  )
  (wire (pts (xy 162.56 132.08) (xy 162.56 149.86))
    (stroke (width 0) (type default) (color 0 0 0 0))
    (uuid ddc739c6-01ef-4063-8a11-da617f4b6aa3)
  )
  (wire (pts (xy 139.7 124.46) (xy 139.7 142.24))
    (stroke (width 0) (type default) (color 0 0 0 0))
    (uuid df70e7a8-5cf9-4006-ab84-9123f41f045a)
  )
  (wire (pts (xy 139.7 38.1) (xy 139.7 34.29))
    (stroke (width 0) (type default) (color 0 0 0 0))
    (uuid e30b6893-b609-42bf-9003-015b725d8bc0)
  )
  (wire (pts (xy 129.54 41.91) (xy 129.54 43.18))
    (stroke (width 0) (type default) (color 0 0 0 0))
    (uuid e3e8690a-141c-4450-bedb-a66741c63679)
  )
  (wire (pts (xy 147.32 58.42) (xy 147.32 62.23))
    (stroke (width 0) (type default) (color 0 0 0 0))
    (uuid e8b570fd-ba40-43c5-8eaf-e3ff931f84e1)
  )
  (wire (pts (xy 154.94 72.39) (xy 154.94 76.2))
    (stroke (width 0) (type default) (color 0 0 0 0))
    (uuid edaef381-a697-480b-abf6-5d467e6b2f1a)
  )
  (wire (pts (xy 162.56 167.64) (xy 162.56 168.91))
    (stroke (width 0) (type default) (color 0 0 0 0))
    (uuid f1bd3462-205c-4c7c-9d80-f113f512e2f0)
  )
  (wire (pts (xy 147.32 93.98) (xy 147.32 97.79))
    (stroke (width 0) (type default) (color 0 0 0 0))
    (uuid f7309321-3b14-46f2-8550-d95132ecd8ba)
  )
  (wire (pts (xy 162.56 45.72) (xy 162.56 62.23))
    (stroke (width 0) (type default) (color 0 0 0 0))
    (uuid fe518855-5950-4c9d-b5d6-b1ec82266a4a)
  )
  (wire (pts (xy 162.56 80.01) (xy 162.56 97.79))
    (stroke (width 0) (type default) (color 0 0 0 0))
    (uuid fe7a6ed6-cd0e-4796-8461-1116696be062)
  )

  (hierarchical_label "3" (shape input) (at 147.32 93.98 180)
    (effects (font (size 1.27 1.27)) (justify right))
    (uuid 269f4585-4ad5-4f30-80eb-7faebf9168e7)
  )
  (hierarchical_label "1" (shape input) (at 147.32 58.42 180)
    (effects (font (size 1.27 1.27)) (justify right))
    (uuid 26f71c7e-7d90-4e2a-8cb7-96c3b1bfb7d1)
  )
  (hierarchical_label "2" (shape input) (at 147.32 76.2 180)
    (effects (font (size 1.27 1.27)) (justify right))
    (uuid 56587800-f932-4b34-b627-65b2e5492d24)
  )
  (hierarchical_label "7" (shape input) (at 147.32 163.83 180)
    (effects (font (size 1.27 1.27)) (justify right))
    (uuid 7c139256-68de-4e2e-b875-139cce21fbba)
  )
  (hierarchical_label "6" (shape input) (at 147.32 146.05 180)
    (effects (font (size 1.27 1.27)) (justify right))
    (uuid 9f6e7d35-f3df-4e2f-8298-974743bbb2c1)
  )
  (hierarchical_label "4" (shape input) (at 147.32 111.76 180)
    (effects (font (size 1.27 1.27)) (justify right))
    (uuid cc2508be-bfe0-4c1b-af46-8fa5e20d6e07)
  )
  (hierarchical_label "0" (shape input) (at 147.32 41.91 180)
    (effects (font (size 1.27 1.27)) (justify right))
    (uuid d8ff70f3-fa47-49c6-a374-7b8ef4395d7b)
  )
  (hierarchical_label "5" (shape input) (at 147.32 128.27 180)
    (effects (font (size 1.27 1.27)) (justify right))
    (uuid e5a3c0ce-6951-49bd-930e-af2be5c06edf)
  )

  (symbol (lib_id "LEDs_magne:APHBM2012SURKCGKC") (at 152.4 41.91 0) (unit 1)
    (in_bom yes) (on_board yes)
    (uuid 00000000-0000-0000-0000-00005fb92375)
    (property "Reference" "D18" (id 0) (at 152.0698 30.353 0))
    (property "Value" "APHBM2012SURKCGKC" (id 1) (at 152.0698 32.6644 0))
    (property "Footprint" "magne_footprints:Kingbright_APHB2012" (id 2) (at 152.4 41.91 0)
      (effects (font (size 1.27 1.27)) hide)
    )
    (property "Datasheet" "" (id 3) (at 152.4 41.91 0)
      (effects (font (size 1.27 1.27)) hide)
    )
    (property "Digi-Key_PN" "754-1093-2-ND" (id 4) (at 152.4 41.91 0)
      (effects (font (size 1.27 1.27)) hide)
    )
    (pin "1" (uuid 4c307399-fa1a-4401-a7a0-ae5e44242e47))
    (pin "2" (uuid fc668baf-7341-47a1-be07-fe3d19496205))
    (pin "3" (uuid dcfc46ce-a706-43d2-a318-8faaf1c7d181))
    (pin "4" (uuid 4d08cd85-d184-4353-8183-c2d8d69d8f14))
  )

  (symbol (lib_id "Device:R_Small") (at 160.02 45.72 270) (unit 1)
    (in_bom yes) (on_board yes)
    (uuid 00000000-0000-0000-0000-00005fb9237e)
    (property "Reference" "R43" (id 0) (at 160.02 40.7416 90))
    (property "Value" "620" (id 1) (at 160.02 43.053 90))
    (property "Footprint" "Resistor_SMD:R_0603_1608Metric_Pad0.98x0.95mm_HandSolder" (id 2) (at 160.02 45.72 0)
      (effects (font (size 1.27 1.27)) hide)
    )
    (property "Datasheet" "~" (id 3) (at 160.02 45.72 0)
      (effects (font (size 1.27 1.27)) hide)
    )
    (property "Digi-Key_PN" "RMCF0603FT620RCT-ND" (id 4) (at 160.02 45.72 0)
      (effects (font (size 1.27 1.27)) hide)
    )
    (pin "1" (uuid 7dc7b60a-c1bc-49ce-af46-5191ccca3836))
    (pin "2" (uuid 73f0d2bf-175b-4bdb-aede-a7783df4f9c0))
  )

  (symbol (lib_id "Device:R_Small") (at 142.24 38.1 270) (unit 1)
    (in_bom yes) (on_board yes)
    (uuid 00000000-0000-0000-0000-00005fb92385)
    (property "Reference" "R35" (id 0) (at 142.24 33.1216 90))
    (property "Value" "620" (id 1) (at 142.24 35.433 90))
    (property "Footprint" "Resistor_SMD:R_0603_1608Metric_Pad0.98x0.95mm_HandSolder" (id 2) (at 142.24 38.1 0)
      (effects (font (size 1.27 1.27)) hide)
    )
    (property "Datasheet" "~" (id 3) (at 142.24 38.1 0)
      (effects (font (size 1.27 1.27)) hide)
    )
    (property "Digi-Key_PN" "RMCF0603FT620RCT-ND" (id 4) (at 142.24 38.1 0)
      (effects (font (size 1.27 1.27)) hide)
    )
    (pin "1" (uuid 82f7809b-9cf2-4860-8410-4cd52bafdc0a))
    (pin "2" (uuid 958ffb39-0cee-49da-840c-c1181c0829d0))
  )

  (symbol (lib_id "LEDs_magne:APHBM2012SURKCGKC") (at 152.4 58.42 0) (unit 1)
    (in_bom yes) (on_board yes)
    (uuid 00000000-0000-0000-0000-00005fb9238d)
    (property "Reference" "D19" (id 0) (at 152.0698 46.863 0))
    (property "Value" "APHBM2012SURKCGKC" (id 1) (at 152.0698 49.1744 0))
    (property "Footprint" "magne_footprints:Kingbright_APHB2012" (id 2) (at 152.4 58.42 0)
      (effects (font (size 1.27 1.27)) hide)
    )
    (property "Datasheet" "" (id 3) (at 152.4 58.42 0)
      (effects (font (size 1.27 1.27)) hide)
    )
    (property "Digi-Key_PN" "754-1093-2-ND" (id 4) (at 152.4 58.42 0)
      (effects (font (size 1.27 1.27)) hide)
    )
    (pin "1" (uuid c20a74ca-d114-4639-babc-b2eb00a7c51b))
    (pin "2" (uuid c9675555-f20c-4878-8b64-12cfcc2238ee))
    (pin "3" (uuid 8cb56d88-bb2d-4c7d-82c1-ae63e8002059))
    (pin "4" (uuid d334e085-1fc6-432b-b32c-211825192253))
  )

  (symbol (lib_id "Device:R_Small") (at 160.02 62.23 270) (unit 1)
    (in_bom yes) (on_board yes)
    (uuid 00000000-0000-0000-0000-00005fb92396)
    (property "Reference" "R44" (id 0) (at 160.02 57.2516 90))
    (property "Value" "620" (id 1) (at 160.02 59.563 90))
    (property "Footprint" "Resistor_SMD:R_0603_1608Metric_Pad0.98x0.95mm_HandSolder" (id 2) (at 160.02 62.23 0)
      (effects (font (size 1.27 1.27)) hide)
    )
    (property "Datasheet" "~" (id 3) (at 160.02 62.23 0)
      (effects (font (size 1.27 1.27)) hide)
    )
    (property "Digi-Key_PN" "RMCF0603FT620RCT-ND" (id 4) (at 160.02 62.23 0)
      (effects (font (size 1.27 1.27)) hide)
    )
    (pin "1" (uuid 0bfa3c99-3c40-44e5-955c-a04b4386f304))
    (pin "2" (uuid f2aa7bcf-ab6b-454e-905e-151318a9a82c))
  )

  (symbol (lib_id "Device:R_Small") (at 142.24 54.61 270) (unit 1)
    (in_bom yes) (on_board yes)
    (uuid 00000000-0000-0000-0000-00005fb9239d)
    (property "Reference" "R36" (id 0) (at 142.24 49.6316 90))
    (property "Value" "620" (id 1) (at 142.24 51.943 90))
    (property "Footprint" "Resistor_SMD:R_0603_1608Metric_Pad0.98x0.95mm_HandSolder" (id 2) (at 142.24 54.61 0)
      (effects (font (size 1.27 1.27)) hide)
    )
    (property "Datasheet" "~" (id 3) (at 142.24 54.61 0)
      (effects (font (size 1.27 1.27)) hide)
    )
    (property "Digi-Key_PN" "RMCF0603FT620RCT-ND" (id 4) (at 142.24 54.61 0)
      (effects (font (size 1.27 1.27)) hide)
    )
    (pin "1" (uuid 6a8a340c-47f6-4f52-aa29-5b4b1c760d8b))
    (pin "2" (uuid 06ad217f-5462-400c-b85e-b0557b708497))
  )

  (symbol (lib_id "LEDs_magne:APHBM2012SURKCGKC") (at 152.4 76.2 0) (unit 1)
    (in_bom yes) (on_board yes)
    (uuid 00000000-0000-0000-0000-00005fb923a5)
    (property "Reference" "D20" (id 0) (at 152.0698 64.643 0))
    (property "Value" "APHBM2012SURKCGKC" (id 1) (at 152.0698 66.9544 0))
    (property "Footprint" "magne_footprints:Kingbright_APHB2012" (id 2) (at 152.4 76.2 0)
      (effects (font (size 1.27 1.27)) hide)
    )
    (property "Datasheet" "" (id 3) (at 152.4 76.2 0)
      (effects (font (size 1.27 1.27)) hide)
    )
    (property "Digi-Key_PN" "754-1093-2-ND" (id 4) (at 152.4 76.2 0)
      (effects (font (size 1.27 1.27)) hide)
    )
    (pin "1" (uuid 561d8307-0e34-43e2-bdd8-c2c662f518e8))
    (pin "2" (uuid 69ef0741-abee-4e62-b573-519ca117c929))
    (pin "3" (uuid 71ee3736-e2ce-40e9-91c8-ed0ccac44f61))
    (pin "4" (uuid f6b7bb2a-1e9e-4d6d-8754-ed19d1194da1))
  )

  (symbol (lib_id "Device:R_Small") (at 160.02 80.01 270) (unit 1)
    (in_bom yes) (on_board yes)
    (uuid 00000000-0000-0000-0000-00005fb923ae)
    (property "Reference" "R45" (id 0) (at 160.02 75.0316 90))
    (property "Value" "620" (id 1) (at 160.02 77.343 90))
    (property "Footprint" "Resistor_SMD:R_0603_1608Metric_Pad0.98x0.95mm_HandSolder" (id 2) (at 160.02 80.01 0)
      (effects (font (size 1.27 1.27)) hide)
    )
    (property "Datasheet" "~" (id 3) (at 160.02 80.01 0)
      (effects (font (size 1.27 1.27)) hide)
    )
    (property "Digi-Key_PN" "RMCF0603FT620RCT-ND" (id 4) (at 160.02 80.01 0)
      (effects (font (size 1.27 1.27)) hide)
    )
    (pin "1" (uuid 4fd2a883-a1d9-430c-bad0-1214d562197c))
    (pin "2" (uuid 9c724ebc-45b5-4258-abff-04260c679d21))
  )

  (symbol (lib_id "Device:R_Small") (at 142.24 72.39 270) (unit 1)
    (in_bom yes) (on_board yes)
    (uuid 00000000-0000-0000-0000-00005fb923b5)
    (property "Reference" "R37" (id 0) (at 142.24 67.4116 90))
    (property "Value" "620" (id 1) (at 142.24 69.723 90))
    (property "Footprint" "Resistor_SMD:R_0603_1608Metric_Pad0.98x0.95mm_HandSolder" (id 2) (at 142.24 72.39 0)
      (effects (font (size 1.27 1.27)) hide)
    )
    (property "Datasheet" "~" (id 3) (at 142.24 72.39 0)
      (effects (font (size 1.27 1.27)) hide)
    )
    (property "Digi-Key_PN" "RMCF0603FT620RCT-ND" (id 4) (at 142.24 72.39 0)
      (effects (font (size 1.27 1.27)) hide)
    )
    (pin "1" (uuid d4f4eeab-eca3-443a-a7c8-1e5f2f1c9f7b))
    (pin "2" (uuid 6ba7d290-50d6-4817-adee-7c3a054922e1))
  )

  (symbol (lib_id "LEDs_magne:APHBM2012SURKCGKC") (at 152.4 93.98 0) (unit 1)
    (in_bom yes) (on_board yes)
    (uuid 00000000-0000-0000-0000-00005fb923bd)
    (property "Reference" "D21" (id 0) (at 152.0698 82.423 0))
    (property "Value" "APHBM2012SURKCGKC" (id 1) (at 152.0698 84.7344 0))
    (property "Footprint" "magne_footprints:Kingbright_APHB2012" (id 2) (at 152.4 93.98 0)
      (effects (font (size 1.27 1.27)) hide)
    )
    (property "Datasheet" "" (id 3) (at 152.4 93.98 0)
      (effects (font (size 1.27 1.27)) hide)
    )
    (property "Digi-Key_PN" "754-1093-2-ND" (id 4) (at 152.4 93.98 0)
      (effects (font (size 1.27 1.27)) hide)
    )
    (pin "1" (uuid 3b3e36cf-ee10-439d-a195-05501ebaec04))
    (pin "2" (uuid d6e96c7a-b1c9-4d74-a1a5-3016be9641c2))
    (pin "3" (uuid 1198e917-86b2-43c3-8962-0cd13359c513))
    (pin "4" (uuid 42e894a7-0f08-436f-8ea2-a3e1141b1a2f))
  )

  (symbol (lib_id "Device:R_Small") (at 160.02 97.79 270) (unit 1)
    (in_bom yes) (on_board yes)
    (uuid 00000000-0000-0000-0000-00005fb923c6)
    (property "Reference" "R46" (id 0) (at 160.02 92.8116 90))
    (property "Value" "620" (id 1) (at 160.02 95.123 90))
    (property "Footprint" "Resistor_SMD:R_0603_1608Metric_Pad0.98x0.95mm_HandSolder" (id 2) (at 160.02 97.79 0)
      (effects (font (size 1.27 1.27)) hide)
    )
    (property "Datasheet" "~" (id 3) (at 160.02 97.79 0)
      (effects (font (size 1.27 1.27)) hide)
    )
    (property "Digi-Key_PN" "RMCF0603FT620RCT-ND" (id 4) (at 160.02 97.79 0)
      (effects (font (size 1.27 1.27)) hide)
    )
    (pin "1" (uuid f6a01880-6421-47b2-9125-3a6c33ab5562))
    (pin "2" (uuid 286d481b-e10a-4d7b-8669-8ce56d3b5e69))
  )

  (symbol (lib_id "Device:R_Small") (at 142.24 90.17 270) (unit 1)
    (in_bom yes) (on_board yes)
    (uuid 00000000-0000-0000-0000-00005fb923cd)
    (property "Reference" "R38" (id 0) (at 142.24 85.1916 90))
    (property "Value" "620" (id 1) (at 142.24 87.503 90))
    (property "Footprint" "Resistor_SMD:R_0603_1608Metric_Pad0.98x0.95mm_HandSolder" (id 2) (at 142.24 90.17 0)
      (effects (font (size 1.27 1.27)) hide)
    )
    (property "Datasheet" "~" (id 3) (at 142.24 90.17 0)
      (effects (font (size 1.27 1.27)) hide)
    )
    (property "Digi-Key_PN" "RMCF0603FT620RCT-ND" (id 4) (at 142.24 90.17 0)
      (effects (font (size 1.27 1.27)) hide)
    )
    (pin "1" (uuid 9f5d9973-f23b-4b9e-82b2-ee0f7bcf1f4c))
    (pin "2" (uuid 9e66805f-91da-458b-af94-abb9b5b876c5))
  )

  (symbol (lib_id "LEDs_magne:APHBM2012SURKCGKC") (at 152.4 111.76 0) (unit 1)
    (in_bom yes) (on_board yes)
    (uuid 00000000-0000-0000-0000-00005fb923d5)
    (property "Reference" "D22" (id 0) (at 152.0698 100.203 0))
    (property "Value" "APHBM2012SURKCGKC" (id 1) (at 152.0698 102.5144 0))
    (property "Footprint" "magne_footprints:Kingbright_APHB2012" (id 2) (at 152.4 111.76 0)
      (effects (font (size 1.27 1.27)) hide)
    )
    (property "Datasheet" "" (id 3) (at 152.4 111.76 0)
      (effects (font (size 1.27 1.27)) hide)
    )
    (property "Digi-Key_PN" "754-1093-2-ND" (id 4) (at 152.4 111.76 0)
      (effects (font (size 1.27 1.27)) hide)
    )
    (pin "1" (uuid 5d91763f-76c5-4221-a0da-2581a498ee58))
    (pin "2" (uuid e0d48b58-72f0-4293-aef4-0b2a9cd3fedc))
    (pin "3" (uuid 5eb08624-44bc-47ec-b397-9e03156674ee))
    (pin "4" (uuid fe36c697-07b8-4cf1-9f14-2a9112d9d3eb))
  )

  (symbol (lib_id "Device:R_Small") (at 160.02 115.57 270) (unit 1)
    (in_bom yes) (on_board yes)
    (uuid 00000000-0000-0000-0000-00005fb923de)
    (property "Reference" "R47" (id 0) (at 160.02 110.5916 90))
    (property "Value" "620" (id 1) (at 160.02 112.903 90))
    (property "Footprint" "Resistor_SMD:R_0603_1608Metric_Pad0.98x0.95mm_HandSolder" (id 2) (at 160.02 115.57 0)
      (effects (font (size 1.27 1.27)) hide)
    )
    (property "Datasheet" "~" (id 3) (at 160.02 115.57 0)
      (effects (font (size 1.27 1.27)) hide)
    )
    (property "Digi-Key_PN" "RMCF0603FT620RCT-ND" (id 4) (at 160.02 115.57 0)
      (effects (font (size 1.27 1.27)) hide)
    )
    (pin "1" (uuid db2a6bc2-c2c7-4287-bdca-e5ea815b8356))
    (pin "2" (uuid e1c6cfdd-d699-4cc1-9e27-a1c6b074205e))
  )

  (symbol (lib_id "Device:R_Small") (at 142.24 107.95 270) (unit 1)
    (in_bom yes) (on_board yes)
    (uuid 00000000-0000-0000-0000-00005fb923e5)
    (property "Reference" "R39" (id 0) (at 142.24 102.9716 90))
    (property "Value" "620" (id 1) (at 142.24 105.283 90))
    (property "Footprint" "Resistor_SMD:R_0603_1608Metric_Pad0.98x0.95mm_HandSolder" (id 2) (at 142.24 107.95 0)
      (effects (font (size 1.27 1.27)) hide)
    )
    (property "Datasheet" "~" (id 3) (at 142.24 107.95 0)
      (effects (font (size 1.27 1.27)) hide)
    )
    (property "Digi-Key_PN" "RMCF0603FT620RCT-ND" (id 4) (at 142.24 107.95 0)
      (effects (font (size 1.27 1.27)) hide)
    )
    (pin "1" (uuid 32deb010-8a67-4e46-963a-a5a660f00a46))
    (pin "2" (uuid f6952f0f-250c-4cbe-a479-72125ff9fdcb))
  )

  (symbol (lib_id "LEDs_magne:APHBM2012SURKCGKC") (at 152.4 128.27 0) (unit 1)
    (in_bom yes) (on_board yes)
    (uuid 00000000-0000-0000-0000-00005fb923ed)
    (property "Reference" "D23" (id 0) (at 152.0698 116.713 0))
    (property "Value" "APHBM2012SURKCGKC" (id 1) (at 152.0698 119.0244 0))
    (property "Footprint" "magne_footprints:Kingbright_APHB2012" (id 2) (at 152.4 128.27 0)
      (effects (font (size 1.27 1.27)) hide)
    )
    (property "Datasheet" "" (id 3) (at 152.4 128.27 0)
      (effects (font (size 1.27 1.27)) hide)
    )
    (property "Digi-Key_PN" "754-1093-2-ND" (id 4) (at 152.4 128.27 0)
      (effects (font (size 1.27 1.27)) hide)
    )
    (pin "1" (uuid 4838fb0d-c52a-4093-80b2-b540d3b37ad4))
    (pin "2" (uuid 3d7d31ad-715f-4b6f-a1cb-a2b6f2753bf7))
    (pin "3" (uuid 751515f8-fbca-40e8-92cc-1caf1e052103))
    (pin "4" (uuid 0a483b7d-7e6e-4183-9ee7-07eeb41bcb88))
  )

  (symbol (lib_id "Device:R_Small") (at 160.02 132.08 270) (unit 1)
    (in_bom yes) (on_board yes)
    (uuid 00000000-0000-0000-0000-00005fb923f6)
    (property "Reference" "R48" (id 0) (at 160.02 127.1016 90))
    (property "Value" "620" (id 1) (at 160.02 129.413 90))
    (property "Footprint" "Resistor_SMD:R_0603_1608Metric_Pad0.98x0.95mm_HandSolder" (id 2) (at 160.02 132.08 0)
      (effects (font (size 1.27 1.27)) hide)
    )
    (property "Datasheet" "~" (id 3) (at 160.02 132.08 0)
      (effects (font (size 1.27 1.27)) hide)
    )
    (property "Digi-Key_PN" "RMCF0603FT620RCT-ND" (id 4) (at 160.02 132.08 0)
      (effects (font (size 1.27 1.27)) hide)
    )
    (pin "1" (uuid 1c2d7203-e165-41fc-93bb-878862ff6b5b))
    (pin "2" (uuid ea3eb5bb-7d00-4569-8121-25cce96cfde0))
  )

  (symbol (lib_id "Device:R_Small") (at 142.24 124.46 270) (unit 1)
    (in_bom yes) (on_board yes)
    (uuid 00000000-0000-0000-0000-00005fb923fd)
    (property "Reference" "R40" (id 0) (at 142.24 119.4816 90))
    (property "Value" "620" (id 1) (at 142.24 121.793 90))
    (property "Footprint" "Resistor_SMD:R_0603_1608Metric_Pad0.98x0.95mm_HandSolder" (id 2) (at 142.24 124.46 0)
      (effects (font (size 1.27 1.27)) hide)
    )
    (property "Datasheet" "~" (id 3) (at 142.24 124.46 0)
      (effects (font (size 1.27 1.27)) hide)
    )
    (property "Digi-Key_PN" "RMCF0603FT620RCT-ND" (id 4) (at 142.24 124.46 0)
      (effects (font (size 1.27 1.27)) hide)
    )
    (pin "1" (uuid a43c5a38-2c09-4047-af7e-b2a12f6c44a6))
    (pin "2" (uuid d6936d23-ae80-4925-9620-c83b505c50e6))
  )

  (symbol (lib_id "LEDs_magne:APHBM2012SURKCGKC") (at 152.4 146.05 0) (unit 1)
    (in_bom yes) (on_board yes)
    (uuid 00000000-0000-0000-0000-00005fb92405)
    (property "Reference" "D24" (id 0) (at 152.0698 134.493 0))
    (property "Value" "APHBM2012SURKCGKC" (id 1) (at 152.0698 136.8044 0))
    (property "Footprint" "magne_footprints:Kingbright_APHB2012" (id 2) (at 152.4 146.05 0)
      (effects (font (size 1.27 1.27)) hide)
    )
    (property "Datasheet" "" (id 3) (at 152.4 146.05 0)
      (effects (font (size 1.27 1.27)) hide)
    )
    (property "Digi-Key_PN" "754-1093-2-ND" (id 4) (at 152.4 146.05 0)
      (effects (font (size 1.27 1.27)) hide)
    )
    (pin "1" (uuid aa094963-3cdc-4a92-b0a5-721614bdd37d))
    (pin "2" (uuid 17445be1-bc13-42a7-9f89-eae5880d3164))
    (pin "3" (uuid 641bd679-ee5d-4f02-8015-11004bab1b90))
    (pin "4" (uuid bc154dd2-5343-4045-ab7b-5d47fd29dc20))
  )

  (symbol (lib_id "Device:R_Small") (at 160.02 149.86 270) (unit 1)
    (in_bom yes) (on_board yes)
    (uuid 00000000-0000-0000-0000-00005fb9240e)
    (property "Reference" "R49" (id 0) (at 160.02 144.8816 90))
    (property "Value" "620" (id 1) (at 160.02 147.193 90))
    (property "Footprint" "Resistor_SMD:R_0603_1608Metric_Pad0.98x0.95mm_HandSolder" (id 2) (at 160.02 149.86 0)
      (effects (font (size 1.27 1.27)) hide)
    )
    (property "Datasheet" "~" (id 3) (at 160.02 149.86 0)
      (effects (font (size 1.27 1.27)) hide)
    )
    (property "Digi-Key_PN" "RMCF0603FT620RCT-ND" (id 4) (at 160.02 149.86 0)
      (effects (font (size 1.27 1.27)) hide)
    )
    (pin "1" (uuid 79bdf22e-70ca-48d1-af8e-74d9645b7547))
    (pin "2" (uuid 700b38c7-2cee-4a7e-b749-aadbc0d041f5))
  )

  (symbol (lib_id "Device:R_Small") (at 142.24 142.24 270) (unit 1)
    (in_bom yes) (on_board yes)
    (uuid 00000000-0000-0000-0000-00005fb92415)
    (property "Reference" "R41" (id 0) (at 142.24 137.2616 90))
    (property "Value" "620" (id 1) (at 142.24 139.573 90))
    (property "Footprint" "Resistor_SMD:R_0603_1608Metric_Pad0.98x0.95mm_HandSolder" (id 2) (at 142.24 142.24 0)
      (effects (font (size 1.27 1.27)) hide)
    )
    (property "Datasheet" "~" (id 3) (at 142.24 142.24 0)
      (effects (font (size 1.27 1.27)) hide)
    )
    (property "Digi-Key_PN" "RMCF0603FT620RCT-ND" (id 4) (at 142.24 142.24 0)
      (effects (font (size 1.27 1.27)) hide)
    )
    (pin "1" (uuid 66def1ca-32f2-43fc-8b3b-7cf12254e57c))
    (pin "2" (uuid 7f5cd9bb-8a28-4701-942b-4940437a17d7))
  )

  (symbol (lib_id "LEDs_magne:APHBM2012SURKCGKC") (at 152.4 163.83 0) (unit 1)
    (in_bom yes) (on_board yes)
    (uuid 00000000-0000-0000-0000-00005fb9241d)
    (property "Reference" "D25" (id 0) (at 152.0698 152.273 0))
    (property "Value" "APHBM2012SURKCGKC" (id 1) (at 152.0698 154.5844 0))
    (property "Footprint" "magne_footprints:Kingbright_APHB2012" (id 2) (at 152.4 163.83 0)
      (effects (font (size 1.27 1.27)) hide)
    )
    (property "Datasheet" "" (id 3) (at 152.4 163.83 0)
      (effects (font (size 1.27 1.27)) hide)
    )
    (property "Digi-Key_PN" "754-1093-2-ND" (id 4) (at 152.4 163.83 0)
      (effects (font (size 1.27 1.27)) hide)
    )
    (pin "1" (uuid 48fd82ef-7d69-475d-b5aa-3a5a990965ad))
    (pin "2" (uuid a457dfb7-d73d-452d-8e5f-cd8c89bf1b61))
    (pin "3" (uuid 5b6ff722-aea8-48c6-a282-d88159a9ce78))
    (pin "4" (uuid c8cc17e4-48a0-471d-971b-a52ea9090afc))
  )

  (symbol (lib_id "Device:R_Small") (at 160.02 167.64 270) (unit 1)
    (in_bom yes) (on_board yes)
    (uuid 00000000-0000-0000-0000-00005fb92426)
    (property "Reference" "R50" (id 0) (at 160.02 162.6616 90))
    (property "Value" "620" (id 1) (at 160.02 164.973 90))
    (property "Footprint" "Resistor_SMD:R_0603_1608Metric_Pad0.98x0.95mm_HandSolder" (id 2) (at 160.02 167.64 0)
      (effects (font (size 1.27 1.27)) hide)
    )
    (property "Datasheet" "~" (id 3) (at 160.02 167.64 0)
      (effects (font (size 1.27 1.27)) hide)
    )
    (property "Digi-Key_PN" "RMCF0603FT620RCT-ND" (id 4) (at 160.02 167.64 0)
      (effects (font (size 1.27 1.27)) hide)
    )
    (pin "1" (uuid 2841cbe6-f53b-445f-bd7c-30ebea11633c))
    (pin "2" (uuid 359adffe-1452-48cd-9f53-4f9fcf7ca7db))
  )

  (symbol (lib_id "Device:R_Small") (at 142.24 160.02 270) (unit 1)
    (in_bom yes) (on_board yes)
    (uuid 00000000-0000-0000-0000-00005fb9242d)
    (property "Reference" "R42" (id 0) (at 142.24 155.0416 90))
    (property "Value" "620" (id 1) (at 142.24 157.353 90))
    (property "Footprint" "Resistor_SMD:R_0603_1608Metric_Pad0.98x0.95mm_HandSolder" (id 2) (at 142.24 160.02 0)
      (effects (font (size 1.27 1.27)) hide)
    )
    (property "Datasheet" "~" (id 3) (at 142.24 160.02 0)
      (effects (font (size 1.27 1.27)) hide)
    )
    (property "Digi-Key_PN" "RMCF0603FT620RCT-ND" (id 4) (at 142.24 160.02 0)
      (effects (font (size 1.27 1.27)) hide)
    )
    (pin "1" (uuid ab7327dc-2e07-4a14-afe3-538e7dc25166))
    (pin "2" (uuid d3b1db47-1863-4daf-875e-d8b710e173cd))
  )

  (symbol (lib_id "power:GND") (at 162.56 168.91 0) (unit 1)
    (in_bom yes) (on_board yes)
    (uuid 00000000-0000-0000-0000-00005fb932e0)
    (property "Reference" "#PWR0165" (id 0) (at 162.56 175.26 0)
      (effects (font (size 1.27 1.27)) hide)
    )
    (property "Value" "GND" (id 1) (at 162.687 173.3042 0))
    (property "Footprint" "" (id 2) (at 162.56 168.91 0)
      (effects (font (size 1.27 1.27)) hide)
    )
    (property "Datasheet" "" (id 3) (at 162.56 168.91 0)
      (effects (font (size 1.27 1.27)) hide)
    )
    (pin "1" (uuid 4d27a65a-df92-4ff5-9d0c-71879e45366e))
  )

  (symbol (lib_id "power:+5V") (at 139.7 33.02 0) (unit 1)
    (in_bom yes) (on_board yes)
    (uuid 00000000-0000-0000-0000-00005fb93c76)
    (property "Reference" "#PWR0166" (id 0) (at 139.7 36.83 0)
      (effects (font (size 1.27 1.27)) hide)
    )
    (property "Value" "+5V" (id 1) (at 140.081 28.6258 0))
    (property "Footprint" "" (id 2) (at 139.7 33.02 0)
      (effects (font (size 1.27 1.27)) hide)
    )
    (property "Datasheet" "" (id 3) (at 139.7 33.02 0)
      (effects (font (size 1.27 1.27)) hide)
    )
    (pin "1" (uuid bc905597-0d8b-454e-b8b4-f7a98c8e37a2))
  )

  (symbol (lib_id "Device:C") (at 129.54 38.1 0) (unit 1)
    (in_bom yes) (on_board yes)
    (uuid 00000000-0000-0000-0000-00005fb97ab3)
    (property "Reference" "C24" (id 0) (at 132.461 36.9316 0)
      (effects (font (size 1.27 1.27)) (justify left))
    )
    (property "Value" "3.3u" (id 1) (at 132.461 39.243 0)
      (effects (font (size 1.27 1.27)) (justify left))
    )
    (property "Footprint" "Capacitor_SMD:C_0805_2012Metric_Pad1.18x1.45mm_HandSolder" (id 2) (at 132.461 40.4114 0)
      (effects (font (size 1.27 1.27)) (justify left) hide)
    )
    (property "Datasheet" "~" (id 3) (at 129.54 38.1 0)
      (effects (font (size 1.27 1.27)) hide)
    )
    (property "Digi-Key_PN" "445-7582-1-ND" (id 4) (at 129.54 38.1 0)
      (effects (font (size 1.27 1.27)) hide)
    )
    (pin "1" (uuid 80537cd5-af45-4b44-a815-ac2a22edb97e))
    (pin "2" (uuid 2f775b46-4e8f-44b0-84a5-a28916937549))
  )

  (symbol (lib_id "power:GND") (at 129.54 43.18 0) (unit 1)
    (in_bom yes) (on_board yes)
    (uuid 00000000-0000-0000-0000-00005fb9c193)
    (property "Reference" "#PWR0167" (id 0) (at 129.54 49.53 0)
      (effects (font (size 1.27 1.27)) hide)
    )
    (property "Value" "GND" (id 1) (at 129.667 47.5742 0))
    (property "Footprint" "" (id 2) (at 129.54 43.18 0)
      (effects (font (size 1.27 1.27)) hide)
    )
    (property "Datasheet" "" (id 3) (at 129.54 43.18 0)
      (effects (font (size 1.27 1.27)) hide)
    )
    (pin "1" (uuid 8a67e768-c6dc-4e70-a9ec-57dd7d90444d))
  )
)
