(kicad_sch (version 20211123) (generator eeschema)

  (uuid 9464ad6a-8966-42f8-9ac1-71af3cb91734)

  (paper "A4")

  (title_block
    (title "ATLAS-ITK-PIXEL-MODULES HW INTERLOCK")
    (rev "0.4")
    (comment 1 "All logic is inverted TTL")
  )

  (lib_symbols
    (symbol "Connector:DB15_Male_MountingHoles" (pin_names (offset 1.016) hide) (in_bom yes) (on_board yes)
      (property "Reference" "J" (id 0) (at 0 24.13 0)
        (effects (font (size 1.27 1.27)))
      )
      (property "Value" "DB15_Male_MountingHoles" (id 1) (at 0 22.225 0)
        (effects (font (size 1.27 1.27)))
      )
      (property "Footprint" "" (id 2) (at 0 0 0)
        (effects (font (size 1.27 1.27)) hide)
      )
      (property "Datasheet" " ~" (id 3) (at 0 0 0)
        (effects (font (size 1.27 1.27)) hide)
      )
      (property "ki_keywords" "male D-SUB connector" (id 4) (at 0 0 0)
        (effects (font (size 1.27 1.27)) hide)
      )
      (property "ki_description" "15-pin male D-SUB connector (low-density/2 columns), Mounting Hole" (id 5) (at 0 0 0)
        (effects (font (size 1.27 1.27)) hide)
      )
      (property "ki_fp_filters" "DSUB*Male*" (id 6) (at 0 0 0)
        (effects (font (size 1.27 1.27)) hide)
      )
      (symbol "DB15_Male_MountingHoles_0_1"
        (circle (center -1.778 -17.78) (radius 0.762)
          (stroke (width 0) (type default) (color 0 0 0 0))
          (fill (type outline))
        )
        (circle (center -1.778 -12.7) (radius 0.762)
          (stroke (width 0) (type default) (color 0 0 0 0))
          (fill (type outline))
        )
        (circle (center -1.778 -7.62) (radius 0.762)
          (stroke (width 0) (type default) (color 0 0 0 0))
          (fill (type outline))
        )
        (circle (center -1.778 -2.54) (radius 0.762)
          (stroke (width 0) (type default) (color 0 0 0 0))
          (fill (type outline))
        )
        (circle (center -1.778 2.54) (radius 0.762)
          (stroke (width 0) (type default) (color 0 0 0 0))
          (fill (type outline))
        )
        (circle (center -1.778 7.62) (radius 0.762)
          (stroke (width 0) (type default) (color 0 0 0 0))
          (fill (type outline))
        )
        (circle (center -1.778 12.7) (radius 0.762)
          (stroke (width 0) (type default) (color 0 0 0 0))
          (fill (type outline))
        )
        (circle (center -1.778 17.78) (radius 0.762)
          (stroke (width 0) (type default) (color 0 0 0 0))
          (fill (type outline))
        )
        (polyline
          (pts
            (xy -3.81 -17.78)
            (xy -2.54 -17.78)
          )
          (stroke (width 0) (type default) (color 0 0 0 0))
          (fill (type none))
        )
        (polyline
          (pts
            (xy -3.81 -15.24)
            (xy 0.508 -15.24)
          )
          (stroke (width 0) (type default) (color 0 0 0 0))
          (fill (type none))
        )
        (polyline
          (pts
            (xy -3.81 -12.7)
            (xy -2.54 -12.7)
          )
          (stroke (width 0) (type default) (color 0 0 0 0))
          (fill (type none))
        )
        (polyline
          (pts
            (xy -3.81 -10.16)
            (xy 0.508 -10.16)
          )
          (stroke (width 0) (type default) (color 0 0 0 0))
          (fill (type none))
        )
        (polyline
          (pts
            (xy -3.81 -7.62)
            (xy -2.54 -7.62)
          )
          (stroke (width 0) (type default) (color 0 0 0 0))
          (fill (type none))
        )
        (polyline
          (pts
            (xy -3.81 -5.08)
            (xy 0.508 -5.08)
          )
          (stroke (width 0) (type default) (color 0 0 0 0))
          (fill (type none))
        )
        (polyline
          (pts
            (xy -3.81 -2.54)
            (xy -2.54 -2.54)
          )
          (stroke (width 0) (type default) (color 0 0 0 0))
          (fill (type none))
        )
        (polyline
          (pts
            (xy -3.81 0)
            (xy 0.508 0)
          )
          (stroke (width 0) (type default) (color 0 0 0 0))
          (fill (type none))
        )
        (polyline
          (pts
            (xy -3.81 2.54)
            (xy -2.54 2.54)
          )
          (stroke (width 0) (type default) (color 0 0 0 0))
          (fill (type none))
        )
        (polyline
          (pts
            (xy -3.81 5.08)
            (xy 0.508 5.08)
          )
          (stroke (width 0) (type default) (color 0 0 0 0))
          (fill (type none))
        )
        (polyline
          (pts
            (xy -3.81 7.62)
            (xy -2.54 7.62)
          )
          (stroke (width 0) (type default) (color 0 0 0 0))
          (fill (type none))
        )
        (polyline
          (pts
            (xy -3.81 10.16)
            (xy 0.508 10.16)
          )
          (stroke (width 0) (type default) (color 0 0 0 0))
          (fill (type none))
        )
        (polyline
          (pts
            (xy -3.81 12.7)
            (xy -2.54 12.7)
          )
          (stroke (width 0) (type default) (color 0 0 0 0))
          (fill (type none))
        )
        (polyline
          (pts
            (xy -3.81 15.24)
            (xy 0.508 15.24)
          )
          (stroke (width 0) (type default) (color 0 0 0 0))
          (fill (type none))
        )
        (polyline
          (pts
            (xy -3.81 17.78)
            (xy -2.54 17.78)
          )
          (stroke (width 0) (type default) (color 0 0 0 0))
          (fill (type none))
        )
        (polyline
          (pts
            (xy -3.81 -20.955)
            (xy 3.175 -17.145)
            (xy 3.175 17.145)
            (xy -3.81 20.955)
            (xy -3.81 -20.955)
          )
          (stroke (width 0.254) (type default) (color 0 0 0 0))
          (fill (type background))
        )
        (circle (center 1.27 -15.24) (radius 0.762)
          (stroke (width 0) (type default) (color 0 0 0 0))
          (fill (type outline))
        )
        (circle (center 1.27 -10.16) (radius 0.762)
          (stroke (width 0) (type default) (color 0 0 0 0))
          (fill (type outline))
        )
        (circle (center 1.27 -5.08) (radius 0.762)
          (stroke (width 0) (type default) (color 0 0 0 0))
          (fill (type outline))
        )
        (circle (center 1.27 0) (radius 0.762)
          (stroke (width 0) (type default) (color 0 0 0 0))
          (fill (type outline))
        )
        (circle (center 1.27 5.08) (radius 0.762)
          (stroke (width 0) (type default) (color 0 0 0 0))
          (fill (type outline))
        )
        (circle (center 1.27 10.16) (radius 0.762)
          (stroke (width 0) (type default) (color 0 0 0 0))
          (fill (type outline))
        )
        (circle (center 1.27 15.24) (radius 0.762)
          (stroke (width 0) (type default) (color 0 0 0 0))
          (fill (type outline))
        )
      )
      (symbol "DB15_Male_MountingHoles_1_1"
        (pin passive line (at 0 -22.86 90) (length 3.81)
          (name "PAD" (effects (font (size 1.27 1.27))))
          (number "0" (effects (font (size 1.27 1.27))))
        )
        (pin passive line (at -7.62 -17.78 0) (length 3.81)
          (name "1" (effects (font (size 1.27 1.27))))
          (number "1" (effects (font (size 1.27 1.27))))
        )
        (pin passive line (at -7.62 -10.16 0) (length 3.81)
          (name "P10" (effects (font (size 1.27 1.27))))
          (number "10" (effects (font (size 1.27 1.27))))
        )
        (pin passive line (at -7.62 -5.08 0) (length 3.81)
          (name "P111" (effects (font (size 1.27 1.27))))
          (number "11" (effects (font (size 1.27 1.27))))
        )
        (pin passive line (at -7.62 0 0) (length 3.81)
          (name "P12" (effects (font (size 1.27 1.27))))
          (number "12" (effects (font (size 1.27 1.27))))
        )
        (pin passive line (at -7.62 5.08 0) (length 3.81)
          (name "P13" (effects (font (size 1.27 1.27))))
          (number "13" (effects (font (size 1.27 1.27))))
        )
        (pin passive line (at -7.62 10.16 0) (length 3.81)
          (name "P14" (effects (font (size 1.27 1.27))))
          (number "14" (effects (font (size 1.27 1.27))))
        )
        (pin passive line (at -7.62 15.24 0) (length 3.81)
          (name "P15" (effects (font (size 1.27 1.27))))
          (number "15" (effects (font (size 1.27 1.27))))
        )
        (pin passive line (at -7.62 -12.7 0) (length 3.81)
          (name "2" (effects (font (size 1.27 1.27))))
          (number "2" (effects (font (size 1.27 1.27))))
        )
        (pin passive line (at -7.62 -7.62 0) (length 3.81)
          (name "3" (effects (font (size 1.27 1.27))))
          (number "3" (effects (font (size 1.27 1.27))))
        )
        (pin passive line (at -7.62 -2.54 0) (length 3.81)
          (name "4" (effects (font (size 1.27 1.27))))
          (number "4" (effects (font (size 1.27 1.27))))
        )
        (pin passive line (at -7.62 2.54 0) (length 3.81)
          (name "5" (effects (font (size 1.27 1.27))))
          (number "5" (effects (font (size 1.27 1.27))))
        )
        (pin passive line (at -7.62 7.62 0) (length 3.81)
          (name "6" (effects (font (size 1.27 1.27))))
          (number "6" (effects (font (size 1.27 1.27))))
        )
        (pin passive line (at -7.62 12.7 0) (length 3.81)
          (name "7" (effects (font (size 1.27 1.27))))
          (number "7" (effects (font (size 1.27 1.27))))
        )
        (pin passive line (at -7.62 17.78 0) (length 3.81)
          (name "8" (effects (font (size 1.27 1.27))))
          (number "8" (effects (font (size 1.27 1.27))))
        )
        (pin passive line (at -7.62 -15.24 0) (length 3.81)
          (name "P9" (effects (font (size 1.27 1.27))))
          (number "9" (effects (font (size 1.27 1.27))))
        )
      )
    )
    (symbol "Mechanical:MountingHole" (pin_names (offset 1.016)) (in_bom yes) (on_board yes)
      (property "Reference" "H" (id 0) (at 0 5.08 0)
        (effects (font (size 1.27 1.27)))
      )
      (property "Value" "MountingHole" (id 1) (at 0 3.175 0)
        (effects (font (size 1.27 1.27)))
      )
      (property "Footprint" "" (id 2) (at 0 0 0)
        (effects (font (size 1.27 1.27)) hide)
      )
      (property "Datasheet" "~" (id 3) (at 0 0 0)
        (effects (font (size 1.27 1.27)) hide)
      )
      (property "ki_keywords" "mounting hole" (id 4) (at 0 0 0)
        (effects (font (size 1.27 1.27)) hide)
      )
      (property "ki_description" "Mounting Hole without connection" (id 5) (at 0 0 0)
        (effects (font (size 1.27 1.27)) hide)
      )
      (property "ki_fp_filters" "MountingHole*" (id 6) (at 0 0 0)
        (effects (font (size 1.27 1.27)) hide)
      )
      (symbol "MountingHole_0_1"
        (circle (center 0 0) (radius 1.27)
          (stroke (width 1.27) (type default) (color 0 0 0 0))
          (fill (type none))
        )
      )
    )
    (symbol "dk_Test-Points:5011" (pin_numbers hide) (pin_names (offset 1.016) hide) (in_bom yes) (on_board yes)
      (property "Reference" "TP" (id 0) (at -1.27 1.27 0)
        (effects (font (size 1.27 1.27)) (justify right))
      )
      (property "Value" "5011" (id 1) (at 0 -2.54 0)
        (effects (font (size 1.27 1.27)) hide)
      )
      (property "Footprint" "digikey-footprints:Test_Point_D1.02mm" (id 2) (at 5.08 5.08 0)
        (effects (font (size 1.524 1.524)) (justify left) hide)
      )
      (property "Datasheet" "http://www.keyelco.com/product-pdf.cfm?p=1320" (id 3) (at 5.08 7.62 0)
        (effects (font (size 1.524 1.524)) (justify left) hide)
      )
      (property "Digi-Key_PN" "36-5011-ND" (id 4) (at 5.08 10.16 0)
        (effects (font (size 1.524 1.524)) (justify left) hide)
      )
      (property "MPN" "5011" (id 5) (at 5.08 12.7 0)
        (effects (font (size 1.524 1.524)) (justify left) hide)
      )
      (property "Category" "Test and Measurement" (id 6) (at 5.08 15.24 0)
        (effects (font (size 1.524 1.524)) (justify left) hide)
      )
      (property "Family" "Test Points" (id 7) (at 5.08 17.78 0)
        (effects (font (size 1.524 1.524)) (justify left) hide)
      )
      (property "DK_Datasheet_Link" "http://www.keyelco.com/product-pdf.cfm?p=1320" (id 8) (at 5.08 20.32 0)
        (effects (font (size 1.524 1.524)) (justify left) hide)
      )
      (property "DK_Detail_Page" "/product-detail/en/keystone-electronics/5011/36-5011-ND/255333" (id 9) (at 5.08 22.86 0)
        (effects (font (size 1.524 1.524)) (justify left) hide)
      )
      (property "Description" "PC TEST POINT MULTIPURPOSE BLACK" (id 10) (at 5.08 25.4 0)
        (effects (font (size 1.524 1.524)) (justify left) hide)
      )
      (property "Manufacturer" "Keystone Electronics" (id 11) (at 5.08 27.94 0)
        (effects (font (size 1.524 1.524)) (justify left) hide)
      )
      (property "Status" "Active" (id 12) (at 5.08 30.48 0)
        (effects (font (size 1.524 1.524)) (justify left) hide)
      )
      (property "ki_keywords" "36-5011-ND THM" (id 13) (at 0 0 0)
        (effects (font (size 1.27 1.27)) hide)
      )
      (property "ki_description" "PC TEST POINT MULTIPURPOSE BLACK" (id 14) (at 0 0 0)
        (effects (font (size 1.27 1.27)) hide)
      )
      (symbol "5011_0_1"
        (circle (center 0 0) (radius 0.5588)
          (stroke (width 0) (type default) (color 0 0 0 0))
          (fill (type none))
        )
      )
      (symbol "5011_1_1"
        (pin passive line (at 0 2.54 270) (length 1.905)
          (name "~" (effects (font (size 1.27 1.27))))
          (number "1" (effects (font (size 1.27 1.27))))
        )
      )
    )
    (symbol "power:+5V" (power) (pin_names (offset 0)) (in_bom yes) (on_board yes)
      (property "Reference" "#PWR" (id 0) (at 0 -3.81 0)
        (effects (font (size 1.27 1.27)) hide)
      )
      (property "Value" "+5V" (id 1) (at 0 3.556 0)
        (effects (font (size 1.27 1.27)))
      )
      (property "Footprint" "" (id 2) (at 0 0 0)
        (effects (font (size 1.27 1.27)) hide)
      )
      (property "Datasheet" "" (id 3) (at 0 0 0)
        (effects (font (size 1.27 1.27)) hide)
      )
      (property "ki_keywords" "power-flag" (id 4) (at 0 0 0)
        (effects (font (size 1.27 1.27)) hide)
      )
      (property "ki_description" "Power symbol creates a global label with name \"+5V\"" (id 5) (at 0 0 0)
        (effects (font (size 1.27 1.27)) hide)
      )
      (symbol "+5V_0_1"
        (polyline
          (pts
            (xy -0.762 1.27)
            (xy 0 2.54)
          )
          (stroke (width 0) (type default) (color 0 0 0 0))
          (fill (type none))
        )
        (polyline
          (pts
            (xy 0 0)
            (xy 0 2.54)
          )
          (stroke (width 0) (type default) (color 0 0 0 0))
          (fill (type none))
        )
        (polyline
          (pts
            (xy 0 2.54)
            (xy 0.762 1.27)
          )
          (stroke (width 0) (type default) (color 0 0 0 0))
          (fill (type none))
        )
      )
      (symbol "+5V_1_1"
        (pin power_in line (at 0 0 90) (length 0) hide
          (name "+5V" (effects (font (size 1.27 1.27))))
          (number "1" (effects (font (size 1.27 1.27))))
        )
      )
    )
    (symbol "power:GND" (power) (pin_names (offset 0)) (in_bom yes) (on_board yes)
      (property "Reference" "#PWR" (id 0) (at 0 -6.35 0)
        (effects (font (size 1.27 1.27)) hide)
      )
      (property "Value" "GND" (id 1) (at 0 -3.81 0)
        (effects (font (size 1.27 1.27)))
      )
      (property "Footprint" "" (id 2) (at 0 0 0)
        (effects (font (size 1.27 1.27)) hide)
      )
      (property "Datasheet" "" (id 3) (at 0 0 0)
        (effects (font (size 1.27 1.27)) hide)
      )
      (property "ki_keywords" "power-flag" (id 4) (at 0 0 0)
        (effects (font (size 1.27 1.27)) hide)
      )
      (property "ki_description" "Power symbol creates a global label with name \"GND\" , ground" (id 5) (at 0 0 0)
        (effects (font (size 1.27 1.27)) hide)
      )
      (symbol "GND_0_1"
        (polyline
          (pts
            (xy 0 0)
            (xy 0 -1.27)
            (xy 1.27 -1.27)
            (xy 0 -2.54)
            (xy -1.27 -1.27)
            (xy 0 -1.27)
          )
          (stroke (width 0) (type default) (color 0 0 0 0))
          (fill (type none))
        )
      )
      (symbol "GND_1_1"
        (pin power_in line (at 0 0 270) (length 0) hide
          (name "GND" (effects (font (size 1.27 1.27))))
          (number "1" (effects (font (size 1.27 1.27))))
        )
      )
    )
  )

  (junction (at 122.555 68.58) (diameter 0) (color 0 0 0 0)
    (uuid 7149fa65-da57-423f-a2e6-c600137dde03)
  )
  (junction (at 129.794 68.58) (diameter 0) (color 0 0 0 0)
    (uuid e0ebf970-176c-4abf-9d9c-8395ae6bea8c)
  )
  (junction (at 135.89 68.58) (diameter 0) (color 0 0 0 0)
    (uuid eefabed0-e1ee-4b78-8936-dc63ba10220a)
  )

  (wire (pts (xy 128.27 81.28) (xy 165.1 81.28))
    (stroke (width 0) (type default) (color 0 0 0 0))
    (uuid 0351daae-5273-4d81-ac09-339d444e1e4f)
  )
  (wire (pts (xy 128.27 86.36) (xy 165.1 86.36))
    (stroke (width 0) (type default) (color 0 0 0 0))
    (uuid 14242bbb-5ead-4c9b-aee1-2fe9c4bd3884)
  )
  (wire (pts (xy 165.1 106.68) (xy 128.27 106.68))
    (stroke (width 0) (type default) (color 0 0 0 0))
    (uuid 248680a5-06a4-4bf6-aa42-0fef94bb91d1)
  )
  (wire (pts (xy 140.97 99.06) (xy 128.27 99.06))
    (stroke (width 0) (type default) (color 0 0 0 0))
    (uuid 269d9e4a-5709-4fe1-8080-d43aaecd9100)
  )
  (wire (pts (xy 120.65 68.58) (xy 120.65 71.12))
    (stroke (width 0) (type default) (color 0 0 0 0))
    (uuid 2b96ad12-627d-4798-859f-8c379bb6b2eb)
  )
  (wire (pts (xy 129.54 111.76) (xy 128.27 111.76))
    (stroke (width 0) (type default) (color 0 0 0 0))
    (uuid 2fe959ad-89b7-4b54-9295-448e8f94d950)
  )
  (wire (pts (xy 140.97 78.74) (xy 128.27 78.74))
    (stroke (width 0) (type default) (color 0 0 0 0))
    (uuid 44a162f6-34a3-4443-89ff-4de4742f2c9f)
  )
  (wire (pts (xy 165.1 96.52) (xy 128.27 96.52))
    (stroke (width 0) (type default) (color 0 0 0 0))
    (uuid 5fa61a9e-f45f-4c47-a63f-ae8656032b0b)
  )
  (wire (pts (xy 129.794 68.58) (xy 135.89 68.58))
    (stroke (width 0) (type default) (color 0 0 0 0))
    (uuid 681cc475-0d38-4ceb-b20a-4a23ab17696b)
  )
  (wire (pts (xy 140.97 109.22) (xy 128.27 109.22))
    (stroke (width 0) (type default) (color 0 0 0 0))
    (uuid 85a70e23-daa3-43a5-b0c8-13a2fd6579df)
  )
  (wire (pts (xy 140.97 83.82) (xy 128.27 83.82))
    (stroke (width 0) (type default) (color 0 0 0 0))
    (uuid 862821b6-c502-4242-a354-d09179fc6867)
  )
  (wire (pts (xy 165.1 101.6) (xy 128.27 101.6))
    (stroke (width 0) (type default) (color 0 0 0 0))
    (uuid 88e92cc1-81ee-40e0-aafb-bd9b2f697d82)
  )
  (wire (pts (xy 122.555 68.58) (xy 129.794 68.58))
    (stroke (width 0) (type default) (color 0 0 0 0))
    (uuid b6c2c1b9-014d-41c4-a8c5-2f8d12d6980c)
  )
  (wire (pts (xy 128.27 76.2) (xy 165.1 76.2))
    (stroke (width 0) (type default) (color 0 0 0 0))
    (uuid b6ec56d4-3918-42b7-a0c7-3e9c6d6fe279)
  )
  (wire (pts (xy 135.89 68.58) (xy 140.97 68.58))
    (stroke (width 0) (type default) (color 0 0 0 0))
    (uuid be1a619a-68ca-4392-8456-9f083e595cb9)
  )
  (wire (pts (xy 120.65 68.58) (xy 122.555 68.58))
    (stroke (width 0) (type default) (color 0 0 0 0))
    (uuid c70991f4-802a-4053-aa3f-86a7e1194f7c)
  )
  (wire (pts (xy 140.97 93.98) (xy 128.27 93.98))
    (stroke (width 0) (type default) (color 0 0 0 0))
    (uuid da8b769a-57c2-4156-8d83-2f03f4951f09)
  )
  (wire (pts (xy 165.1 91.44) (xy 128.27 91.44))
    (stroke (width 0) (type default) (color 0 0 0 0))
    (uuid e27b3e97-a5c9-49aa-bb40-601bfe826b17)
  )
  (wire (pts (xy 140.97 88.9) (xy 128.27 88.9))
    (stroke (width 0) (type default) (color 0 0 0 0))
    (uuid eebde494-dffa-4a4d-9989-d6cbdc22dbcb)
  )
  (wire (pts (xy 140.97 104.14) (xy 128.27 104.14))
    (stroke (width 0) (type default) (color 0 0 0 0))
    (uuid fd3315d1-ba53-45bb-a91d-fb60b421b188)
  )

  (global_label "!LATCH" (shape input) (at 140.97 104.14 0) (fields_autoplaced)
    (effects (font (size 1.27 1.27)) (justify left))
    (uuid 00df26af-1135-4d7a-9889-3978acf8bfc4)
    (property "Intersheet References" "${INTERSHEET_REFS}" (id 0) (at 149.5837 104.0606 0)
      (effects (font (size 1.27 1.27)) (justify left) hide)
    )
  )
  (global_label "!ARM" (shape input) (at 140.97 99.06 0) (fields_autoplaced)
    (effects (font (size 1.27 1.27)) (justify left))
    (uuid 079d6ac1-1ec6-440b-ac10-0e2dd1b1dfd9)
    (property "Intersheet References" "${INTERSHEET_REFS}" (id 0) (at 222.25 10.16 0)
      (effects (font (size 1.27 1.27)) hide)
    )
  )
  (global_label "PWR_IN" (shape input) (at 140.97 109.22 0) (fields_autoplaced)
    (effects (font (size 1.27 1.27)) (justify left))
    (uuid 1dcb2ba3-2ed6-4b96-a9fa-1a0c7eb96b97)
    (property "Intersheet References" "${INTERSHEET_REFS}" (id 0) (at 150.1885 109.1406 0)
      (effects (font (size 1.27 1.27)) (justify left) hide)
    )
  )
  (global_label "!T_arm_high" (shape input) (at 140.97 88.9 0) (fields_autoplaced)
    (effects (font (size 1.27 1.27)) (justify left))
    (uuid 34ce2974-3837-495c-8681-90ebcc3f1cab)
    (property "Intersheet References" "${INTERSHEET_REFS}" (id 0) (at 222.25 10.16 0)
      (effects (font (size 1.27 1.27)) hide)
    )
  )
  (global_label "T_SELECT" (shape input) (at 140.97 93.98 0) (fields_autoplaced)
    (effects (font (size 1.27 1.27)) (justify left))
    (uuid 47a7b26e-9266-4ea2-871a-37cc59f11e44)
    (property "Intersheet References" "${INTERSHEET_REFS}" (id 0) (at 222.25 10.16 0)
      (effects (font (size 1.27 1.27)) hide)
    )
  )
  (global_label "!T_arm_low" (shape input) (at 140.97 83.82 0) (fields_autoplaced)
    (effects (font (size 1.27 1.27)) (justify left))
    (uuid aa0c5b43-ab61-4bd5-8ad4-e9782de77c73)
    (property "Intersheet References" "${INTERSHEET_REFS}" (id 0) (at 222.25 10.16 0)
      (effects (font (size 1.27 1.27)) hide)
    )
  )
  (global_label "!V_arm" (shape input) (at 140.97 78.74 0) (fields_autoplaced)
    (effects (font (size 1.27 1.27)) (justify left))
    (uuid da7de9c1-09ad-44e0-bc09-755cca4041e9)
    (property "Intersheet References" "${INTERSHEET_REFS}" (id 0) (at 222.25 10.16 0)
      (effects (font (size 1.27 1.27)) hide)
    )
  )

  (hierarchical_label "!T_hi_interlock" (shape input) (at 165.1 106.68 0)
    (effects (font (size 1.27 1.27)) (justify left))
    (uuid 1188098c-bda0-4f62-a41d-203a145f2899)
  )
  (hierarchical_label "!BSW_interlock" (shape input) (at 165.1 81.28 0)
    (effects (font (size 1.27 1.27)) (justify left))
    (uuid 307aa979-801b-459c-86dd-1ff1df565787)
  )
  (hierarchical_label "!T_lo_interlock" (shape input) (at 165.1 101.6 0)
    (effects (font (size 1.27 1.27)) (justify left))
    (uuid a9943d0b-93e2-4bbf-ac39-5b4d7303629a)
  )
  (hierarchical_label "!V_interlock" (shape input) (at 165.1 76.2 0)
    (effects (font (size 1.27 1.27)) (justify left))
    (uuid ac40c5b6-7fac-41a4-8d3f-87d6fbfc4f06)
  )
  (hierarchical_label "!ALT_SW_interlock" (shape input) (at 165.1 86.36 0)
    (effects (font (size 1.27 1.27)) (justify left))
    (uuid b2328dd3-132d-42ea-a060-071d228ed94d)
  )
  (hierarchical_label "!RH_interlock" (shape input) (at 165.1 96.52 0)
    (effects (font (size 1.27 1.27)) (justify left))
    (uuid bcfe16a5-28e9-4c1e-a277-c7df6f07cd38)
  )
  (hierarchical_label "!DA_interlock" (shape input) (at 165.1 91.44 0)
    (effects (font (size 1.27 1.27)) (justify left))
    (uuid c97c87b4-a68e-403d-92b7-f0dd0ea0c8df)
  )

  (symbol (lib_id "Mechanical:MountingHole") (at 142.875 147.32 0) (unit 1)
    (in_bom yes) (on_board yes)
    (uuid 00000000-0000-0000-0000-00005eedcf84)
    (property "Reference" "H3" (id 0) (at 145.415 146.1516 0)
      (effects (font (size 1.27 1.27)) (justify left))
    )
    (property "Value" "MountingHole" (id 1) (at 145.415 148.463 0)
      (effects (font (size 1.27 1.27)) (justify left))
    )
    (property "Footprint" "MountingHole:MountingHole_3.2mm_M3" (id 2) (at 142.875 147.32 0)
      (effects (font (size 1.27 1.27)) hide)
    )
    (property "Datasheet" "~" (id 3) (at 142.875 147.32 0)
      (effects (font (size 1.27 1.27)) hide)
    )
  )

  (symbol (lib_id "Mechanical:MountingHole") (at 142.875 153.67 0) (unit 1)
    (in_bom yes) (on_board yes)
    (uuid 00000000-0000-0000-0000-00005eede7d8)
    (property "Reference" "H4" (id 0) (at 145.415 152.5016 0)
      (effects (font (size 1.27 1.27)) (justify left))
    )
    (property "Value" "MountingHole" (id 1) (at 145.415 154.813 0)
      (effects (font (size 1.27 1.27)) (justify left))
    )
    (property "Footprint" "MountingHole:MountingHole_3.2mm_M3" (id 2) (at 142.875 153.67 0)
      (effects (font (size 1.27 1.27)) hide)
    )
    (property "Datasheet" "~" (id 3) (at 142.875 153.67 0)
      (effects (font (size 1.27 1.27)) hide)
    )
  )

  (symbol (lib_id "Mechanical:MountingHole") (at 123.825 147.32 0) (unit 1)
    (in_bom yes) (on_board yes)
    (uuid 00000000-0000-0000-0000-00005eede95a)
    (property "Reference" "H1" (id 0) (at 126.365 146.1516 0)
      (effects (font (size 1.27 1.27)) (justify left))
    )
    (property "Value" "MountingHole" (id 1) (at 126.365 148.463 0)
      (effects (font (size 1.27 1.27)) (justify left))
    )
    (property "Footprint" "MountingHole:MountingHole_3.2mm_M3" (id 2) (at 123.825 147.32 0)
      (effects (font (size 1.27 1.27)) hide)
    )
    (property "Datasheet" "~" (id 3) (at 123.825 147.32 0)
      (effects (font (size 1.27 1.27)) hide)
    )
  )

  (symbol (lib_id "Mechanical:MountingHole") (at 123.825 153.67 0) (unit 1)
    (in_bom yes) (on_board yes)
    (uuid 00000000-0000-0000-0000-00005eedea28)
    (property "Reference" "H2" (id 0) (at 126.365 152.5016 0)
      (effects (font (size 1.27 1.27)) (justify left))
    )
    (property "Value" "MountingHole" (id 1) (at 126.365 154.813 0)
      (effects (font (size 1.27 1.27)) (justify left))
    )
    (property "Footprint" "MountingHole:MountingHole_3.2mm_M3" (id 2) (at 123.825 153.67 0)
      (effects (font (size 1.27 1.27)) hide)
    )
    (property "Datasheet" "~" (id 3) (at 123.825 153.67 0)
      (effects (font (size 1.27 1.27)) hide)
    )
  )

  (symbol (lib_id "Connector:DB15_Male_MountingHoles") (at 120.65 93.98 180) (unit 1)
    (in_bom yes) (on_board yes)
    (uuid 00000000-0000-0000-0000-00005f1c3ca1)
    (property "Reference" "J1" (id 0) (at 116.7384 94.0308 0)
      (effects (font (size 1.27 1.27)) (justify left))
    )
    (property "Value" "L717SDA15PA4CH4F" (id 1) (at 116.7384 91.7194 0)
      (effects (font (size 1.27 1.27)) (justify left))
    )
    (property "Footprint" "Connector_Dsub:DSUB-15_Male_Horizontal_P2.77x2.84mm_EdgePinOffset7.70mm_Housed_MountingHolesOffset9.12mm" (id 2) (at 120.65 93.98 0)
      (effects (font (size 1.27 1.27)) hide)
    )
    (property "Datasheet" " ~" (id 3) (at 120.65 93.98 0)
      (effects (font (size 1.27 1.27)) hide)
    )
    (property "Digi-Key_PN" "	L717SDA15PA4CH4F-ND" (id 4) (at 120.65 93.98 0)
      (effects (font (size 1.27 1.27)) hide)
    )
    (pin "0" (uuid eba89032-89dd-406a-8e9d-e37d659b692c))
    (pin "1" (uuid 6ca8b291-73cd-43c7-a477-533124548ea9))
    (pin "10" (uuid 7dbce621-7595-453e-85b9-05184c6d07fe))
    (pin "11" (uuid 95fd588d-a9ba-4ff8-80f1-53688bd55a61))
    (pin "12" (uuid f373db7f-596c-48b3-8234-21184c9a3740))
    (pin "13" (uuid 1225798c-df6e-4be4-87a6-e666fecb89ea))
    (pin "14" (uuid e923b3be-ca82-483e-af2b-3547332de9f0))
    (pin "15" (uuid ce2d8f82-bdb1-4e89-83bd-dd8774ac54a3))
    (pin "2" (uuid e20c936f-5449-40ac-91a9-43dfc14416d0))
    (pin "3" (uuid 4b32ed0f-0448-4a5a-a19d-6373fe82f8b2))
    (pin "4" (uuid cd3c7fc0-3b48-48a4-951d-3ee9b4da7acf))
    (pin "5" (uuid 77e79afa-35a4-48ac-a3a2-e0fe8c4eb820))
    (pin "6" (uuid e620589c-2170-42b9-907f-ca42d76e16e9))
    (pin "7" (uuid 6149dfa7-4cb5-4898-aab6-f64e2c830195))
    (pin "8" (uuid f6eea975-e235-4491-83a4-f05447f1a9d9))
    (pin "9" (uuid a25e4a42-a193-4e1e-afd7-731149cb3b1e))
  )

  (symbol (lib_id "power:GND") (at 140.97 68.58 0) (unit 1)
    (in_bom yes) (on_board yes)
    (uuid 00000000-0000-0000-0000-00005f5cb3b7)
    (property "Reference" "#PWR042" (id 0) (at 140.97 74.93 0)
      (effects (font (size 1.27 1.27)) hide)
    )
    (property "Value" "GND" (id 1) (at 141.097 72.9742 0))
    (property "Footprint" "" (id 2) (at 140.97 68.58 0)
      (effects (font (size 1.27 1.27)) hide)
    )
    (property "Datasheet" "" (id 3) (at 140.97 68.58 0)
      (effects (font (size 1.27 1.27)) hide)
    )
    (pin "1" (uuid f98bbf0f-3bae-48e6-b2fe-94f4e5c31e07))
  )

  (symbol (lib_id "dk_Test-Points:5011") (at 129.794 66.04 180) (unit 1)
    (in_bom yes) (on_board yes)
    (uuid 00000000-0000-0000-0000-00005fd1bafc)
    (property "Reference" "TP5" (id 0) (at 131.064 67.2338 0)
      (effects (font (size 1.27 1.27)) (justify right))
    )
    (property "Value" "5011" (id 1) (at 129.794 63.5 0)
      (effects (font (size 1.27 1.27)) hide)
    )
    (property "Footprint" "magne_footprints:Via_1.778mm" (id 2) (at 124.714 71.12 0)
      (effects (font (size 1.524 1.524)) (justify left) hide)
    )
    (property "Datasheet" "http://www.keyelco.com/product-pdf.cfm?p=1320" (id 3) (at 124.714 73.66 0)
      (effects (font (size 1.524 1.524)) (justify left) hide)
    )
    (property "Digi-Key_PN" "" (id 4) (at 124.714 76.2 0)
      (effects (font (size 1.524 1.524)) (justify left) hide)
    )
    (property "MPN" "5011" (id 5) (at 124.714 78.74 0)
      (effects (font (size 1.524 1.524)) (justify left) hide)
    )
    (property "Category" "Test and Measurement" (id 6) (at 124.714 81.28 0)
      (effects (font (size 1.524 1.524)) (justify left) hide)
    )
    (property "Family" "Test Points" (id 7) (at 124.714 83.82 0)
      (effects (font (size 1.524 1.524)) (justify left) hide)
    )
    (property "DK_Datasheet_Link" "http://www.keyelco.com/product-pdf.cfm?p=1320" (id 8) (at 124.714 86.36 0)
      (effects (font (size 1.524 1.524)) (justify left) hide)
    )
    (property "DK_Detail_Page" "/product-detail/en/keystone-electronics/5011/36-5011-ND/255333" (id 9) (at 124.714 88.9 0)
      (effects (font (size 1.524 1.524)) (justify left) hide)
    )
    (property "Description" "PC TEST POINT MULTIPURPOSE BLACK" (id 10) (at 124.714 91.44 0)
      (effects (font (size 1.524 1.524)) (justify left) hide)
    )
    (property "Manufacturer" "Keystone Electronics" (id 11) (at 124.714 93.98 0)
      (effects (font (size 1.524 1.524)) (justify left) hide)
    )
    (property "Status" "Active" (id 12) (at 124.714 96.52 0)
      (effects (font (size 1.524 1.524)) (justify left) hide)
    )
    (pin "1" (uuid 88796174-5724-44aa-82c0-08b6e1e61bbc))
  )

  (symbol (lib_id "dk_Test-Points:5011") (at 135.89 66.04 180) (unit 1)
    (in_bom yes) (on_board yes)
    (uuid 00000000-0000-0000-0000-00005fd1ca81)
    (property "Reference" "TP4" (id 0) (at 137.16 67.2338 0)
      (effects (font (size 1.27 1.27)) (justify right))
    )
    (property "Value" "5011" (id 1) (at 135.89 63.5 0)
      (effects (font (size 1.27 1.27)) hide)
    )
    (property "Footprint" "magne_footprints:Via_1.778mm" (id 2) (at 130.81 71.12 0)
      (effects (font (size 1.524 1.524)) (justify left) hide)
    )
    (property "Datasheet" "http://www.keyelco.com/product-pdf.cfm?p=1320" (id 3) (at 130.81 73.66 0)
      (effects (font (size 1.524 1.524)) (justify left) hide)
    )
    (property "Digi-Key_PN" "" (id 4) (at 130.81 76.2 0)
      (effects (font (size 1.524 1.524)) (justify left) hide)
    )
    (property "MPN" "5011" (id 5) (at 130.81 78.74 0)
      (effects (font (size 1.524 1.524)) (justify left) hide)
    )
    (property "Category" "Test and Measurement" (id 6) (at 130.81 81.28 0)
      (effects (font (size 1.524 1.524)) (justify left) hide)
    )
    (property "Family" "Test Points" (id 7) (at 130.81 83.82 0)
      (effects (font (size 1.524 1.524)) (justify left) hide)
    )
    (property "DK_Datasheet_Link" "http://www.keyelco.com/product-pdf.cfm?p=1320" (id 8) (at 130.81 86.36 0)
      (effects (font (size 1.524 1.524)) (justify left) hide)
    )
    (property "DK_Detail_Page" "/product-detail/en/keystone-electronics/5011/36-5011-ND/255333" (id 9) (at 130.81 88.9 0)
      (effects (font (size 1.524 1.524)) (justify left) hide)
    )
    (property "Description" "PC TEST POINT MULTIPURPOSE BLACK" (id 10) (at 130.81 91.44 0)
      (effects (font (size 1.524 1.524)) (justify left) hide)
    )
    (property "Manufacturer" "Keystone Electronics" (id 11) (at 130.81 93.98 0)
      (effects (font (size 1.524 1.524)) (justify left) hide)
    )
    (property "Status" "Active" (id 12) (at 130.81 96.52 0)
      (effects (font (size 1.524 1.524)) (justify left) hide)
    )
    (pin "1" (uuid 0a63aabc-1284-4f54-9cde-62db1684b960))
  )

  (symbol (lib_id "power:+5V") (at 129.54 111.76 270) (unit 1)
    (in_bom yes) (on_board yes)
    (uuid 00000000-0000-0000-0000-000060134075)
    (property "Reference" "#PWR08" (id 0) (at 125.73 111.76 0)
      (effects (font (size 1.27 1.27)) hide)
    )
    (property "Value" "+5V" (id 1) (at 133.9342 112.141 0))
    (property "Footprint" "" (id 2) (at 129.54 111.76 0)
      (effects (font (size 1.27 1.27)) hide)
    )
    (property "Datasheet" "" (id 3) (at 129.54 111.76 0)
      (effects (font (size 1.27 1.27)) hide)
    )
    (pin "1" (uuid 10b14681-93c7-4f46-b410-7ca5431ce90f))
  )

  (symbol (lib_id "dk_Test-Points:5011") (at 122.555 66.04 180) (unit 1)
    (in_bom yes) (on_board yes)
    (uuid adeecf88-6391-4188-99d4-0e2cee2899e3)
    (property "Reference" "TP2" (id 0) (at 123.825 67.2338 0)
      (effects (font (size 1.27 1.27)) (justify right))
    )
    (property "Value" "5011" (id 1) (at 122.555 63.5 0)
      (effects (font (size 1.27 1.27)) hide)
    )
    (property "Footprint" "TestPoint:TestPoint_Pad_D1.0mm" (id 2) (at 117.475 71.12 0)
      (effects (font (size 1.524 1.524)) (justify left) hide)
    )
    (property "Datasheet" "http://www.keyelco.com/product-pdf.cfm?p=1320" (id 3) (at 117.475 73.66 0)
      (effects (font (size 1.524 1.524)) (justify left) hide)
    )
    (property "Digi-Key_PN" "" (id 4) (at 117.475 76.2 0)
      (effects (font (size 1.524 1.524)) (justify left) hide)
    )
    (property "MPN" "5011" (id 5) (at 117.475 78.74 0)
      (effects (font (size 1.524 1.524)) (justify left) hide)
    )
    (property "Category" "Test and Measurement" (id 6) (at 117.475 81.28 0)
      (effects (font (size 1.524 1.524)) (justify left) hide)
    )
    (property "Family" "Test Points" (id 7) (at 117.475 83.82 0)
      (effects (font (size 1.524 1.524)) (justify left) hide)
    )
    (property "DK_Datasheet_Link" "http://www.keyelco.com/product-pdf.cfm?p=1320" (id 8) (at 117.475 86.36 0)
      (effects (font (size 1.524 1.524)) (justify left) hide)
    )
    (property "DK_Detail_Page" "/product-detail/en/keystone-electronics/5011/36-5011-ND/255333" (id 9) (at 117.475 88.9 0)
      (effects (font (size 1.524 1.524)) (justify left) hide)
    )
    (property "Description" "PC TEST POINT MULTIPURPOSE BLACK" (id 10) (at 117.475 91.44 0)
      (effects (font (size 1.524 1.524)) (justify left) hide)
    )
    (property "Manufacturer" "Keystone Electronics" (id 11) (at 117.475 93.98 0)
      (effects (font (size 1.524 1.524)) (justify left) hide)
    )
    (property "Status" "Active" (id 12) (at 117.475 96.52 0)
      (effects (font (size 1.524 1.524)) (justify left) hide)
    )
    (pin "1" (uuid 4e2e5962-a3a8-4238-8420-9e661d416dc3))
  )
)
