EESchema Schematic File Version 4
EELAYER 30 0
EELAYER END
$Descr A4 11693 8268
encoding utf-8
Sheet 4 34
Title ""
Date ""
Rev ""
Comp ""
Comment1 ""
Comment2 ""
Comment3 ""
Comment4 ""
$EndDescr
Text HLabel 5350 3500 0    50   Input ~ 0
Input
$Comp
L Device:C_Small C?
U 1 1 5EE79807
P 7400 4150
AR Path="/5EB41214/5EE79807" Ref="C?"  Part="1" 
AR Path="/5ED2BC2A/5EE79807" Ref="C?"  Part="1" 
AR Path="/5EE0AC5D/5EE79807" Ref="C?"  Part="1" 
AR Path="/5EE0E313/5EE79807" Ref="C9"  Part="1" 
AR Path="/5EE77D5A/5EE79807" Ref="C?"  Part="1" 
AR Path="/5EE8A13E/5EE79807" Ref="C?"  Part="1" 
F 0 "C9" H 7492 4196 50  0000 L CNN
F 1 "C 100n" H 7492 4105 50  0000 L CNN
F 2 "Capacitor_SMD:C_0805_2012Metric_Pad1.15x1.40mm_HandSolder" H 7400 4150 50  0001 C CNN
F 3 "~" H 7400 4150 50  0001 C CNN
F 4 "16" H 7400 4150 50  0001 C CNN "Voltage - rated"
F 5 "20%" H 7400 4150 50  0001 C CNN "Tolerance"
F 6 "399-8000-1-ND" H 7400 4150 50  0001 C CNN "Digi-Key_PN"
F 7 "718683" H 7400 4150 50  0001 C CNN "Farnell_PN"
	1    7400 4150
	1    0    0    -1  
$EndComp
$Comp
L power:GND #PWR?
U 1 1 5EE79805
P 6300 4250
AR Path="/5EB41214/5EE79805" Ref="#PWR?"  Part="1" 
AR Path="/5ED2BC2A/5EE79805" Ref="#PWR?"  Part="1" 
AR Path="/5EE0AC5D/5EE79805" Ref="#PWR?"  Part="1" 
AR Path="/5EE0E313/5EE79805" Ref="#PWR013"  Part="1" 
AR Path="/5EE77D5A/5EE79805" Ref="#PWR?"  Part="1" 
AR Path="/5EE8A13E/5EE79805" Ref="#PWR?"  Part="1" 
F 0 "#PWR013" H 6300 4000 50  0001 C CNN
F 1 "GND" H 6305 4077 50  0000 C CNN
F 2 "" H 6300 4250 50  0001 C CNN
F 3 "" H 6300 4250 50  0001 C CNN
	1    6300 4250
	1    0    0    -1  
$EndComp
$Comp
L power:+5V #PWR?
U 1 1 5EE79808
P 7400 4000
AR Path="/5EB41214/5EE79808" Ref="#PWR?"  Part="1" 
AR Path="/5ED2BC2A/5EE79808" Ref="#PWR?"  Part="1" 
AR Path="/5EE0AC5D/5EE79808" Ref="#PWR?"  Part="1" 
AR Path="/5EE0E313/5EE79808" Ref="#PWR014"  Part="1" 
AR Path="/5EE77D5A/5EE79808" Ref="#PWR?"  Part="1" 
AR Path="/5EE8A13E/5EE79808" Ref="#PWR?"  Part="1" 
F 0 "#PWR014" H 7400 3850 50  0001 C CNN
F 1 "+5V" H 7415 4173 50  0000 C CNN
F 2 "" H 7400 4000 50  0001 C CNN
F 3 "" H 7400 4000 50  0001 C CNN
	1    7400 4000
	1    0    0    -1  
$EndComp
Wire Wire Line
	7400 4000 7400 4050
$Comp
L Device:C_Small C?
U 1 1 5EE79809
P 5850 4150
AR Path="/5EB41214/5EE79809" Ref="C?"  Part="1" 
AR Path="/5ED2BC2A/5EE79809" Ref="C?"  Part="1" 
AR Path="/5EE0AC5D/5EE79809" Ref="C?"  Part="1" 
AR Path="/5EE0E313/5EE79809" Ref="C8"  Part="1" 
AR Path="/5EE77D5A/5EE79809" Ref="C?"  Part="1" 
AR Path="/5EE8A13E/5EE79809" Ref="C?"  Part="1" 
F 0 "C8" H 5942 4196 50  0000 L CNN
F 1 "C 100n" H 5942 4105 50  0000 L CNN
F 2 "Capacitor_SMD:C_0805_2012Metric_Pad1.15x1.40mm_HandSolder" H 5850 4150 50  0001 C CNN
F 3 "~" H 5850 4150 50  0001 C CNN
F 4 "16" H 5850 4150 50  0001 C CNN "Voltage - rated"
F 5 "20%" H 5850 4150 50  0001 C CNN "Tolerance"
F 6 "399-8000-1-ND" H 5850 4150 50  0001 C CNN "Digi-Key_PN"
F 7 "718683" H 5850 4150 50  0001 C CNN "Farnell_PN"
	1    5850 4150
	1    0    0    -1  
$EndComp
Wire Wire Line
	5600 4250 5850 4250
Connection ~ 5850 4250
Wire Wire Line
	5850 4250 6300 4250
$Comp
L power:+5V #PWR?
U 1 1 5EE8A62D
P 5850 4000
AR Path="/5EB41214/5EE8A62D" Ref="#PWR?"  Part="1" 
AR Path="/5ED2BC2A/5EE8A62D" Ref="#PWR?"  Part="1" 
AR Path="/5EE0AC5D/5EE8A62D" Ref="#PWR?"  Part="1" 
AR Path="/5EE0E313/5EE8A62D" Ref="#PWR012"  Part="1" 
AR Path="/5EE77D5A/5EE8A62D" Ref="#PWR?"  Part="1" 
AR Path="/5EE8A13E/5EE8A62D" Ref="#PWR?"  Part="1" 
F 0 "#PWR012" H 5850 3850 50  0001 C CNN
F 1 "+5V" H 5865 4173 50  0000 C CNN
F 2 "" H 5850 4000 50  0001 C CNN
F 3 "" H 5850 4000 50  0001 C CNN
	1    5850 4000
	1    0    0    -1  
$EndComp
Wire Wire Line
	5850 4000 5850 4050
$Comp
L power:+5V #PWR?
U 1 1 5EE79804
P 5600 3200
AR Path="/5EB41214/5EE79804" Ref="#PWR?"  Part="1" 
AR Path="/5ED2BC2A/5EE79804" Ref="#PWR?"  Part="1" 
AR Path="/5EE0AC5D/5EE79804" Ref="#PWR?"  Part="1" 
AR Path="/5EE0E313/5EE79804" Ref="#PWR011"  Part="1" 
AR Path="/5EE77D5A/5EE79804" Ref="#PWR?"  Part="1" 
AR Path="/5EE8A13E/5EE79804" Ref="#PWR?"  Part="1" 
F 0 "#PWR011" H 5600 3050 50  0001 C CNN
F 1 "+5V" H 5615 3373 50  0000 C CNN
F 2 "" H 5600 3200 50  0001 C CNN
F 3 "" H 5600 3200 50  0001 C CNN
	1    5600 3200
	1    0    0    -1  
$EndComp
Wire Wire Line
	5600 3900 5600 4250
Connection ~ 5600 4250
$Comp
L comparators_magne:MAX9141 U?
U 1 1 5ECA91D9
P 5700 3600
AR Path="/5EB41214/5ECA91D9" Ref="U?"  Part="1" 
AR Path="/5ED2BC2A/5ECA91D9" Ref="U?"  Part="1" 
AR Path="/5EE0AC5D/5ECA91D9" Ref="U?"  Part="1" 
AR Path="/5EE0E313/5ECA91D9" Ref="U6"  Part="1" 
AR Path="/5EE77D5A/5ECA91D9" Ref="U?"  Part="1" 
AR Path="/5EE8A13E/5ECA91D9" Ref="U?"  Part="1" 
F 0 "U6" H 6044 3646 50  0000 L CNN
F 1 "MAX9141ESA+-ND" H 6044 3555 50  0000 L CNN
F 2 "Package_SO:SOIC-8_3.9x4.9mm_P1.27mm" H 5700 3600 50  0001 C CNN
F 3 "" H 5700 3600 50  0001 C CNN
F 4 "	MAX9141ESA+-ND" H 5700 3600 50  0001 C CNN "Digi-Key_PN"
	1    5700 3600
	1    0    0    -1  
$EndComp
Wire Wire Line
	5850 4000 5700 4000
Wire Wire Line
	5700 4000 5700 3900
Connection ~ 5850 4000
Text GLabel 6850 3800 0    50   Input ~ 0
!ARM
Wire Wire Line
	6850 3800 6950 3800
Wire Wire Line
	6950 3800 6950 3700
Wire Wire Line
	7500 3650 7850 3650
Connection ~ 6300 4250
Wire Wire Line
	4950 1850 4950 2100
Text HLabel 8500 3650 2    50   Input ~ 0
Output
Wire Wire Line
	6250 3600 6950 3600
Connection ~ 6250 3600
Wire Wire Line
	6000 3600 6250 3600
Wire Wire Line
	6950 2750 6950 3600
Wire Wire Line
	4950 1850 6250 1850
Wire Wire Line
	6250 1850 6250 3600
Wire Wire Line
	5750 2150 5750 3300
Wire Wire Line
	5150 3800 5150 3700
Wire Wire Line
	5150 3700 5400 3700
Wire Wire Line
	5150 4000 5150 4250
Wire Wire Line
	5150 4250 5600 4250
Text GLabel 4700 2200 0    50   Input ~ 0
!LE
Wire Wire Line
	5500 2150 5750 2150
Wire Wire Line
	5350 3500 5400 3500
Wire Wire Line
	4700 2200 4950 2200
$Comp
L logic_gates_magne:74LVC2G32 U5
U 1 1 5ECF1376
P 5250 2150
F 0 "U5" H 5478 2196 50  0000 L CNN
F 1 "SN74LVC2G32DCUR" H 5478 2105 50  0000 L CNN
F 2 "Package_SO:VSSOP-8_2.3x2mm_P0.5mm" H 5400 2200 50  0001 C CNN
F 3 "http://www.ti.com/lit/sg/scyt129e/scyt129e.pdf" H 5450 2150 50  0001 C CNN
F 4 "296-13268-1-ND" H 5250 2150 50  0001 C CNN "Digi-Key_PN"
	1    5250 2150
	1    0    0    -1  
$EndComp
Wire Wire Line
	6300 4250 7400 4250
$Comp
L logic_gates_magne:74LVC2G32 U5
U 3 1 5ECF1F83
P 7900 4000
F 0 "U5" H 7953 4046 50  0000 L CNN
F 1 "SN74LVC2G32DCUR" H 7953 3955 50  0000 L CNN
F 2 "Package_SO:VSSOP-8_2.3x2mm_P0.5mm" H 8050 4050 50  0001 C CNN
F 3 "http://www.ti.com/lit/sg/scyt129e/scyt129e.pdf" H 8100 4000 50  0001 C CNN
F 4 "296-13268-1-ND" H 7900 4000 50  0001 C CNN "Digi-Key_PN"
	3    7900 4000
	1    0    0    -1  
$EndComp
Wire Wire Line
	7900 4250 7400 4250
Connection ~ 7400 4250
Wire Wire Line
	7400 4050 7650 4050
Wire Wire Line
	7650 4050 7650 3750
Wire Wire Line
	7650 3750 7900 3750
Connection ~ 7400 4050
$Comp
L logic_gates_magne:74LVC2G32 U5
U 2 1 5ECE68A3
P 7250 3650
F 0 "U5" H 7225 3917 50  0000 C CNN
F 1 "SN74LVC2G32DCUR" H 7225 3826 50  0000 C CNN
F 2 "Package_SO:VSSOP-8_2.3x2mm_P0.5mm" H 7400 3700 50  0001 C CNN
F 3 "http://www.ti.com/lit/sg/scyt129e/scyt129e.pdf" H 7450 3650 50  0001 C CNN
F 4 "296-13268-1-ND" H 7250 3650 50  0001 C CNN "Digi-Key_PN"
	2    7250 3650
	1    0    0    -1  
$EndComp
Connection ~ 6950 3600
Wire Wire Line
	8200 3700 8200 3650
Wire Wire Line
	8200 3650 8500 3650
$Comp
L Device:R R?
U 1 1 5F895436
P 8000 3650
AR Path="/5F895436" Ref="R?"  Part="1" 
AR Path="/5EB41214/5F895436" Ref="R?"  Part="1" 
AR Path="/5ED2BC2A/5F895436" Ref="R?"  Part="1" 
AR Path="/5ECA2575/5F895436" Ref="R?"  Part="1" 
AR Path="/5ECAC95D/5F895436" Ref="R?"  Part="1" 
AR Path="/5EED7553/5F895436" Ref="R?"  Part="1" 
AR Path="/5EEDC7D6/5F895436" Ref="R?"  Part="1" 
AR Path="/5EE0E313/5F895436" Ref="R12"  Part="1" 
F 0 "R12" V 7793 3650 50  0000 C CNN
F 1 "R 10" V 7884 3650 50  0000 C CNN
F 2 "Resistor_SMD:R_0603_1608Metric" V 7930 3650 50  0001 C CNN
F 3 "~" H 8000 3650 50  0001 C CNN
F 4 "" H 8000 3650 50  0001 C CNN "Tolerance"
F 5 "RMCF0603FT10R0CT-ND" H 8000 3650 50  0001 C CNN "Digi-Key_PN"
	1    8000 3650
	0    1    1    0   
$EndComp
Wire Wire Line
	8150 3650 8200 3650
Connection ~ 8200 3650
Wire Wire Line
	8200 3900 8200 4250
Wire Wire Line
	8200 4250 7900 4250
Connection ~ 7900 4250
$Comp
L Device:C_Small C?
U 1 1 5F924356
P 8200 3800
AR Path="/5EB41214/5F924356" Ref="C?"  Part="1" 
AR Path="/5ED2BC2A/5F924356" Ref="C?"  Part="1" 
AR Path="/5EE0AC5D/5F924356" Ref="C?"  Part="1" 
AR Path="/5EE0E313/5F924356" Ref="C10"  Part="1" 
AR Path="/5EE5AAE3/5F924356" Ref="C?"  Part="1" 
AR Path="/5ECA36FF/5F924356" Ref="C?"  Part="1" 
AR Path="/5EED7553/5F924356" Ref="C?"  Part="1" 
AR Path="/5EEDC7D6/5F924356" Ref="C?"  Part="1" 
AR Path="/5ECDAC29/5F924356" Ref="C?"  Part="1" 
AR Path="/5EE8A13E/5F924356" Ref="C?"  Part="1" 
F 0 "C10" H 8292 3846 50  0000 L CNN
F 1 "C 470p" H 8292 3755 50  0000 L CNN
F 2 "Capacitor_SMD:C_0603_1608Metric" H 8200 3800 50  0001 C CNN
F 3 "~" H 8200 3800 50  0001 C CNN
F 4 "16" H 8200 3800 50  0001 C CNN "Voltage - rated"
F 5 "20%" H 8200 3800 50  0001 C CNN "Tolerance"
F 6 "399-10051-1-ND" H 8200 3800 50  0001 C CNN "Digi-Key_PN"
F 7 "" H 8200 3800 50  0001 C CNN "Farnell_PN"
	1    8200 3800
	1    0    0    -1  
$EndComp
Wire Wire Line
	5600 3200 5600 3300
Wire Wire Line
	4050 4150 4200 4150
Wire Wire Line
	4350 3250 4200 3250
Wire Wire Line
	4200 4150 4200 4250
Wire Wire Line
	4200 4250 5150 4250
Connection ~ 4200 4150
Wire Wire Line
	4200 4150 4350 4150
Connection ~ 5150 4250
$Comp
L power:+5V #PWR?
U 1 1 5F92F84A
P 4200 3250
AR Path="/5EB41214/5F92F84A" Ref="#PWR?"  Part="1" 
AR Path="/5ED2BC2A/5F92F84A" Ref="#PWR?"  Part="1" 
AR Path="/5EE0AC5D/5F92F84A" Ref="#PWR?"  Part="1" 
AR Path="/5EE0E313/5F92F84A" Ref="#PWR010"  Part="1" 
AR Path="/5EE77D5A/5F92F84A" Ref="#PWR?"  Part="1" 
AR Path="/5EE8A13E/5F92F84A" Ref="#PWR?"  Part="1" 
F 0 "#PWR010" H 4200 3100 50  0001 C CNN
F 1 "+5V" H 4215 3423 50  0000 C CNN
F 2 "" H 4200 3250 50  0001 C CNN
F 3 "" H 4200 3250 50  0001 C CNN
	1    4200 3250
	1    0    0    -1  
$EndComp
Connection ~ 4200 3250
Wire Wire Line
	4200 3250 4050 3250
Text Notes 4450 3950 0    50   ~ 0
7.5Hz low pass
Text GLabel 4850 3300 0    50   Input ~ 0
T_SELECT
Wire Wire Line
	4850 3300 4850 3400
Wire Wire Line
	4350 3750 4350 3800
Wire Wire Line
	4050 3550 4050 3600
Wire Wire Line
	4550 3800 4350 3800
Connection ~ 4350 3800
Wire Wire Line
	4350 3800 4350 3850
Wire Wire Line
	4550 3600 4050 3600
Connection ~ 4050 3600
Wire Wire Line
	4050 3600 4050 3650
Wire Wire Line
	4050 3950 4050 4150
Wire Wire Line
	4350 3450 4350 3250
$Comp
L Device:R R?
U 1 1 5F962A9E
P 4350 3600
AR Path="/5F962A9E" Ref="R?"  Part="1" 
AR Path="/5EB41214/5F962A9E" Ref="R?"  Part="1" 
AR Path="/5ED2BC2A/5F962A9E" Ref="R?"  Part="1" 
AR Path="/5EE0AC5D/5F962A9E" Ref="R?"  Part="1" 
AR Path="/5EE0E313/5F962A9E" Ref="R10"  Part="1" 
AR Path="/5EE77D5A/5F962A9E" Ref="R?"  Part="1" 
AR Path="/5EE8A13E/5F962A9E" Ref="R?"  Part="1" 
F 0 "R10" H 4450 3500 50  0000 C CNN
F 1 "R 101K" H 4466 3600 50  0000 C CNN
F 2 "Resistor_SMD:R_0805_2012Metric_Pad1.15x1.40mm_HandSolder" V 4280 3600 50  0001 C CNN
F 3 "~" H 4350 3600 50  0001 C CNN
F 4 "0.1%" H 4350 3600 50  0001 C CNN "Tolerance"
F 5 "13-RT0805BRE07101KLCT-ND" H 4350 3600 50  0001 C CNN "Digi-Key_PN"
	1    4350 3600
	1    0    0    -1  
$EndComp
$Comp
L Device:R R?
U 1 1 5F962AA6
P 4050 3400
AR Path="/5F962AA6" Ref="R?"  Part="1" 
AR Path="/5EB41214/5F962AA6" Ref="R?"  Part="1" 
AR Path="/5ED2BC2A/5F962AA6" Ref="R?"  Part="1" 
AR Path="/5EE0AC5D/5F962AA6" Ref="R?"  Part="1" 
AR Path="/5EE0E313/5F962AA6" Ref="R8"  Part="1" 
AR Path="/5EE77D5A/5F962AA6" Ref="R?"  Part="1" 
AR Path="/5EE8A13E/5F962AA6" Ref="R?"  Part="1" 
F 0 "R8" H 4150 3300 50  0000 C CNN
F 1 "R 174K" H 4166 3400 50  0000 C CNN
F 2 "Resistor_SMD:R_0805_2012Metric_Pad1.15x1.40mm_HandSolder" V 3980 3400 50  0001 C CNN
F 3 "~" H 4050 3400 50  0001 C CNN
F 4 "0.1%" H 4050 3400 50  0001 C CNN "Tolerance"
F 5 "P174KDACT-ND" H 4050 3400 50  0001 C CNN "Digi-Key_PN"
	1    4050 3400
	1    0    0    -1  
$EndComp
$Comp
L Device:R R?
U 1 1 5F962AB6
P 4050 3800
AR Path="/5F962AB6" Ref="R?"  Part="1" 
AR Path="/5EB41214/5F962AB6" Ref="R?"  Part="1" 
AR Path="/5ED2BC2A/5F962AB6" Ref="R?"  Part="1" 
AR Path="/5EE0AC5D/5F962AB6" Ref="R?"  Part="1" 
AR Path="/5EE0E313/5F962AB6" Ref="R9"  Part="1" 
AR Path="/5EE77D5A/5F962AB6" Ref="R?"  Part="1" 
AR Path="/5EE8A13E/5F962AB6" Ref="R?"  Part="1" 
F 0 "R9" H 4150 3700 50  0000 C CNN
F 1 "R 9K" H 4166 3800 50  0000 C CNN
F 2 "Resistor_SMD:R_0805_2012Metric_Pad1.15x1.40mm_HandSolder" V 3980 3800 50  0001 C CNN
F 3 "~" H 4050 3800 50  0001 C CNN
F 4 "0.1%" H 4050 3800 50  0001 C CNN "Tolerance"
F 5 "13-RT0805BRE079KLCT-ND" H 4050 3800 50  0001 C CNN "Digi-Key_PN"
	1    4050 3800
	1    0    0    -1  
$EndComp
Connection ~ 5150 3700
$Comp
L Analog_Switch:TS5A23159DGS U1
U 1 1 5F92079D
P 4850 3700
F 0 "U1" H 4700 3450 50  0000 C CNN
F 1 "TS5A23159DGS" H 4950 3050 50  0000 C CNN
F 2 "Package_SO:VSSOP-10_3x3mm_P0.5mm" H 4850 3550 50  0001 C CNN
F 3 "http://www.ti.com/lit/ds/symlink/ts5a23159.pdf" H 3800 3350 50  0001 C CNN
F 4 "296-52833-1-ND" H 4850 3700 50  0001 C CNN "Digi-Key_PN"
	1    4850 3700
	-1   0    0    1   
$EndComp
$Comp
L Device:C_Small C?
U 1 1 5F973E23
P 5150 3900
AR Path="/5EB41214/5F973E23" Ref="C?"  Part="1" 
AR Path="/5ED2BC2A/5F973E23" Ref="C?"  Part="1" 
AR Path="/5EE0AC5D/5F973E23" Ref="C?"  Part="1" 
AR Path="/5EE0E313/5F973E23" Ref="C7"  Part="1" 
AR Path="/5EE77D5A/5F973E23" Ref="C?"  Part="1" 
AR Path="/5EE8A13E/5F973E23" Ref="C?"  Part="1" 
AR Path="/5ED08686/5F973E23" Ref="C?"  Part="1" 
F 0 "C7" H 5242 3946 50  0000 L CNN
F 1 "C 2.2u" H 5242 3855 50  0000 L CNN
F 2 "Capacitor_SMD:C_0805_2012Metric_Pad1.15x1.40mm_HandSolder" H 5150 3900 50  0001 C CNN
F 3 "~" H 5150 3900 50  0001 C CNN
F 4 "16" H 5150 3900 50  0001 C CNN "Voltage - rated"
F 5 "20%" H 5150 3900 50  0001 C CNN "Tolerance"
F 6 "490-4787-1-ND" H 5150 3900 50  0001 C CNN "Digi-Key_PN"
F 7 "1458904" H 5150 3900 50  0001 C CNN "Farnell_PN"
	1    5150 3900
	1    0    0    -1  
$EndComp
Text Notes 3100 3500 0    50   ~ 0
Limit 40.0C: 0.5309V\nLimit 65.0C: 0.2457V
$Comp
L Device:R R?
U 1 1 5F962AAE
P 4350 4000
AR Path="/5F962AAE" Ref="R?"  Part="1" 
AR Path="/5EB41214/5F962AAE" Ref="R?"  Part="1" 
AR Path="/5ED2BC2A/5F962AAE" Ref="R?"  Part="1" 
AR Path="/5EE0AC5D/5F962AAE" Ref="R?"  Part="1" 
AR Path="/5EE0E313/5F962AAE" Ref="R11"  Part="1" 
AR Path="/5EE77D5A/5F962AAE" Ref="R?"  Part="1" 
AR Path="/5EE8A13E/5F962AAE" Ref="R?"  Part="1" 
F 0 "R11" H 4450 3900 50  0000 C CNN
F 1 "R 12K" H 4466 4000 50  0000 C CNN
F 2 "Resistor_SMD:R_0805_2012Metric_Pad1.15x1.40mm_HandSolder" V 4280 4000 50  0001 C CNN
F 3 "~" H 4350 4000 50  0001 C CNN
F 4 "0.1%" H 4350 4000 50  0001 C CNN "Tolerance"
F 5 "P12KDACT-ND" H 4350 4000 50  0001 C CNN "Digi-Key_PN"
	1    4350 4000
	1    0    0    -1  
$EndComp
$Sheet
S 7150 2650 550  200 
U 5FDA4C58
F0 "sheet5FDA4C55" 50
F1 "R_G_LED_indicator.sch" 50
F2 "Cntrl" I L 7150 2750 50 
$EndSheet
Wire Wire Line
	7150 2750 6950 2750
$EndSCHEMATC
