EESchema Schematic File Version 4
EELAYER 30 0
EELAYER END
$Descr A4 11693 8268
encoding utf-8
Sheet 2 34
Title ""
Date ""
Rev ""
Comp ""
Comment1 ""
Comment2 ""
Comment3 ""
Comment4 ""
$EndDescr
Text HLabel 5350 3700 0    50   Input ~ 0
Input
$Comp
L Device:C_Small C?
U 1 1 5EE0E69C
P 7950 4150
AR Path="/5EB41214/5EE0E69C" Ref="C?"  Part="1" 
AR Path="/5ED2BC2A/5EE0E69C" Ref="C?"  Part="1" 
AR Path="/5EE0AC5D/5EE0E69C" Ref="C4"  Part="1" 
AR Path="/5EE0E313/5EE0E69C" Ref="C?"  Part="1" 
F 0 "C4" H 8042 4196 50  0000 L CNN
F 1 "C 100n" H 8042 4105 50  0000 L CNN
F 2 "Capacitor_SMD:C_0805_2012Metric_Pad1.15x1.40mm_HandSolder" H 7950 4150 50  0001 C CNN
F 3 "~" H 7950 4150 50  0001 C CNN
F 4 "16" H 7950 4150 50  0001 C CNN "Voltage - rated"
F 5 "20%" H 7950 4150 50  0001 C CNN "Tolerance"
F 6 "399-8000-1-ND" H 7950 4150 50  0001 C CNN "Digi-Key_PN"
F 7 "718683" H 7950 4150 50  0001 C CNN "Farnell_PN"
	1    7950 4150
	1    0    0    -1  
$EndComp
$Comp
L power:GND #PWR?
U 1 1 5EE8A621
P 6300 4250
AR Path="/5EB41214/5EE8A621" Ref="#PWR?"  Part="1" 
AR Path="/5ED2BC2A/5EE8A621" Ref="#PWR?"  Part="1" 
AR Path="/5EE0AC5D/5EE8A621" Ref="#PWR06"  Part="1" 
AR Path="/5EE0E313/5EE8A621" Ref="#PWR?"  Part="1" 
F 0 "#PWR06" H 6300 4000 50  0001 C CNN
F 1 "GND" H 6305 4077 50  0000 C CNN
F 2 "" H 6300 4250 50  0001 C CNN
F 3 "" H 6300 4250 50  0001 C CNN
	1    6300 4250
	1    0    0    -1  
$EndComp
$Comp
L power:+5V #PWR?
U 1 1 5EBE0FA4
P 7950 4000
AR Path="/5EB41214/5EBE0FA4" Ref="#PWR?"  Part="1" 
AR Path="/5ED2BC2A/5EBE0FA4" Ref="#PWR?"  Part="1" 
AR Path="/5EE0AC5D/5EBE0FA4" Ref="#PWR07"  Part="1" 
AR Path="/5EE0E313/5EBE0FA4" Ref="#PWR?"  Part="1" 
F 0 "#PWR07" H 7950 3850 50  0001 C CNN
F 1 "+5V" H 7965 4173 50  0000 C CNN
F 2 "" H 7950 4000 50  0001 C CNN
F 3 "" H 7950 4000 50  0001 C CNN
	1    7950 4000
	1    0    0    -1  
$EndComp
Wire Wire Line
	7950 4000 7950 4050
$Comp
L Device:C_Small C?
U 1 1 5EE0E69E
P 5850 4150
AR Path="/5EB41214/5EE0E69E" Ref="C?"  Part="1" 
AR Path="/5ED2BC2A/5EE0E69E" Ref="C?"  Part="1" 
AR Path="/5EE0AC5D/5EE0E69E" Ref="C3"  Part="1" 
AR Path="/5EE0E313/5EE0E69E" Ref="C?"  Part="1" 
F 0 "C3" H 5942 4196 50  0000 L CNN
F 1 "C 100n" H 5942 4105 50  0000 L CNN
F 2 "Capacitor_SMD:C_0805_2012Metric_Pad1.15x1.40mm_HandSolder" H 5850 4150 50  0001 C CNN
F 3 "~" H 5850 4150 50  0001 C CNN
F 4 "16" H 5850 4150 50  0001 C CNN "Voltage - rated"
F 5 "20%" H 5850 4150 50  0001 C CNN "Tolerance"
F 6 "399-8000-1-ND" H 5850 4150 50  0001 C CNN "Digi-Key_PN"
F 7 "718683" H 5850 4150 50  0001 C CNN "Farnell_PN"
	1    5850 4150
	1    0    0    -1  
$EndComp
Wire Wire Line
	5600 4250 5850 4250
Connection ~ 5850 4250
Wire Wire Line
	5850 4250 6300 4250
$Comp
L power:+5V #PWR?
U 1 1 5EE7980A
P 5850 4000
AR Path="/5EB41214/5EE7980A" Ref="#PWR?"  Part="1" 
AR Path="/5ED2BC2A/5EE7980A" Ref="#PWR?"  Part="1" 
AR Path="/5EE0AC5D/5EE7980A" Ref="#PWR05"  Part="1" 
AR Path="/5EE0E313/5EE7980A" Ref="#PWR?"  Part="1" 
F 0 "#PWR05" H 5850 3850 50  0001 C CNN
F 1 "+5V" H 5865 4173 50  0000 C CNN
F 2 "" H 5850 4000 50  0001 C CNN
F 3 "" H 5850 4000 50  0001 C CNN
	1    5850 4000
	1    0    0    -1  
$EndComp
Wire Wire Line
	5850 4000 5850 4050
$Comp
L power:+5V #PWR?
U 1 1 5EE8A620
P 5600 3200
AR Path="/5EB41214/5EE8A620" Ref="#PWR?"  Part="1" 
AR Path="/5ED2BC2A/5EE8A620" Ref="#PWR?"  Part="1" 
AR Path="/5EE0AC5D/5EE8A620" Ref="#PWR04"  Part="1" 
AR Path="/5EE0E313/5EE8A620" Ref="#PWR?"  Part="1" 
F 0 "#PWR04" H 5600 3050 50  0001 C CNN
F 1 "+5V" H 5615 3373 50  0000 C CNN
F 2 "" H 5600 3200 50  0001 C CNN
F 3 "" H 5600 3200 50  0001 C CNN
	1    5600 3200
	1    0    0    -1  
$EndComp
Wire Wire Line
	5600 3900 5600 4250
Connection ~ 5600 4250
$Comp
L comparators_magne:MAX9141 U?
U 1 1 5EE7980F
P 5700 3600
AR Path="/5EB41214/5EE7980F" Ref="U?"  Part="1" 
AR Path="/5ED2BC2A/5EE7980F" Ref="U?"  Part="1" 
AR Path="/5EE0AC5D/5EE7980F" Ref="U3"  Part="1" 
AR Path="/5EE0E313/5EE7980F" Ref="U?"  Part="1" 
F 0 "U3" H 5900 3700 50  0000 L CNN
F 1 "MAX9141ESA+-ND" H 5850 3800 50  0000 L CNN
F 2 "Package_SO:SOIC-8_3.9x4.9mm_P1.27mm" H 5700 3600 50  0001 C CNN
F 3 "" H 5700 3600 50  0001 C CNN
F 4 "	MAX9141ESA+-ND" H 5700 3600 50  0001 C CNN "Digi-Key_PN"
	1    5700 3600
	1    0    0    -1  
$EndComp
Wire Wire Line
	5850 4000 5700 4000
Wire Wire Line
	5700 4000 5700 3900
Connection ~ 5850 4000
Text GLabel 7400 3800 0    50   Input ~ 0
!ARM
Wire Wire Line
	7400 3800 7500 3800
Wire Wire Line
	7500 3800 7500 3700
Wire Wire Line
	8050 3650 8350 3650
Wire Wire Line
	4950 2500 4950 2750
Text HLabel 9000 3650 2    50   Input ~ 0
Output
Wire Wire Line
	4950 2500 7500 2500
Wire Wire Line
	5500 2800 5750 2800
Wire Wire Line
	5050 4000 5050 4250
Wire Wire Line
	5050 4250 5600 4250
Text GLabel 4700 2850 0    50   Input ~ 0
!LE
Text Notes 4550 4100 0    50   ~ 0
41Hz low pass
Connection ~ 6300 4250
Wire Wire Line
	6000 3600 7500 3600
Wire Wire Line
	4700 2850 4950 2850
$Comp
L logic_gates_magne:74LVC2G32 U2
U 1 1 5ED1B0FB
P 5250 2800
F 0 "U2" H 5225 3067 50  0000 C CNN
F 1 "SN74LVC2G32DCUR" H 5225 2976 50  0000 C CNN
F 2 "Package_SO:VSSOP-8_2.3x2mm_P0.5mm" H 5400 2850 50  0001 C CNN
F 3 "http://www.ti.com/lit/sg/scyt129e/scyt129e.pdf" H 5450 2800 50  0001 C CNN
F 4 "296-13268-1-ND" H 5250 2800 50  0001 C CNN "Digi-Key_PN"
	1    5250 2800
	1    0    0    -1  
$EndComp
$Comp
L logic_gates_magne:74LVC2G32 U2
U 2 1 5ED1B5CB
P 7800 3650
F 0 "U2" H 7775 3917 50  0000 C CNN
F 1 "SN74LVC2G32DCUR" H 7775 3826 50  0000 C CNN
F 2 "Package_SO:VSSOP-8_2.3x2mm_P0.5mm" H 7950 3700 50  0001 C CNN
F 3 "http://www.ti.com/lit/sg/scyt129e/scyt129e.pdf" H 8000 3650 50  0001 C CNN
F 4 "296-13268-1-ND" H 7800 3650 50  0001 C CNN "Digi-Key_PN"
	2    7800 3650
	1    0    0    -1  
$EndComp
Connection ~ 7500 3600
$Comp
L logic_gates_magne:74LVC2G32 U2
U 3 1 5ED1BE50
P 8350 4000
F 0 "U2" H 8403 4046 50  0000 L CNN
F 1 "SN74LVC2G32DCUR" H 8403 3955 50  0000 L CNN
F 2 "Package_SO:VSSOP-8_2.3x2mm_P0.5mm" H 8500 4050 50  0001 C CNN
F 3 "http://www.ti.com/lit/sg/scyt129e/scyt129e.pdf" H 8550 4000 50  0001 C CNN
F 4 "296-13268-1-ND" H 8350 4000 50  0001 C CNN "Digi-Key_PN"
	3    8350 4000
	1    0    0    -1  
$EndComp
Wire Wire Line
	7950 4000 8200 4000
Wire Wire Line
	8200 4000 8200 3750
Wire Wire Line
	8200 3750 8350 3750
Connection ~ 7950 4000
Wire Wire Line
	6300 4250 7950 4250
Wire Wire Line
	8350 4250 7950 4250
Connection ~ 7950 4250
Wire Wire Line
	8700 3700 8700 3650
Wire Wire Line
	8700 3650 9000 3650
$Comp
L Device:R R?
U 1 1 5F89282B
P 8500 3650
AR Path="/5F89282B" Ref="R?"  Part="1" 
AR Path="/5EB41214/5F89282B" Ref="R?"  Part="1" 
AR Path="/5ED2BC2A/5F89282B" Ref="R?"  Part="1" 
AR Path="/5ECA2575/5F89282B" Ref="R?"  Part="1" 
AR Path="/5ECAC95D/5F89282B" Ref="R?"  Part="1" 
AR Path="/5EED7553/5F89282B" Ref="R?"  Part="1" 
AR Path="/5EEDC7D6/5F89282B" Ref="R?"  Part="1" 
AR Path="/5EE0AC5D/5F89282B" Ref="R5"  Part="1" 
F 0 "R5" V 8293 3650 50  0000 C CNN
F 1 "R 10" V 8384 3650 50  0000 C CNN
F 2 "Resistor_SMD:R_0603_1608Metric" V 8430 3650 50  0001 C CNN
F 3 "~" H 8500 3650 50  0001 C CNN
F 4 "" H 8500 3650 50  0001 C CNN "Tolerance"
F 5 "RMCF0603FT10R0CT-ND" H 8500 3650 50  0001 C CNN "Digi-Key_PN"
	1    8500 3650
	0    1    1    0   
$EndComp
Wire Wire Line
	8650 3650 8700 3650
Connection ~ 8700 3650
Wire Wire Line
	8700 3900 8700 4250
Wire Wire Line
	8700 4250 8350 4250
Connection ~ 8350 4250
$Comp
L Device:C_Small C?
U 1 1 5F922AA2
P 8700 3800
AR Path="/5EB41214/5F922AA2" Ref="C?"  Part="1" 
AR Path="/5ED2BC2A/5F922AA2" Ref="C?"  Part="1" 
AR Path="/5EE0AC5D/5F922AA2" Ref="C5"  Part="1" 
AR Path="/5EE0E313/5F922AA2" Ref="C?"  Part="1" 
AR Path="/5EE5AAE3/5F922AA2" Ref="C?"  Part="1" 
AR Path="/5ECA36FF/5F922AA2" Ref="C?"  Part="1" 
AR Path="/5EED7553/5F922AA2" Ref="C?"  Part="1" 
AR Path="/5EEDC7D6/5F922AA2" Ref="C?"  Part="1" 
AR Path="/5ECDAC29/5F922AA2" Ref="C?"  Part="1" 
AR Path="/5EE8A13E/5F922AA2" Ref="C?"  Part="1" 
F 0 "C5" H 8792 3846 50  0000 L CNN
F 1 "C 470p" H 8792 3755 50  0000 L CNN
F 2 "Capacitor_SMD:C_0603_1608Metric" H 8700 3800 50  0001 C CNN
F 3 "~" H 8700 3800 50  0001 C CNN
F 4 "16" H 8700 3800 50  0001 C CNN "Voltage - rated"
F 5 "20%" H 8700 3800 50  0001 C CNN "Tolerance"
F 6 "399-10051-1-ND" H 8700 3800 50  0001 C CNN "Digi-Key_PN"
F 7 "" H 8700 3800 50  0001 C CNN "Farnell_PN"
	1    8700 3800
	1    0    0    -1  
$EndComp
Wire Wire Line
	5350 3700 5400 3700
Wire Wire Line
	4250 3550 4250 3600
Wire Wire Line
	3950 3350 3950 3400
Wire Wire Line
	4450 3600 4250 3600
Connection ~ 4250 3600
Wire Wire Line
	4250 3600 4250 3650
Wire Wire Line
	4450 3400 3950 3400
Connection ~ 3950 3400
Wire Wire Line
	3950 3400 3950 3450
Wire Wire Line
	3950 3750 3950 3950
Wire Wire Line
	3950 3950 4100 3950
Wire Wire Line
	4250 3250 4250 3050
Wire Wire Line
	4250 3050 4100 3050
Wire Wire Line
	4100 3950 4100 4250
Connection ~ 4100 3950
Wire Wire Line
	4100 3950 4250 3950
$Comp
L power:+5V #PWR?
U 1 1 5F936D8D
P 4100 3050
AR Path="/5EB41214/5F936D8D" Ref="#PWR?"  Part="1" 
AR Path="/5ED2BC2A/5F936D8D" Ref="#PWR?"  Part="1" 
AR Path="/5EE0AC5D/5F936D8D" Ref="#PWR01"  Part="1" 
AR Path="/5EE0E313/5F936D8D" Ref="#PWR?"  Part="1" 
AR Path="/5EE77D5A/5F936D8D" Ref="#PWR?"  Part="1" 
AR Path="/5EE8A13E/5F936D8D" Ref="#PWR?"  Part="1" 
F 0 "#PWR01" H 4100 2900 50  0001 C CNN
F 1 "+5V" H 4115 3223 50  0000 C CNN
F 2 "" H 4100 3050 50  0001 C CNN
F 3 "" H 4100 3050 50  0001 C CNN
	1    4100 3050
	1    0    0    -1  
$EndComp
Connection ~ 4100 3050
Wire Wire Line
	4100 3050 3950 3050
Text GLabel 4750 3100 0    50   Input ~ 0
T_SELECT
$Comp
L Analog_Switch:TS5A23159DGS U1
U 2 1 5F937A90
P 4750 3500
F 0 "U1" H 4750 3775 50  0000 C CNN
F 1 "TS5A23159DGS" H 4750 3866 50  0000 C CNN
F 2 "Package_SO:VSSOP-10_3x3mm_P0.5mm" H 4750 3350 50  0001 C CNN
F 3 "http://www.ti.com/lit/ds/symlink/ts5a23159.pdf" H 3700 3150 50  0001 C CNN
F 4 "296-52833-1-ND" H 4750 3500 50  0001 C CNN "Digi-Key_PN"
	2    4750 3500
	-1   0    0    1   
$EndComp
Wire Wire Line
	5600 3200 5600 3300
Wire Wire Line
	5050 3800 5050 3500
Wire Wire Line
	5050 3500 5400 3500
Connection ~ 5050 3500
Wire Wire Line
	4750 3100 4750 3200
Wire Wire Line
	5050 4250 4100 4250
Connection ~ 5050 4250
$Comp
L Device:R R?
U 1 1 5F95E43B
P 3950 3200
AR Path="/5F95E43B" Ref="R?"  Part="1" 
AR Path="/5EB41214/5F95E43B" Ref="R?"  Part="1" 
AR Path="/5ED2BC2A/5F95E43B" Ref="R?"  Part="1" 
AR Path="/5EE0AC5D/5F95E43B" Ref="R1"  Part="1" 
AR Path="/5EE0E313/5F95E43B" Ref="R?"  Part="1" 
AR Path="/5EE77D5A/5F95E43B" Ref="R?"  Part="1" 
AR Path="/5EE8A13E/5F95E43B" Ref="R?"  Part="1" 
F 0 "R1" H 4050 3100 50  0000 C CNN
F 1 "R 1.82K" H 4066 3200 50  0000 C CNN
F 2 "Resistor_SMD:R_0805_2012Metric_Pad1.15x1.40mm_HandSolder" V 3880 3200 50  0001 C CNN
F 3 "~" H 3950 3200 50  0001 C CNN
F 4 "0.1%" H 3950 3200 50  0001 C CNN "Tolerance"
F 5 "P1.82KDACT-ND" H 3950 3200 50  0001 C CNN "Digi-Key_PN"
	1    3950 3200
	1    0    0    -1  
$EndComp
$Comp
L Device:R R?
U 1 1 5F95FA1F
P 3950 3600
AR Path="/5F95FA1F" Ref="R?"  Part="1" 
AR Path="/5EB41214/5F95FA1F" Ref="R?"  Part="1" 
AR Path="/5ED2BC2A/5F95FA1F" Ref="R?"  Part="1" 
AR Path="/5EE0AC5D/5F95FA1F" Ref="R2"  Part="1" 
AR Path="/5EE0E313/5F95FA1F" Ref="R?"  Part="1" 
AR Path="/5EE77D5A/5F95FA1F" Ref="R?"  Part="1" 
AR Path="/5EE8A13E/5F95FA1F" Ref="R?"  Part="1" 
F 0 "R2" H 4050 3500 50  0000 C CNN
F 1 "R 43.2K" H 4066 3600 50  0000 C CNN
F 2 "Resistor_SMD:R_0805_2012Metric_Pad1.15x1.40mm_HandSolder" V 3880 3600 50  0001 C CNN
F 3 "~" H 3950 3600 50  0001 C CNN
F 4 "0.1%" H 3950 3600 50  0001 C CNN "Tolerance"
F 5 "P43.2KDACT-ND" H 3950 3600 50  0001 C CNN "Digi-Key_PN"
	1    3950 3600
	1    0    0    -1  
$EndComp
$Comp
L Device:R R?
U 1 1 5F95FAFB
P 4250 3800
AR Path="/5F95FAFB" Ref="R?"  Part="1" 
AR Path="/5EB41214/5F95FAFB" Ref="R?"  Part="1" 
AR Path="/5ED2BC2A/5F95FAFB" Ref="R?"  Part="1" 
AR Path="/5EE0AC5D/5F95FAFB" Ref="R4"  Part="1" 
AR Path="/5EE0E313/5F95FAFB" Ref="R?"  Part="1" 
AR Path="/5EE77D5A/5F95FAFB" Ref="R?"  Part="1" 
AR Path="/5EE8A13E/5F95FAFB" Ref="R?"  Part="1" 
F 0 "R4" H 4350 3700 50  0000 C CNN
F 1 "R 8.45K" H 4366 3800 50  0000 C CNN
F 2 "Resistor_SMD:R_0805_2012Metric_Pad1.15x1.40mm_HandSolder" V 4180 3800 50  0001 C CNN
F 3 "~" H 4250 3800 50  0001 C CNN
F 4 "0.1%" H 4250 3800 50  0001 C CNN "Tolerance"
F 5 "P8.45KDACT-ND" H 4250 3800 50  0001 C CNN "Digi-Key_PN"
	1    4250 3800
	1    0    0    -1  
$EndComp
Text Notes 2950 3200 0    50   ~ 0
Limit -60.0C: 4.7979V\nLimit -40.0C: 4.1281V
$Comp
L Device:C_Small C?
U 1 1 5F97686F
P 5050 3900
AR Path="/5EB41214/5F97686F" Ref="C?"  Part="1" 
AR Path="/5ED2BC2A/5F97686F" Ref="C?"  Part="1" 
AR Path="/5EE0AC5D/5F97686F" Ref="C2"  Part="1" 
AR Path="/5EE0E313/5F97686F" Ref="C?"  Part="1" 
AR Path="/5EE77D5A/5F97686F" Ref="C?"  Part="1" 
AR Path="/5EE8A13E/5F97686F" Ref="C?"  Part="1" 
AR Path="/5ED08686/5F97686F" Ref="C?"  Part="1" 
F 0 "C2" H 5142 3946 50  0000 L CNN
F 1 "C 2.2u" H 5142 3855 50  0000 L CNN
F 2 "Capacitor_SMD:C_0805_2012Metric_Pad1.15x1.40mm_HandSolder" H 5050 3900 50  0001 C CNN
F 3 "~" H 5050 3900 50  0001 C CNN
F 4 "16" H 5050 3900 50  0001 C CNN "Voltage - rated"
F 5 "20%" H 5050 3900 50  0001 C CNN "Tolerance"
F 6 "490-4787-1-ND" H 5050 3900 50  0001 C CNN "Digi-Key_PN"
F 7 "1458904" H 5050 3900 50  0001 C CNN "Farnell_PN"
	1    5050 3900
	1    0    0    -1  
$EndComp
$Comp
L Analog_Switch:TS5A23159DGS U1
U 3 1 5F9CEF09
P 4100 5200
F 0 "U1" H 4280 5246 50  0000 L CNN
F 1 "TS5A23159DGS" H 4280 5155 50  0000 L CNN
F 2 "Package_SO:VSSOP-10_3x3mm_P0.5mm" H 4100 5050 50  0001 C CNN
F 3 "http://www.ti.com/lit/ds/symlink/ts5a23159.pdf" H 3050 4850 50  0001 C CNN
F 4 "296-52833-1-ND" H 4100 5200 50  0001 C CNN "Digi-Key_PN"
	3    4100 5200
	1    0    0    -1  
$EndComp
$Comp
L power:GND #PWR?
U 1 1 5F9CFDC8
P 4100 5800
AR Path="/5EB41214/5F9CFDC8" Ref="#PWR?"  Part="1" 
AR Path="/5ED2BC2A/5F9CFDC8" Ref="#PWR?"  Part="1" 
AR Path="/5EE0AC5D/5F9CFDC8" Ref="#PWR03"  Part="1" 
AR Path="/5EE0E313/5F9CFDC8" Ref="#PWR?"  Part="1" 
F 0 "#PWR03" H 4100 5550 50  0001 C CNN
F 1 "GND" H 4105 5627 50  0000 C CNN
F 2 "" H 4100 5800 50  0001 C CNN
F 3 "" H 4100 5800 50  0001 C CNN
	1    4100 5800
	1    0    0    -1  
$EndComp
Wire Wire Line
	4100 5800 4100 5700
$Comp
L power:+5V #PWR?
U 1 1 5F9D0DE9
P 4100 4650
AR Path="/5EB41214/5F9D0DE9" Ref="#PWR?"  Part="1" 
AR Path="/5ED2BC2A/5F9D0DE9" Ref="#PWR?"  Part="1" 
AR Path="/5EE0AC5D/5F9D0DE9" Ref="#PWR02"  Part="1" 
AR Path="/5EE0E313/5F9D0DE9" Ref="#PWR?"  Part="1" 
AR Path="/5EE77D5A/5F9D0DE9" Ref="#PWR?"  Part="1" 
AR Path="/5EE8A13E/5F9D0DE9" Ref="#PWR?"  Part="1" 
F 0 "#PWR02" H 4100 4500 50  0001 C CNN
F 1 "+5V" H 4115 4823 50  0000 C CNN
F 2 "" H 4100 4650 50  0001 C CNN
F 3 "" H 4100 4650 50  0001 C CNN
	1    4100 4650
	1    0    0    -1  
$EndComp
Wire Wire Line
	4100 4650 4100 4700
$Comp
L Device:C_Small C?
U 1 1 5F9D1EA2
P 3500 5200
AR Path="/5EB41214/5F9D1EA2" Ref="C?"  Part="1" 
AR Path="/5ED2BC2A/5F9D1EA2" Ref="C?"  Part="1" 
AR Path="/5EE0AC5D/5F9D1EA2" Ref="C1"  Part="1" 
AR Path="/5EE0E313/5F9D1EA2" Ref="C?"  Part="1" 
F 0 "C1" H 3592 5246 50  0000 L CNN
F 1 "C 100n" H 3592 5155 50  0000 L CNN
F 2 "Capacitor_SMD:C_0805_2012Metric_Pad1.15x1.40mm_HandSolder" H 3500 5200 50  0001 C CNN
F 3 "~" H 3500 5200 50  0001 C CNN
F 4 "16" H 3500 5200 50  0001 C CNN "Voltage - rated"
F 5 "20%" H 3500 5200 50  0001 C CNN "Tolerance"
F 6 "399-8000-1-ND" H 3500 5200 50  0001 C CNN "Digi-Key_PN"
F 7 "718683" H 3500 5200 50  0001 C CNN "Farnell_PN"
	1    3500 5200
	1    0    0    -1  
$EndComp
Wire Wire Line
	3500 5100 3500 4700
Wire Wire Line
	3500 4700 4100 4700
Connection ~ 4100 4700
Wire Wire Line
	3500 5300 3500 5700
Wire Wire Line
	3500 5700 4100 5700
Connection ~ 4100 5700
$Comp
L Device:R R?
U 1 1 5FCA81CB
P 4250 3400
AR Path="/5FCA81CB" Ref="R?"  Part="1" 
AR Path="/5EB41214/5FCA81CB" Ref="R?"  Part="1" 
AR Path="/5ED2BC2A/5FCA81CB" Ref="R?"  Part="1" 
AR Path="/5EE0AC5D/5FCA81CB" Ref="R3"  Part="1" 
AR Path="/5EE0E313/5FCA81CB" Ref="R?"  Part="1" 
AR Path="/5EE77D5A/5FCA81CB" Ref="R?"  Part="1" 
AR Path="/5EE8A13E/5FCA81CB" Ref="R?"  Part="1" 
F 0 "R3" H 4350 3300 50  0000 C CNN
F 1 "R 1.82K" H 4366 3400 50  0000 C CNN
F 2 "Resistor_SMD:R_0805_2012Metric_Pad1.15x1.40mm_HandSolder" V 4180 3400 50  0001 C CNN
F 3 "~" H 4250 3400 50  0001 C CNN
F 4 "0.1%" H 4250 3400 50  0001 C CNN "Tolerance"
F 5 "P1.82KDACT-ND" H 4250 3400 50  0001 C CNN "Digi-Key_PN"
	1    4250 3400
	1    0    0    -1  
$EndComp
$Sheet
S 7700 2850 550  200 
U 5FDA6785
F0 "sheet5FDA6781" 50
F1 "R_G_LED_indicator.sch" 50
F2 "Cntrl" I L 7700 2950 50 
$EndSheet
Wire Wire Line
	7700 2950 7500 2950
Wire Wire Line
	5750 2800 5750 3300
Connection ~ 7500 2950
Wire Wire Line
	7500 2950 7500 3600
Wire Wire Line
	7500 2500 7500 2950
$EndSCHEMATC
