(kicad_sch (version 20211123) (generator eeschema)

  (uuid f917f441-d3e3-48aa-b09e-2d534252cbf1)

  (paper "A4")

  (title_block
    (title "ATLAS-ITK-PIXEL-MODULES HW INTERLOCK")
    (rev "0.4")
    (comment 1 "All logic is inverted TTL")
  )

  (lib_symbols
    (symbol "Analog_Switch:TS5A23159DGS" (in_bom yes) (on_board yes)
      (property "Reference" "U" (id 0) (at -5.08 8.89 0)
        (effects (font (size 1.27 1.27)) (justify left))
      )
      (property "Value" "TS5A23159DGS" (id 1) (at -5.08 6.985 0)
        (effects (font (size 1.27 1.27)) (justify left))
      )
      (property "Footprint" "Package_SO:VSSOP-10_3x3mm_P0.5mm" (id 2) (at 0 -3.81 0)
        (effects (font (size 1.27 1.27)) hide)
      )
      (property "Datasheet" "http://www.ti.com/lit/ds/symlink/ts5a23159.pdf" (id 3) (at -26.67 -8.89 0)
        (effects (font (size 1.27 1.27)) hide)
      )
      (property "ki_locked" "" (id 4) (at 0 0 0)
        (effects (font (size 1.27 1.27)))
      )
      (property "ki_keywords" "switch analog SPDT" (id 5) (at 0 0 0)
        (effects (font (size 1.27 1.27)) hide)
      )
      (property "ki_description" "Dual SPDT 1ohm Bidirectional Analog Switch with Off protection, VSSOP-10" (id 6) (at 0 0 0)
        (effects (font (size 1.27 1.27)) hide)
      )
      (property "ki_fp_filters" "VSSOP*3x3mm*P0.5mm*" (id 7) (at 0 0 0)
        (effects (font (size 1.27 1.27)) hide)
      )
      (symbol "TS5A23159DGS_1_1"
        (rectangle (start -3.81 5.08) (end 3.81 -5.08)
          (stroke (width 0.254) (type default) (color 0 0 0 0))
          (fill (type background))
        )
        (circle (center -2.159 0) (radius 0.508)
          (stroke (width 0.254) (type default) (color 0 0 0 0))
          (fill (type none))
        )
        (polyline
          (pts
            (xy -5.08 0)
            (xy -2.794 0)
          )
          (stroke (width 0) (type default) (color 0 0 0 0))
          (fill (type none))
        )
        (polyline
          (pts
            (xy -1.651 0.127)
            (xy 2.54 1.905)
          )
          (stroke (width 0.254) (type default) (color 0 0 0 0))
          (fill (type none))
        )
        (polyline
          (pts
            (xy 0 -5.08)
            (xy 0 -4.572)
          )
          (stroke (width 0) (type default) (color 0 0 0 0))
          (fill (type none))
        )
        (polyline
          (pts
            (xy 0 -4.318)
            (xy 0 -4.064)
          )
          (stroke (width 0) (type default) (color 0 0 0 0))
          (fill (type none))
        )
        (polyline
          (pts
            (xy 0 -3.81)
            (xy 0 -3.556)
          )
          (stroke (width 0) (type default) (color 0 0 0 0))
          (fill (type none))
        )
        (polyline
          (pts
            (xy 0 -3.302)
            (xy 0 -3.048)
          )
          (stroke (width 0) (type default) (color 0 0 0 0))
          (fill (type none))
        )
        (polyline
          (pts
            (xy 0 -2.794)
            (xy 0 -2.54)
          )
          (stroke (width 0) (type default) (color 0 0 0 0))
          (fill (type none))
        )
        (polyline
          (pts
            (xy 0 -2.286)
            (xy 0 -2.032)
          )
          (stroke (width 0) (type default) (color 0 0 0 0))
          (fill (type none))
        )
        (polyline
          (pts
            (xy 0 -1.778)
            (xy 0 -1.524)
          )
          (stroke (width 0) (type default) (color 0 0 0 0))
          (fill (type none))
        )
        (polyline
          (pts
            (xy 0 -1.27)
            (xy 0 -1.016)
          )
          (stroke (width 0) (type default) (color 0 0 0 0))
          (fill (type none))
        )
        (polyline
          (pts
            (xy 0 -0.762)
            (xy 0 -0.508)
          )
          (stroke (width 0) (type default) (color 0 0 0 0))
          (fill (type none))
        )
        (polyline
          (pts
            (xy 0 -0.254)
            (xy 0 0)
          )
          (stroke (width 0) (type default) (color 0 0 0 0))
          (fill (type none))
        )
        (polyline
          (pts
            (xy 0 0.254)
            (xy 0 0.508)
          )
          (stroke (width 0) (type default) (color 0 0 0 0))
          (fill (type none))
        )
        (polyline
          (pts
            (xy 5.08 -2.54)
            (xy 2.794 -2.54)
          )
          (stroke (width 0) (type default) (color 0 0 0 0))
          (fill (type none))
        )
        (polyline
          (pts
            (xy 5.08 2.54)
            (xy 2.794 2.54)
          )
          (stroke (width 0) (type default) (color 0 0 0 0))
          (fill (type none))
        )
        (circle (center 2.159 -2.54) (radius 0.508)
          (stroke (width 0.254) (type default) (color 0 0 0 0))
          (fill (type none))
        )
        (circle (center 2.159 2.54) (radius 0.508)
          (stroke (width 0.254) (type default) (color 0 0 0 0))
          (fill (type none))
        )
        (pin input line (at 0 -7.62 90) (length 2.54)
          (name "~" (effects (font (size 1.27 1.27))))
          (number "1" (effects (font (size 1.27 1.27))))
        )
        (pin passive line (at -7.62 0 0) (length 2.54)
          (name "~" (effects (font (size 1.27 1.27))))
          (number "10" (effects (font (size 1.27 1.27))))
        )
        (pin passive line (at 7.62 -2.54 180) (length 2.54)
          (name "~" (effects (font (size 1.27 1.27))))
          (number "2" (effects (font (size 1.27 1.27))))
        )
        (pin passive line (at 7.62 2.54 180) (length 2.54)
          (name "~" (effects (font (size 1.27 1.27))))
          (number "9" (effects (font (size 1.27 1.27))))
        )
      )
      (symbol "TS5A23159DGS_2_1"
        (rectangle (start -3.81 5.08) (end 3.81 -5.08)
          (stroke (width 0.254) (type default) (color 0 0 0 0))
          (fill (type background))
        )
        (circle (center -2.159 0) (radius 0.508)
          (stroke (width 0.254) (type default) (color 0 0 0 0))
          (fill (type none))
        )
        (polyline
          (pts
            (xy -5.08 0)
            (xy -2.794 0)
          )
          (stroke (width 0) (type default) (color 0 0 0 0))
          (fill (type none))
        )
        (polyline
          (pts
            (xy -1.651 0.127)
            (xy 2.54 1.905)
          )
          (stroke (width 0.254) (type default) (color 0 0 0 0))
          (fill (type none))
        )
        (polyline
          (pts
            (xy 0 -5.08)
            (xy 0 -4.572)
          )
          (stroke (width 0) (type default) (color 0 0 0 0))
          (fill (type none))
        )
        (polyline
          (pts
            (xy 0 -4.318)
            (xy 0 -4.064)
          )
          (stroke (width 0) (type default) (color 0 0 0 0))
          (fill (type none))
        )
        (polyline
          (pts
            (xy 0 -3.81)
            (xy 0 -3.556)
          )
          (stroke (width 0) (type default) (color 0 0 0 0))
          (fill (type none))
        )
        (polyline
          (pts
            (xy 0 -3.302)
            (xy 0 -3.048)
          )
          (stroke (width 0) (type default) (color 0 0 0 0))
          (fill (type none))
        )
        (polyline
          (pts
            (xy 0 -2.794)
            (xy 0 -2.54)
          )
          (stroke (width 0) (type default) (color 0 0 0 0))
          (fill (type none))
        )
        (polyline
          (pts
            (xy 0 -2.286)
            (xy 0 -2.032)
          )
          (stroke (width 0) (type default) (color 0 0 0 0))
          (fill (type none))
        )
        (polyline
          (pts
            (xy 0 -1.778)
            (xy 0 -1.524)
          )
          (stroke (width 0) (type default) (color 0 0 0 0))
          (fill (type none))
        )
        (polyline
          (pts
            (xy 0 -1.27)
            (xy 0 -1.016)
          )
          (stroke (width 0) (type default) (color 0 0 0 0))
          (fill (type none))
        )
        (polyline
          (pts
            (xy 0 -0.762)
            (xy 0 -0.508)
          )
          (stroke (width 0) (type default) (color 0 0 0 0))
          (fill (type none))
        )
        (polyline
          (pts
            (xy 0 -0.254)
            (xy 0 0)
          )
          (stroke (width 0) (type default) (color 0 0 0 0))
          (fill (type none))
        )
        (polyline
          (pts
            (xy 0 0.254)
            (xy 0 0.508)
          )
          (stroke (width 0) (type default) (color 0 0 0 0))
          (fill (type none))
        )
        (polyline
          (pts
            (xy 5.08 -2.54)
            (xy 2.794 -2.54)
          )
          (stroke (width 0) (type default) (color 0 0 0 0))
          (fill (type none))
        )
        (polyline
          (pts
            (xy 5.08 2.54)
            (xy 2.794 2.54)
          )
          (stroke (width 0) (type default) (color 0 0 0 0))
          (fill (type none))
        )
        (circle (center 2.159 -2.54) (radius 0.508)
          (stroke (width 0.254) (type default) (color 0 0 0 0))
          (fill (type none))
        )
        (circle (center 2.159 2.54) (radius 0.508)
          (stroke (width 0.254) (type default) (color 0 0 0 0))
          (fill (type none))
        )
        (pin passive line (at 7.62 -2.54 180) (length 2.54)
          (name "~" (effects (font (size 1.27 1.27))))
          (number "4" (effects (font (size 1.27 1.27))))
        )
        (pin input line (at 0 -7.62 90) (length 2.54)
          (name "~" (effects (font (size 1.27 1.27))))
          (number "5" (effects (font (size 1.27 1.27))))
        )
        (pin passive line (at -7.62 0 0) (length 2.54)
          (name "~" (effects (font (size 1.27 1.27))))
          (number "6" (effects (font (size 1.27 1.27))))
        )
        (pin passive line (at 7.62 2.54 180) (length 2.54)
          (name "~" (effects (font (size 1.27 1.27))))
          (number "7" (effects (font (size 1.27 1.27))))
        )
      )
      (symbol "TS5A23159DGS_3_1"
        (rectangle (start -3.81 10.16) (end 3.81 -10.16)
          (stroke (width 0.254) (type default) (color 0 0 0 0))
          (fill (type background))
        )
        (pin power_in line (at 0 -12.7 90) (length 2.54)
          (name "GND" (effects (font (size 1.27 1.27))))
          (number "3" (effects (font (size 1.27 1.27))))
        )
        (pin power_in line (at 0 12.7 270) (length 2.54)
          (name "VCC" (effects (font (size 1.27 1.27))))
          (number "8" (effects (font (size 1.27 1.27))))
        )
      )
    )
    (symbol "Device:C_Small" (pin_numbers hide) (pin_names (offset 0.254) hide) (in_bom yes) (on_board yes)
      (property "Reference" "C" (id 0) (at 0.254 1.778 0)
        (effects (font (size 1.27 1.27)) (justify left))
      )
      (property "Value" "C_Small" (id 1) (at 0.254 -2.032 0)
        (effects (font (size 1.27 1.27)) (justify left))
      )
      (property "Footprint" "" (id 2) (at 0 0 0)
        (effects (font (size 1.27 1.27)) hide)
      )
      (property "Datasheet" "~" (id 3) (at 0 0 0)
        (effects (font (size 1.27 1.27)) hide)
      )
      (property "ki_keywords" "capacitor cap" (id 4) (at 0 0 0)
        (effects (font (size 1.27 1.27)) hide)
      )
      (property "ki_description" "Unpolarized capacitor, small symbol" (id 5) (at 0 0 0)
        (effects (font (size 1.27 1.27)) hide)
      )
      (property "ki_fp_filters" "C_*" (id 6) (at 0 0 0)
        (effects (font (size 1.27 1.27)) hide)
      )
      (symbol "C_Small_0_1"
        (polyline
          (pts
            (xy -1.524 -0.508)
            (xy 1.524 -0.508)
          )
          (stroke (width 0.3302) (type default) (color 0 0 0 0))
          (fill (type none))
        )
        (polyline
          (pts
            (xy -1.524 0.508)
            (xy 1.524 0.508)
          )
          (stroke (width 0.3048) (type default) (color 0 0 0 0))
          (fill (type none))
        )
      )
      (symbol "C_Small_1_1"
        (pin passive line (at 0 2.54 270) (length 2.032)
          (name "~" (effects (font (size 1.27 1.27))))
          (number "1" (effects (font (size 1.27 1.27))))
        )
        (pin passive line (at 0 -2.54 90) (length 2.032)
          (name "~" (effects (font (size 1.27 1.27))))
          (number "2" (effects (font (size 1.27 1.27))))
        )
      )
    )
    (symbol "Device:R" (pin_numbers hide) (pin_names (offset 0)) (in_bom yes) (on_board yes)
      (property "Reference" "R" (id 0) (at 2.032 0 90)
        (effects (font (size 1.27 1.27)))
      )
      (property "Value" "R" (id 1) (at 0 0 90)
        (effects (font (size 1.27 1.27)))
      )
      (property "Footprint" "" (id 2) (at -1.778 0 90)
        (effects (font (size 1.27 1.27)) hide)
      )
      (property "Datasheet" "~" (id 3) (at 0 0 0)
        (effects (font (size 1.27 1.27)) hide)
      )
      (property "ki_keywords" "R res resistor" (id 4) (at 0 0 0)
        (effects (font (size 1.27 1.27)) hide)
      )
      (property "ki_description" "Resistor" (id 5) (at 0 0 0)
        (effects (font (size 1.27 1.27)) hide)
      )
      (property "ki_fp_filters" "R_*" (id 6) (at 0 0 0)
        (effects (font (size 1.27 1.27)) hide)
      )
      (symbol "R_0_1"
        (rectangle (start -1.016 -2.54) (end 1.016 2.54)
          (stroke (width 0.254) (type default) (color 0 0 0 0))
          (fill (type none))
        )
      )
      (symbol "R_1_1"
        (pin passive line (at 0 3.81 270) (length 1.27)
          (name "~" (effects (font (size 1.27 1.27))))
          (number "1" (effects (font (size 1.27 1.27))))
        )
        (pin passive line (at 0 -3.81 90) (length 1.27)
          (name "~" (effects (font (size 1.27 1.27))))
          (number "2" (effects (font (size 1.27 1.27))))
        )
      )
    )
    (symbol "comparators_magne:MAX9141" (pin_names (offset 1.016)) (in_bom yes) (on_board yes)
      (property "Reference" "U" (id 0) (at 6.35 6.35 0)
        (effects (font (size 1.27 1.27)))
      )
      (property "Value" "MAX9141" (id 1) (at -12.7 8.89 0)
        (effects (font (size 1.27 1.27)))
      )
      (property "Footprint" "" (id 2) (at 0 0 0)
        (effects (font (size 1.27 1.27)) hide)
      )
      (property "Datasheet" "" (id 3) (at 0 0 0)
        (effects (font (size 1.27 1.27)) hide)
      )
      (symbol "MAX9141_1_1"
        (polyline
          (pts
            (xy -5.08 5.08)
            (xy 5.08 0)
            (xy -5.08 -5.08)
            (xy -5.08 5.08)
          )
          (stroke (width 0.254) (type default) (color 0 0 0 0))
          (fill (type background))
        )
        (pin power_in line (at -2.54 7.62 270) (length 3.81)
          (name "V+" (effects (font (size 0.508 0.508))))
          (number "1" (effects (font (size 1.27 1.27))))
        )
        (pin input line (at -7.62 2.54 0) (length 2.54)
          (name "+" (effects (font (size 1.27 1.27))))
          (number "2" (effects (font (size 1.27 1.27))))
        )
        (pin input line (at -7.62 -2.54 0) (length 2.54)
          (name "-" (effects (font (size 1.27 1.27))))
          (number "3" (effects (font (size 1.27 1.27))))
        )
        (pin power_in line (at -2.54 -7.62 90) (length 3.81)
          (name "GND" (effects (font (size 0.508 0.508))))
          (number "4" (effects (font (size 1.27 1.27))))
        )
        (pin input line (at 1.27 7.62 270) (length 5.9944)
          (name "!LE" (effects (font (size 0.508 0.508))))
          (number "5" (effects (font (size 1.27 1.27))))
        )
        (pin input line (at 0 -7.62 90) (length 5.4102)
          (name "!SHDN" (effects (font (size 0.508 0.508))))
          (number "6" (effects (font (size 1.27 1.27))))
        )
        (pin output line (at 7.62 0 180) (length 2.54)
          (name "Q" (effects (font (size 1.27 1.27))))
          (number "7" (effects (font (size 1.27 1.27))))
        )
      )
    )
    (symbol "logic_gates_magne:74LVC2G32" (pin_names (offset 1.016)) (in_bom yes) (on_board yes)
      (property "Reference" "U" (id 0) (at -2.54 3.81 0)
        (effects (font (size 1.27 1.27)))
      )
      (property "Value" "74LVC2G32" (id 1) (at -7.62 -3.81 0)
        (effects (font (size 1.27 1.27)))
      )
      (property "Footprint" "" (id 2) (at 3.81 1.27 0)
        (effects (font (size 1.27 1.27)) hide)
      )
      (property "Datasheet" "http://www.ti.com/lit/sg/scyt129e/scyt129e.pdf" (id 3) (at 5.08 0 0)
        (effects (font (size 1.27 1.27)) hide)
      )
      (property "ki_locked" "" (id 4) (at 0 0 0)
        (effects (font (size 1.27 1.27)))
      )
      (property "ki_keywords" "Dual Gate OR LVC CMOS" (id 5) (at 0 0 0)
        (effects (font (size 1.27 1.27)) hide)
      )
      (property "ki_description" "Dual OR Gate, Low-Voltage CMOS" (id 6) (at 0 0 0)
        (effects (font (size 1.27 1.27)) hide)
      )
      (property "ki_fp_filters" "SSOP* VSSOP*" (id 7) (at 0 0 0)
        (effects (font (size 1.27 1.27)) hide)
      )
      (symbol "74LVC2G32_1_1"
        (arc (start -3.81 -2.54) (mid -2.919 0) (end -3.81 2.54)
          (stroke (width 0.254) (type default) (color 0 0 0 0))
          (fill (type none))
        )
        (arc (start 0 -2.54) (mid 1.5993 -1.6027) (end 2.54 0)
          (stroke (width 0.254) (type default) (color 0 0 0 0))
          (fill (type none))
        )
        (polyline
          (pts
            (xy 0 -2.54)
            (xy -3.81 -2.54)
          )
          (stroke (width 0.254) (type default) (color 0 0 0 0))
          (fill (type background))
        )
        (polyline
          (pts
            (xy 0 2.54)
            (xy -3.81 2.54)
          )
          (stroke (width 0.254) (type default) (color 0 0 0 0))
          (fill (type background))
        )
        (arc (start 2.54 0) (mid 1.6119 1.6152) (end 0 2.54)
          (stroke (width 0.254) (type default) (color 0 0 0 0))
          (fill (type none))
        )
        (pin input line (at -7.62 1.27 0) (length 3.81)
          (name "~" (effects (font (size 1.016 1.016))))
          (number "1" (effects (font (size 1.016 1.016))))
        )
        (pin input line (at -7.62 -1.27 0) (length 3.81)
          (name "~" (effects (font (size 1.016 1.016))))
          (number "2" (effects (font (size 1.016 1.016))))
        )
        (pin output line (at 6.35 0 180) (length 3.81)
          (name "~" (effects (font (size 1.016 1.016))))
          (number "7" (effects (font (size 1.016 1.016))))
        )
      )
      (symbol "74LVC2G32_2_1"
        (arc (start -3.81 -2.54) (mid -2.919 0) (end -3.81 2.54)
          (stroke (width 0.254) (type default) (color 0 0 0 0))
          (fill (type none))
        )
        (arc (start 0 -2.54) (mid 1.5993 -1.6027) (end 2.54 0)
          (stroke (width 0.254) (type default) (color 0 0 0 0))
          (fill (type none))
        )
        (polyline
          (pts
            (xy -3.81 -1.27)
            (xy -3.175 -1.27)
          )
          (stroke (width 0) (type default) (color 0 0 0 0))
          (fill (type none))
        )
        (polyline
          (pts
            (xy -3.81 1.27)
            (xy -3.175 1.27)
          )
          (stroke (width 0) (type default) (color 0 0 0 0))
          (fill (type none))
        )
        (polyline
          (pts
            (xy 0 -2.54)
            (xy -3.81 -2.54)
          )
          (stroke (width 0.254) (type default) (color 0 0 0 0))
          (fill (type background))
        )
        (polyline
          (pts
            (xy 0 2.54)
            (xy -3.81 2.54)
          )
          (stroke (width 0.254) (type default) (color 0 0 0 0))
          (fill (type background))
        )
        (arc (start 2.54 0) (mid 1.6119 1.6152) (end 0 2.54)
          (stroke (width 0.254) (type default) (color 0 0 0 0))
          (fill (type none))
        )
        (pin output line (at 6.35 0 180) (length 3.81)
          (name "~" (effects (font (size 1.016 1.016))))
          (number "3" (effects (font (size 1.016 1.016))))
        )
        (pin input line (at -7.62 1.27 0) (length 3.81)
          (name "~" (effects (font (size 1.016 1.016))))
          (number "5" (effects (font (size 1.016 1.016))))
        )
        (pin input line (at -7.62 -1.27 0) (length 3.81)
          (name "~" (effects (font (size 1.016 1.016))))
          (number "6" (effects (font (size 1.016 1.016))))
        )
      )
      (symbol "74LVC2G32_3_1"
        (pin power_in line (at 0 -6.35 90) (length 2.0066)
          (name "GND" (effects (font (size 1.016 1.016))))
          (number "4" (effects (font (size 1.016 1.016))))
        )
        (pin power_in line (at 0 6.35 270) (length 2.0066)
          (name "VCC" (effects (font (size 1.016 1.016))))
          (number "8" (effects (font (size 1.016 1.016))))
        )
      )
    )
    (symbol "power:+5V" (power) (pin_names (offset 0)) (in_bom yes) (on_board yes)
      (property "Reference" "#PWR" (id 0) (at 0 -3.81 0)
        (effects (font (size 1.27 1.27)) hide)
      )
      (property "Value" "+5V" (id 1) (at 0 3.556 0)
        (effects (font (size 1.27 1.27)))
      )
      (property "Footprint" "" (id 2) (at 0 0 0)
        (effects (font (size 1.27 1.27)) hide)
      )
      (property "Datasheet" "" (id 3) (at 0 0 0)
        (effects (font (size 1.27 1.27)) hide)
      )
      (property "ki_keywords" "power-flag" (id 4) (at 0 0 0)
        (effects (font (size 1.27 1.27)) hide)
      )
      (property "ki_description" "Power symbol creates a global label with name \"+5V\"" (id 5) (at 0 0 0)
        (effects (font (size 1.27 1.27)) hide)
      )
      (symbol "+5V_0_1"
        (polyline
          (pts
            (xy -0.762 1.27)
            (xy 0 2.54)
          )
          (stroke (width 0) (type default) (color 0 0 0 0))
          (fill (type none))
        )
        (polyline
          (pts
            (xy 0 0)
            (xy 0 2.54)
          )
          (stroke (width 0) (type default) (color 0 0 0 0))
          (fill (type none))
        )
        (polyline
          (pts
            (xy 0 2.54)
            (xy 0.762 1.27)
          )
          (stroke (width 0) (type default) (color 0 0 0 0))
          (fill (type none))
        )
      )
      (symbol "+5V_1_1"
        (pin power_in line (at 0 0 90) (length 0) hide
          (name "+5V" (effects (font (size 1.27 1.27))))
          (number "1" (effects (font (size 1.27 1.27))))
        )
      )
    )
    (symbol "power:GND" (power) (pin_names (offset 0)) (in_bom yes) (on_board yes)
      (property "Reference" "#PWR" (id 0) (at 0 -6.35 0)
        (effects (font (size 1.27 1.27)) hide)
      )
      (property "Value" "GND" (id 1) (at 0 -3.81 0)
        (effects (font (size 1.27 1.27)))
      )
      (property "Footprint" "" (id 2) (at 0 0 0)
        (effects (font (size 1.27 1.27)) hide)
      )
      (property "Datasheet" "" (id 3) (at 0 0 0)
        (effects (font (size 1.27 1.27)) hide)
      )
      (property "ki_keywords" "power-flag" (id 4) (at 0 0 0)
        (effects (font (size 1.27 1.27)) hide)
      )
      (property "ki_description" "Power symbol creates a global label with name \"GND\" , ground" (id 5) (at 0 0 0)
        (effects (font (size 1.27 1.27)) hide)
      )
      (symbol "GND_0_1"
        (polyline
          (pts
            (xy 0 0)
            (xy 0 -1.27)
            (xy 1.27 -1.27)
            (xy 0 -2.54)
            (xy -1.27 -1.27)
            (xy 0 -1.27)
          )
          (stroke (width 0) (type default) (color 0 0 0 0))
          (fill (type none))
        )
      )
      (symbol "GND_1_1"
        (pin power_in line (at 0 0 270) (length 0) hide
          (name "GND" (effects (font (size 1.27 1.27))))
          (number "1" (effects (font (size 1.27 1.27))))
        )
      )
    )
  )

  (junction (at 83.82 118.11) (diameter 0) (color 0 0 0 0)
    (uuid 03c49536-d004-4849-bc29-d9bc9451a319)
  )
  (junction (at 139.7 118.11) (diameter 0) (color 0 0 0 0)
    (uuid 135a65e7-b1b4-40a0-a4cb-b1055ce9e51e)
  )
  (junction (at 123.19 134.62) (diameter 0) (color 0 0 0 0)
    (uuid 189c59cc-94ef-418b-a847-97ac8e96ec11)
  )
  (junction (at 189.23 119.38) (diameter 0) (color 0 0 0 0)
    (uuid 1d6aef31-c907-4122-9b42-ce2bcb125b85)
  )
  (junction (at 87.63 109.22) (diameter 0) (color 0 0 0 0)
    (uuid 394cb2bb-4bc8-417e-be40-2f8400c8edf0)
  )
  (junction (at 111.76 120.65) (diameter 0) (color 0 0 0 0)
    (uuid 43cb298d-4ca5-4153-8e88-27a8b23f9ffb)
  )
  (junction (at 129.54 134.62) (diameter 0) (color 0 0 0 0)
    (uuid 4c394063-159e-4eb8-80d0-0af1fe26573a)
  )
  (junction (at 129.54 128.27) (diameter 0) (color 0 0 0 0)
    (uuid 57d61424-6268-4475-bf4d-c12976dd69dd)
  )
  (junction (at 111.76 134.62) (diameter 0) (color 0 0 0 0)
    (uuid 5d61ddc0-cb71-449b-82e5-d0819447ac8b)
  )
  (junction (at 91.44 123.19) (diameter 0) (color 0 0 0 0)
    (uuid 95004521-92a2-44ec-8af5-1171f51425ba)
  )
  (junction (at 168.91 134.62) (diameter 0) (color 0 0 0 0)
    (uuid a5109f45-8151-4f3d-b991-709784dc0553)
  )
  (junction (at 87.63 132.08) (diameter 0) (color 0 0 0 0)
    (uuid b1e7532a-6dcf-4306-bea5-605737742e5a)
  )
  (junction (at 181.61 134.62) (diameter 0) (color 0 0 0 0)
    (uuid b3060202-75e6-48bc-8ad9-8e180ddfc67b)
  )
  (junction (at 168.91 129.54) (diameter 0) (color 0 0 0 0)
    (uuid c0f948c3-2d18-42df-a0d8-3d479bc85a91)
  )
  (junction (at 157.48 118.11) (diameter 0) (color 0 0 0 0)
    (uuid dbcdeb64-68f3-46f5-91b2-e9b03d0a0e82)
  )
  (junction (at 140.97 134.62) (diameter 0) (color 0 0 0 0)
    (uuid e9e10cd9-cdfc-4b81-965d-89e713620ec7)
  )

  (wire (pts (xy 91.44 123.19) (xy 91.44 124.46))
    (stroke (width 0) (type default) (color 0 0 0 0))
    (uuid 027bc6fa-2b57-43c8-9470-6bb4f8956a24)
  )
  (wire (pts (xy 100.33 96.52) (xy 106.68 96.52))
    (stroke (width 0) (type default) (color 0 0 0 0))
    (uuid 035b7036-dbff-4dd4-9ba9-7c5498ee8306)
  )
  (wire (pts (xy 129.54 128.27) (xy 125.73 128.27))
    (stroke (width 0) (type default) (color 0 0 0 0))
    (uuid 04ebe1d7-d133-4793-8722-5b5ae7105f9e)
  )
  (wire (pts (xy 133.35 118.11) (xy 139.7 118.11))
    (stroke (width 0) (type default) (color 0 0 0 0))
    (uuid 061f77b5-c1e3-4035-90a9-17480bb572cd)
  )
  (wire (pts (xy 91.44 121.92) (xy 91.44 123.19))
    (stroke (width 0) (type default) (color 0 0 0 0))
    (uuid 081a0320-ae3b-449a-8125-3342474be72d)
  )
  (wire (pts (xy 189.23 119.38) (xy 196.85 119.38))
    (stroke (width 0) (type default) (color 0 0 0 0))
    (uuid 0ea729b6-322b-4b85-a239-a1f90d46d572)
  )
  (wire (pts (xy 104.14 110.49) (xy 104.14 113.03))
    (stroke (width 0) (type default) (color 0 0 0 0))
    (uuid 0f2f3515-5889-48aa-a18c-e3a1e54da3e4)
  )
  (wire (pts (xy 96.52 123.19) (xy 91.44 123.19))
    (stroke (width 0) (type default) (color 0 0 0 0))
    (uuid 1a66a1ee-2a28-4d8e-a621-b72d2dcf2b48)
  )
  (wire (pts (xy 168.91 129.54) (xy 175.26 129.54))
    (stroke (width 0) (type default) (color 0 0 0 0))
    (uuid 1bb959fe-8dbd-437d-a1cc-5e1d29b3d0dc)
  )
  (wire (pts (xy 154.94 123.19) (xy 157.48 123.19))
    (stroke (width 0) (type default) (color 0 0 0 0))
    (uuid 2220a4f9-68b4-445f-af98-a32f820e8070)
  )
  (wire (pts (xy 162.56 96.52) (xy 157.48 96.52))
    (stroke (width 0) (type default) (color 0 0 0 0))
    (uuid 22553966-209a-4966-9032-82e69f9ad783)
  )
  (wire (pts (xy 189.23 125.73) (xy 189.23 134.62))
    (stroke (width 0) (type default) (color 0 0 0 0))
    (uuid 235d4640-0cf0-44bf-b8b0-807eb8bec49d)
  )
  (wire (pts (xy 87.63 109.22) (xy 83.82 109.22))
    (stroke (width 0) (type default) (color 0 0 0 0))
    (uuid 2c09ab6b-908b-4dd7-bf24-e717fd538fc0)
  )
  (wire (pts (xy 83.82 116.84) (xy 83.82 118.11))
    (stroke (width 0) (type default) (color 0 0 0 0))
    (uuid 3f5b4aa0-e1c2-404a-a69d-9042ad97d0dc)
  )
  (wire (pts (xy 123.19 107.95) (xy 123.19 110.49))
    (stroke (width 0) (type default) (color 0 0 0 0))
    (uuid 439fcef3-f2df-4261-8662-9b22a52d6bf6)
  )
  (wire (pts (xy 111.76 120.65) (xy 118.11 120.65))
    (stroke (width 0) (type default) (color 0 0 0 0))
    (uuid 45a5d48f-6798-48dd-be97-442b4b77c970)
  )
  (wire (pts (xy 106.68 87.63) (xy 139.7 87.63))
    (stroke (width 0) (type default) (color 0 0 0 0))
    (uuid 4d2c0148-6fd3-4413-851b-8112f23f06f5)
  )
  (wire (pts (xy 111.76 134.62) (xy 123.19 134.62))
    (stroke (width 0) (type default) (color 0 0 0 0))
    (uuid 4d73a754-3c60-414d-8b27-c69244313fa5)
  )
  (wire (pts (xy 139.7 118.11) (xy 157.48 118.11))
    (stroke (width 0) (type default) (color 0 0 0 0))
    (uuid 4fdaee3d-cc24-4b81-8b4d-8d643e05cfc0)
  )
  (wire (pts (xy 111.76 128.27) (xy 111.76 134.62))
    (stroke (width 0) (type default) (color 0 0 0 0))
    (uuid 5dcb0d95-6446-410d-8767-6844a7b9a106)
  )
  (wire (pts (xy 175.26 121.92) (xy 181.61 121.92))
    (stroke (width 0) (type default) (color 0 0 0 0))
    (uuid 6841e92e-eab6-4db9-884f-b53ef2bb96be)
  )
  (wire (pts (xy 157.48 123.19) (xy 157.48 120.65))
    (stroke (width 0) (type default) (color 0 0 0 0))
    (uuid 69f3bf49-adee-42b1-bb5f-f5a8d51318f6)
  )
  (wire (pts (xy 181.61 134.62) (xy 168.91 134.62))
    (stroke (width 0) (type default) (color 0 0 0 0))
    (uuid 6a8958c8-6d7a-4099-97ae-72b0d069d48f)
  )
  (wire (pts (xy 139.7 87.63) (xy 139.7 118.11))
    (stroke (width 0) (type default) (color 0 0 0 0))
    (uuid 715a19f2-5a7c-40a1-9131-d818b38141e8)
  )
  (wire (pts (xy 189.23 120.65) (xy 189.23 119.38))
    (stroke (width 0) (type default) (color 0 0 0 0))
    (uuid 7e0a7b99-1eb6-49b1-afa1-118ed4cd49a2)
  )
  (wire (pts (xy 116.84 115.57) (xy 118.11 115.57))
    (stroke (width 0) (type default) (color 0 0 0 0))
    (uuid 8287287b-63eb-497d-8f06-a2abd4ae58d7)
  )
  (wire (pts (xy 106.68 87.63) (xy 106.68 93.98))
    (stroke (width 0) (type default) (color 0 0 0 0))
    (uuid 829ed451-d939-400d-b199-48f6305f27d1)
  )
  (wire (pts (xy 111.76 123.19) (xy 111.76 120.65))
    (stroke (width 0) (type default) (color 0 0 0 0))
    (uuid 87498d4a-9852-4d59-b829-08f501997841)
  )
  (wire (pts (xy 123.19 134.62) (xy 129.54 134.62))
    (stroke (width 0) (type default) (color 0 0 0 0))
    (uuid 8b969ebd-178f-4bd0-8936-800c13c96be8)
  )
  (wire (pts (xy 83.82 127) (xy 83.82 132.08))
    (stroke (width 0) (type default) (color 0 0 0 0))
    (uuid 8f38fb85-ac2d-41d5-ae5a-2c78f79a6b16)
  )
  (wire (pts (xy 87.63 134.62) (xy 111.76 134.62))
    (stroke (width 0) (type default) (color 0 0 0 0))
    (uuid 9a413119-0047-4b83-95e2-e065b1f58754)
  )
  (wire (pts (xy 96.52 118.11) (xy 83.82 118.11))
    (stroke (width 0) (type default) (color 0 0 0 0))
    (uuid a5805fa3-e4fa-405f-a3b9-08b48734120f)
  )
  (wire (pts (xy 129.54 128.27) (xy 129.54 129.54))
    (stroke (width 0) (type default) (color 0 0 0 0))
    (uuid a5f70fde-213a-4e1d-b596-b6b993f814cd)
  )
  (wire (pts (xy 123.19 125.73) (xy 123.19 134.62))
    (stroke (width 0) (type default) (color 0 0 0 0))
    (uuid ae383e44-355f-4601-8676-0f55376bc866)
  )
  (wire (pts (xy 157.48 96.52) (xy 157.48 118.11))
    (stroke (width 0) (type default) (color 0 0 0 0))
    (uuid ae551e24-ced4-4454-9458-4b2381928b5d)
  )
  (wire (pts (xy 168.91 128.27) (xy 168.91 129.54))
    (stroke (width 0) (type default) (color 0 0 0 0))
    (uuid af40975a-96c8-4cc9-8d6d-1a4a230d1475)
  )
  (wire (pts (xy 91.44 109.22) (xy 87.63 109.22))
    (stroke (width 0) (type default) (color 0 0 0 0))
    (uuid b357e854-31cd-4826-8198-06b695e7f1dd)
  )
  (wire (pts (xy 125.73 128.27) (xy 125.73 125.73))
    (stroke (width 0) (type default) (color 0 0 0 0))
    (uuid bd426042-4ea0-4f5c-b212-bdedd3884e5f)
  )
  (wire (pts (xy 127 95.25) (xy 127 110.49))
    (stroke (width 0) (type default) (color 0 0 0 0))
    (uuid c3c09152-db5a-4a6a-91b0-76e856e9570b)
  )
  (wire (pts (xy 189.23 134.62) (xy 181.61 134.62))
    (stroke (width 0) (type default) (color 0 0 0 0))
    (uuid c8666c32-e6c1-4ec4-91c8-d027e44cde5f)
  )
  (wire (pts (xy 171.45 119.38) (xy 180.34 119.38))
    (stroke (width 0) (type default) (color 0 0 0 0))
    (uuid d03a219d-e4c5-44fb-8cb4-92d9cdabff9c)
  )
  (wire (pts (xy 187.96 119.38) (xy 189.23 119.38))
    (stroke (width 0) (type default) (color 0 0 0 0))
    (uuid d71127ea-5e38-408b-bc03-dc3b3c9eb7f5)
  )
  (wire (pts (xy 120.65 95.25) (xy 127 95.25))
    (stroke (width 0) (type default) (color 0 0 0 0))
    (uuid dab2ff10-444b-4642-917f-ff8c7fca9e84)
  )
  (wire (pts (xy 83.82 132.08) (xy 87.63 132.08))
    (stroke (width 0) (type default) (color 0 0 0 0))
    (uuid e050cfcc-8b32-49c4-97be-f4992d41ace0)
  )
  (wire (pts (xy 83.82 118.11) (xy 83.82 119.38))
    (stroke (width 0) (type default) (color 0 0 0 0))
    (uuid e3b3b953-5a8d-4c46-8298-c159ee81c1d2)
  )
  (wire (pts (xy 87.63 132.08) (xy 87.63 134.62))
    (stroke (width 0) (type default) (color 0 0 0 0))
    (uuid e8c4e95a-540a-423c-ab60-e75f93cfade3)
  )
  (wire (pts (xy 175.26 129.54) (xy 175.26 121.92))
    (stroke (width 0) (type default) (color 0 0 0 0))
    (uuid eaeee337-66e6-4ca6-9ec0-7ae1a7ef40d3)
  )
  (wire (pts (xy 140.97 134.62) (xy 168.91 134.62))
    (stroke (width 0) (type default) (color 0 0 0 0))
    (uuid ebb3eb52-852a-4f35-a5f2-c108532cf54f)
  )
  (wire (pts (xy 91.44 114.3) (xy 91.44 109.22))
    (stroke (width 0) (type default) (color 0 0 0 0))
    (uuid ed8eedb0-1c9c-47d8-8726-f10780cb4b61)
  )
  (wire (pts (xy 129.54 134.62) (xy 140.97 134.62))
    (stroke (width 0) (type default) (color 0 0 0 0))
    (uuid f2cb2dda-fea1-4ec0-8995-8e1fccc8cf54)
  )
  (wire (pts (xy 87.63 132.08) (xy 91.44 132.08))
    (stroke (width 0) (type default) (color 0 0 0 0))
    (uuid fdb88174-d8af-4748-a4f8-781b018156e4)
  )

  (text "7.5Hz low pass" (at 104.14 130.175 0)
    (effects (font (size 1.27 1.27)) (justify left bottom))
    (uuid 2f1f4370-050f-47f4-93fe-e867fd8b16f9)
  )
  (text "Compares the DUT temperature to a fixed limit of either 65C or 40C.\nWhich limit is used is set by the signal T_SELECT, generated by the \nconfiguration of Jumpers JP3 and JP4 in the schematic t_select.kicad_sch"
    (at 105.41 81.915 0)
    (effects (font (size 1.27 1.27)) (justify left bottom))
    (uuid 4d904670-56ed-4ad4-a4ce-2b5cc46f4848)
  )
  (text "Limit 40.0C: 0.5309V\nLimit 65.0C: 0.2457V" (at 60.96 120.65 0)
    (effects (font (size 1.27 1.27)) (justify left bottom))
    (uuid e17f2820-70e0-49ad-9477-97af4824c80a)
  )

  (global_label "!ARM" (shape input) (at 154.94 123.19 180) (fields_autoplaced)
    (effects (font (size 1.27 1.27)) (justify right))
    (uuid 504692a0-232f-45ac-996d-6d5c0accc159)
    (property "Intersheet References" "${INTERSHEET_REFS}" (id 0) (at -19.05 26.67 0)
      (effects (font (size 1.27 1.27)) hide)
    )
  )
  (global_label "!LE" (shape input) (at 100.33 96.52 180) (fields_autoplaced)
    (effects (font (size 1.27 1.27)) (justify right))
    (uuid 5beae777-674d-4491-8dba-1d9b767a9fb8)
    (property "Intersheet References" "${INTERSHEET_REFS}" (id 0) (at -19.05 40.64 0)
      (effects (font (size 1.27 1.27)) hide)
    )
  )
  (global_label "T_SELECT" (shape input) (at 104.14 110.49 180) (fields_autoplaced)
    (effects (font (size 1.27 1.27)) (justify right))
    (uuid a5793c17-f70e-46bc-8de0-5453711b3222)
    (property "Intersheet References" "${INTERSHEET_REFS}" (id 0) (at -19.05 26.67 0)
      (effects (font (size 1.27 1.27)) hide)
    )
  )

  (hierarchical_label "Input" (shape input) (at 116.84 115.57 180)
    (effects (font (size 1.27 1.27)) (justify right))
    (uuid 2440e219-df21-4799-8150-a44e9aff9cfd)
  )
  (hierarchical_label "Output" (shape input) (at 196.85 119.38 0)
    (effects (font (size 1.27 1.27)) (justify left))
    (uuid c81a8f65-6217-4ef2-a264-be1aaac23e7a)
  )

  (symbol (lib_id "comparators_magne:MAX9141") (at 125.73 118.11 0) (unit 1)
    (in_bom yes) (on_board yes)
    (uuid 00000000-0000-0000-0000-00005eca91d9)
    (property "Reference" "U6" (id 0) (at 129.54 114.3 0)
      (effects (font (size 1.27 1.27)) (justify left))
    )
    (property "Value" "MAX9141ESA+-ND" (id 1) (at 128.905 120.65 0)
      (effects (font (size 1.27 1.27)) (justify left))
    )
    (property "Footprint" "Package_SO:SOIC-8_3.9x4.9mm_P1.27mm" (id 2) (at 125.73 118.11 0)
      (effects (font (size 1.27 1.27)) hide)
    )
    (property "Datasheet" "" (id 3) (at 125.73 118.11 0)
      (effects (font (size 1.27 1.27)) hide)
    )
    (property "Digi-Key_PN" "	MAX9141ESA+-ND" (id 4) (at 125.73 118.11 0)
      (effects (font (size 1.27 1.27)) hide)
    )
    (pin "1" (uuid 3a725a1f-80a4-4445-9c0f-e969920f21ee))
    (pin "2" (uuid 1fc4c5d3-5eeb-4e3f-9704-19945920f2c1))
    (pin "3" (uuid 0f293622-6c7c-4829-9435-54a8e9be3497))
    (pin "4" (uuid da80d43d-ad52-4a64-aa60-8847aa74cfd3))
    (pin "5" (uuid d2675f81-8f04-4c31-9228-c3f6f4cc51c0))
    (pin "6" (uuid 220a949b-88e6-49e7-89de-9ddc239d151d))
    (pin "7" (uuid 64a2a4fe-0b0c-4fb9-93a4-620fd61c2639))
  )

  (symbol (lib_id "logic_gates_magne:74LVC2G32") (at 165.1 119.38 0) (unit 2)
    (in_bom yes) (on_board yes)
    (uuid 00000000-0000-0000-0000-00005ece68a3)
    (property "Reference" "U5" (id 0) (at 164.465 112.5982 0))
    (property "Value" "SN74LVC2G32DCUR" (id 1) (at 164.465 114.9096 0))
    (property "Footprint" "Package_SO:VSSOP-8_2.3x2mm_P0.5mm" (id 2) (at 168.91 118.11 0)
      (effects (font (size 1.27 1.27)) hide)
    )
    (property "Datasheet" "http://www.ti.com/lit/sg/scyt129e/scyt129e.pdf" (id 3) (at 170.18 119.38 0)
      (effects (font (size 1.27 1.27)) hide)
    )
    (property "Digi-Key_PN" "296-13268-1-ND" (id 4) (at 165.1 119.38 0)
      (effects (font (size 1.27 1.27)) hide)
    )
    (pin "1" (uuid daf452c5-7462-4434-9ec4-1f24db6eb2db))
    (pin "2" (uuid 1a74e0ab-9356-4daf-bceb-527548faee4e))
    (pin "7" (uuid d3b4d757-5ba7-4947-a227-6c36098c4e0d))
    (pin "3" (uuid 5dbcd4f6-ef46-43f7-b47f-34f4490d7f58))
    (pin "5" (uuid 4a517977-fa9e-42cd-b5c4-6add21ab0873))
    (pin "6" (uuid 2118f43c-d5d4-4971-9f14-b637d7f0ce70))
    (pin "4" (uuid 66eb114b-b716-4076-8384-cc26108f4bd1))
    (pin "8" (uuid f2e8d251-fe13-4b39-9c05-8688d8f01af8))
  )

  (symbol (lib_id "logic_gates_magne:74LVC2G32") (at 114.3 95.25 0) (unit 1)
    (in_bom yes) (on_board yes)
    (uuid 00000000-0000-0000-0000-00005ecf1376)
    (property "Reference" "U5" (id 0) (at 120.0912 94.0816 0)
      (effects (font (size 1.27 1.27)) (justify left))
    )
    (property "Value" "SN74LVC2G32DCUR" (id 1) (at 120.0912 96.393 0)
      (effects (font (size 1.27 1.27)) (justify left))
    )
    (property "Footprint" "Package_SO:VSSOP-8_2.3x2mm_P0.5mm" (id 2) (at 118.11 93.98 0)
      (effects (font (size 1.27 1.27)) hide)
    )
    (property "Datasheet" "http://www.ti.com/lit/sg/scyt129e/scyt129e.pdf" (id 3) (at 119.38 95.25 0)
      (effects (font (size 1.27 1.27)) hide)
    )
    (property "Digi-Key_PN" "296-13268-1-ND" (id 4) (at 114.3 95.25 0)
      (effects (font (size 1.27 1.27)) hide)
    )
    (pin "1" (uuid 3faa4858-c474-45c2-9392-638f30a63d6f))
    (pin "2" (uuid 5d7bf109-d2f3-4c83-9821-d22988a64036))
    (pin "7" (uuid ba9d2ee7-2cf6-4e2f-b4c0-d2f73dbac52a))
    (pin "3" (uuid 03dad287-ebe3-4f9b-8609-d3fda6c483ad))
    (pin "5" (uuid 9384a8f1-dc9b-4b7f-ae69-8dfc115eef3d))
    (pin "6" (uuid 39e9fb0b-8f97-4e71-aec0-d2836dcaa14e))
    (pin "4" (uuid 44b6f03c-651b-4353-8629-428da3eaf9c9))
    (pin "8" (uuid 0c197a0d-61b0-4428-b573-bfbb62fbf36a))
  )

  (symbol (lib_id "logic_gates_magne:74LVC2G32") (at 181.61 128.27 0) (unit 3)
    (in_bom yes) (on_board yes)
    (uuid 00000000-0000-0000-0000-00005ecf1f83)
    (property "Reference" "U5" (id 0) (at 182.9562 127.1016 0)
      (effects (font (size 1.27 1.27)) (justify left))
    )
    (property "Value" "SN74LVC2G32DCUR" (id 1) (at 182.9562 129.413 0)
      (effects (font (size 1.27 1.27)) (justify left))
    )
    (property "Footprint" "Package_SO:VSSOP-8_2.3x2mm_P0.5mm" (id 2) (at 185.42 127 0)
      (effects (font (size 1.27 1.27)) hide)
    )
    (property "Datasheet" "http://www.ti.com/lit/sg/scyt129e/scyt129e.pdf" (id 3) (at 186.69 128.27 0)
      (effects (font (size 1.27 1.27)) hide)
    )
    (property "Digi-Key_PN" "296-13268-1-ND" (id 4) (at 181.61 128.27 0)
      (effects (font (size 1.27 1.27)) hide)
    )
    (pin "1" (uuid 64c3c2c7-9534-4661-8243-31d28d2c766b))
    (pin "2" (uuid 2222a35c-3170-4d55-be68-dea53c972360))
    (pin "7" (uuid c921d9ad-5b44-4d68-9ded-b5e0c1d4e4d2))
    (pin "3" (uuid 7ca1e09f-aea9-43c1-9a28-3e6ba1b0dade))
    (pin "5" (uuid 34540719-556b-4416-a7f1-0347593da949))
    (pin "6" (uuid ce0e0641-6b08-4181-afa6-a2652b6b52ea))
    (pin "4" (uuid 4a60aa5c-bc67-4b45-8a8f-c16e7bdffa11))
    (pin "8" (uuid b5cba0cb-8e56-4365-9e62-270945e60044))
  )

  (symbol (lib_id "power:+5V") (at 123.19 107.95 0) (unit 1)
    (in_bom yes) (on_board yes)
    (uuid 00000000-0000-0000-0000-00005ee79804)
    (property "Reference" "#PWR011" (id 0) (at 123.19 111.76 0)
      (effects (font (size 1.27 1.27)) hide)
    )
    (property "Value" "+5V" (id 1) (at 123.571 103.5558 0))
    (property "Footprint" "" (id 2) (at 123.19 107.95 0)
      (effects (font (size 1.27 1.27)) hide)
    )
    (property "Datasheet" "" (id 3) (at 123.19 107.95 0)
      (effects (font (size 1.27 1.27)) hide)
    )
    (pin "1" (uuid ced1bd3b-f771-4181-a165-564a7fc9084c))
  )

  (symbol (lib_id "power:GND") (at 140.97 134.62 0) (unit 1)
    (in_bom yes) (on_board yes)
    (uuid 00000000-0000-0000-0000-00005ee79805)
    (property "Reference" "#PWR013" (id 0) (at 140.97 140.97 0)
      (effects (font (size 1.27 1.27)) hide)
    )
    (property "Value" "GND" (id 1) (at 141.097 139.0142 0))
    (property "Footprint" "" (id 2) (at 140.97 134.62 0)
      (effects (font (size 1.27 1.27)) hide)
    )
    (property "Datasheet" "" (id 3) (at 140.97 134.62 0)
      (effects (font (size 1.27 1.27)) hide)
    )
    (pin "1" (uuid 7b84dd57-25d1-40a8-bdc0-5324a1c5de7b))
  )

  (symbol (lib_id "Device:C_Small") (at 168.91 132.08 0) (unit 1)
    (in_bom yes) (on_board yes)
    (uuid 00000000-0000-0000-0000-00005ee79807)
    (property "Reference" "C9" (id 0) (at 171.2468 130.9116 0)
      (effects (font (size 1.27 1.27)) (justify left))
    )
    (property "Value" "C 100n" (id 1) (at 171.2468 133.223 0)
      (effects (font (size 1.27 1.27)) (justify left))
    )
    (property "Footprint" "Capacitor_SMD:C_0805_2012Metric_Pad1.18x1.45mm_HandSolder" (id 2) (at 168.91 132.08 0)
      (effects (font (size 1.27 1.27)) hide)
    )
    (property "Datasheet" "~" (id 3) (at 168.91 132.08 0)
      (effects (font (size 1.27 1.27)) hide)
    )
    (property "Voltage - rated" "16" (id 4) (at 168.91 132.08 0)
      (effects (font (size 1.27 1.27)) hide)
    )
    (property "Tolerance" "20%" (id 5) (at 168.91 132.08 0)
      (effects (font (size 1.27 1.27)) hide)
    )
    (property "Digi-Key_PN" "399-8000-1-ND" (id 6) (at 168.91 132.08 0)
      (effects (font (size 1.27 1.27)) hide)
    )
    (property "Farnell_PN" "718683" (id 7) (at 168.91 132.08 0)
      (effects (font (size 1.27 1.27)) hide)
    )
    (pin "1" (uuid 8ee4a5d8-df33-4f62-a0fb-86ee599c97a9))
    (pin "2" (uuid e1e7d90a-7dcd-475c-93fe-4c8023d579c1))
  )

  (symbol (lib_id "power:+5V") (at 168.91 128.27 0) (unit 1)
    (in_bom yes) (on_board yes)
    (uuid 00000000-0000-0000-0000-00005ee79808)
    (property "Reference" "#PWR014" (id 0) (at 168.91 132.08 0)
      (effects (font (size 1.27 1.27)) hide)
    )
    (property "Value" "+5V" (id 1) (at 169.291 123.8758 0))
    (property "Footprint" "" (id 2) (at 168.91 128.27 0)
      (effects (font (size 1.27 1.27)) hide)
    )
    (property "Datasheet" "" (id 3) (at 168.91 128.27 0)
      (effects (font (size 1.27 1.27)) hide)
    )
    (pin "1" (uuid d11351f9-5913-4dda-a7d0-939f51e03006))
  )

  (symbol (lib_id "Device:C_Small") (at 129.54 132.08 0) (unit 1)
    (in_bom yes) (on_board yes)
    (uuid 00000000-0000-0000-0000-00005ee79809)
    (property "Reference" "C8" (id 0) (at 131.8768 130.9116 0)
      (effects (font (size 1.27 1.27)) (justify left))
    )
    (property "Value" "C 100n" (id 1) (at 131.8768 133.223 0)
      (effects (font (size 1.27 1.27)) (justify left))
    )
    (property "Footprint" "Capacitor_SMD:C_0805_2012Metric_Pad1.18x1.45mm_HandSolder" (id 2) (at 129.54 132.08 0)
      (effects (font (size 1.27 1.27)) hide)
    )
    (property "Datasheet" "~" (id 3) (at 129.54 132.08 0)
      (effects (font (size 1.27 1.27)) hide)
    )
    (property "Voltage - rated" "16" (id 4) (at 129.54 132.08 0)
      (effects (font (size 1.27 1.27)) hide)
    )
    (property "Tolerance" "20%" (id 5) (at 129.54 132.08 0)
      (effects (font (size 1.27 1.27)) hide)
    )
    (property "Digi-Key_PN" "399-8000-1-ND" (id 6) (at 129.54 132.08 0)
      (effects (font (size 1.27 1.27)) hide)
    )
    (property "Farnell_PN" "718683" (id 7) (at 129.54 132.08 0)
      (effects (font (size 1.27 1.27)) hide)
    )
    (pin "1" (uuid b3f30512-28a7-4a69-bf3d-4f004b5755ae))
    (pin "2" (uuid f976a5b0-fabd-4acf-b399-b9c082764de9))
  )

  (symbol (lib_id "power:+5V") (at 129.54 128.27 0) (unit 1)
    (in_bom yes) (on_board yes)
    (uuid 00000000-0000-0000-0000-00005ee8a62d)
    (property "Reference" "#PWR012" (id 0) (at 129.54 132.08 0)
      (effects (font (size 1.27 1.27)) hide)
    )
    (property "Value" "+5V" (id 1) (at 129.921 123.8758 0))
    (property "Footprint" "" (id 2) (at 129.54 128.27 0)
      (effects (font (size 1.27 1.27)) hide)
    )
    (property "Datasheet" "" (id 3) (at 129.54 128.27 0)
      (effects (font (size 1.27 1.27)) hide)
    )
    (pin "1" (uuid 6c2abc8a-4bce-4c95-8db0-4de55df4c865))
  )

  (symbol (lib_id "Device:R") (at 184.15 119.38 270) (unit 1)
    (in_bom yes) (on_board yes)
    (uuid 00000000-0000-0000-0000-00005f895436)
    (property "Reference" "R12" (id 0) (at 184.15 114.1222 90))
    (property "Value" "R 10" (id 1) (at 184.15 116.4336 90))
    (property "Footprint" "Resistor_SMD:R_0603_1608Metric" (id 2) (at 184.15 117.602 90)
      (effects (font (size 1.27 1.27)) hide)
    )
    (property "Datasheet" "~" (id 3) (at 184.15 119.38 0)
      (effects (font (size 1.27 1.27)) hide)
    )
    (property "Tolerance" "" (id 4) (at 184.15 119.38 0)
      (effects (font (size 1.27 1.27)) hide)
    )
    (property "Digi-Key_PN" "RMCF0603FT10R0CT-ND" (id 5) (at 184.15 119.38 0)
      (effects (font (size 1.27 1.27)) hide)
    )
    (pin "1" (uuid 0251fd02-175c-4522-9b77-f9b6024d93c7))
    (pin "2" (uuid 8586c760-f368-4c36-a576-a01c405fef5f))
  )

  (symbol (lib_id "Analog_Switch:TS5A23159DGS") (at 104.14 120.65 180) (unit 1)
    (in_bom yes) (on_board yes)
    (uuid 00000000-0000-0000-0000-00005f92079d)
    (property "Reference" "U1" (id 0) (at 107.95 114.3 0))
    (property "Value" "TS5A23159DGS" (id 1) (at 101.6 104.14 0))
    (property "Footprint" "Package_SO:VSSOP-10_3x3mm_P0.5mm" (id 2) (at 104.14 116.84 0)
      (effects (font (size 1.27 1.27)) hide)
    )
    (property "Datasheet" "http://www.ti.com/lit/ds/symlink/ts5a23159.pdf" (id 3) (at 130.81 111.76 0)
      (effects (font (size 1.27 1.27)) hide)
    )
    (property "Digi-Key_PN" "296-52833-1-ND" (id 4) (at 104.14 120.65 0)
      (effects (font (size 1.27 1.27)) hide)
    )
    (pin "1" (uuid 6798b27c-5ca9-4a19-9932-3925978bcc19))
    (pin "10" (uuid 930ea875-821c-4888-a34f-519e0b3695df))
    (pin "2" (uuid 050586de-07ad-49f1-a690-b5be4426035a))
    (pin "9" (uuid 4ce28903-e2a8-41ac-a9c8-748aef4d60a7))
    (pin "4" (uuid a29068ee-f574-4ab7-afa4-7ca6ced96e42))
    (pin "5" (uuid 546821f2-db59-45b3-815f-8dbc79b6aa1d))
    (pin "6" (uuid 048adcba-ff4c-4c05-8126-9affeeb95d82))
    (pin "7" (uuid 18ff0006-338a-43ef-b71e-77e79247d02b))
    (pin "3" (uuid fb14e464-15ee-4df4-93e3-965445e2c80b))
    (pin "8" (uuid a25a992f-6205-47b5-bca3-e148255cca71))
  )

  (symbol (lib_id "Device:C_Small") (at 189.23 123.19 0) (unit 1)
    (in_bom yes) (on_board yes)
    (uuid 00000000-0000-0000-0000-00005f924356)
    (property "Reference" "C10" (id 0) (at 191.5668 122.0216 0)
      (effects (font (size 1.27 1.27)) (justify left))
    )
    (property "Value" "C 470p" (id 1) (at 191.5668 124.333 0)
      (effects (font (size 1.27 1.27)) (justify left))
    )
    (property "Footprint" "Capacitor_SMD:C_0603_1608Metric" (id 2) (at 189.23 123.19 0)
      (effects (font (size 1.27 1.27)) hide)
    )
    (property "Datasheet" "~" (id 3) (at 189.23 123.19 0)
      (effects (font (size 1.27 1.27)) hide)
    )
    (property "Voltage - rated" "16" (id 4) (at 189.23 123.19 0)
      (effects (font (size 1.27 1.27)) hide)
    )
    (property "Tolerance" "20%" (id 5) (at 189.23 123.19 0)
      (effects (font (size 1.27 1.27)) hide)
    )
    (property "Digi-Key_PN" "399-10051-1-ND" (id 6) (at 189.23 123.19 0)
      (effects (font (size 1.27 1.27)) hide)
    )
    (property "Farnell_PN" "" (id 7) (at 189.23 123.19 0)
      (effects (font (size 1.27 1.27)) hide)
    )
    (pin "1" (uuid 922e1c13-0c4b-46fc-9502-9c974b843601))
    (pin "2" (uuid be3d8973-adca-455d-9bd0-41cb297462fe))
  )

  (symbol (lib_id "power:+5V") (at 87.63 109.22 0) (unit 1)
    (in_bom yes) (on_board yes)
    (uuid 00000000-0000-0000-0000-00005f92f84a)
    (property "Reference" "#PWR010" (id 0) (at 87.63 113.03 0)
      (effects (font (size 1.27 1.27)) hide)
    )
    (property "Value" "+5V" (id 1) (at 88.011 104.8258 0))
    (property "Footprint" "" (id 2) (at 87.63 109.22 0)
      (effects (font (size 1.27 1.27)) hide)
    )
    (property "Datasheet" "" (id 3) (at 87.63 109.22 0)
      (effects (font (size 1.27 1.27)) hide)
    )
    (pin "1" (uuid cb966597-3a17-4c92-8c26-da8429d60069))
  )

  (symbol (lib_id "Device:R") (at 91.44 118.11 0) (unit 1)
    (in_bom yes) (on_board yes)
    (uuid 00000000-0000-0000-0000-00005f962a9e)
    (property "Reference" "R10" (id 0) (at 93.98 120.65 0))
    (property "Value" "R 101K" (id 1) (at 94.3864 118.11 0))
    (property "Footprint" "Resistor_SMD:R_0805_2012Metric_Pad1.20x1.40mm_HandSolder" (id 2) (at 89.662 118.11 90)
      (effects (font (size 1.27 1.27)) hide)
    )
    (property "Datasheet" "~" (id 3) (at 91.44 118.11 0)
      (effects (font (size 1.27 1.27)) hide)
    )
    (property "Tolerance" "0.1%" (id 4) (at 91.44 118.11 0)
      (effects (font (size 1.27 1.27)) hide)
    )
    (property "Digi-Key_PN" "13-RT0805BRE07101KLCT-ND" (id 5) (at 91.44 118.11 0)
      (effects (font (size 1.27 1.27)) hide)
    )
    (pin "1" (uuid 1c051956-c86d-4850-b3e4-9629ca37446b))
    (pin "2" (uuid cd63abdd-da21-4e68-971c-b5b816e16520))
  )

  (symbol (lib_id "Device:R") (at 83.82 113.03 0) (unit 1)
    (in_bom yes) (on_board yes)
    (uuid 00000000-0000-0000-0000-00005f962aa6)
    (property "Reference" "R8" (id 0) (at 86.36 115.57 0))
    (property "Value" "R 174K" (id 1) (at 86.7664 113.03 0))
    (property "Footprint" "Resistor_SMD:R_0805_2012Metric_Pad1.20x1.40mm_HandSolder" (id 2) (at 82.042 113.03 90)
      (effects (font (size 1.27 1.27)) hide)
    )
    (property "Datasheet" "~" (id 3) (at 83.82 113.03 0)
      (effects (font (size 1.27 1.27)) hide)
    )
    (property "Tolerance" "0.1%" (id 4) (at 83.82 113.03 0)
      (effects (font (size 1.27 1.27)) hide)
    )
    (property "Digi-Key_PN" "P174KDACT-ND" (id 5) (at 83.82 113.03 0)
      (effects (font (size 1.27 1.27)) hide)
    )
    (pin "1" (uuid fe763e7c-2088-49f1-a078-de6baed95f33))
    (pin "2" (uuid f017fd8a-6641-4359-a9a1-2994a55e5ba4))
  )

  (symbol (lib_id "Device:R") (at 91.44 128.27 0) (unit 1)
    (in_bom yes) (on_board yes)
    (uuid 00000000-0000-0000-0000-00005f962aae)
    (property "Reference" "R11" (id 0) (at 93.98 130.81 0))
    (property "Value" "R 12K" (id 1) (at 94.3864 128.27 0))
    (property "Footprint" "Resistor_SMD:R_0805_2012Metric_Pad1.20x1.40mm_HandSolder" (id 2) (at 89.662 128.27 90)
      (effects (font (size 1.27 1.27)) hide)
    )
    (property "Datasheet" "~" (id 3) (at 91.44 128.27 0)
      (effects (font (size 1.27 1.27)) hide)
    )
    (property "Tolerance" "0.1%" (id 4) (at 91.44 128.27 0)
      (effects (font (size 1.27 1.27)) hide)
    )
    (property "Digi-Key_PN" "P12KDACT-ND" (id 5) (at 91.44 128.27 0)
      (effects (font (size 1.27 1.27)) hide)
    )
    (pin "1" (uuid bf82aea9-4cbc-4104-bf10-d28c00ea18fb))
    (pin "2" (uuid ae77ae57-2d3e-42f8-9d1d-3ace1ccda503))
  )

  (symbol (lib_id "Device:R") (at 83.82 123.19 0) (unit 1)
    (in_bom yes) (on_board yes)
    (uuid 00000000-0000-0000-0000-00005f962ab6)
    (property "Reference" "R9" (id 0) (at 86.36 125.73 0))
    (property "Value" "R 9K" (id 1) (at 86.7664 123.19 0))
    (property "Footprint" "Resistor_SMD:R_0805_2012Metric_Pad1.20x1.40mm_HandSolder" (id 2) (at 82.042 123.19 90)
      (effects (font (size 1.27 1.27)) hide)
    )
    (property "Datasheet" "~" (id 3) (at 83.82 123.19 0)
      (effects (font (size 1.27 1.27)) hide)
    )
    (property "Tolerance" "0.1%" (id 4) (at 83.82 123.19 0)
      (effects (font (size 1.27 1.27)) hide)
    )
    (property "Digi-Key_PN" "13-RT0805BRE079KLCT-ND" (id 5) (at 83.82 123.19 0)
      (effects (font (size 1.27 1.27)) hide)
    )
    (pin "1" (uuid 6a310610-e373-4fdb-b6e5-be0c988a07d4))
    (pin "2" (uuid 271dfbe6-5d69-4e87-bf98-0c48dce5537a))
  )

  (symbol (lib_id "Device:C_Small") (at 111.76 125.73 0) (unit 1)
    (in_bom yes) (on_board yes)
    (uuid 00000000-0000-0000-0000-00005f973e23)
    (property "Reference" "C7" (id 0) (at 114.0968 124.5616 0)
      (effects (font (size 1.27 1.27)) (justify left))
    )
    (property "Value" "C 2.2u" (id 1) (at 114.0968 126.873 0)
      (effects (font (size 1.27 1.27)) (justify left))
    )
    (property "Footprint" "Capacitor_SMD:C_0805_2012Metric_Pad1.18x1.45mm_HandSolder" (id 2) (at 111.76 125.73 0)
      (effects (font (size 1.27 1.27)) hide)
    )
    (property "Datasheet" "~" (id 3) (at 111.76 125.73 0)
      (effects (font (size 1.27 1.27)) hide)
    )
    (property "Voltage - rated" "16" (id 4) (at 111.76 125.73 0)
      (effects (font (size 1.27 1.27)) hide)
    )
    (property "Tolerance" "20%" (id 5) (at 111.76 125.73 0)
      (effects (font (size 1.27 1.27)) hide)
    )
    (property "Digi-Key_PN" "490-4787-1-ND" (id 6) (at 111.76 125.73 0)
      (effects (font (size 1.27 1.27)) hide)
    )
    (property "Farnell_PN" "1458904" (id 7) (at 111.76 125.73 0)
      (effects (font (size 1.27 1.27)) hide)
    )
    (pin "1" (uuid 5d678f01-68c4-4229-9f66-3e24964a4d1b))
    (pin "2" (uuid f224fdb1-11cc-4176-a634-c2c10bcd5f3e))
  )

  (sheet (at 162.56 93.98) (size 13.97 5.08) (fields_autoplaced)
    (stroke (width 0) (type solid) (color 0 0 0 0))
    (fill (color 0 0 0 0.0000))
    (uuid 00000000-0000-0000-0000-00005fda4c58)
    (property "Sheet name" "sheet5FDA4C55" (id 0) (at 162.56 93.2684 0)
      (effects (font (size 1.27 1.27)) (justify left bottom))
    )
    (property "Sheet file" "R_G_LED_indicator.kicad_sch" (id 1) (at 162.56 99.6446 0)
      (effects (font (size 1.27 1.27)) (justify left top))
    )
    (pin "Cntrl" input (at 162.56 96.52 180)
      (effects (font (size 1.27 1.27)) (justify left))
      (uuid 0e969ca1-2729-4ffd-ae89-a0b32a3e23eb)
    )
  )
)
