EESchema Schematic File Version 4
EELAYER 30 0
EELAYER END
$Descr A4 11693 8268
encoding utf-8
Sheet 26 34
Title ""
Date ""
Rev ""
Comp ""
Comment1 ""
Comment2 ""
Comment3 ""
Comment4 ""
$EndDescr
Text HLabel 4800 2000 2    50   Input ~ 0
V_sense_hi
Text HLabel 4400 4700 2    50   Input ~ 0
NTC_out
Text HLabel 4400 3250 2    50   Input ~ 0
Box_sw
Text HLabel 5300 2850 2    50   Input ~ 0
Flow_sense
Text HLabel 5250 4400 2    50   Input ~ 0
HUM_SDA
Text HLabel 4800 4300 2    50   Input ~ 0
HUM_SCL
$Comp
L Device:R R?
U 1 1 5EE973ED
P 4750 3300
AR Path="/5EE5AAE3/5EE973ED" Ref="R?"  Part="1" 
AR Path="/5ECA36FF/5EE973ED" Ref="R?"  Part="1" 
AR Path="/5EDDE380/5EE973ED" Ref="R69"  Part="1" 
F 0 "R69" H 4600 3350 50  0000 L CNN
F 1 "R 16K" H 4450 3250 50  0000 L CNN
F 2 "Resistor_SMD:R_0805_2012Metric_Pad1.15x1.40mm_HandSolder" V 4680 3300 50  0001 C CNN
F 3 "~" H 4750 3300 50  0001 C CNN
F 4 "1%" H 4750 3300 50  0001 C CNN "Tolerance"
F 5 "311-16.0KCRCT-ND" H 4750 3300 50  0001 C CNN "Digi-Key_PN"
	1    4750 3300
	-1   0    0    -1  
$EndComp
Wire Wire Line
	4850 3150 4750 3150
$Comp
L Device:R R?
U 1 1 5EE994E9
P 5250 2650
AR Path="/5EE5AAE3/5EE994E9" Ref="R?"  Part="1" 
AR Path="/5ECA36FF/5EE994E9" Ref="R?"  Part="1" 
AR Path="/5EDDE380/5EE994E9" Ref="R70"  Part="1" 
F 0 "R70" H 5050 2700 50  0000 L CNN
F 1 "R 16K" H 4950 2600 50  0000 L CNN
F 2 "Resistor_SMD:R_0805_2012Metric_Pad1.15x1.40mm_HandSolder" V 5180 2650 50  0001 C CNN
F 3 "~" H 5250 2650 50  0001 C CNN
F 4 "1%" H 5250 2650 50  0001 C CNN "Tolerance"
F 5 "311-16.0KCRCT-ND" H 5250 2650 50  0001 C CNN "Digi-Key_PN"
	1    5250 2650
	-1   0    0    -1  
$EndComp
$Comp
L power:+5V #PWR?
U 1 1 5EE99BAF
P 4400 2950
AR Path="/5EE99BAF" Ref="#PWR?"  Part="1" 
AR Path="/5EE136D8/5EE99BAF" Ref="#PWR?"  Part="1" 
AR Path="/5EDDE380/5EE99BAF" Ref="#PWR089"  Part="1" 
F 0 "#PWR089" H 4400 2800 50  0001 C CNN
F 1 "+5V" H 4400 3100 50  0000 C CNN
F 2 "" H 4400 2950 50  0001 C CNN
F 3 "" H 4400 2950 50  0001 C CNN
	1    4400 2950
	-1   0    0    -1  
$EndComp
$Comp
L power:GND1 #PWR087
U 1 1 5EF29F8A
P 4300 2100
F 0 "#PWR087" H 4300 1850 50  0001 C CNN
F 1 "GND1" H 4305 1927 50  0000 C CNN
F 2 "" H 4300 2100 50  0001 C CNN
F 3 "" H 4300 2100 50  0001 C CNN
	1    4300 2100
	1    0    0    -1  
$EndComp
$Comp
L Device:R R?
U 1 1 5F75C202
P 4550 2100
AR Path="/5EE5AAE3/5F75C202" Ref="R?"  Part="1" 
AR Path="/5ECA36FF/5F75C202" Ref="R?"  Part="1" 
AR Path="/5EDDE380/5F75C202" Ref="R68"  Part="1" 
F 0 "R68" V 4400 1850 50  0000 L CNN
F 1 "R 16K" V 4500 1700 50  0000 L CNN
F 2 "Resistor_SMD:R_0805_2012Metric_Pad1.15x1.40mm_HandSolder" V 4480 2100 50  0001 C CNN
F 3 "~" H 4550 2100 50  0001 C CNN
F 4 "1%" H 4550 2100 50  0001 C CNN "Tolerance"
F 5 "311-16.0KCRCT-ND" H 4550 2100 50  0001 C CNN "Digi-Key_PN"
	1    4550 2100
	0    -1   -1   0   
$EndComp
Wire Wire Line
	4300 2100 4400 2100
Wire Wire Line
	4700 2100 4700 2000
Wire Wire Line
	4700 2000 4300 2000
Wire Wire Line
	4700 2000 4800 2000
Connection ~ 4700 2000
Wire Wire Line
	5300 2850 5250 2850
Connection ~ 5250 2850
Wire Wire Line
	5250 2850 4300 2850
Wire Wire Line
	4300 3150 4750 3150
Connection ~ 4750 3150
$Comp
L connectors_magne:1-2834016-2 J4
U 1 1 5F81D75B
P 4100 2050
F 0 "J4" H 4113 2325 50  0000 C CNN
F 1 "1-2834016-2" H 4113 2234 50  0000 C CNN
F 2 "magne_footprints:1-2834016-2" H 4100 2100 50  0001 C CNN
F 3 "https://www.te.com/commerce/DocumentDelivery/DDEController?Action=srchrtrv&DocNm=2834016&DocType=Customer+Drawing&DocLang=English" H 4100 2100 50  0001 C CNN
F 4 "A123829-ND" H 4100 2050 50  0001 C CNN "Digi-Key_PN"
	1    4100 2050
	-1   0    0    -1  
$EndComp
Connection ~ 4300 2100
$Comp
L connectors_magne:1-2834016-6 J5
U 1 1 5F830D7B
P 4100 2900
F 0 "J5" H 4368 2755 50  0000 L CNN
F 1 "1-2834016-6" H 4368 2664 50  0000 L CNN
F 2 "magne_footprints:1-2834016-6" H 4100 2950 50  0001 C CNN
F 3 "" H 4100 2950 50  0001 C CNN
F 4 "A123832-ND" H 4100 2900 50  0001 C CNN "Digi-Key_PN"
	1    4100 2900
	-1   0    0    -1  
$EndComp
Text HLabel 4850 3150 2    50   Input ~ 0
Alt_sw
Wire Wire Line
	4400 3250 4300 3250
Wire Wire Line
	4400 3300 4400 3250
Wire Wire Line
	4750 3450 4750 3600
Connection ~ 4750 3600
Wire Wire Line
	4750 3600 4400 3600
Wire Wire Line
	4400 2950 4300 2950
$Comp
L power:GND #PWR090
U 1 1 5F8380FA
P 4400 3050
F 0 "#PWR090" H 4400 2800 50  0001 C CNN
F 1 "GND" H 4405 2877 50  0000 C CNN
F 2 "" H 4400 3050 50  0001 C CNN
F 3 "" H 4400 3050 50  0001 C CNN
	1    4400 3050
	-1   0    0    -1  
$EndComp
Wire Wire Line
	4400 3050 4300 3050
$Comp
L power:+5V #PWR?
U 1 1 5F838B0A
P 4300 3450
AR Path="/5F838B0A" Ref="#PWR?"  Part="1" 
AR Path="/5EE136D8/5F838B0A" Ref="#PWR?"  Part="1" 
AR Path="/5EDDE380/5F838B0A" Ref="#PWR088"  Part="1" 
F 0 "#PWR088" H 4300 3300 50  0001 C CNN
F 1 "+5V" H 4300 3600 50  0000 C CNN
F 2 "" H 4300 3450 50  0001 C CNN
F 3 "" H 4300 3450 50  0001 C CNN
	1    4300 3450
	1    0    0    1   
$EndComp
Wire Wire Line
	4300 3350 4300 3450
$Comp
L power:GND #PWR094
U 1 1 5F83A07B
P 4750 3650
F 0 "#PWR094" H 4750 3400 50  0001 C CNN
F 1 "GND" H 4755 3477 50  0000 C CNN
F 2 "" H 4750 3650 50  0001 C CNN
F 3 "" H 4750 3650 50  0001 C CNN
	1    4750 3650
	-1   0    0    -1  
$EndComp
Wire Wire Line
	4750 3600 4750 3650
$Comp
L Device:R R?
U 1 1 5F83240C
P 4400 3450
AR Path="/5EE5AAE3/5F83240C" Ref="R?"  Part="1" 
AR Path="/5ECA36FF/5F83240C" Ref="R?"  Part="1" 
AR Path="/5EDDE380/5F83240C" Ref="R67"  Part="1" 
F 0 "R67" H 4470 3496 50  0000 L CNN
F 1 "R 16K" H 4470 3405 50  0000 L CNN
F 2 "Resistor_SMD:R_0805_2012Metric_Pad1.15x1.40mm_HandSolder" V 4330 3450 50  0001 C CNN
F 3 "~" H 4400 3450 50  0001 C CNN
F 4 "1%" H 4400 3450 50  0001 C CNN "Tolerance"
F 5 "311-16.0KCRCT-ND" H 4400 3450 50  0001 C CNN "Digi-Key_PN"
	1    4400 3450
	1    0    0    -1  
$EndComp
$Comp
L connectors_magne:1-2834016-6 J6
U 1 1 5F849E80
P 4100 4250
F 0 "J6" H 4368 4105 50  0000 L CNN
F 1 "1-2834016-6" H 4368 4014 50  0000 L CNN
F 2 "magne_footprints:1-2834016-6" H 4100 4300 50  0001 C CNN
F 3 "" H 4100 4300 50  0001 C CNN
F 4 "A123832-ND" H 4100 4250 50  0001 C CNN "Digi-Key_PN"
	1    4100 4250
	-1   0    0    -1  
$EndComp
$Comp
L power:+5V #PWR?
U 1 1 5F84AA76
P 4300 4000
AR Path="/5F84AA76" Ref="#PWR?"  Part="1" 
AR Path="/5EE136D8/5F84AA76" Ref="#PWR?"  Part="1" 
AR Path="/5EDDE380/5F84AA76" Ref="#PWR091"  Part="1" 
F 0 "#PWR091" H 4300 3850 50  0001 C CNN
F 1 "+5V" H 4300 4150 50  0000 C CNN
F 2 "" H 4300 4000 50  0001 C CNN
F 3 "" H 4300 4000 50  0001 C CNN
	1    4300 4000
	-1   0    0    -1  
$EndComp
$Comp
L power:+5V #PWR?
U 1 1 5F84ABC9
P 4400 4600
AR Path="/5F84ABC9" Ref="#PWR?"  Part="1" 
AR Path="/5EE136D8/5F84ABC9" Ref="#PWR?"  Part="1" 
AR Path="/5EDDE380/5F84ABC9" Ref="#PWR092"  Part="1" 
F 0 "#PWR092" H 4400 4450 50  0001 C CNN
F 1 "+5V" H 4400 4750 50  0000 C CNN
F 2 "" H 4400 4600 50  0001 C CNN
F 3 "" H 4400 4600 50  0001 C CNN
	1    4400 4600
	-1   0    0    -1  
$EndComp
$Comp
L power:GND #PWR093
U 1 1 5F84AD13
P 4550 4500
F 0 "#PWR093" H 4550 4250 50  0001 C CNN
F 1 "GND" H 4555 4327 50  0000 C CNN
F 2 "" H 4550 4500 50  0001 C CNN
F 3 "" H 4550 4500 50  0001 C CNN
	1    4550 4500
	-1   0    0    -1  
$EndComp
Wire Wire Line
	4300 4600 4400 4600
Wire Wire Line
	4300 4500 4550 4500
Wire Wire Line
	4300 4300 4800 4300
Wire Wire Line
	4300 4400 5250 4400
Wire Wire Line
	4300 4700 4400 4700
$Comp
L power:+5V #PWR?
U 1 1 5F8495D4
P 5250 2450
AR Path="/5F8495D4" Ref="#PWR?"  Part="1" 
AR Path="/5EE136D8/5F8495D4" Ref="#PWR?"  Part="1" 
AR Path="/5EDDE380/5F8495D4" Ref="#PWR095"  Part="1" 
F 0 "#PWR095" H 5250 2300 50  0001 C CNN
F 1 "+5V" H 5250 2600 50  0000 C CNN
F 2 "" H 5250 2450 50  0001 C CNN
F 3 "" H 5250 2450 50  0001 C CNN
	1    5250 2450
	-1   0    0    -1  
$EndComp
Wire Wire Line
	5250 2800 5250 2850
Wire Wire Line
	5250 2450 5250 2500
$Comp
L Device:R R?
U 1 1 5FE0369C
P 4800 4150
AR Path="/5EE5AAE3/5FE0369C" Ref="R?"  Part="1" 
AR Path="/5ECA36FF/5FE0369C" Ref="R?"  Part="1" 
AR Path="/5EDDE380/5FE0369C" Ref="R35"  Part="1" 
F 0 "R35" H 4650 4200 50  0000 L CNN
F 1 "R 3K" H 4500 4100 50  0000 L CNN
F 2 "Resistor_SMD:R_0805_2012Metric_Pad1.15x1.40mm_HandSolder" V 4730 4150 50  0001 C CNN
F 3 "~" H 4800 4150 50  0001 C CNN
F 4 "1%" H 4800 4150 50  0001 C CNN "Tolerance"
F 5 "311-3.00KCRCT-ND" H 4800 4150 50  0001 C CNN "Digi-Key_PN"
	1    4800 4150
	1    0    0    1   
$EndComp
$Comp
L Device:R R?
U 1 1 5FE03D6D
P 5250 4250
AR Path="/5EE5AAE3/5FE03D6D" Ref="R?"  Part="1" 
AR Path="/5ECA36FF/5FE03D6D" Ref="R?"  Part="1" 
AR Path="/5EDDE380/5FE03D6D" Ref="R36"  Part="1" 
F 0 "R36" H 5100 4300 50  0000 L CNN
F 1 "R 3K" H 4950 4200 50  0000 L CNN
F 2 "Resistor_SMD:R_0805_2012Metric_Pad1.15x1.40mm_HandSolder" V 5180 4250 50  0001 C CNN
F 3 "~" H 5250 4250 50  0001 C CNN
F 4 "1%" H 5250 4250 50  0001 C CNN "Tolerance"
F 5 "311-3.00KCRCT-ND" H 5250 4250 50  0001 C CNN "Digi-Key_PN"
	1    5250 4250
	-1   0    0    1   
$EndComp
Wire Wire Line
	4300 4000 4300 4200
Wire Wire Line
	4300 4000 4800 4000
Wire Wire Line
	5250 4000 5250 4100
Connection ~ 4300 4000
Connection ~ 4800 4000
Wire Wire Line
	4800 4000 5250 4000
$Comp
L Connector_Generic:Conn_01x03 J8
U 1 1 5FE0AC6E
P 6950 2100
F 0 "J8" H 7030 2142 50  0000 L CNN
F 1 "Conn_01x03" H 7030 2051 50  0000 L CNN
F 2 "magne_footprints:0022232031" H 7030 2005 50  0001 L CNN
F 3 "~" H 6950 2100 50  0001 C CNN
F 4 "" H 6950 2100 50  0001 C CNN "Description"
F 5 "WM4201-ND" H 6950 2100 50  0001 C CNN "Digi-Key_PN"
	1    6950 2100
	1    0    0    -1  
$EndComp
$Comp
L power:+5V #PWR?
U 1 1 5FE0C0E3
P 6600 2000
AR Path="/5FE0C0E3" Ref="#PWR?"  Part="1" 
AR Path="/5EE136D8/5FE0C0E3" Ref="#PWR?"  Part="1" 
AR Path="/5EDDE380/5FE0C0E3" Ref="#PWR0144"  Part="1" 
F 0 "#PWR0144" H 6600 1850 50  0001 C CNN
F 1 "+5V" H 6600 2150 50  0000 C CNN
F 2 "" H 6600 2000 50  0001 C CNN
F 3 "" H 6600 2000 50  0001 C CNN
	1    6600 2000
	-1   0    0    -1  
$EndComp
Wire Wire Line
	6600 2000 6750 2000
$Comp
L power:GND #PWR0145
U 1 1 5FE0CAD2
P 6600 2100
F 0 "#PWR0145" H 6600 1850 50  0001 C CNN
F 1 "GND" H 6605 1927 50  0000 C CNN
F 2 "" H 6600 2100 50  0001 C CNN
F 3 "" H 6600 2100 50  0001 C CNN
	1    6600 2100
	-1   0    0    -1  
$EndComp
Wire Wire Line
	6600 2100 6750 2100
Wire Wire Line
	6750 2200 6450 2200
Wire Wire Line
	6450 2200 6450 2000
Wire Wire Line
	6450 2000 6600 2000
Connection ~ 6600 2000
$EndSCHEMATC
