EESchema Schematic File Version 4
EELAYER 30 0
EELAYER END
$Descr A4 11693 8268
encoding utf-8
Sheet 20 32
Title ""
Date ""
Rev ""
Comp ""
Comment1 ""
Comment2 ""
Comment3 ""
Comment4 ""
$EndDescr
Wire Wire Line
	5550 4200 5550 4300
Wire Wire Line
	5850 4200 5850 4300
Wire Wire Line
	5550 3800 5550 3900
$Comp
L Device:R R?
U 1 1 5F5BEFD4
P 5850 4050
AR Path="/5F5BEFD4" Ref="R?"  Part="1" 
AR Path="/5EB41214/5F5BEFD4" Ref="R?"  Part="1" 
AR Path="/5EB41214/5EBBD8A5/5F5BEFD4" Ref="R?"  Part="1" 
AR Path="/5ED2BC2A/5EBBD8A5/5F5BEFD4" Ref="R?"  Part="1" 
AR Path="/5EB41214/5EE0AFAE/5F5BEFD4" Ref="R?"  Part="1" 
AR Path="/5ED2BC2A/5EE0E694/5F5BEFD4" Ref="R?"  Part="1" 
AR Path="/5EE0AC5D/5EBBD8A5/5F5BEFD4" Ref="R?"  Part="1" 
AR Path="/5EE0E313/5EBBD8A5/5F5BEFD4" Ref="R?"  Part="1" 
AR Path="/5EE55D87/5F5BEFD4" Ref="R?"  Part="1" 
AR Path="/5EE5AAE3/5EE61F79/5F5BEFD4" Ref="R?"  Part="1" 
AR Path="/5EE77D5A/5EBBD8A5/5F5BEFD4" Ref="R?"  Part="1" 
AR Path="/5EE8A13E/5EE79806/5F5BEFD4" Ref="R?"  Part="1" 
AR Path="/5EE8A13E/5EEC632A/5F5BEFD4" Ref="R?"  Part="1" 
AR Path="/5EE0AC5D/5EE8A622/5F5BEFD4" Ref="R?"  Part="1" 
AR Path="/5EE0E313/5EE79806/5F5BEFD4" Ref="R?"  Part="1" 
AR Path="/5EE8A13E/5EBF17AF/5F5BEFD4" Ref="R?"  Part="1" 
AR Path="/5EBFB816/5EE0AFAE/5F5BEFD4" Ref="R?"  Part="1" 
AR Path="/5ECA2575/5EE0E694/5F5BEFD4" Ref="R?"  Part="1" 
AR Path="/5ECAC95D/5EE0E694/5F5BEFD4" Ref="R?"  Part="1" 
AR Path="/5ED2BC2A/5ECD5689/5F5BEFD4" Ref="R?"  Part="1" 
AR Path="/5EB41214/5F0724C9/5F5BEFD4" Ref="R?"  Part="1" 
AR Path="/5ECA36FF/5EE61F79/5F5BEFD4" Ref="R?"  Part="1" 
AR Path="/5EE5AAE3/5ED7E0D0/5F5BEFD4" Ref="R?"  Part="1" 
AR Path="/5ED08686/5ED1C478/5F5BEFD4" Ref="R?"  Part="1" 
AR Path="/5EE0AC5D/5EDAF55D/5F5BEFD4" Ref="R?"  Part="1" 
AR Path="/5EE0E313/5EDB0036/5F5BEFD4" Ref="R?"  Part="1" 
AR Path="/5EE0E313/5EDB0B50/5F5BEFD4" Ref="R?"  Part="1" 
AR Path="/5EE5AAE3/5EDB1EB2/5F5BEFD4" Ref="R?"  Part="1" 
AR Path="/5EE77D5A/5EDB229D/5F5BEFD4" Ref="R?"  Part="1" 
AR Path="/5EE77D5A/5EDB2B01/5F5BEFD4" Ref="R?"  Part="1" 
AR Path="/5ECA36FF/5EDB3381/5F5BEFD4" Ref="R?"  Part="1" 
AR Path="/5ECA36FF/5EDB35CF/5F5BEFD4" Ref="R?"  Part="1" 
AR Path="/5ECDAC29/5EE5CC9B/5F5BEFD4" Ref="R?"  Part="1" 
AR Path="/5ECDAC29/5EE5EDC3/5F5BEFD4" Ref="R79"  Part="1" 
AR Path="/5ECDAC29/5EE79C4D/5F5BEFD4" Ref="R81"  Part="1" 
AR Path="/5ECDAC29/5F5BA996/5F5BEFD4" Ref="R?"  Part="1" 
F 0 "R81" H 5700 4100 50  0000 L CNN
F 1 "R 255" H 5500 4000 50  0000 L CNN
F 2 "Resistor_SMD:R_0805_2012Metric_Pad1.15x1.40mm_HandSolder" V 5780 4050 50  0001 C CNN
F 3 "~" H 5850 4050 50  0001 C CNN
F 4 "1%" H 5850 4050 50  0001 C CNN "Tolerance"
F 5 "	P255CCT-ND" H 5850 4050 50  0001 C CNN "Digi-Key_PN"
	1    5850 4050
	-1   0    0    -1  
$EndComp
$Comp
L Device:R R?
U 1 1 5F5BEFD5
P 5550 4050
AR Path="/5F5BEFD5" Ref="R?"  Part="1" 
AR Path="/5EB41214/5F5BEFD5" Ref="R?"  Part="1" 
AR Path="/5EB41214/5EBBD8A5/5F5BEFD5" Ref="R?"  Part="1" 
AR Path="/5ED2BC2A/5EBBD8A5/5F5BEFD5" Ref="R?"  Part="1" 
AR Path="/5EB41214/5EE0AFAE/5F5BEFD5" Ref="R?"  Part="1" 
AR Path="/5ED2BC2A/5EE0E694/5F5BEFD5" Ref="R?"  Part="1" 
AR Path="/5EE0AC5D/5EBBD8A5/5F5BEFD5" Ref="R?"  Part="1" 
AR Path="/5EE0E313/5EBBD8A5/5F5BEFD5" Ref="R?"  Part="1" 
AR Path="/5EE55D87/5F5BEFD5" Ref="R?"  Part="1" 
AR Path="/5EE5AAE3/5EE61F79/5F5BEFD5" Ref="R?"  Part="1" 
AR Path="/5EE77D5A/5EBBD8A5/5F5BEFD5" Ref="R?"  Part="1" 
AR Path="/5EE8A13E/5EE79806/5F5BEFD5" Ref="R?"  Part="1" 
AR Path="/5EE8A13E/5EEC632A/5F5BEFD5" Ref="R?"  Part="1" 
AR Path="/5EE0AC5D/5EE8A622/5F5BEFD5" Ref="R?"  Part="1" 
AR Path="/5EE0E313/5EE79806/5F5BEFD5" Ref="R?"  Part="1" 
AR Path="/5EE8A13E/5EBF17AF/5F5BEFD5" Ref="R?"  Part="1" 
AR Path="/5EBFB816/5EE0AFAE/5F5BEFD5" Ref="R?"  Part="1" 
AR Path="/5ECA2575/5EE0E694/5F5BEFD5" Ref="R?"  Part="1" 
AR Path="/5ECAC95D/5EE0E694/5F5BEFD5" Ref="R?"  Part="1" 
AR Path="/5ED2BC2A/5ECD5689/5F5BEFD5" Ref="R?"  Part="1" 
AR Path="/5EB41214/5F0724C9/5F5BEFD5" Ref="R?"  Part="1" 
AR Path="/5ECA36FF/5EE61F79/5F5BEFD5" Ref="R?"  Part="1" 
AR Path="/5EE5AAE3/5ED7E0D0/5F5BEFD5" Ref="R?"  Part="1" 
AR Path="/5ED08686/5ED1C478/5F5BEFD5" Ref="R?"  Part="1" 
AR Path="/5EE0AC5D/5EDAF55D/5F5BEFD5" Ref="R?"  Part="1" 
AR Path="/5EE0E313/5EDB0036/5F5BEFD5" Ref="R?"  Part="1" 
AR Path="/5EE0E313/5EDB0B50/5F5BEFD5" Ref="R?"  Part="1" 
AR Path="/5EE5AAE3/5EDB1EB2/5F5BEFD5" Ref="R?"  Part="1" 
AR Path="/5EE77D5A/5EDB229D/5F5BEFD5" Ref="R?"  Part="1" 
AR Path="/5EE77D5A/5EDB2B01/5F5BEFD5" Ref="R?"  Part="1" 
AR Path="/5ECA36FF/5EDB3381/5F5BEFD5" Ref="R?"  Part="1" 
AR Path="/5ECA36FF/5EDB35CF/5F5BEFD5" Ref="R?"  Part="1" 
AR Path="/5ECDAC29/5EE5CC9B/5F5BEFD5" Ref="R?"  Part="1" 
AR Path="/5ECDAC29/5EE5EDC3/5F5BEFD5" Ref="R30"  Part="1" 
AR Path="/5ECDAC29/5EE79C4D/5F5BEFD5" Ref="R80"  Part="1" 
AR Path="/5ECDAC29/5F5BA996/5F5BEFD5" Ref="R?"  Part="1" 
F 0 "R80" H 5620 4096 50  0000 L CNN
F 1 "R 316" H 5600 4000 50  0000 L CNN
F 2 "Resistor_SMD:R_0805_2012Metric_Pad1.15x1.40mm_HandSolder" V 5480 4050 50  0001 C CNN
F 3 "~" H 5550 4050 50  0001 C CNN
F 4 "1%" H 5550 4050 50  0001 C CNN "Tolerance"
F 5 "P316CCT-ND" H 5550 4050 50  0001 C CNN "Digi-Key_PN"
	1    5550 4050
	-1   0    0    -1  
$EndComp
$Comp
L LEDs_magne:AM23ESGC D?
U 1 1 5F5BEFD6
P 5650 4300
AR Path="/5EB41214/5F5BEFD6" Ref="D?"  Part="1" 
AR Path="/5EB41214/5EBBD8A5/5F5BEFD6" Ref="D?"  Part="1" 
AR Path="/5ED2BC2A/5EBBD8A5/5F5BEFD6" Ref="D?"  Part="1" 
AR Path="/5EB41214/5EE0AFAE/5F5BEFD6" Ref="D?"  Part="1" 
AR Path="/5ED2BC2A/5EE0E694/5F5BEFD6" Ref="D?"  Part="1" 
AR Path="/5EE0AC5D/5EBBD8A5/5F5BEFD6" Ref="D?"  Part="1" 
AR Path="/5EE0E313/5EBBD8A5/5F5BEFD6" Ref="D?"  Part="1" 
AR Path="/5EE55D87/5F5BEFD6" Ref="D?"  Part="1" 
AR Path="/5EE5AAE3/5EE61F79/5F5BEFD6" Ref="D?"  Part="1" 
AR Path="/5EE77D5A/5EBBD8A5/5F5BEFD6" Ref="D?"  Part="1" 
AR Path="/5EE8A13E/5EE79806/5F5BEFD6" Ref="D?"  Part="1" 
AR Path="/5EE8A13E/5EEC632A/5F5BEFD6" Ref="D?"  Part="1" 
AR Path="/5EE0AC5D/5EE8A622/5F5BEFD6" Ref="D?"  Part="1" 
AR Path="/5EE0E313/5EE79806/5F5BEFD6" Ref="D?"  Part="1" 
AR Path="/5EE8A13E/5EBF17AF/5F5BEFD6" Ref="D?"  Part="1" 
AR Path="/5EBFB816/5EE0AFAE/5F5BEFD6" Ref="D?"  Part="1" 
AR Path="/5ECA2575/5EE0E694/5F5BEFD6" Ref="D?"  Part="1" 
AR Path="/5ECAC95D/5EE0E694/5F5BEFD6" Ref="D?"  Part="1" 
AR Path="/5ED2BC2A/5ECD5689/5F5BEFD6" Ref="D?"  Part="1" 
AR Path="/5EB41214/5F0724C9/5F5BEFD6" Ref="D?"  Part="1" 
AR Path="/5ECA36FF/5EE61F79/5F5BEFD6" Ref="D?"  Part="1" 
AR Path="/5EE5AAE3/5ED7E0D0/5F5BEFD6" Ref="D?"  Part="1" 
AR Path="/5ED08686/5ED1C478/5F5BEFD6" Ref="D?"  Part="1" 
AR Path="/5EE0AC5D/5EDAF55D/5F5BEFD6" Ref="D?"  Part="1" 
AR Path="/5EE0E313/5EDB0036/5F5BEFD6" Ref="D?"  Part="1" 
AR Path="/5EE0E313/5EDB0B50/5F5BEFD6" Ref="D?"  Part="1" 
AR Path="/5EE5AAE3/5EDB1EB2/5F5BEFD6" Ref="D?"  Part="1" 
AR Path="/5EE77D5A/5EDB229D/5F5BEFD6" Ref="D?"  Part="1" 
AR Path="/5EE77D5A/5EDB2B01/5F5BEFD6" Ref="D?"  Part="1" 
AR Path="/5ECA36FF/5EDB3381/5F5BEFD6" Ref="D?"  Part="1" 
AR Path="/5ECA36FF/5EDB35CF/5F5BEFD6" Ref="D?"  Part="1" 
AR Path="/5ECDAC29/5EE5CC9B/5F5BEFD6" Ref="D?"  Part="1" 
AR Path="/5ECDAC29/5EE5EDC3/5F5BEFD6" Ref="D5"  Part="1" 
AR Path="/5ECDAC29/5EE79C4D/5F5BEFD6" Ref="D18"  Part="1" 
AR Path="/5ECDAC29/5F5BA996/5F5BEFD6" Ref="D?"  Part="1" 
F 0 "D18" H 5918 4159 50  0000 L CNN
F 1 "AM23ESGC" H 5918 4068 50  0000 L CNN
F 2 "Package_TO_SOT_SMD:SOT-23_Handsoldering" H 5700 4300 50  0001 C CNN
F 3 "http://www.kingbrightusa.com/images/catalog/SPEC/AM23ESGC.pdf" H 5700 4300 50  0001 C CNN
F 4 "754-1633-1-ND" H 5650 4300 50  0001 C CNN "Digi-Key_PN"
	1    5650 4300
	-1   0    0    -1  
$EndComp
$Comp
L Analog_Switch:NC7SB3157P6X U?
U 1 1 5F5BEFD7
P 5800 3500
AR Path="/5EB41214/5EE0AFAE/5F5BEFD7" Ref="U?"  Part="2" 
AR Path="/5ED2BC2A/5EE0E694/5F5BEFD7" Ref="U?"  Part="2" 
AR Path="/5EE0AC5D/5EBBD8A5/5F5BEFD7" Ref="U?"  Part="2" 
AR Path="/5EE0E313/5EBBD8A5/5F5BEFD7" Ref="U?"  Part="2" 
AR Path="/5EE55D87/5F5BEFD7" Ref="U?"  Part="2" 
AR Path="/5EE5AAE3/5EE61F79/5F5BEFD7" Ref="U?"  Part="1" 
AR Path="/5EE77D5A/5EBBD8A5/5F5BEFD7" Ref="U?"  Part="2" 
AR Path="/5EE8A13E/5EE79806/5F5BEFD7" Ref="U?"  Part="2" 
AR Path="/5EE8A13E/5EEC632A/5F5BEFD7" Ref="U?"  Part="2" 
AR Path="/5EE0AC5D/5EE8A622/5F5BEFD7" Ref="U?"  Part="2" 
AR Path="/5EE0E313/5EE79806/5F5BEFD7" Ref="U?"  Part="2" 
AR Path="/5EE8A13E/5EBF17AF/5F5BEFD7" Ref="U?"  Part="2" 
AR Path="/5EBFB816/5EE0AFAE/5F5BEFD7" Ref="U?"  Part="2" 
AR Path="/5ECA2575/5EE0E694/5F5BEFD7" Ref="U?"  Part="2" 
AR Path="/5ECAC95D/5EE0E694/5F5BEFD7" Ref="U?"  Part="2" 
AR Path="/5ED2BC2A/5ECD5689/5F5BEFD7" Ref="U?"  Part="2" 
AR Path="/5EB41214/5F0724C9/5F5BEFD7" Ref="U?"  Part="2" 
AR Path="/5ECA36FF/5EE61F79/5F5BEFD7" Ref="U?"  Part="1" 
AR Path="/5EE5AAE3/5ED7E0D0/5F5BEFD7" Ref="U?"  Part="2" 
AR Path="/5ED08686/5ED1C478/5F5BEFD7" Ref="U?"  Part="1" 
AR Path="/5EE0AC5D/5EDAF55D/5F5BEFD7" Ref="U?"  Part="1" 
AR Path="/5EE0E313/5EDB0036/5F5BEFD7" Ref="U?"  Part="1" 
AR Path="/5EE0E313/5EDB0B50/5F5BEFD7" Ref="U?"  Part="1" 
AR Path="/5EE5AAE3/5EDB1EB2/5F5BEFD7" Ref="U?"  Part="1" 
AR Path="/5EE77D5A/5EDB229D/5F5BEFD7" Ref="U?"  Part="1" 
AR Path="/5EE77D5A/5EDB2B01/5F5BEFD7" Ref="U?"  Part="1" 
AR Path="/5ECA36FF/5EDB3381/5F5BEFD7" Ref="U?"  Part="1" 
AR Path="/5ECA36FF/5EDB35CF/5F5BEFD7" Ref="U?"  Part="1" 
AR Path="/5ECDAC29/5EE5CC9B/5F5BEFD7" Ref="U?"  Part="1" 
AR Path="/5ECDAC29/5EE5EDC3/5F5BEFD7" Ref="U45"  Part="1" 
AR Path="/5ECDAC29/5EE79C4D/5F5BEFD7" Ref="U46"  Part="1" 
AR Path="/5ECDAC29/5F5BA996/5F5BEFD7" Ref="U?"  Part="1" 
F 0 "U46" V 5600 3750 50  0000 L CNN
F 1 "NC7SB3157P6X" V 5700 3750 50  0000 L CNN
F 2 "Package_TO_SOT_SMD:SOT-363_SC-70-6" H 5800 3200 50  0001 C CNN
F 3 "https://www.onsemi.com/pub/Collateral/NC7SB3157-D.PDF" H 5800 3500 50  0001 C CNN
F 4 "NC7SB3157P6XCT-ND" H 5800 3500 50  0001 C CNN "Digi-Key_PN"
	1    5800 3500
	0    1    1    0   
$EndComp
Wire Wire Line
	4350 4600 4350 4700
Wire Wire Line
	4350 4700 4650 4700
Wire Wire Line
	5700 4700 5700 4650
Text HLabel 5300 3500 0    50   Input ~ 0
Cntrl
Wire Wire Line
	5300 3500 5400 3500
Wire Wire Line
	5600 3800 5550 3800
Wire Wire Line
	5850 3800 5850 3900
Wire Wire Line
	5800 3800 5850 3800
$Comp
L Device:C C?
U 1 1 5F5BEFD8
P 4650 4350
AR Path="/5EB41214/5EE0AFAE/5F5BEFD8" Ref="C?"  Part="1" 
AR Path="/5ED2BC2A/5EE0E694/5F5BEFD8" Ref="C?"  Part="1" 
AR Path="/5EE0AC5D/5EBBD8A5/5F5BEFD8" Ref="C?"  Part="1" 
AR Path="/5EE0E313/5EBBD8A5/5F5BEFD8" Ref="C?"  Part="1" 
AR Path="/5EE55D87/5F5BEFD8" Ref="C?"  Part="1" 
AR Path="/5EE5AAE3/5EE61F79/5F5BEFD8" Ref="C?"  Part="1" 
AR Path="/5EE77D5A/5EBBD8A5/5F5BEFD8" Ref="C?"  Part="1" 
AR Path="/5EE8A13E/5EE79806/5F5BEFD8" Ref="C?"  Part="1" 
AR Path="/5EE8A13E/5EEC632A/5F5BEFD8" Ref="C?"  Part="1" 
AR Path="/5EE0AC5D/5EE8A622/5F5BEFD8" Ref="C?"  Part="1" 
AR Path="/5EE0E313/5EE79806/5F5BEFD8" Ref="C?"  Part="1" 
AR Path="/5EE8A13E/5EBF17AF/5F5BEFD8" Ref="C?"  Part="1" 
AR Path="/5EBFB816/5EE0AFAE/5F5BEFD8" Ref="C?"  Part="1" 
AR Path="/5ECA2575/5EE0E694/5F5BEFD8" Ref="C?"  Part="1" 
AR Path="/5ECAC95D/5EE0E694/5F5BEFD8" Ref="C?"  Part="1" 
AR Path="/5ED2BC2A/5ECD5689/5F5BEFD8" Ref="C?"  Part="1" 
AR Path="/5EB41214/5F0724C9/5F5BEFD8" Ref="C?"  Part="1" 
AR Path="/5ECA36FF/5EE61F79/5F5BEFD8" Ref="C?"  Part="1" 
AR Path="/5EE5AAE3/5ED7E0D0/5F5BEFD8" Ref="C?"  Part="1" 
AR Path="/5ED08686/5ED1C478/5F5BEFD8" Ref="C?"  Part="1" 
AR Path="/5EE0AC5D/5EDAF55D/5F5BEFD8" Ref="C?"  Part="1" 
AR Path="/5EE0E313/5EDB0036/5F5BEFD8" Ref="C?"  Part="1" 
AR Path="/5EE0E313/5EDB0B50/5F5BEFD8" Ref="C?"  Part="1" 
AR Path="/5EE5AAE3/5EDB1EB2/5F5BEFD8" Ref="C?"  Part="1" 
AR Path="/5EE77D5A/5EDB229D/5F5BEFD8" Ref="C?"  Part="1" 
AR Path="/5EE77D5A/5EDB2B01/5F5BEFD8" Ref="C?"  Part="1" 
AR Path="/5ECA36FF/5EDB3381/5F5BEFD8" Ref="C?"  Part="1" 
AR Path="/5ECA36FF/5EDB35CF/5F5BEFD8" Ref="C?"  Part="1" 
AR Path="/5ECDAC29/5EE5CC9B/5F5BEFD8" Ref="C?"  Part="1" 
AR Path="/5ECDAC29/5EE5EDC3/5F5BEFD8" Ref="C61"  Part="1" 
AR Path="/5ECDAC29/5EE79C4D/5F5BEFD8" Ref="C62"  Part="1" 
AR Path="/5ECDAC29/5F5BA996/5F5BEFD8" Ref="C?"  Part="1" 
F 0 "C62" H 4765 4396 50  0000 L CNN
F 1 "C 100n" H 4765 4305 50  0000 L CNN
F 2 "Capacitor_SMD:C_0805_2012Metric_Pad1.15x1.40mm_HandSolder" H 4688 4200 50  0001 C CNN
F 3 "~" H 4650 4350 50  0001 C CNN
F 4 "16" H 4650 4350 50  0001 C CNN "Voltage - rated"
F 5 "20%" H 4650 4350 50  0001 C CNN "Tolerance"
F 6 "399-8000-1-ND" H 4650 4350 50  0001 C CNN "Digi-Key_PN"
F 7 "718683" H 4650 4350 50  0001 C CNN "Farnell_PN"
	1    4650 4350
	1    0    0    -1  
$EndComp
Wire Wire Line
	4650 4500 4650 4700
Connection ~ 4650 4700
Wire Wire Line
	4650 4700 5700 4700
Wire Wire Line
	4650 4200 4650 3600
Wire Wire Line
	4650 3600 4350 3600
Wire Wire Line
	4350 2950 4350 3100
Wire Wire Line
	5700 3200 5700 3100
Wire Wire Line
	5700 3100 4350 3100
Connection ~ 4350 3100
Wire Wire Line
	4350 3100 4350 3600
$Comp
L power:GND #PWR?
U 1 1 5EE761E6
P 4350 4700
AR Path="/5EE0AC5D/5EE8A622/5EE761E6" Ref="#PWR?"  Part="1" 
AR Path="/5EB41214/5EE0AFAE/5EE761E6" Ref="#PWR?"  Part="1" 
AR Path="/5EB41214/5F0724C9/5EE761E6" Ref="#PWR?"  Part="1" 
AR Path="/5EE0E313/5EE79806/5EE761E6" Ref="#PWR?"  Part="1" 
AR Path="/5EE5AAE3/5EE61F79/5EE761E6" Ref="#PWR?"  Part="1" 
AR Path="/5EE77D5A/5EBBD8A5/5EE761E6" Ref="#PWR?"  Part="1" 
AR Path="/5ED2BC2A/5EE0E694/5EE761E6" Ref="#PWR?"  Part="1" 
AR Path="/5ECA36FF/5EE61F79/5EE761E6" Ref="#PWR?"  Part="1" 
AR Path="/5EE5AAE3/5ED7E0D0/5EE761E6" Ref="#PWR?"  Part="1" 
AR Path="/5ED08686/5ED1C478/5EE761E6" Ref="#PWR?"  Part="1" 
AR Path="/5EE0AC5D/5EDAF55D/5EE761E6" Ref="#PWR?"  Part="1" 
AR Path="/5EE0E313/5EDB0036/5EE761E6" Ref="#PWR?"  Part="1" 
AR Path="/5EE0E313/5EDB0B50/5EE761E6" Ref="#PWR?"  Part="1" 
AR Path="/5EE5AAE3/5EDB1EB2/5EE761E6" Ref="#PWR?"  Part="1" 
AR Path="/5EE77D5A/5EDB229D/5EE761E6" Ref="#PWR?"  Part="1" 
AR Path="/5EE77D5A/5EDB2B01/5EE761E6" Ref="#PWR?"  Part="1" 
AR Path="/5ECA36FF/5EDB3381/5EE761E6" Ref="#PWR?"  Part="1" 
AR Path="/5ECA36FF/5EDB35CF/5EE761E6" Ref="#PWR?"  Part="1" 
AR Path="/5ECDAC29/5EE5CC9B/5EE761E6" Ref="#PWR?"  Part="1" 
AR Path="/5ECDAC29/5EE5EDC3/5EE761E6" Ref="#PWR0140"  Part="1" 
AR Path="/5ECDAC29/5EE79C4D/5EE761E6" Ref="#PWR0142"  Part="1" 
AR Path="/5ECDAC29/5F5BA996/5EE761E6" Ref="#PWR?"  Part="1" 
F 0 "#PWR0142" H 4350 4450 50  0001 C CNN
F 1 "GND" H 4355 4527 50  0000 C CNN
F 2 "" H 4350 4700 50  0001 C CNN
F 3 "" H 4350 4700 50  0001 C CNN
	1    4350 4700
	1    0    0    -1  
$EndComp
Connection ~ 4350 4700
$Comp
L power:+5V #PWR?
U 1 1 5EE761ED
P 4350 2950
AR Path="/5EE0AC5D/5EE8A622/5EE761ED" Ref="#PWR?"  Part="1" 
AR Path="/5EB41214/5EE0AFAE/5EE761ED" Ref="#PWR?"  Part="1" 
AR Path="/5EB41214/5F0724C9/5EE761ED" Ref="#PWR?"  Part="1" 
AR Path="/5EE0E313/5EE79806/5EE761ED" Ref="#PWR?"  Part="1" 
AR Path="/5EE5AAE3/5EE61F79/5EE761ED" Ref="#PWR?"  Part="1" 
AR Path="/5EE77D5A/5EBBD8A5/5EE761ED" Ref="#PWR?"  Part="1" 
AR Path="/5ED2BC2A/5EE0E694/5EE761ED" Ref="#PWR?"  Part="1" 
AR Path="/5ECA36FF/5EE61F79/5EE761ED" Ref="#PWR?"  Part="1" 
AR Path="/5EE5AAE3/5ED7E0D0/5EE761ED" Ref="#PWR?"  Part="1" 
AR Path="/5ED08686/5ED1C478/5EE761ED" Ref="#PWR?"  Part="1" 
AR Path="/5EE0AC5D/5EDAF55D/5EE761ED" Ref="#PWR?"  Part="1" 
AR Path="/5EE0E313/5EDB0036/5EE761ED" Ref="#PWR?"  Part="1" 
AR Path="/5EE0E313/5EDB0B50/5EE761ED" Ref="#PWR?"  Part="1" 
AR Path="/5EE5AAE3/5EDB1EB2/5EE761ED" Ref="#PWR?"  Part="1" 
AR Path="/5EE77D5A/5EDB229D/5EE761ED" Ref="#PWR?"  Part="1" 
AR Path="/5EE77D5A/5EDB2B01/5EE761ED" Ref="#PWR?"  Part="1" 
AR Path="/5ECA36FF/5EDB3381/5EE761ED" Ref="#PWR?"  Part="1" 
AR Path="/5ECA36FF/5EDB35CF/5EE761ED" Ref="#PWR?"  Part="1" 
AR Path="/5ECDAC29/5EE5CC9B/5EE761ED" Ref="#PWR?"  Part="1" 
AR Path="/5ECDAC29/5EE5EDC3/5EE761ED" Ref="#PWR0139"  Part="1" 
AR Path="/5ECDAC29/5EE79C4D/5EE761ED" Ref="#PWR0141"  Part="1" 
AR Path="/5ECDAC29/5F5BA996/5EE761ED" Ref="#PWR?"  Part="1" 
F 0 "#PWR0141" H 4350 2800 50  0001 C CNN
F 1 "+5V" H 4365 3123 50  0000 C CNN
F 2 "" H 4350 2950 50  0001 C CNN
F 3 "" H 4350 2950 50  0001 C CNN
	1    4350 2950
	1    0    0    -1  
$EndComp
$Comp
L Analog_Switch:NC7SB3157P6X U?
U 2 1 5EE761F3
P 4350 4100
AR Path="/5EB41214/5EE0AFAE/5EE761F3" Ref="U?"  Part="1" 
AR Path="/5ED2BC2A/5EE0E694/5EE761F3" Ref="U?"  Part="1" 
AR Path="/5EE0AC5D/5EBBD8A5/5EE761F3" Ref="U?"  Part="1" 
AR Path="/5EE0E313/5EBBD8A5/5EE761F3" Ref="U?"  Part="1" 
AR Path="/5EE55D87/5EE761F3" Ref="U?"  Part="1" 
AR Path="/5EE5AAE3/5EE61F79/5EE761F3" Ref="U?"  Part="2" 
AR Path="/5EE77D5A/5EBBD8A5/5EE761F3" Ref="U?"  Part="1" 
AR Path="/5EE8A13E/5EE79806/5EE761F3" Ref="U?"  Part="1" 
AR Path="/5EE8A13E/5EEC632A/5EE761F3" Ref="U?"  Part="1" 
AR Path="/5EE0AC5D/5EE8A622/5EE761F3" Ref="U?"  Part="1" 
AR Path="/5EE0E313/5EE79806/5EE761F3" Ref="U?"  Part="1" 
AR Path="/5EE8A13E/5EBF17AF/5EE761F3" Ref="U?"  Part="1" 
AR Path="/5EBFB816/5EE0AFAE/5EE761F3" Ref="U?"  Part="1" 
AR Path="/5ECA2575/5EE0E694/5EE761F3" Ref="U?"  Part="1" 
AR Path="/5ECAC95D/5EE0E694/5EE761F3" Ref="U?"  Part="1" 
AR Path="/5ED2BC2A/5ECD5689/5EE761F3" Ref="U?"  Part="1" 
AR Path="/5EB41214/5F0724C9/5EE761F3" Ref="U?"  Part="1" 
AR Path="/5ECA36FF/5EE61F79/5EE761F3" Ref="U?"  Part="2" 
AR Path="/5EE5AAE3/5ED7E0D0/5EE761F3" Ref="U?"  Part="1" 
AR Path="/5ED08686/5ED1C478/5EE761F3" Ref="U?"  Part="2" 
AR Path="/5EE0AC5D/5EDAF55D/5EE761F3" Ref="U?"  Part="2" 
AR Path="/5EE0E313/5EDB0036/5EE761F3" Ref="U?"  Part="2" 
AR Path="/5EE0E313/5EDB0B50/5EE761F3" Ref="U?"  Part="2" 
AR Path="/5EE5AAE3/5EDB1EB2/5EE761F3" Ref="U?"  Part="2" 
AR Path="/5EE77D5A/5EDB229D/5EE761F3" Ref="U?"  Part="2" 
AR Path="/5EE77D5A/5EDB2B01/5EE761F3" Ref="U?"  Part="2" 
AR Path="/5ECA36FF/5EDB3381/5EE761F3" Ref="U?"  Part="2" 
AR Path="/5ECA36FF/5EDB35CF/5EE761F3" Ref="U?"  Part="2" 
AR Path="/5ECDAC29/5EE5CC9B/5EE761F3" Ref="U?"  Part="2" 
AR Path="/5ECDAC29/5EE5EDC3/5EE761F3" Ref="U45"  Part="2" 
AR Path="/5ECDAC29/5EE79C4D/5EE761F3" Ref="U46"  Part="2" 
AR Path="/5ECDAC29/5F5BA996/5EE761F3" Ref="U?"  Part="2" 
F 0 "U46" H 3850 4300 50  0000 L CNN
F 1 "NC7SB3157P6X" H 3500 4450 50  0000 L CNN
F 2 "Package_TO_SOT_SMD:SOT-363_SC-70-6" H 4350 3800 50  0001 C CNN
F 3 "https://www.onsemi.com/pub/Collateral/NC7SB3157-D.PDF" H 4350 4100 50  0001 C CNN
F 4 "NC7SB3157P6XCT-ND" H 4350 4100 50  0001 C CNN "Digi-Key_PN"
	2    4350 4100
	1    0    0    -1  
$EndComp
Connection ~ 4350 3600
$EndSCHEMATC
