EESchema Schematic File Version 4
EELAYER 30 0
EELAYER END
$Descr A4 11693 8268
encoding utf-8
Sheet 24 32
Title ""
Date ""
Rev ""
Comp ""
Comment1 ""
Comment2 ""
Comment3 ""
Comment4 ""
$EndDescr
Wire Wire Line
	6100 4150 6100 4250
Wire Wire Line
	6400 4150 6400 4250
Wire Wire Line
	6100 3750 6100 3850
$Comp
L Device:R R?
U 1 1 5EE70D61
P 6400 4000
AR Path="/5EE70D61" Ref="R?"  Part="1" 
AR Path="/5EB41214/5EE70D61" Ref="R?"  Part="1" 
AR Path="/5EB41214/5EBBD8A5/5EE70D61" Ref="R?"  Part="1" 
AR Path="/5ED2BC2A/5EBBD8A5/5EE70D61" Ref="R?"  Part="1" 
AR Path="/5EB41214/5EE0AFAE/5EE70D61" Ref="R?"  Part="1" 
AR Path="/5ED2BC2A/5EE0E694/5EE70D61" Ref="R?"  Part="1" 
AR Path="/5EE0AC5D/5EBBD8A5/5EE70D61" Ref="R?"  Part="1" 
AR Path="/5EE0E313/5EBBD8A5/5EE70D61" Ref="R?"  Part="1" 
AR Path="/5EE55D87/5EE70D61" Ref="R?"  Part="1" 
AR Path="/5EE5AAE3/5EE61F79/5EE70D61" Ref="R?"  Part="1" 
AR Path="/5EE77D5A/5EBBD8A5/5EE70D61" Ref="R?"  Part="1" 
AR Path="/5EE8A13E/5EE79806/5EE70D61" Ref="R?"  Part="1" 
AR Path="/5EE8A13E/5EEC632A/5EE70D61" Ref="R?"  Part="1" 
AR Path="/5EE0AC5D/5EE8A622/5EE70D61" Ref="R?"  Part="1" 
AR Path="/5EE0E313/5EE79806/5EE70D61" Ref="R?"  Part="1" 
AR Path="/5EE8A13E/5EBF17AF/5EE70D61" Ref="R?"  Part="1" 
AR Path="/5EBFB816/5EE0AFAE/5EE70D61" Ref="R?"  Part="1" 
AR Path="/5ECA2575/5EE0E694/5EE70D61" Ref="R?"  Part="1" 
AR Path="/5ECAC95D/5EE0E694/5EE70D61" Ref="R?"  Part="1" 
AR Path="/5ED2BC2A/5ECD5689/5EE70D61" Ref="R?"  Part="1" 
AR Path="/5EB41214/5F0724C9/5EE70D61" Ref="R?"  Part="1" 
AR Path="/5ECA36FF/5EE61F79/5EE70D61" Ref="R?"  Part="1" 
AR Path="/5EE5AAE3/5ED7E0D0/5EE70D61" Ref="R?"  Part="1" 
AR Path="/5ED08686/5ED1C478/5EE70D61" Ref="R?"  Part="1" 
AR Path="/5EE0AC5D/5EDAF55D/5EE70D61" Ref="R?"  Part="1" 
AR Path="/5EE0E313/5EDB0036/5EE70D61" Ref="R?"  Part="1" 
AR Path="/5EE0E313/5EDB0B50/5EE70D61" Ref="R?"  Part="1" 
AR Path="/5EE5AAE3/5EDB1EB2/5EE70D61" Ref="R?"  Part="1" 
AR Path="/5EE77D5A/5EDB229D/5EE70D61" Ref="R?"  Part="1" 
AR Path="/5EE77D5A/5EDB2B01/5EE70D61" Ref="R?"  Part="1" 
AR Path="/5ECA36FF/5EDB3381/5EE70D61" Ref="R?"  Part="1" 
AR Path="/5ECA36FF/5EDB35CF/5EE70D61" Ref="R?"  Part="1" 
AR Path="/5ECDAC29/5EE5CC9B/5EE70D61" Ref="R?"  Part="1" 
AR Path="/5ECDAC29/5EE5EDC3/5EE70D61" Ref="R?"  Part="1" 
AR Path="/5ECDAC29/5EE6E926/5EE70D61" Ref="R?"  Part="1" 
AR Path="/5ECDAC29/5EE6F39F/5EE70D61" Ref="R?"  Part="1" 
F 0 "R?" H 6250 4050 50  0000 L CNN
F 1 "R 255" H 5650 3950 50  0000 L CNN
F 2 "Resistor_SMD:R_0805_2012Metric_Pad1.15x1.40mm_HandSolder" V 6330 4000 50  0001 C CNN
F 3 "~" H 6400 4000 50  0001 C CNN
F 4 "1%" H 6400 4000 50  0001 C CNN "Tolerance"
	1    6400 4000
	-1   0    0    -1  
$EndComp
$Comp
L Device:R R?
U 1 1 5EE70D68
P 6100 4000
AR Path="/5EE70D68" Ref="R?"  Part="1" 
AR Path="/5EB41214/5EE70D68" Ref="R?"  Part="1" 
AR Path="/5EB41214/5EBBD8A5/5EE70D68" Ref="R?"  Part="1" 
AR Path="/5ED2BC2A/5EBBD8A5/5EE70D68" Ref="R?"  Part="1" 
AR Path="/5EB41214/5EE0AFAE/5EE70D68" Ref="R?"  Part="1" 
AR Path="/5ED2BC2A/5EE0E694/5EE70D68" Ref="R?"  Part="1" 
AR Path="/5EE0AC5D/5EBBD8A5/5EE70D68" Ref="R?"  Part="1" 
AR Path="/5EE0E313/5EBBD8A5/5EE70D68" Ref="R?"  Part="1" 
AR Path="/5EE55D87/5EE70D68" Ref="R?"  Part="1" 
AR Path="/5EE5AAE3/5EE61F79/5EE70D68" Ref="R?"  Part="1" 
AR Path="/5EE77D5A/5EBBD8A5/5EE70D68" Ref="R?"  Part="1" 
AR Path="/5EE8A13E/5EE79806/5EE70D68" Ref="R?"  Part="1" 
AR Path="/5EE8A13E/5EEC632A/5EE70D68" Ref="R?"  Part="1" 
AR Path="/5EE0AC5D/5EE8A622/5EE70D68" Ref="R?"  Part="1" 
AR Path="/5EE0E313/5EE79806/5EE70D68" Ref="R?"  Part="1" 
AR Path="/5EE8A13E/5EBF17AF/5EE70D68" Ref="R?"  Part="1" 
AR Path="/5EBFB816/5EE0AFAE/5EE70D68" Ref="R?"  Part="1" 
AR Path="/5ECA2575/5EE0E694/5EE70D68" Ref="R?"  Part="1" 
AR Path="/5ECAC95D/5EE0E694/5EE70D68" Ref="R?"  Part="1" 
AR Path="/5ED2BC2A/5ECD5689/5EE70D68" Ref="R?"  Part="1" 
AR Path="/5EB41214/5F0724C9/5EE70D68" Ref="R?"  Part="1" 
AR Path="/5ECA36FF/5EE61F79/5EE70D68" Ref="R?"  Part="1" 
AR Path="/5EE5AAE3/5ED7E0D0/5EE70D68" Ref="R?"  Part="1" 
AR Path="/5ED08686/5ED1C478/5EE70D68" Ref="R?"  Part="1" 
AR Path="/5EE0AC5D/5EDAF55D/5EE70D68" Ref="R?"  Part="1" 
AR Path="/5EE0E313/5EDB0036/5EE70D68" Ref="R?"  Part="1" 
AR Path="/5EE0E313/5EDB0B50/5EE70D68" Ref="R?"  Part="1" 
AR Path="/5EE5AAE3/5EDB1EB2/5EE70D68" Ref="R?"  Part="1" 
AR Path="/5EE77D5A/5EDB229D/5EE70D68" Ref="R?"  Part="1" 
AR Path="/5EE77D5A/5EDB2B01/5EE70D68" Ref="R?"  Part="1" 
AR Path="/5ECA36FF/5EDB3381/5EE70D68" Ref="R?"  Part="1" 
AR Path="/5ECA36FF/5EDB35CF/5EE70D68" Ref="R?"  Part="1" 
AR Path="/5ECDAC29/5EE5CC9B/5EE70D68" Ref="R?"  Part="1" 
AR Path="/5ECDAC29/5EE5EDC3/5EE70D68" Ref="R?"  Part="1" 
AR Path="/5ECDAC29/5EE6E926/5EE70D68" Ref="R?"  Part="1" 
AR Path="/5ECDAC29/5EE6F39F/5EE70D68" Ref="R?"  Part="1" 
F 0 "R?" H 6170 4046 50  0000 L CNN
F 1 "R 316" H 6150 3950 50  0000 L CNN
F 2 "Resistor_SMD:R_0805_2012Metric_Pad1.15x1.40mm_HandSolder" V 6030 4000 50  0001 C CNN
F 3 "~" H 6100 4000 50  0001 C CNN
F 4 "1%" H 6100 4000 50  0001 C CNN "Tolerance"
	1    6100 4000
	-1   0    0    -1  
$EndComp
$Comp
L LEDs_magne:AM23ESGC D?
U 1 1 5EE70D6E
P 6200 4250
AR Path="/5EB41214/5EE70D6E" Ref="D?"  Part="1" 
AR Path="/5EB41214/5EBBD8A5/5EE70D6E" Ref="D?"  Part="1" 
AR Path="/5ED2BC2A/5EBBD8A5/5EE70D6E" Ref="D?"  Part="1" 
AR Path="/5EB41214/5EE0AFAE/5EE70D6E" Ref="D?"  Part="1" 
AR Path="/5ED2BC2A/5EE0E694/5EE70D6E" Ref="D?"  Part="1" 
AR Path="/5EE0AC5D/5EBBD8A5/5EE70D6E" Ref="D?"  Part="1" 
AR Path="/5EE0E313/5EBBD8A5/5EE70D6E" Ref="D?"  Part="1" 
AR Path="/5EE55D87/5EE70D6E" Ref="D?"  Part="1" 
AR Path="/5EE5AAE3/5EE61F79/5EE70D6E" Ref="D?"  Part="1" 
AR Path="/5EE77D5A/5EBBD8A5/5EE70D6E" Ref="D?"  Part="1" 
AR Path="/5EE8A13E/5EE79806/5EE70D6E" Ref="D?"  Part="1" 
AR Path="/5EE8A13E/5EEC632A/5EE70D6E" Ref="D?"  Part="1" 
AR Path="/5EE0AC5D/5EE8A622/5EE70D6E" Ref="D?"  Part="1" 
AR Path="/5EE0E313/5EE79806/5EE70D6E" Ref="D?"  Part="1" 
AR Path="/5EE8A13E/5EBF17AF/5EE70D6E" Ref="D?"  Part="1" 
AR Path="/5EBFB816/5EE0AFAE/5EE70D6E" Ref="D?"  Part="1" 
AR Path="/5ECA2575/5EE0E694/5EE70D6E" Ref="D?"  Part="1" 
AR Path="/5ECAC95D/5EE0E694/5EE70D6E" Ref="D?"  Part="1" 
AR Path="/5ED2BC2A/5ECD5689/5EE70D6E" Ref="D?"  Part="1" 
AR Path="/5EB41214/5F0724C9/5EE70D6E" Ref="D?"  Part="1" 
AR Path="/5ECA36FF/5EE61F79/5EE70D6E" Ref="D?"  Part="1" 
AR Path="/5EE5AAE3/5ED7E0D0/5EE70D6E" Ref="D?"  Part="1" 
AR Path="/5ED08686/5ED1C478/5EE70D6E" Ref="D?"  Part="1" 
AR Path="/5EE0AC5D/5EDAF55D/5EE70D6E" Ref="D?"  Part="1" 
AR Path="/5EE0E313/5EDB0036/5EE70D6E" Ref="D?"  Part="1" 
AR Path="/5EE0E313/5EDB0B50/5EE70D6E" Ref="D?"  Part="1" 
AR Path="/5EE5AAE3/5EDB1EB2/5EE70D6E" Ref="D?"  Part="1" 
AR Path="/5EE77D5A/5EDB229D/5EE70D6E" Ref="D?"  Part="1" 
AR Path="/5EE77D5A/5EDB2B01/5EE70D6E" Ref="D?"  Part="1" 
AR Path="/5ECA36FF/5EDB3381/5EE70D6E" Ref="D?"  Part="1" 
AR Path="/5ECA36FF/5EDB35CF/5EE70D6E" Ref="D?"  Part="1" 
AR Path="/5ECDAC29/5EE5CC9B/5EE70D6E" Ref="D?"  Part="1" 
AR Path="/5ECDAC29/5EE5EDC3/5EE70D6E" Ref="D?"  Part="1" 
AR Path="/5ECDAC29/5EE6E926/5EE70D6E" Ref="D?"  Part="1" 
AR Path="/5ECDAC29/5EE6F39F/5EE70D6E" Ref="D?"  Part="1" 
F 0 "D?" H 6468 4109 50  0000 L CNN
F 1 "AM23ESGC" H 6468 4018 50  0000 L CNN
F 2 "Package_TO_SOT_SMD:SOT-23_Handsoldering" H 6250 4250 50  0001 C CNN
F 3 "http://www.kingbrightusa.com/images/catalog/SPEC/AM23ESGC.pdf" H 6250 4250 50  0001 C CNN
	1    6200 4250
	-1   0    0    -1  
$EndComp
$Comp
L Analog_Switch:NC7SB3157P6X U?
U 1 1 5EE70D74
P 6350 3450
AR Path="/5EB41214/5EE0AFAE/5EE70D74" Ref="U?"  Part="2" 
AR Path="/5ED2BC2A/5EE0E694/5EE70D74" Ref="U?"  Part="2" 
AR Path="/5EE0AC5D/5EBBD8A5/5EE70D74" Ref="U?"  Part="2" 
AR Path="/5EE0E313/5EBBD8A5/5EE70D74" Ref="U?"  Part="2" 
AR Path="/5EE55D87/5EE70D74" Ref="U?"  Part="2" 
AR Path="/5EE5AAE3/5EE61F79/5EE70D74" Ref="U?"  Part="1" 
AR Path="/5EE77D5A/5EBBD8A5/5EE70D74" Ref="U?"  Part="2" 
AR Path="/5EE8A13E/5EE79806/5EE70D74" Ref="U?"  Part="2" 
AR Path="/5EE8A13E/5EEC632A/5EE70D74" Ref="U?"  Part="2" 
AR Path="/5EE0AC5D/5EE8A622/5EE70D74" Ref="U?"  Part="2" 
AR Path="/5EE0E313/5EE79806/5EE70D74" Ref="U?"  Part="2" 
AR Path="/5EE8A13E/5EBF17AF/5EE70D74" Ref="U?"  Part="2" 
AR Path="/5EBFB816/5EE0AFAE/5EE70D74" Ref="U?"  Part="2" 
AR Path="/5ECA2575/5EE0E694/5EE70D74" Ref="U?"  Part="2" 
AR Path="/5ECAC95D/5EE0E694/5EE70D74" Ref="U?"  Part="2" 
AR Path="/5ED2BC2A/5ECD5689/5EE70D74" Ref="U?"  Part="2" 
AR Path="/5EB41214/5F0724C9/5EE70D74" Ref="U?"  Part="2" 
AR Path="/5ECA36FF/5EE61F79/5EE70D74" Ref="U?"  Part="1" 
AR Path="/5EE5AAE3/5ED7E0D0/5EE70D74" Ref="U?"  Part="2" 
AR Path="/5ED08686/5ED1C478/5EE70D74" Ref="U?"  Part="1" 
AR Path="/5EE0AC5D/5EDAF55D/5EE70D74" Ref="U?"  Part="1" 
AR Path="/5EE0E313/5EDB0036/5EE70D74" Ref="U?"  Part="1" 
AR Path="/5EE0E313/5EDB0B50/5EE70D74" Ref="U?"  Part="1" 
AR Path="/5EE5AAE3/5EDB1EB2/5EE70D74" Ref="U?"  Part="1" 
AR Path="/5EE77D5A/5EDB229D/5EE70D74" Ref="U?"  Part="1" 
AR Path="/5EE77D5A/5EDB2B01/5EE70D74" Ref="U?"  Part="1" 
AR Path="/5ECA36FF/5EDB3381/5EE70D74" Ref="U?"  Part="1" 
AR Path="/5ECA36FF/5EDB35CF/5EE70D74" Ref="U?"  Part="1" 
AR Path="/5ECDAC29/5EE5CC9B/5EE70D74" Ref="U?"  Part="1" 
AR Path="/5ECDAC29/5EE5EDC3/5EE70D74" Ref="U?"  Part="1" 
AR Path="/5ECDAC29/5EE6E926/5EE70D74" Ref="U?"  Part="1" 
AR Path="/5ECDAC29/5EE6F39F/5EE70D74" Ref="U?"  Part="1" 
F 0 "U?" V 6150 3700 50  0000 L CNN
F 1 "NC7SB3157P6X" V 6250 3700 50  0000 L CNN
F 2 "Package_TO_SOT_SMD:SOT-363_SC-70-6" H 6350 3150 50  0001 C CNN
F 3 "https://www.onsemi.com/pub/Collateral/NC7SB3157-D.PDF" H 6350 3450 50  0001 C CNN
	1    6350 3450
	0    1    1    0   
$EndComp
Wire Wire Line
	4900 4550 4900 4650
Wire Wire Line
	4900 4650 5200 4650
Wire Wire Line
	6250 4650 6250 4600
Text HLabel 5850 3450 0    50   Input ~ 0
Cntrl
Wire Wire Line
	5850 3450 5950 3450
Wire Wire Line
	6150 3750 6100 3750
Wire Wire Line
	6400 3750 6400 3850
Wire Wire Line
	6350 3750 6400 3750
$Comp
L Device:C C?
U 1 1 5EE70D84
P 5200 4300
AR Path="/5EB41214/5EE0AFAE/5EE70D84" Ref="C?"  Part="1" 
AR Path="/5ED2BC2A/5EE0E694/5EE70D84" Ref="C?"  Part="1" 
AR Path="/5EE0AC5D/5EBBD8A5/5EE70D84" Ref="C?"  Part="1" 
AR Path="/5EE0E313/5EBBD8A5/5EE70D84" Ref="C?"  Part="1" 
AR Path="/5EE55D87/5EE70D84" Ref="C?"  Part="1" 
AR Path="/5EE5AAE3/5EE61F79/5EE70D84" Ref="C?"  Part="1" 
AR Path="/5EE77D5A/5EBBD8A5/5EE70D84" Ref="C?"  Part="1" 
AR Path="/5EE8A13E/5EE79806/5EE70D84" Ref="C?"  Part="1" 
AR Path="/5EE8A13E/5EEC632A/5EE70D84" Ref="C?"  Part="1" 
AR Path="/5EE0AC5D/5EE8A622/5EE70D84" Ref="C?"  Part="1" 
AR Path="/5EE0E313/5EE79806/5EE70D84" Ref="C?"  Part="1" 
AR Path="/5EE8A13E/5EBF17AF/5EE70D84" Ref="C?"  Part="1" 
AR Path="/5EBFB816/5EE0AFAE/5EE70D84" Ref="C?"  Part="1" 
AR Path="/5ECA2575/5EE0E694/5EE70D84" Ref="C?"  Part="1" 
AR Path="/5ECAC95D/5EE0E694/5EE70D84" Ref="C?"  Part="1" 
AR Path="/5ED2BC2A/5ECD5689/5EE70D84" Ref="C?"  Part="1" 
AR Path="/5EB41214/5F0724C9/5EE70D84" Ref="C?"  Part="1" 
AR Path="/5ECA36FF/5EE61F79/5EE70D84" Ref="C?"  Part="1" 
AR Path="/5EE5AAE3/5ED7E0D0/5EE70D84" Ref="C?"  Part="1" 
AR Path="/5ED08686/5ED1C478/5EE70D84" Ref="C?"  Part="1" 
AR Path="/5EE0AC5D/5EDAF55D/5EE70D84" Ref="C?"  Part="1" 
AR Path="/5EE0E313/5EDB0036/5EE70D84" Ref="C?"  Part="1" 
AR Path="/5EE0E313/5EDB0B50/5EE70D84" Ref="C?"  Part="1" 
AR Path="/5EE5AAE3/5EDB1EB2/5EE70D84" Ref="C?"  Part="1" 
AR Path="/5EE77D5A/5EDB229D/5EE70D84" Ref="C?"  Part="1" 
AR Path="/5EE77D5A/5EDB2B01/5EE70D84" Ref="C?"  Part="1" 
AR Path="/5ECA36FF/5EDB3381/5EE70D84" Ref="C?"  Part="1" 
AR Path="/5ECA36FF/5EDB35CF/5EE70D84" Ref="C?"  Part="1" 
AR Path="/5ECDAC29/5EE5CC9B/5EE70D84" Ref="C?"  Part="1" 
AR Path="/5ECDAC29/5EE5EDC3/5EE70D84" Ref="C?"  Part="1" 
AR Path="/5ECDAC29/5EE6E926/5EE70D84" Ref="C?"  Part="1" 
AR Path="/5ECDAC29/5EE6F39F/5EE70D84" Ref="C?"  Part="1" 
F 0 "C?" H 5315 4346 50  0000 L CNN
F 1 "C 47n" H 5315 4255 50  0000 L CNN
F 2 "Capacitor_SMD:C_0805_2012Metric_Pad1.15x1.40mm_HandSolder" H 5238 4150 50  0001 C CNN
F 3 "~" H 5200 4300 50  0001 C CNN
F 4 "16" H 5200 4300 50  0001 C CNN "Voltage - rated"
F 5 "20%" H 5200 4300 50  0001 C CNN "Tolerance"
	1    5200 4300
	1    0    0    -1  
$EndComp
Wire Wire Line
	5200 4450 5200 4650
Connection ~ 5200 4650
Wire Wire Line
	5200 4650 6250 4650
Wire Wire Line
	5200 4150 5200 3550
Wire Wire Line
	5200 3550 4900 3550
Wire Wire Line
	4900 2900 4900 3050
Wire Wire Line
	6250 3150 6250 3050
Wire Wire Line
	6250 3050 4900 3050
Connection ~ 4900 3050
Wire Wire Line
	4900 3050 4900 3550
$Comp
L power:GND #PWR?
U 1 1 5EE70D94
P 4900 4650
AR Path="/5EE0AC5D/5EE8A622/5EE70D94" Ref="#PWR?"  Part="1" 
AR Path="/5EB41214/5EE0AFAE/5EE70D94" Ref="#PWR?"  Part="1" 
AR Path="/5EB41214/5F0724C9/5EE70D94" Ref="#PWR?"  Part="1" 
AR Path="/5EE0E313/5EE79806/5EE70D94" Ref="#PWR?"  Part="1" 
AR Path="/5EE5AAE3/5EE61F79/5EE70D94" Ref="#PWR?"  Part="1" 
AR Path="/5EE77D5A/5EBBD8A5/5EE70D94" Ref="#PWR?"  Part="1" 
AR Path="/5ED2BC2A/5EE0E694/5EE70D94" Ref="#PWR?"  Part="1" 
AR Path="/5ECA36FF/5EE61F79/5EE70D94" Ref="#PWR?"  Part="1" 
AR Path="/5EE5AAE3/5ED7E0D0/5EE70D94" Ref="#PWR?"  Part="1" 
AR Path="/5ED08686/5ED1C478/5EE70D94" Ref="#PWR?"  Part="1" 
AR Path="/5EE0AC5D/5EDAF55D/5EE70D94" Ref="#PWR?"  Part="1" 
AR Path="/5EE0E313/5EDB0036/5EE70D94" Ref="#PWR?"  Part="1" 
AR Path="/5EE0E313/5EDB0B50/5EE70D94" Ref="#PWR?"  Part="1" 
AR Path="/5EE5AAE3/5EDB1EB2/5EE70D94" Ref="#PWR?"  Part="1" 
AR Path="/5EE77D5A/5EDB229D/5EE70D94" Ref="#PWR?"  Part="1" 
AR Path="/5EE77D5A/5EDB2B01/5EE70D94" Ref="#PWR?"  Part="1" 
AR Path="/5ECA36FF/5EDB3381/5EE70D94" Ref="#PWR?"  Part="1" 
AR Path="/5ECA36FF/5EDB35CF/5EE70D94" Ref="#PWR?"  Part="1" 
AR Path="/5ECDAC29/5EE5CC9B/5EE70D94" Ref="#PWR?"  Part="1" 
AR Path="/5ECDAC29/5EE5EDC3/5EE70D94" Ref="#PWR?"  Part="1" 
AR Path="/5ECDAC29/5EE6E926/5EE70D94" Ref="#PWR?"  Part="1" 
AR Path="/5ECDAC29/5EE6F39F/5EE70D94" Ref="#PWR?"  Part="1" 
F 0 "#PWR?" H 4900 4400 50  0001 C CNN
F 1 "GND" H 4905 4477 50  0000 C CNN
F 2 "" H 4900 4650 50  0001 C CNN
F 3 "" H 4900 4650 50  0001 C CNN
	1    4900 4650
	1    0    0    -1  
$EndComp
Connection ~ 4900 4650
$Comp
L power:+5V #PWR?
U 1 1 5EE70D9B
P 4900 2900
AR Path="/5EE0AC5D/5EE8A622/5EE70D9B" Ref="#PWR?"  Part="1" 
AR Path="/5EB41214/5EE0AFAE/5EE70D9B" Ref="#PWR?"  Part="1" 
AR Path="/5EB41214/5F0724C9/5EE70D9B" Ref="#PWR?"  Part="1" 
AR Path="/5EE0E313/5EE79806/5EE70D9B" Ref="#PWR?"  Part="1" 
AR Path="/5EE5AAE3/5EE61F79/5EE70D9B" Ref="#PWR?"  Part="1" 
AR Path="/5EE77D5A/5EBBD8A5/5EE70D9B" Ref="#PWR?"  Part="1" 
AR Path="/5ED2BC2A/5EE0E694/5EE70D9B" Ref="#PWR?"  Part="1" 
AR Path="/5ECA36FF/5EE61F79/5EE70D9B" Ref="#PWR?"  Part="1" 
AR Path="/5EE5AAE3/5ED7E0D0/5EE70D9B" Ref="#PWR?"  Part="1" 
AR Path="/5ED08686/5ED1C478/5EE70D9B" Ref="#PWR?"  Part="1" 
AR Path="/5EE0AC5D/5EDAF55D/5EE70D9B" Ref="#PWR?"  Part="1" 
AR Path="/5EE0E313/5EDB0036/5EE70D9B" Ref="#PWR?"  Part="1" 
AR Path="/5EE0E313/5EDB0B50/5EE70D9B" Ref="#PWR?"  Part="1" 
AR Path="/5EE5AAE3/5EDB1EB2/5EE70D9B" Ref="#PWR?"  Part="1" 
AR Path="/5EE77D5A/5EDB229D/5EE70D9B" Ref="#PWR?"  Part="1" 
AR Path="/5EE77D5A/5EDB2B01/5EE70D9B" Ref="#PWR?"  Part="1" 
AR Path="/5ECA36FF/5EDB3381/5EE70D9B" Ref="#PWR?"  Part="1" 
AR Path="/5ECA36FF/5EDB35CF/5EE70D9B" Ref="#PWR?"  Part="1" 
AR Path="/5ECDAC29/5EE5CC9B/5EE70D9B" Ref="#PWR?"  Part="1" 
AR Path="/5ECDAC29/5EE5EDC3/5EE70D9B" Ref="#PWR?"  Part="1" 
AR Path="/5ECDAC29/5EE6E926/5EE70D9B" Ref="#PWR?"  Part="1" 
AR Path="/5ECDAC29/5EE6F39F/5EE70D9B" Ref="#PWR?"  Part="1" 
F 0 "#PWR?" H 4900 2750 50  0001 C CNN
F 1 "+5V" H 4915 3073 50  0000 C CNN
F 2 "" H 4900 2900 50  0001 C CNN
F 3 "" H 4900 2900 50  0001 C CNN
	1    4900 2900
	1    0    0    -1  
$EndComp
$Comp
L Analog_Switch:NC7SB3157P6X U?
U 2 1 5EE70DA1
P 4900 4050
AR Path="/5EB41214/5EE0AFAE/5EE70DA1" Ref="U?"  Part="1" 
AR Path="/5ED2BC2A/5EE0E694/5EE70DA1" Ref="U?"  Part="1" 
AR Path="/5EE0AC5D/5EBBD8A5/5EE70DA1" Ref="U?"  Part="1" 
AR Path="/5EE0E313/5EBBD8A5/5EE70DA1" Ref="U?"  Part="1" 
AR Path="/5EE55D87/5EE70DA1" Ref="U?"  Part="1" 
AR Path="/5EE5AAE3/5EE61F79/5EE70DA1" Ref="U?"  Part="2" 
AR Path="/5EE77D5A/5EBBD8A5/5EE70DA1" Ref="U?"  Part="1" 
AR Path="/5EE8A13E/5EE79806/5EE70DA1" Ref="U?"  Part="1" 
AR Path="/5EE8A13E/5EEC632A/5EE70DA1" Ref="U?"  Part="1" 
AR Path="/5EE0AC5D/5EE8A622/5EE70DA1" Ref="U?"  Part="1" 
AR Path="/5EE0E313/5EE79806/5EE70DA1" Ref="U?"  Part="1" 
AR Path="/5EE8A13E/5EBF17AF/5EE70DA1" Ref="U?"  Part="1" 
AR Path="/5EBFB816/5EE0AFAE/5EE70DA1" Ref="U?"  Part="1" 
AR Path="/5ECA2575/5EE0E694/5EE70DA1" Ref="U?"  Part="1" 
AR Path="/5ECAC95D/5EE0E694/5EE70DA1" Ref="U?"  Part="1" 
AR Path="/5ED2BC2A/5ECD5689/5EE70DA1" Ref="U?"  Part="1" 
AR Path="/5EB41214/5F0724C9/5EE70DA1" Ref="U?"  Part="1" 
AR Path="/5ECA36FF/5EE61F79/5EE70DA1" Ref="U?"  Part="2" 
AR Path="/5EE5AAE3/5ED7E0D0/5EE70DA1" Ref="U?"  Part="1" 
AR Path="/5ED08686/5ED1C478/5EE70DA1" Ref="U?"  Part="2" 
AR Path="/5EE0AC5D/5EDAF55D/5EE70DA1" Ref="U?"  Part="2" 
AR Path="/5EE0E313/5EDB0036/5EE70DA1" Ref="U?"  Part="2" 
AR Path="/5EE0E313/5EDB0B50/5EE70DA1" Ref="U?"  Part="2" 
AR Path="/5EE5AAE3/5EDB1EB2/5EE70DA1" Ref="U?"  Part="2" 
AR Path="/5EE77D5A/5EDB229D/5EE70DA1" Ref="U?"  Part="2" 
AR Path="/5EE77D5A/5EDB2B01/5EE70DA1" Ref="U?"  Part="2" 
AR Path="/5ECA36FF/5EDB3381/5EE70DA1" Ref="U?"  Part="2" 
AR Path="/5ECA36FF/5EDB35CF/5EE70DA1" Ref="U?"  Part="2" 
AR Path="/5ECDAC29/5EE5CC9B/5EE70DA1" Ref="U?"  Part="2" 
AR Path="/5ECDAC29/5EE5EDC3/5EE70DA1" Ref="U?"  Part="2" 
AR Path="/5ECDAC29/5EE6E926/5EE70DA1" Ref="U?"  Part="2" 
AR Path="/5ECDAC29/5EE6F39F/5EE70DA1" Ref="U?"  Part="2" 
F 0 "U?" H 4400 4250 50  0000 L CNN
F 1 "NC7SB3157P6X" H 4050 4400 50  0000 L CNN
F 2 "Package_TO_SOT_SMD:SOT-363_SC-70-6" H 4900 3750 50  0001 C CNN
F 3 "https://www.onsemi.com/pub/Collateral/NC7SB3157-D.PDF" H 4900 4050 50  0001 C CNN
	2    4900 4050
	1    0    0    -1  
$EndComp
Connection ~ 4900 3550
Wire Wire Line
	6100 4150 6100 4250
Wire Wire Line
	6400 4150 6400 4250
Wire Wire Line
	6100 3750 6100 3850
$Comp
L Device:R R?
U 1 1 5EE70D61
P 6400 4000
AR Path="/5EE70D61" Ref="R?"  Part="1" 
AR Path="/5EB41214/5EE70D61" Ref="R?"  Part="1" 
AR Path="/5EB41214/5EBBD8A5/5EE70D61" Ref="R?"  Part="1" 
AR Path="/5ED2BC2A/5EBBD8A5/5EE70D61" Ref="R?"  Part="1" 
AR Path="/5EB41214/5EE0AFAE/5EE70D61" Ref="R?"  Part="1" 
AR Path="/5ED2BC2A/5EE0E694/5EE70D61" Ref="R?"  Part="1" 
AR Path="/5EE0AC5D/5EBBD8A5/5EE70D61" Ref="R?"  Part="1" 
AR Path="/5EE0E313/5EBBD8A5/5EE70D61" Ref="R?"  Part="1" 
AR Path="/5EE55D87/5EE70D61" Ref="R?"  Part="1" 
AR Path="/5EE5AAE3/5EE61F79/5EE70D61" Ref="R?"  Part="1" 
AR Path="/5EE77D5A/5EBBD8A5/5EE70D61" Ref="R?"  Part="1" 
AR Path="/5EE8A13E/5EE79806/5EE70D61" Ref="R?"  Part="1" 
AR Path="/5EE8A13E/5EEC632A/5EE70D61" Ref="R?"  Part="1" 
AR Path="/5EE0AC5D/5EE8A622/5EE70D61" Ref="R?"  Part="1" 
AR Path="/5EE0E313/5EE79806/5EE70D61" Ref="R?"  Part="1" 
AR Path="/5EE8A13E/5EBF17AF/5EE70D61" Ref="R?"  Part="1" 
AR Path="/5EBFB816/5EE0AFAE/5EE70D61" Ref="R?"  Part="1" 
AR Path="/5ECA2575/5EE0E694/5EE70D61" Ref="R?"  Part="1" 
AR Path="/5ECAC95D/5EE0E694/5EE70D61" Ref="R?"  Part="1" 
AR Path="/5ED2BC2A/5ECD5689/5EE70D61" Ref="R?"  Part="1" 
AR Path="/5EB41214/5F0724C9/5EE70D61" Ref="R?"  Part="1" 
AR Path="/5ECA36FF/5EE61F79/5EE70D61" Ref="R?"  Part="1" 
AR Path="/5EE5AAE3/5ED7E0D0/5EE70D61" Ref="R?"  Part="1" 
AR Path="/5ED08686/5ED1C478/5EE70D61" Ref="R?"  Part="1" 
AR Path="/5EE0AC5D/5EDAF55D/5EE70D61" Ref="R?"  Part="1" 
AR Path="/5EE0E313/5EDB0036/5EE70D61" Ref="R?"  Part="1" 
AR Path="/5EE0E313/5EDB0B50/5EE70D61" Ref="R?"  Part="1" 
AR Path="/5EE5AAE3/5EDB1EB2/5EE70D61" Ref="R?"  Part="1" 
AR Path="/5EE77D5A/5EDB229D/5EE70D61" Ref="R?"  Part="1" 
AR Path="/5EE77D5A/5EDB2B01/5EE70D61" Ref="R?"  Part="1" 
AR Path="/5ECA36FF/5EDB3381/5EE70D61" Ref="R?"  Part="1" 
AR Path="/5ECA36FF/5EDB35CF/5EE70D61" Ref="R?"  Part="1" 
AR Path="/5ECDAC29/5EE5CC9B/5EE70D61" Ref="R?"  Part="1" 
AR Path="/5ECDAC29/5EE5EDC3/5EE70D61" Ref="R?"  Part="1" 
AR Path="/5ECDAC29/5EE6E926/5EE70D61" Ref="R?"  Part="1" 
AR Path="/5ECDAC29/5EE6F39F/5EE70D61" Ref="R?"  Part="1" 
F 0 "R?" H 6250 4050 50  0000 L CNN
F 1 "R 255" H 5650 3950 50  0000 L CNN
F 2 "Resistor_SMD:R_0805_2012Metric_Pad1.15x1.40mm_HandSolder" V 6330 4000 50  0001 C CNN
F 3 "~" H 6400 4000 50  0001 C CNN
F 4 "1%" H 6400 4000 50  0001 C CNN "Tolerance"
	1    6400 4000
	-1   0    0    -1  
$EndComp
$Comp
L Device:R R?
U 1 1 5EE70D68
P 6100 4000
AR Path="/5EE70D68" Ref="R?"  Part="1" 
AR Path="/5EB41214/5EE70D68" Ref="R?"  Part="1" 
AR Path="/5EB41214/5EBBD8A5/5EE70D68" Ref="R?"  Part="1" 
AR Path="/5ED2BC2A/5EBBD8A5/5EE70D68" Ref="R?"  Part="1" 
AR Path="/5EB41214/5EE0AFAE/5EE70D68" Ref="R?"  Part="1" 
AR Path="/5ED2BC2A/5EE0E694/5EE70D68" Ref="R?"  Part="1" 
AR Path="/5EE0AC5D/5EBBD8A5/5EE70D68" Ref="R?"  Part="1" 
AR Path="/5EE0E313/5EBBD8A5/5EE70D68" Ref="R?"  Part="1" 
AR Path="/5EE55D87/5EE70D68" Ref="R?"  Part="1" 
AR Path="/5EE5AAE3/5EE61F79/5EE70D68" Ref="R?"  Part="1" 
AR Path="/5EE77D5A/5EBBD8A5/5EE70D68" Ref="R?"  Part="1" 
AR Path="/5EE8A13E/5EE79806/5EE70D68" Ref="R?"  Part="1" 
AR Path="/5EE8A13E/5EEC632A/5EE70D68" Ref="R?"  Part="1" 
AR Path="/5EE0AC5D/5EE8A622/5EE70D68" Ref="R?"  Part="1" 
AR Path="/5EE0E313/5EE79806/5EE70D68" Ref="R?"  Part="1" 
AR Path="/5EE8A13E/5EBF17AF/5EE70D68" Ref="R?"  Part="1" 
AR Path="/5EBFB816/5EE0AFAE/5EE70D68" Ref="R?"  Part="1" 
AR Path="/5ECA2575/5EE0E694/5EE70D68" Ref="R?"  Part="1" 
AR Path="/5ECAC95D/5EE0E694/5EE70D68" Ref="R?"  Part="1" 
AR Path="/5ED2BC2A/5ECD5689/5EE70D68" Ref="R?"  Part="1" 
AR Path="/5EB41214/5F0724C9/5EE70D68" Ref="R?"  Part="1" 
AR Path="/5ECA36FF/5EE61F79/5EE70D68" Ref="R?"  Part="1" 
AR Path="/5EE5AAE3/5ED7E0D0/5EE70D68" Ref="R?"  Part="1" 
AR Path="/5ED08686/5ED1C478/5EE70D68" Ref="R?"  Part="1" 
AR Path="/5EE0AC5D/5EDAF55D/5EE70D68" Ref="R?"  Part="1" 
AR Path="/5EE0E313/5EDB0036/5EE70D68" Ref="R?"  Part="1" 
AR Path="/5EE0E313/5EDB0B50/5EE70D68" Ref="R?"  Part="1" 
AR Path="/5EE5AAE3/5EDB1EB2/5EE70D68" Ref="R?"  Part="1" 
AR Path="/5EE77D5A/5EDB229D/5EE70D68" Ref="R?"  Part="1" 
AR Path="/5EE77D5A/5EDB2B01/5EE70D68" Ref="R?"  Part="1" 
AR Path="/5ECA36FF/5EDB3381/5EE70D68" Ref="R?"  Part="1" 
AR Path="/5ECA36FF/5EDB35CF/5EE70D68" Ref="R?"  Part="1" 
AR Path="/5ECDAC29/5EE5CC9B/5EE70D68" Ref="R?"  Part="1" 
AR Path="/5ECDAC29/5EE5EDC3/5EE70D68" Ref="R?"  Part="1" 
AR Path="/5ECDAC29/5EE6E926/5EE70D68" Ref="R?"  Part="1" 
AR Path="/5ECDAC29/5EE6F39F/5EE70D68" Ref="R?"  Part="1" 
F 0 "R?" H 6170 4046 50  0000 L CNN
F 1 "R 316" H 6150 3950 50  0000 L CNN
F 2 "Resistor_SMD:R_0805_2012Metric_Pad1.15x1.40mm_HandSolder" V 6030 4000 50  0001 C CNN
F 3 "~" H 6100 4000 50  0001 C CNN
F 4 "1%" H 6100 4000 50  0001 C CNN "Tolerance"
	1    6100 4000
	-1   0    0    -1  
$EndComp
$Comp
L LEDs_magne:AM23ESGC D?
U 1 1 5EE70D6E
P 6200 4250
AR Path="/5EB41214/5EE70D6E" Ref="D?"  Part="1" 
AR Path="/5EB41214/5EBBD8A5/5EE70D6E" Ref="D?"  Part="1" 
AR Path="/5ED2BC2A/5EBBD8A5/5EE70D6E" Ref="D?"  Part="1" 
AR Path="/5EB41214/5EE0AFAE/5EE70D6E" Ref="D?"  Part="1" 
AR Path="/5ED2BC2A/5EE0E694/5EE70D6E" Ref="D?"  Part="1" 
AR Path="/5EE0AC5D/5EBBD8A5/5EE70D6E" Ref="D?"  Part="1" 
AR Path="/5EE0E313/5EBBD8A5/5EE70D6E" Ref="D?"  Part="1" 
AR Path="/5EE55D87/5EE70D6E" Ref="D?"  Part="1" 
AR Path="/5EE5AAE3/5EE61F79/5EE70D6E" Ref="D?"  Part="1" 
AR Path="/5EE77D5A/5EBBD8A5/5EE70D6E" Ref="D?"  Part="1" 
AR Path="/5EE8A13E/5EE79806/5EE70D6E" Ref="D?"  Part="1" 
AR Path="/5EE8A13E/5EEC632A/5EE70D6E" Ref="D?"  Part="1" 
AR Path="/5EE0AC5D/5EE8A622/5EE70D6E" Ref="D?"  Part="1" 
AR Path="/5EE0E313/5EE79806/5EE70D6E" Ref="D?"  Part="1" 
AR Path="/5EE8A13E/5EBF17AF/5EE70D6E" Ref="D?"  Part="1" 
AR Path="/5EBFB816/5EE0AFAE/5EE70D6E" Ref="D?"  Part="1" 
AR Path="/5ECA2575/5EE0E694/5EE70D6E" Ref="D?"  Part="1" 
AR Path="/5ECAC95D/5EE0E694/5EE70D6E" Ref="D?"  Part="1" 
AR Path="/5ED2BC2A/5ECD5689/5EE70D6E" Ref="D?"  Part="1" 
AR Path="/5EB41214/5F0724C9/5EE70D6E" Ref="D?"  Part="1" 
AR Path="/5ECA36FF/5EE61F79/5EE70D6E" Ref="D?"  Part="1" 
AR Path="/5EE5AAE3/5ED7E0D0/5EE70D6E" Ref="D?"  Part="1" 
AR Path="/5ED08686/5ED1C478/5EE70D6E" Ref="D?"  Part="1" 
AR Path="/5EE0AC5D/5EDAF55D/5EE70D6E" Ref="D?"  Part="1" 
AR Path="/5EE0E313/5EDB0036/5EE70D6E" Ref="D?"  Part="1" 
AR Path="/5EE0E313/5EDB0B50/5EE70D6E" Ref="D?"  Part="1" 
AR Path="/5EE5AAE3/5EDB1EB2/5EE70D6E" Ref="D?"  Part="1" 
AR Path="/5EE77D5A/5EDB229D/5EE70D6E" Ref="D?"  Part="1" 
AR Path="/5EE77D5A/5EDB2B01/5EE70D6E" Ref="D?"  Part="1" 
AR Path="/5ECA36FF/5EDB3381/5EE70D6E" Ref="D?"  Part="1" 
AR Path="/5ECA36FF/5EDB35CF/5EE70D6E" Ref="D?"  Part="1" 
AR Path="/5ECDAC29/5EE5CC9B/5EE70D6E" Ref="D?"  Part="1" 
AR Path="/5ECDAC29/5EE5EDC3/5EE70D6E" Ref="D?"  Part="1" 
AR Path="/5ECDAC29/5EE6E926/5EE70D6E" Ref="D?"  Part="1" 
AR Path="/5ECDAC29/5EE6F39F/5EE70D6E" Ref="D?"  Part="1" 
F 0 "D?" H 6468 4109 50  0000 L CNN
F 1 "AM23ESGC" H 6468 4018 50  0000 L CNN
F 2 "Package_TO_SOT_SMD:SOT-23_Handsoldering" H 6250 4250 50  0001 C CNN
F 3 "http://www.kingbrightusa.com/images/catalog/SPEC/AM23ESGC.pdf" H 6250 4250 50  0001 C CNN
	1    6200 4250
	-1   0    0    -1  
$EndComp
$Comp
L Analog_Switch:NC7SB3157P6X U?
U 1 1 5EE70D74
P 6350 3450
AR Path="/5EB41214/5EE0AFAE/5EE70D74" Ref="U?"  Part="2" 
AR Path="/5ED2BC2A/5EE0E694/5EE70D74" Ref="U?"  Part="2" 
AR Path="/5EE0AC5D/5EBBD8A5/5EE70D74" Ref="U?"  Part="2" 
AR Path="/5EE0E313/5EBBD8A5/5EE70D74" Ref="U?"  Part="2" 
AR Path="/5EE55D87/5EE70D74" Ref="U?"  Part="2" 
AR Path="/5EE5AAE3/5EE61F79/5EE70D74" Ref="U?"  Part="1" 
AR Path="/5EE77D5A/5EBBD8A5/5EE70D74" Ref="U?"  Part="2" 
AR Path="/5EE8A13E/5EE79806/5EE70D74" Ref="U?"  Part="2" 
AR Path="/5EE8A13E/5EEC632A/5EE70D74" Ref="U?"  Part="2" 
AR Path="/5EE0AC5D/5EE8A622/5EE70D74" Ref="U?"  Part="2" 
AR Path="/5EE0E313/5EE79806/5EE70D74" Ref="U?"  Part="2" 
AR Path="/5EE8A13E/5EBF17AF/5EE70D74" Ref="U?"  Part="2" 
AR Path="/5EBFB816/5EE0AFAE/5EE70D74" Ref="U?"  Part="2" 
AR Path="/5ECA2575/5EE0E694/5EE70D74" Ref="U?"  Part="2" 
AR Path="/5ECAC95D/5EE0E694/5EE70D74" Ref="U?"  Part="2" 
AR Path="/5ED2BC2A/5ECD5689/5EE70D74" Ref="U?"  Part="2" 
AR Path="/5EB41214/5F0724C9/5EE70D74" Ref="U?"  Part="2" 
AR Path="/5ECA36FF/5EE61F79/5EE70D74" Ref="U?"  Part="1" 
AR Path="/5EE5AAE3/5ED7E0D0/5EE70D74" Ref="U?"  Part="2" 
AR Path="/5ED08686/5ED1C478/5EE70D74" Ref="U?"  Part="1" 
AR Path="/5EE0AC5D/5EDAF55D/5EE70D74" Ref="U?"  Part="1" 
AR Path="/5EE0E313/5EDB0036/5EE70D74" Ref="U?"  Part="1" 
AR Path="/5EE0E313/5EDB0B50/5EE70D74" Ref="U?"  Part="1" 
AR Path="/5EE5AAE3/5EDB1EB2/5EE70D74" Ref="U?"  Part="1" 
AR Path="/5EE77D5A/5EDB229D/5EE70D74" Ref="U?"  Part="1" 
AR Path="/5EE77D5A/5EDB2B01/5EE70D74" Ref="U?"  Part="1" 
AR Path="/5ECA36FF/5EDB3381/5EE70D74" Ref="U?"  Part="1" 
AR Path="/5ECA36FF/5EDB35CF/5EE70D74" Ref="U?"  Part="1" 
AR Path="/5ECDAC29/5EE5CC9B/5EE70D74" Ref="U?"  Part="1" 
AR Path="/5ECDAC29/5EE5EDC3/5EE70D74" Ref="U?"  Part="1" 
AR Path="/5ECDAC29/5EE6E926/5EE70D74" Ref="U?"  Part="1" 
AR Path="/5ECDAC29/5EE6F39F/5EE70D74" Ref="U?"  Part="1" 
F 0 "U?" V 6150 3700 50  0000 L CNN
F 1 "NC7SB3157P6X" V 6250 3700 50  0000 L CNN
F 2 "Package_TO_SOT_SMD:SOT-363_SC-70-6" H 6350 3150 50  0001 C CNN
F 3 "https://www.onsemi.com/pub/Collateral/NC7SB3157-D.PDF" H 6350 3450 50  0001 C CNN
	1    6350 3450
	0    1    1    0   
$EndComp
Wire Wire Line
	4900 4550 4900 4650
Wire Wire Line
	4900 4650 5200 4650
Wire Wire Line
	6250 4650 6250 4600
Text HLabel 5850 3450 0    50   Input ~ 0
Cntrl
Wire Wire Line
	5850 3450 5950 3450
Wire Wire Line
	6150 3750 6100 3750
Wire Wire Line
	6400 3750 6400 3850
Wire Wire Line
	6350 3750 6400 3750
$Comp
L Device:C C?
U 1 1 5EE70D84
P 5200 4300
AR Path="/5EB41214/5EE0AFAE/5EE70D84" Ref="C?"  Part="1" 
AR Path="/5ED2BC2A/5EE0E694/5EE70D84" Ref="C?"  Part="1" 
AR Path="/5EE0AC5D/5EBBD8A5/5EE70D84" Ref="C?"  Part="1" 
AR Path="/5EE0E313/5EBBD8A5/5EE70D84" Ref="C?"  Part="1" 
AR Path="/5EE55D87/5EE70D84" Ref="C?"  Part="1" 
AR Path="/5EE5AAE3/5EE61F79/5EE70D84" Ref="C?"  Part="1" 
AR Path="/5EE77D5A/5EBBD8A5/5EE70D84" Ref="C?"  Part="1" 
AR Path="/5EE8A13E/5EE79806/5EE70D84" Ref="C?"  Part="1" 
AR Path="/5EE8A13E/5EEC632A/5EE70D84" Ref="C?"  Part="1" 
AR Path="/5EE0AC5D/5EE8A622/5EE70D84" Ref="C?"  Part="1" 
AR Path="/5EE0E313/5EE79806/5EE70D84" Ref="C?"  Part="1" 
AR Path="/5EE8A13E/5EBF17AF/5EE70D84" Ref="C?"  Part="1" 
AR Path="/5EBFB816/5EE0AFAE/5EE70D84" Ref="C?"  Part="1" 
AR Path="/5ECA2575/5EE0E694/5EE70D84" Ref="C?"  Part="1" 
AR Path="/5ECAC95D/5EE0E694/5EE70D84" Ref="C?"  Part="1" 
AR Path="/5ED2BC2A/5ECD5689/5EE70D84" Ref="C?"  Part="1" 
AR Path="/5EB41214/5F0724C9/5EE70D84" Ref="C?"  Part="1" 
AR Path="/5ECA36FF/5EE61F79/5EE70D84" Ref="C?"  Part="1" 
AR Path="/5EE5AAE3/5ED7E0D0/5EE70D84" Ref="C?"  Part="1" 
AR Path="/5ED08686/5ED1C478/5EE70D84" Ref="C?"  Part="1" 
AR Path="/5EE0AC5D/5EDAF55D/5EE70D84" Ref="C?"  Part="1" 
AR Path="/5EE0E313/5EDB0036/5EE70D84" Ref="C?"  Part="1" 
AR Path="/5EE0E313/5EDB0B50/5EE70D84" Ref="C?"  Part="1" 
AR Path="/5EE5AAE3/5EDB1EB2/5EE70D84" Ref="C?"  Part="1" 
AR Path="/5EE77D5A/5EDB229D/5EE70D84" Ref="C?"  Part="1" 
AR Path="/5EE77D5A/5EDB2B01/5EE70D84" Ref="C?"  Part="1" 
AR Path="/5ECA36FF/5EDB3381/5EE70D84" Ref="C?"  Part="1" 
AR Path="/5ECA36FF/5EDB35CF/5EE70D84" Ref="C?"  Part="1" 
AR Path="/5ECDAC29/5EE5CC9B/5EE70D84" Ref="C?"  Part="1" 
AR Path="/5ECDAC29/5EE5EDC3/5EE70D84" Ref="C?"  Part="1" 
AR Path="/5ECDAC29/5EE6E926/5EE70D84" Ref="C?"  Part="1" 
AR Path="/5ECDAC29/5EE6F39F/5EE70D84" Ref="C?"  Part="1" 
F 0 "C?" H 5315 4346 50  0000 L CNN
F 1 "C 47n" H 5315 4255 50  0000 L CNN
F 2 "Capacitor_SMD:C_0805_2012Metric_Pad1.15x1.40mm_HandSolder" H 5238 4150 50  0001 C CNN
F 3 "~" H 5200 4300 50  0001 C CNN
F 4 "16" H 5200 4300 50  0001 C CNN "Voltage - rated"
F 5 "20%" H 5200 4300 50  0001 C CNN "Tolerance"
	1    5200 4300
	1    0    0    -1  
$EndComp
Wire Wire Line
	5200 4450 5200 4650
Connection ~ 5200 4650
Wire Wire Line
	5200 4650 6250 4650
Wire Wire Line
	5200 4150 5200 3550
Wire Wire Line
	5200 3550 4900 3550
Wire Wire Line
	4900 2900 4900 3050
Wire Wire Line
	6250 3150 6250 3050
Wire Wire Line
	6250 3050 4900 3050
Connection ~ 4900 3050
Wire Wire Line
	4900 3050 4900 3550
$Comp
L power:GND #PWR?
U 1 1 5EE70D94
P 4900 4650
AR Path="/5EE0AC5D/5EE8A622/5EE70D94" Ref="#PWR?"  Part="1" 
AR Path="/5EB41214/5EE0AFAE/5EE70D94" Ref="#PWR?"  Part="1" 
AR Path="/5EB41214/5F0724C9/5EE70D94" Ref="#PWR?"  Part="1" 
AR Path="/5EE0E313/5EE79806/5EE70D94" Ref="#PWR?"  Part="1" 
AR Path="/5EE5AAE3/5EE61F79/5EE70D94" Ref="#PWR?"  Part="1" 
AR Path="/5EE77D5A/5EBBD8A5/5EE70D94" Ref="#PWR?"  Part="1" 
AR Path="/5ED2BC2A/5EE0E694/5EE70D94" Ref="#PWR?"  Part="1" 
AR Path="/5ECA36FF/5EE61F79/5EE70D94" Ref="#PWR?"  Part="1" 
AR Path="/5EE5AAE3/5ED7E0D0/5EE70D94" Ref="#PWR?"  Part="1" 
AR Path="/5ED08686/5ED1C478/5EE70D94" Ref="#PWR?"  Part="1" 
AR Path="/5EE0AC5D/5EDAF55D/5EE70D94" Ref="#PWR?"  Part="1" 
AR Path="/5EE0E313/5EDB0036/5EE70D94" Ref="#PWR?"  Part="1" 
AR Path="/5EE0E313/5EDB0B50/5EE70D94" Ref="#PWR?"  Part="1" 
AR Path="/5EE5AAE3/5EDB1EB2/5EE70D94" Ref="#PWR?"  Part="1" 
AR Path="/5EE77D5A/5EDB229D/5EE70D94" Ref="#PWR?"  Part="1" 
AR Path="/5EE77D5A/5EDB2B01/5EE70D94" Ref="#PWR?"  Part="1" 
AR Path="/5ECA36FF/5EDB3381/5EE70D94" Ref="#PWR?"  Part="1" 
AR Path="/5ECA36FF/5EDB35CF/5EE70D94" Ref="#PWR?"  Part="1" 
AR Path="/5ECDAC29/5EE5CC9B/5EE70D94" Ref="#PWR?"  Part="1" 
AR Path="/5ECDAC29/5EE5EDC3/5EE70D94" Ref="#PWR?"  Part="1" 
AR Path="/5ECDAC29/5EE6E926/5EE70D94" Ref="#PWR?"  Part="1" 
AR Path="/5ECDAC29/5EE6F39F/5EE70D94" Ref="#PWR?"  Part="1" 
F 0 "#PWR?" H 4900 4400 50  0001 C CNN
F 1 "GND" H 4905 4477 50  0000 C CNN
F 2 "" H 4900 4650 50  0001 C CNN
F 3 "" H 4900 4650 50  0001 C CNN
	1    4900 4650
	1    0    0    -1  
$EndComp
Connection ~ 4900 4650
$Comp
L power:+5V #PWR?
U 1 1 5EE70D9B
P 4900 2900
AR Path="/5EE0AC5D/5EE8A622/5EE70D9B" Ref="#PWR?"  Part="1" 
AR Path="/5EB41214/5EE0AFAE/5EE70D9B" Ref="#PWR?"  Part="1" 
AR Path="/5EB41214/5F0724C9/5EE70D9B" Ref="#PWR?"  Part="1" 
AR Path="/5EE0E313/5EE79806/5EE70D9B" Ref="#PWR?"  Part="1" 
AR Path="/5EE5AAE3/5EE61F79/5EE70D9B" Ref="#PWR?"  Part="1" 
AR Path="/5EE77D5A/5EBBD8A5/5EE70D9B" Ref="#PWR?"  Part="1" 
AR Path="/5ED2BC2A/5EE0E694/5EE70D9B" Ref="#PWR?"  Part="1" 
AR Path="/5ECA36FF/5EE61F79/5EE70D9B" Ref="#PWR?"  Part="1" 
AR Path="/5EE5AAE3/5ED7E0D0/5EE70D9B" Ref="#PWR?"  Part="1" 
AR Path="/5ED08686/5ED1C478/5EE70D9B" Ref="#PWR?"  Part="1" 
AR Path="/5EE0AC5D/5EDAF55D/5EE70D9B" Ref="#PWR?"  Part="1" 
AR Path="/5EE0E313/5EDB0036/5EE70D9B" Ref="#PWR?"  Part="1" 
AR Path="/5EE0E313/5EDB0B50/5EE70D9B" Ref="#PWR?"  Part="1" 
AR Path="/5EE5AAE3/5EDB1EB2/5EE70D9B" Ref="#PWR?"  Part="1" 
AR Path="/5EE77D5A/5EDB229D/5EE70D9B" Ref="#PWR?"  Part="1" 
AR Path="/5EE77D5A/5EDB2B01/5EE70D9B" Ref="#PWR?"  Part="1" 
AR Path="/5ECA36FF/5EDB3381/5EE70D9B" Ref="#PWR?"  Part="1" 
AR Path="/5ECA36FF/5EDB35CF/5EE70D9B" Ref="#PWR?"  Part="1" 
AR Path="/5ECDAC29/5EE5CC9B/5EE70D9B" Ref="#PWR?"  Part="1" 
AR Path="/5ECDAC29/5EE5EDC3/5EE70D9B" Ref="#PWR?"  Part="1" 
AR Path="/5ECDAC29/5EE6E926/5EE70D9B" Ref="#PWR?"  Part="1" 
AR Path="/5ECDAC29/5EE6F39F/5EE70D9B" Ref="#PWR?"  Part="1" 
F 0 "#PWR?" H 4900 2750 50  0001 C CNN
F 1 "+5V" H 4915 3073 50  0000 C CNN
F 2 "" H 4900 2900 50  0001 C CNN
F 3 "" H 4900 2900 50  0001 C CNN
	1    4900 2900
	1    0    0    -1  
$EndComp
$Comp
L Analog_Switch:NC7SB3157P6X U?
U 2 1 5EE70DA1
P 4900 4050
AR Path="/5EB41214/5EE0AFAE/5EE70DA1" Ref="U?"  Part="1" 
AR Path="/5ED2BC2A/5EE0E694/5EE70DA1" Ref="U?"  Part="1" 
AR Path="/5EE0AC5D/5EBBD8A5/5EE70DA1" Ref="U?"  Part="1" 
AR Path="/5EE0E313/5EBBD8A5/5EE70DA1" Ref="U?"  Part="1" 
AR Path="/5EE55D87/5EE70DA1" Ref="U?"  Part="1" 
AR Path="/5EE5AAE3/5EE61F79/5EE70DA1" Ref="U?"  Part="2" 
AR Path="/5EE77D5A/5EBBD8A5/5EE70DA1" Ref="U?"  Part="1" 
AR Path="/5EE8A13E/5EE79806/5EE70DA1" Ref="U?"  Part="1" 
AR Path="/5EE8A13E/5EEC632A/5EE70DA1" Ref="U?"  Part="1" 
AR Path="/5EE0AC5D/5EE8A622/5EE70DA1" Ref="U?"  Part="1" 
AR Path="/5EE0E313/5EE79806/5EE70DA1" Ref="U?"  Part="1" 
AR Path="/5EE8A13E/5EBF17AF/5EE70DA1" Ref="U?"  Part="1" 
AR Path="/5EBFB816/5EE0AFAE/5EE70DA1" Ref="U?"  Part="1" 
AR Path="/5ECA2575/5EE0E694/5EE70DA1" Ref="U?"  Part="1" 
AR Path="/5ECAC95D/5EE0E694/5EE70DA1" Ref="U?"  Part="1" 
AR Path="/5ED2BC2A/5ECD5689/5EE70DA1" Ref="U?"  Part="1" 
AR Path="/5EB41214/5F0724C9/5EE70DA1" Ref="U?"  Part="1" 
AR Path="/5ECA36FF/5EE61F79/5EE70DA1" Ref="U?"  Part="2" 
AR Path="/5EE5AAE3/5ED7E0D0/5EE70DA1" Ref="U?"  Part="1" 
AR Path="/5ED08686/5ED1C478/5EE70DA1" Ref="U?"  Part="2" 
AR Path="/5EE0AC5D/5EDAF55D/5EE70DA1" Ref="U?"  Part="2" 
AR Path="/5EE0E313/5EDB0036/5EE70DA1" Ref="U?"  Part="2" 
AR Path="/5EE0E313/5EDB0B50/5EE70DA1" Ref="U?"  Part="2" 
AR Path="/5EE5AAE3/5EDB1EB2/5EE70DA1" Ref="U?"  Part="2" 
AR Path="/5EE77D5A/5EDB229D/5EE70DA1" Ref="U?"  Part="2" 
AR Path="/5EE77D5A/5EDB2B01/5EE70DA1" Ref="U?"  Part="2" 
AR Path="/5ECA36FF/5EDB3381/5EE70DA1" Ref="U?"  Part="2" 
AR Path="/5ECA36FF/5EDB35CF/5EE70DA1" Ref="U?"  Part="2" 
AR Path="/5ECDAC29/5EE5CC9B/5EE70DA1" Ref="U?"  Part="2" 
AR Path="/5ECDAC29/5EE5EDC3/5EE70DA1" Ref="U?"  Part="2" 
AR Path="/5ECDAC29/5EE6E926/5EE70DA1" Ref="U?"  Part="2" 
AR Path="/5ECDAC29/5EE6F39F/5EE70DA1" Ref="U?"  Part="2" 
F 0 "U?" H 4400 4250 50  0000 L CNN
F 1 "NC7SB3157P6X" H 4050 4400 50  0000 L CNN
F 2 "Package_TO_SOT_SMD:SOT-363_SC-70-6" H 4900 3750 50  0001 C CNN
F 3 "https://www.onsemi.com/pub/Collateral/NC7SB3157-D.PDF" H 4900 4050 50  0001 C CNN
	2    4900 4050
	1    0    0    -1  
$EndComp
Connection ~ 4900 3550
$EndSCHEMATC
