EESchema Schematic File Version 4
EELAYER 30 0
EELAYER END
$Descr A4 11693 8268
encoding utf-8
Sheet 33 34
Title ""
Date ""
Rev ""
Comp ""
Comment1 ""
Comment2 ""
Comment3 ""
Comment4 ""
$EndDescr
$Comp
L Transistor_BJT:BC807 Q?
U 1 1 5F9C51F0
P 5150 2950
AR Path="/5EBFF7D9/5F9C51F0" Ref="Q?"  Part="1" 
AR Path="/5EBFF7D9/5F12875E/5F9C51F0" Ref="Q?"  Part="1" 
AR Path="/5EBFF7D9/5F131600/5F9C51F0" Ref="Q?"  Part="1" 
AR Path="/5EBFF7D9/5F1316D2/5F9C51F0" Ref="Q?"  Part="1" 
AR Path="/5EBFF7D9/5F1317EC/5F9C51F0" Ref="Q?"  Part="1" 
AR Path="/5F94411C/5F9C51F0" Ref="Q?"  Part="1" 
AR Path="/5F94411C/5F9C29B9/5F9C51F0" Ref="Q7"  Part="1" 
AR Path="/5F94411C/5F9C8DE4/5F9C51F0" Ref="Q8"  Part="1" 
AR Path="/5ECDAC29/5FA61171/5F9C51F0" Ref="Q5"  Part="1" 
AR Path="/5ECDAC29/5FA6142E/5F9C51F0" Ref="Q6"  Part="1" 
F 0 "Q7" H 5341 2904 50  0000 L CNN
F 1 "BC807-16W,115" H 5341 2995 50  0000 L CNN
F 2 "Package_TO_SOT_SMD:SOT-23" H 5350 2875 50  0001 L CIN
F 3 "http://www.fairchildsemi.com/ds/BC/BC807.pdf" H 5150 2950 50  0001 L CNN
F 4 "1727-4835-1-ND" H 5150 2950 50  0001 C CNN "Digi-Key_PN"
	1    5150 2950
	1    0    0    1   
$EndComp
Wire Wire Line
	5250 3150 5250 3300
$Comp
L Device:R R?
U 1 1 5F9C51F9
P 4700 2950
AR Path="/5EBFF7D9/5F9C51F9" Ref="R?"  Part="1" 
AR Path="/5EBFF7D9/5F12875E/5F9C51F9" Ref="R?"  Part="1" 
AR Path="/5EBFF7D9/5F131600/5F9C51F9" Ref="R?"  Part="1" 
AR Path="/5EBFF7D9/5F1316D2/5F9C51F9" Ref="R?"  Part="1" 
AR Path="/5EBFF7D9/5F1317EC/5F9C51F9" Ref="R?"  Part="1" 
AR Path="/5F94411C/5F9C51F9" Ref="R?"  Part="1" 
AR Path="/5F94411C/5F9C29B9/5F9C51F9" Ref="R87"  Part="1" 
AR Path="/5F94411C/5F9C8DE4/5F9C51F9" Ref="R89"  Part="1" 
AR Path="/5ECDAC29/5FA61171/5F9C51F9" Ref="R55"  Part="1" 
AR Path="/5ECDAC29/5FA6142E/5F9C51F9" Ref="R57"  Part="1" 
F 0 "R87" V 4907 2950 50  0000 C CNN
F 1 "R 16K" V 4816 2950 50  0000 C CNN
F 2 "Resistor_SMD:R_0805_2012Metric_Pad1.15x1.40mm_HandSolder" V 4630 2950 50  0001 C CNN
F 3 "~" H 4700 2950 50  0001 C CNN
F 4 "1%" H 4700 2950 50  0001 C CNN "Tolerance"
F 5 "311-16.0KCRCT-ND" H 4700 2950 50  0001 C CNN "Digi-Key_PN"
	1    4700 2950
	0    -1   -1   0   
$EndComp
Wire Wire Line
	4850 2950 4950 2950
$Comp
L power:+5V #PWR?
U 1 1 5F9C5200
P 5250 2650
AR Path="/5EBFF7D9/5F9C5200" Ref="#PWR?"  Part="1" 
AR Path="/5EBFF7D9/5F12875E/5F9C5200" Ref="#PWR?"  Part="1" 
AR Path="/5EBFF7D9/5F131600/5F9C5200" Ref="#PWR?"  Part="1" 
AR Path="/5EBFF7D9/5F1316D2/5F9C5200" Ref="#PWR?"  Part="1" 
AR Path="/5EBFF7D9/5F1317EC/5F9C5200" Ref="#PWR?"  Part="1" 
AR Path="/5F94411C/5F9C5200" Ref="#PWR?"  Part="1" 
AR Path="/5F94411C/5F9C29B9/5F9C5200" Ref="#PWR0130"  Part="1" 
AR Path="/5F94411C/5F9C8DE4/5F9C5200" Ref="#PWR0132"  Part="1" 
AR Path="/5ECDAC29/5FA61171/5F9C5200" Ref="#PWR068"  Part="1" 
AR Path="/5ECDAC29/5FA6142E/5F9C5200" Ref="#PWR070"  Part="1" 
F 0 "#PWR0130" H 5250 2500 50  0001 C CNN
F 1 "+5V" H 5265 2823 50  0000 C CNN
F 2 "" H 5250 2650 50  0001 C CNN
F 3 "" H 5250 2650 50  0001 C CNN
	1    5250 2650
	1    0    0    -1  
$EndComp
Wire Wire Line
	5250 2650 5250 2750
Wire Wire Line
	5250 3700 5250 3600
Text HLabel 4400 2950 0    50   Input ~ 0
!EN
Wire Wire Line
	4400 2950 4550 2950
$Comp
L power:GND #PWR?
U 1 1 5F9C520A
P 5250 4100
AR Path="/5EBFF7D9/5F12875E/5F9C520A" Ref="#PWR?"  Part="1" 
AR Path="/5EBFF7D9/5F131600/5F9C520A" Ref="#PWR?"  Part="1" 
AR Path="/5EBFF7D9/5F1316D2/5F9C520A" Ref="#PWR?"  Part="1" 
AR Path="/5EBFF7D9/5F1317EC/5F9C520A" Ref="#PWR?"  Part="1" 
AR Path="/5F94411C/5F9C520A" Ref="#PWR?"  Part="1" 
AR Path="/5F94411C/5F9C29B9/5F9C520A" Ref="#PWR0131"  Part="1" 
AR Path="/5F94411C/5F9C8DE4/5F9C520A" Ref="#PWR0133"  Part="1" 
AR Path="/5ECDAC29/5FA61171/5F9C520A" Ref="#PWR069"  Part="1" 
AR Path="/5ECDAC29/5FA6142E/5F9C520A" Ref="#PWR071"  Part="1" 
F 0 "#PWR0131" H 5250 3850 50  0001 C CNN
F 1 "GND" H 5255 3927 50  0000 C CNN
F 2 "" H 5250 4100 50  0001 C CNN
F 3 "" H 5250 4100 50  0001 C CNN
	1    5250 4100
	1    0    0    -1  
$EndComp
Wire Wire Line
	5250 4000 5250 4100
$Comp
L Device:C C?
U 1 1 5F9C5213
P 6250 3300
AR Path="/5EBFF7D9/5F1317EC/5F9C5213" Ref="C?"  Part="1" 
AR Path="/5EBFF7D9/5F12875E/5F9C5213" Ref="C?"  Part="1" 
AR Path="/5EBFF7D9/5F1316D2/5F9C5213" Ref="C?"  Part="1" 
AR Path="/5F94411C/5F9C5213" Ref="C?"  Part="1" 
AR Path="/5F94411C/5F9C29B9/5F9C5213" Ref="C82"  Part="1" 
AR Path="/5F94411C/5F9C8DE4/5F9C5213" Ref="C83"  Part="1" 
AR Path="/5ECDAC29/5FA61171/5F9C5213" Ref="C51"  Part="1" 
AR Path="/5ECDAC29/5FA6142E/5F9C5213" Ref="C52"  Part="1" 
F 0 "C82" H 6365 3346 50  0000 L CNN
F 1 "C 2.2u" H 6365 3255 50  0000 L CNN
F 2 "Capacitor_SMD:C_0805_2012Metric_Pad1.15x1.40mm_HandSolder" H 6288 3150 50  0001 C CNN
F 3 "~" H 6250 3300 50  0001 C CNN
F 4 "490-4787-1-ND" H 6250 3300 50  0001 C CNN "Digi-Key_PN"
F 5 "1458904" H 6250 3300 50  0001 C CNN "Farnell_PN"
	1    6250 3300
	1    0    0    -1  
$EndComp
Wire Wire Line
	6250 3150 6250 2650
Wire Wire Line
	6250 2650 5250 2650
Connection ~ 5250 2650
Wire Wire Line
	6250 3450 6250 4100
Wire Wire Line
	6250 4100 5250 4100
Connection ~ 5250 4100
$Comp
L dk_LED-Indication-Discrete:LG_R971-KN-1 D?
U 1 1 5F9C5228
P 5250 3900
AR Path="/5F94411C/5F9C5228" Ref="D?"  Part="1" 
AR Path="/5F94411C/5F9C29B9/5F9C5228" Ref="D17"  Part="1" 
AR Path="/5F94411C/5F9C8DE4/5F9C5228" Ref="D18"  Part="1" 
AR Path="/5ECDAC29/5FA61171/5F9C5228" Ref="D10"  Part="1" 
AR Path="/5ECDAC29/5FA6142E/5F9C5228" Ref="D11"  Part="1" 
F 0 "D17" V 5147 4078 60  0000 L CNN
F 1 "LG_R971-KN-1" V 5253 4078 60  0000 L CNN
F 2 "digikey-footprints:0805" H 5450 4100 60  0001 L CNN
F 3 "https://dammedia.osram.info/media/resource/hires/osram-dam-2493936/LG%20R971.pdf" H 5450 4200 60  0001 L CNN
F 4 "475-1410-1-ND" H 5450 4300 60  0001 L CNN "Digi-Key_PN"
F 5 "LG R971-KN-1" H 5450 4400 60  0001 L CNN "MPN"
F 6 "Optoelectronics" H 5450 4500 60  0001 L CNN "Category"
F 7 "LED Indication - Discrete" H 5450 4600 60  0001 L CNN "Family"
F 8 "https://dammedia.osram.info/media/resource/hires/osram-dam-2493936/LG%20R971.pdf" H 5450 4700 60  0001 L CNN "DK_Datasheet_Link"
F 9 "/product-detail/en/osram-opto-semiconductors-inc/LG-R971-KN-1/475-1410-1-ND/1802598" H 5450 4800 60  0001 L CNN "DK_Detail_Page"
F 10 "LED GREEN DIFFUSED 0805 SMD" H 5450 4900 60  0001 L CNN "Description"
F 11 "OSRAM Opto Semiconductors Inc." H 5450 5000 60  0001 L CNN "Manufacturer"
F 12 "Active" H 5450 5100 60  0001 L CNN "Status"
	1    5250 3900
	0    1    1    0   
$EndComp
$Comp
L Device:R R?
U 1 1 5F9C5230
P 5250 3450
AR Path="/5EBFF7D9/5F9C5230" Ref="R?"  Part="1" 
AR Path="/5EBFF7D9/5F12875E/5F9C5230" Ref="R?"  Part="1" 
AR Path="/5EBFF7D9/5F131600/5F9C5230" Ref="R?"  Part="1" 
AR Path="/5EBFF7D9/5F1316D2/5F9C5230" Ref="R?"  Part="1" 
AR Path="/5EBFF7D9/5F1317EC/5F9C5230" Ref="R?"  Part="1" 
AR Path="/5F94411C/5F9C5230" Ref="R?"  Part="1" 
AR Path="/5F94411C/5F9C29B9/5F9C5230" Ref="R88"  Part="1" 
AR Path="/5F94411C/5F9C8DE4/5F9C5230" Ref="R90"  Part="1" 
AR Path="/5ECDAC29/5FA61171/5F9C5230" Ref="R56"  Part="1" 
AR Path="/5ECDAC29/5FA6142E/5F9C5230" Ref="R58"  Part="1" 
F 0 "R88" H 5320 3496 50  0000 L CNN
F 1 "R 316" H 5320 3405 50  0000 L CNN
F 2 "Resistor_SMD:R_0805_2012Metric_Pad1.15x1.40mm_HandSolder" V 5180 3450 50  0001 C CNN
F 3 "~" H 5250 3450 50  0001 C CNN
F 4 "1%" H 5250 3450 50  0001 C CNN "Tolerance"
F 5 "P316CCT-ND" H 5250 3450 50  0001 C CNN "Digi-Key_PN"
	1    5250 3450
	1    0    0    -1  
$EndComp
$EndSCHEMATC
