(kicad_sch (version 20211123) (generator eeschema)

  (uuid 96725ead-a8f1-4ae6-b9cf-ba6bb987bdd8)

  (paper "A4")

  (title_block
    (title "ATLAS-ITK-PIXEL-MODULES HW INTERLOCK")
    (rev "0.4")
    (comment 1 "All logic is inverted TTL")
  )

  (lib_symbols
    (symbol "Device:C" (pin_numbers hide) (pin_names (offset 0.254)) (in_bom yes) (on_board yes)
      (property "Reference" "C" (id 0) (at 0.635 2.54 0)
        (effects (font (size 1.27 1.27)) (justify left))
      )
      (property "Value" "C" (id 1) (at 0.635 -2.54 0)
        (effects (font (size 1.27 1.27)) (justify left))
      )
      (property "Footprint" "" (id 2) (at 0.9652 -3.81 0)
        (effects (font (size 1.27 1.27)) hide)
      )
      (property "Datasheet" "~" (id 3) (at 0 0 0)
        (effects (font (size 1.27 1.27)) hide)
      )
      (property "ki_keywords" "cap capacitor" (id 4) (at 0 0 0)
        (effects (font (size 1.27 1.27)) hide)
      )
      (property "ki_description" "Unpolarized capacitor" (id 5) (at 0 0 0)
        (effects (font (size 1.27 1.27)) hide)
      )
      (property "ki_fp_filters" "C_*" (id 6) (at 0 0 0)
        (effects (font (size 1.27 1.27)) hide)
      )
      (symbol "C_0_1"
        (polyline
          (pts
            (xy -2.032 -0.762)
            (xy 2.032 -0.762)
          )
          (stroke (width 0.508) (type default) (color 0 0 0 0))
          (fill (type none))
        )
        (polyline
          (pts
            (xy -2.032 0.762)
            (xy 2.032 0.762)
          )
          (stroke (width 0.508) (type default) (color 0 0 0 0))
          (fill (type none))
        )
      )
      (symbol "C_1_1"
        (pin passive line (at 0 3.81 270) (length 2.794)
          (name "~" (effects (font (size 1.27 1.27))))
          (number "1" (effects (font (size 1.27 1.27))))
        )
        (pin passive line (at 0 -3.81 90) (length 2.794)
          (name "~" (effects (font (size 1.27 1.27))))
          (number "2" (effects (font (size 1.27 1.27))))
        )
      )
    )
    (symbol "Device:R" (pin_numbers hide) (pin_names (offset 0)) (in_bom yes) (on_board yes)
      (property "Reference" "R" (id 0) (at 2.032 0 90)
        (effects (font (size 1.27 1.27)))
      )
      (property "Value" "R" (id 1) (at 0 0 90)
        (effects (font (size 1.27 1.27)))
      )
      (property "Footprint" "" (id 2) (at -1.778 0 90)
        (effects (font (size 1.27 1.27)) hide)
      )
      (property "Datasheet" "~" (id 3) (at 0 0 0)
        (effects (font (size 1.27 1.27)) hide)
      )
      (property "ki_keywords" "R res resistor" (id 4) (at 0 0 0)
        (effects (font (size 1.27 1.27)) hide)
      )
      (property "ki_description" "Resistor" (id 5) (at 0 0 0)
        (effects (font (size 1.27 1.27)) hide)
      )
      (property "ki_fp_filters" "R_*" (id 6) (at 0 0 0)
        (effects (font (size 1.27 1.27)) hide)
      )
      (symbol "R_0_1"
        (rectangle (start -1.016 -2.54) (end 1.016 2.54)
          (stroke (width 0.254) (type default) (color 0 0 0 0))
          (fill (type none))
        )
      )
      (symbol "R_1_1"
        (pin passive line (at 0 3.81 270) (length 1.27)
          (name "~" (effects (font (size 1.27 1.27))))
          (number "1" (effects (font (size 1.27 1.27))))
        )
        (pin passive line (at 0 -3.81 90) (length 1.27)
          (name "~" (effects (font (size 1.27 1.27))))
          (number "2" (effects (font (size 1.27 1.27))))
        )
      )
    )
    (symbol "dk_LED-Indication-Discrete:LG_R971-KN-1" (pin_names (offset 0)) (in_bom yes) (on_board yes)
      (property "Reference" "D" (id 0) (at -5.08 3.81 0)
        (effects (font (size 1.524 1.524)))
      )
      (property "Value" "LG_R971-KN-1" (id 1) (at -1.27 -3.81 0)
        (effects (font (size 1.524 1.524)))
      )
      (property "Footprint" "digikey-footprints:0805" (id 2) (at 5.08 5.08 0)
        (effects (font (size 1.524 1.524)) (justify left) hide)
      )
      (property "Datasheet" "https://dammedia.osram.info/media/resource/hires/osram-dam-2493936/LG%20R971.pdf" (id 3) (at 5.08 7.62 0)
        (effects (font (size 1.524 1.524)) (justify left) hide)
      )
      (property "Digi-Key_PN" "475-1410-1-ND" (id 4) (at 5.08 10.16 0)
        (effects (font (size 1.524 1.524)) (justify left) hide)
      )
      (property "MPN" "LG R971-KN-1" (id 5) (at 5.08 12.7 0)
        (effects (font (size 1.524 1.524)) (justify left) hide)
      )
      (property "Category" "Optoelectronics" (id 6) (at 5.08 15.24 0)
        (effects (font (size 1.524 1.524)) (justify left) hide)
      )
      (property "Family" "LED Indication - Discrete" (id 7) (at 5.08 17.78 0)
        (effects (font (size 1.524 1.524)) (justify left) hide)
      )
      (property "DK_Datasheet_Link" "https://dammedia.osram.info/media/resource/hires/osram-dam-2493936/LG%20R971.pdf" (id 8) (at 5.08 20.32 0)
        (effects (font (size 1.524 1.524)) (justify left) hide)
      )
      (property "DK_Detail_Page" "/product-detail/en/osram-opto-semiconductors-inc/LG-R971-KN-1/475-1410-1-ND/1802598" (id 9) (at 5.08 22.86 0)
        (effects (font (size 1.524 1.524)) (justify left) hide)
      )
      (property "Description" "LED GREEN DIFFUSED 0805 SMD" (id 10) (at 5.08 25.4 0)
        (effects (font (size 1.524 1.524)) (justify left) hide)
      )
      (property "Manufacturer" "OSRAM Opto Semiconductors Inc." (id 11) (at 5.08 27.94 0)
        (effects (font (size 1.524 1.524)) (justify left) hide)
      )
      (property "Status" "Active" (id 12) (at 5.08 30.48 0)
        (effects (font (size 1.524 1.524)) (justify left) hide)
      )
      (property "ki_keywords" "475-1410-1-ND CHIPLED 0805" (id 13) (at 0 0 0)
        (effects (font (size 1.27 1.27)) hide)
      )
      (property "ki_description" "LED GREEN DIFFUSED 0805 SMD" (id 14) (at 0 0 0)
        (effects (font (size 1.27 1.27)) hide)
      )
      (symbol "LG_R971-KN-1_0_1"
        (polyline
          (pts
            (xy -0.635 3.81)
            (xy -1.905 2.54)
          )
          (stroke (width 0) (type default) (color 0 0 0 0))
          (fill (type none))
        )
        (polyline
          (pts
            (xy 0 1.27)
            (xy 0 -1.27)
          )
          (stroke (width 0) (type default) (color 0 0 0 0))
          (fill (type none))
        )
        (polyline
          (pts
            (xy 0.635 3.175)
            (xy -0.635 1.905)
          )
          (stroke (width 0) (type default) (color 0 0 0 0))
          (fill (type none))
        )
        (polyline
          (pts
            (xy -1.27 3.81)
            (xy -0.635 3.81)
            (xy -0.635 3.175)
          )
          (stroke (width 0) (type default) (color 0 0 0 0))
          (fill (type none))
        )
        (polyline
          (pts
            (xy 0 3.175)
            (xy 0.635 3.175)
            (xy 0.635 2.54)
          )
          (stroke (width 0) (type default) (color 0 0 0 0))
          (fill (type none))
        )
        (polyline
          (pts
            (xy -2.54 1.27)
            (xy -2.54 -1.27)
            (xy 0 0)
            (xy -2.54 1.27)
          )
          (stroke (width 0) (type default) (color 0 0 0 0))
          (fill (type outline))
        )
      )
      (symbol "LG_R971-KN-1_1_1"
        (pin passive line (at -5.08 0 0) (length 2.54)
          (name "~" (effects (font (size 1.27 1.27))))
          (number "1" (effects (font (size 1.27 1.27))))
        )
        (pin passive line (at 2.54 0 180) (length 2.54)
          (name "~" (effects (font (size 1.27 1.27))))
          (number "2" (effects (font (size 1.27 1.27))))
        )
      )
    )
    (symbol "power:+5V" (power) (pin_names (offset 0)) (in_bom yes) (on_board yes)
      (property "Reference" "#PWR" (id 0) (at 0 -3.81 0)
        (effects (font (size 1.27 1.27)) hide)
      )
      (property "Value" "+5V" (id 1) (at 0 3.556 0)
        (effects (font (size 1.27 1.27)))
      )
      (property "Footprint" "" (id 2) (at 0 0 0)
        (effects (font (size 1.27 1.27)) hide)
      )
      (property "Datasheet" "" (id 3) (at 0 0 0)
        (effects (font (size 1.27 1.27)) hide)
      )
      (property "ki_keywords" "power-flag" (id 4) (at 0 0 0)
        (effects (font (size 1.27 1.27)) hide)
      )
      (property "ki_description" "Power symbol creates a global label with name \"+5V\"" (id 5) (at 0 0 0)
        (effects (font (size 1.27 1.27)) hide)
      )
      (symbol "+5V_0_1"
        (polyline
          (pts
            (xy -0.762 1.27)
            (xy 0 2.54)
          )
          (stroke (width 0) (type default) (color 0 0 0 0))
          (fill (type none))
        )
        (polyline
          (pts
            (xy 0 0)
            (xy 0 2.54)
          )
          (stroke (width 0) (type default) (color 0 0 0 0))
          (fill (type none))
        )
        (polyline
          (pts
            (xy 0 2.54)
            (xy 0.762 1.27)
          )
          (stroke (width 0) (type default) (color 0 0 0 0))
          (fill (type none))
        )
      )
      (symbol "+5V_1_1"
        (pin power_in line (at 0 0 90) (length 0) hide
          (name "+5V" (effects (font (size 1.27 1.27))))
          (number "1" (effects (font (size 1.27 1.27))))
        )
      )
    )
    (symbol "power:GND" (power) (pin_names (offset 0)) (in_bom yes) (on_board yes)
      (property "Reference" "#PWR" (id 0) (at 0 -6.35 0)
        (effects (font (size 1.27 1.27)) hide)
      )
      (property "Value" "GND" (id 1) (at 0 -3.81 0)
        (effects (font (size 1.27 1.27)))
      )
      (property "Footprint" "" (id 2) (at 0 0 0)
        (effects (font (size 1.27 1.27)) hide)
      )
      (property "Datasheet" "" (id 3) (at 0 0 0)
        (effects (font (size 1.27 1.27)) hide)
      )
      (property "ki_keywords" "power-flag" (id 4) (at 0 0 0)
        (effects (font (size 1.27 1.27)) hide)
      )
      (property "ki_description" "Power symbol creates a global label with name \"GND\" , ground" (id 5) (at 0 0 0)
        (effects (font (size 1.27 1.27)) hide)
      )
      (symbol "GND_0_1"
        (polyline
          (pts
            (xy 0 0)
            (xy 0 -1.27)
            (xy 1.27 -1.27)
            (xy 0 -2.54)
            (xy -1.27 -1.27)
            (xy 0 -1.27)
          )
          (stroke (width 0) (type default) (color 0 0 0 0))
          (fill (type none))
        )
      )
      (symbol "GND_1_1"
        (pin power_in line (at 0 0 270) (length 0) hide
          (name "GND" (effects (font (size 1.27 1.27))))
          (number "1" (effects (font (size 1.27 1.27))))
        )
      )
    )
    (symbol "transistors_magne:BC807W" (pin_names (offset 0) hide) (in_bom yes) (on_board yes)
      (property "Reference" "Q" (id 0) (at 5.08 1.905 0)
        (effects (font (size 1.27 1.27)) (justify left))
      )
      (property "Value" "BC807W" (id 1) (at 5.08 0 0)
        (effects (font (size 1.27 1.27)) (justify left))
      )
      (property "Footprint" "Package_TO_SOT_SMD:SOT-323_SC-70" (id 2) (at 5.08 -1.905 0)
        (effects (font (size 1.27 1.27) italic) (justify left) hide)
      )
      (property "Datasheet" "https://assets.nexperia.com/documents/data-sheet/BC807W_SER.pdf" (id 3) (at 0 0 0)
        (effects (font (size 1.27 1.27)) (justify left) hide)
      )
      (property "ki_keywords" "PNP Transistor" (id 4) (at 0 0 0)
        (effects (font (size 1.27 1.27)) hide)
      )
      (property "ki_description" "0.5A Ic, 45V Vce, PNP Transistor, SOT-232" (id 5) (at 0 0 0)
        (effects (font (size 1.27 1.27)) hide)
      )
      (property "ki_fp_filters" "SOT?23*" (id 6) (at 0 0 0)
        (effects (font (size 1.27 1.27)) hide)
      )
      (symbol "BC807W_0_1"
        (polyline
          (pts
            (xy 0.635 0.635)
            (xy 2.54 2.54)
          )
          (stroke (width 0) (type default) (color 0 0 0 0))
          (fill (type none))
        )
        (polyline
          (pts
            (xy 0.635 -0.635)
            (xy 2.54 -2.54)
            (xy 2.54 -2.54)
          )
          (stroke (width 0) (type default) (color 0 0 0 0))
          (fill (type none))
        )
        (polyline
          (pts
            (xy 0.635 1.905)
            (xy 0.635 -1.905)
            (xy 0.635 -1.905)
          )
          (stroke (width 0.508) (type default) (color 0 0 0 0))
          (fill (type none))
        )
        (polyline
          (pts
            (xy 2.286 -1.778)
            (xy 1.778 -2.286)
            (xy 1.27 -1.27)
            (xy 2.286 -1.778)
            (xy 2.286 -1.778)
          )
          (stroke (width 0) (type default) (color 0 0 0 0))
          (fill (type outline))
        )
        (circle (center 1.27 0) (radius 2.8194)
          (stroke (width 0.254) (type default) (color 0 0 0 0))
          (fill (type none))
        )
      )
      (symbol "BC807W_1_1"
        (pin input line (at -5.08 0 0) (length 5.715)
          (name "B" (effects (font (size 1.27 1.27))))
          (number "1" (effects (font (size 1.27 1.27))))
        )
        (pin passive line (at 2.54 -5.08 90) (length 2.54)
          (name "E" (effects (font (size 1.27 1.27))))
          (number "2" (effects (font (size 1.27 1.27))))
        )
        (pin passive line (at 2.54 5.08 270) (length 2.54)
          (name "C" (effects (font (size 1.27 1.27))))
          (number "3" (effects (font (size 1.27 1.27))))
        )
      )
    )
  )

  (junction (at 133.35 104.14) (diameter 0) (color 0 0 0 0)
    (uuid 2aac8bc4-6900-4f1a-95f1-104881cc5e5c)
  )
  (junction (at 133.35 67.31) (diameter 0) (color 0 0 0 0)
    (uuid c92beeec-cbc9-4176-a3fe-777376c59418)
  )

  (wire (pts (xy 158.75 80.01) (xy 158.75 67.31))
    (stroke (width 0) (type default) (color 0 0 0 0))
    (uuid 1aac215a-f8c0-4948-8cf8-48c868bbadc9)
  )
  (wire (pts (xy 158.75 87.63) (xy 158.75 104.14))
    (stroke (width 0) (type default) (color 0 0 0 0))
    (uuid 6a331ea0-b50b-40bd-9bd1-ac2e638b8186)
  )
  (wire (pts (xy 133.35 80.01) (xy 133.35 83.82))
    (stroke (width 0) (type default) (color 0 0 0 0))
    (uuid 718ce6ca-d876-40f3-8e63-aef5135e452d)
  )
  (wire (pts (xy 123.19 74.93) (xy 125.73 74.93))
    (stroke (width 0) (type default) (color 0 0 0 0))
    (uuid 87d0de5f-5444-4cc6-8ff4-9bdb8687be5d)
  )
  (wire (pts (xy 158.75 104.14) (xy 133.35 104.14))
    (stroke (width 0) (type default) (color 0 0 0 0))
    (uuid 97b6205b-f818-4e3d-bf44-9793ada3c63b)
  )
  (wire (pts (xy 158.75 67.31) (xy 133.35 67.31))
    (stroke (width 0) (type default) (color 0 0 0 0))
    (uuid bc951ad2-0288-4874-bbfd-090d6d9b1054)
  )
  (wire (pts (xy 111.76 74.93) (xy 115.57 74.93))
    (stroke (width 0) (type default) (color 0 0 0 0))
    (uuid bcf3e1c1-2091-4cfe-98a8-45c15ecb0531)
  )
  (wire (pts (xy 133.35 93.98) (xy 133.35 91.44))
    (stroke (width 0) (type default) (color 0 0 0 0))
    (uuid e0aeb9ea-7cb9-47b1-8683-816239e54e4c)
  )
  (wire (pts (xy 133.35 67.31) (xy 133.35 69.85))
    (stroke (width 0) (type default) (color 0 0 0 0))
    (uuid ec42df2c-ce1f-4a6f-966d-479bd911bf26)
  )
  (wire (pts (xy 133.35 101.6) (xy 133.35 104.14))
    (stroke (width 0) (type default) (color 0 0 0 0))
    (uuid f1f56e30-6099-4d3b-b51e-687843477dd2)
  )

  (hierarchical_label "!EN" (shape input) (at 111.76 74.93 180)
    (effects (font (size 1.27 1.27)) (justify right))
    (uuid d3e64af9-324c-439d-abef-58efeaa0406c)
  )

  (symbol (lib_id "transistors_magne:BC807W") (at 130.81 74.93 0) (mirror x) (unit 1)
    (in_bom yes) (on_board yes)
    (uuid 00000000-0000-0000-0000-00005f9c51f0)
    (property "Reference" "Q5" (id 0) (at 135.6614 73.7616 0)
      (effects (font (size 1.27 1.27)) (justify left))
    )
    (property "Value" "BC807-16W,115" (id 1) (at 135.6614 76.073 0)
      (effects (font (size 1.27 1.27)) (justify left))
    )
    (property "Footprint" "Package_TO_SOT_SMD:SOT-323_SC-70" (id 2) (at 135.89 73.025 0)
      (effects (font (size 1.27 1.27) italic) (justify left) hide)
    )
    (property "Datasheet" "https://assets.nexperia.com/documents/data-sheet/BC807W_SER.pdf" (id 3) (at 130.81 74.93 0)
      (effects (font (size 1.27 1.27)) (justify left) hide)
    )
    (property "Digi-Key_PN" "1727-4835-1-ND" (id 4) (at 130.81 74.93 0)
      (effects (font (size 1.27 1.27)) hide)
    )
    (pin "1" (uuid 50047aaa-b884-47a3-aedd-24487013f026))
    (pin "2" (uuid c736bb8c-7a53-4825-8ba8-678fe7c9aaf5))
    (pin "3" (uuid 4c1ba737-5d30-421a-a945-09bbd66c8a61))
  )

  (symbol (lib_id "Device:R") (at 119.38 74.93 90) (unit 1)
    (in_bom yes) (on_board yes)
    (uuid 00000000-0000-0000-0000-00005f9c51f9)
    (property "Reference" "R55" (id 0) (at 119.38 69.6722 90))
    (property "Value" "R 16K" (id 1) (at 119.38 71.9836 90))
    (property "Footprint" "Resistor_SMD:R_0805_2012Metric_Pad1.20x1.40mm_HandSolder" (id 2) (at 119.38 76.708 90)
      (effects (font (size 1.27 1.27)) hide)
    )
    (property "Datasheet" "~" (id 3) (at 119.38 74.93 0)
      (effects (font (size 1.27 1.27)) hide)
    )
    (property "Tolerance" "1%" (id 4) (at 119.38 74.93 0)
      (effects (font (size 1.27 1.27)) hide)
    )
    (property "Digi-Key_PN" "311-16.0KCRCT-ND" (id 5) (at 119.38 74.93 0)
      (effects (font (size 1.27 1.27)) hide)
    )
    (pin "1" (uuid 4f347915-a220-42b1-8885-d51bf8775325))
    (pin "2" (uuid d6a409c4-215c-40e0-a2d7-e9329edd8300))
  )

  (symbol (lib_id "power:+5V") (at 133.35 67.31 0) (unit 1)
    (in_bom yes) (on_board yes)
    (uuid 00000000-0000-0000-0000-00005f9c5200)
    (property "Reference" "#PWR068" (id 0) (at 133.35 71.12 0)
      (effects (font (size 1.27 1.27)) hide)
    )
    (property "Value" "+5V" (id 1) (at 133.731 62.9158 0))
    (property "Footprint" "" (id 2) (at 133.35 67.31 0)
      (effects (font (size 1.27 1.27)) hide)
    )
    (property "Datasheet" "" (id 3) (at 133.35 67.31 0)
      (effects (font (size 1.27 1.27)) hide)
    )
    (pin "1" (uuid 2ac86bce-f5d5-455f-a031-65452cda0b30))
  )

  (symbol (lib_id "power:GND") (at 133.35 104.14 0) (unit 1)
    (in_bom yes) (on_board yes)
    (uuid 00000000-0000-0000-0000-00005f9c520a)
    (property "Reference" "#PWR069" (id 0) (at 133.35 110.49 0)
      (effects (font (size 1.27 1.27)) hide)
    )
    (property "Value" "GND" (id 1) (at 133.477 108.5342 0))
    (property "Footprint" "" (id 2) (at 133.35 104.14 0)
      (effects (font (size 1.27 1.27)) hide)
    )
    (property "Datasheet" "" (id 3) (at 133.35 104.14 0)
      (effects (font (size 1.27 1.27)) hide)
    )
    (pin "1" (uuid e45c607d-1690-4cdb-a4f2-4948a21e0d64))
  )

  (symbol (lib_id "Device:C") (at 158.75 83.82 0) (unit 1)
    (in_bom yes) (on_board yes)
    (uuid 00000000-0000-0000-0000-00005f9c5213)
    (property "Reference" "C51" (id 0) (at 161.671 82.6516 0)
      (effects (font (size 1.27 1.27)) (justify left))
    )
    (property "Value" "C 2.2u" (id 1) (at 161.671 84.963 0)
      (effects (font (size 1.27 1.27)) (justify left))
    )
    (property "Footprint" "Capacitor_SMD:C_0805_2012Metric_Pad1.18x1.45mm_HandSolder" (id 2) (at 159.7152 87.63 0)
      (effects (font (size 1.27 1.27)) hide)
    )
    (property "Datasheet" "~" (id 3) (at 158.75 83.82 0)
      (effects (font (size 1.27 1.27)) hide)
    )
    (property "Digi-Key_PN" "490-4787-1-ND" (id 4) (at 158.75 83.82 0)
      (effects (font (size 1.27 1.27)) hide)
    )
    (property "Farnell_PN" "1458904" (id 5) (at 158.75 83.82 0)
      (effects (font (size 1.27 1.27)) hide)
    )
    (pin "1" (uuid 236fac59-1a91-458a-ba0a-8408d286089d))
    (pin "2" (uuid 29dcf8cc-761f-4ce6-b300-e5639a8e5ecb))
  )

  (symbol (lib_id "dk_LED-Indication-Discrete:LG_R971-KN-1") (at 133.35 99.06 270) (unit 1)
    (in_bom yes) (on_board yes)
    (uuid 00000000-0000-0000-0000-00005f9c5228)
    (property "Reference" "D10" (id 0) (at 137.8712 96.4438 90)
      (effects (font (size 1.524 1.524)) (justify left))
    )
    (property "Value" "LG_R971-KN-1" (id 1) (at 137.8712 99.1362 90)
      (effects (font (size 1.524 1.524)) (justify left))
    )
    (property "Footprint" "digikey-footprints:0805" (id 2) (at 138.43 104.14 0)
      (effects (font (size 1.524 1.524)) (justify left) hide)
    )
    (property "Datasheet" "https://dammedia.osram.info/media/resource/hires/osram-dam-2493936/LG%20R971.pdf" (id 3) (at 140.97 104.14 0)
      (effects (font (size 1.524 1.524)) (justify left) hide)
    )
    (property "Digi-Key_PN" "475-1410-1-ND" (id 4) (at 143.51 104.14 0)
      (effects (font (size 1.524 1.524)) (justify left) hide)
    )
    (property "MPN" "LG R971-KN-1" (id 5) (at 146.05 104.14 0)
      (effects (font (size 1.524 1.524)) (justify left) hide)
    )
    (property "Category" "Optoelectronics" (id 6) (at 148.59 104.14 0)
      (effects (font (size 1.524 1.524)) (justify left) hide)
    )
    (property "Family" "LED Indication - Discrete" (id 7) (at 151.13 104.14 0)
      (effects (font (size 1.524 1.524)) (justify left) hide)
    )
    (property "DK_Datasheet_Link" "https://dammedia.osram.info/media/resource/hires/osram-dam-2493936/LG%20R971.pdf" (id 8) (at 153.67 104.14 0)
      (effects (font (size 1.524 1.524)) (justify left) hide)
    )
    (property "DK_Detail_Page" "/product-detail/en/osram-opto-semiconductors-inc/LG-R971-KN-1/475-1410-1-ND/1802598" (id 9) (at 156.21 104.14 0)
      (effects (font (size 1.524 1.524)) (justify left) hide)
    )
    (property "Description" "LED GREEN DIFFUSED 0805 SMD" (id 10) (at 158.75 104.14 0)
      (effects (font (size 1.524 1.524)) (justify left) hide)
    )
    (property "Manufacturer" "OSRAM Opto Semiconductors Inc." (id 11) (at 161.29 104.14 0)
      (effects (font (size 1.524 1.524)) (justify left) hide)
    )
    (property "Status" "Active" (id 12) (at 163.83 104.14 0)
      (effects (font (size 1.524 1.524)) (justify left) hide)
    )
    (pin "1" (uuid df431d38-6f42-4450-911c-26d1ccc3edec))
    (pin "2" (uuid 08dc98b2-db1b-458f-b0cd-5c5fbbad9c98))
  )

  (symbol (lib_id "Device:R") (at 133.35 87.63 0) (unit 1)
    (in_bom yes) (on_board yes)
    (uuid 00000000-0000-0000-0000-00005f9c5230)
    (property "Reference" "R56" (id 0) (at 135.128 86.4616 0)
      (effects (font (size 1.27 1.27)) (justify left))
    )
    (property "Value" "R 316" (id 1) (at 135.128 88.773 0)
      (effects (font (size 1.27 1.27)) (justify left))
    )
    (property "Footprint" "Resistor_SMD:R_0805_2012Metric_Pad1.20x1.40mm_HandSolder" (id 2) (at 131.572 87.63 90)
      (effects (font (size 1.27 1.27)) hide)
    )
    (property "Datasheet" "~" (id 3) (at 133.35 87.63 0)
      (effects (font (size 1.27 1.27)) hide)
    )
    (property "Tolerance" "1%" (id 4) (at 133.35 87.63 0)
      (effects (font (size 1.27 1.27)) hide)
    )
    (property "Digi-Key_PN" "P316CCT-ND" (id 5) (at 133.35 87.63 0)
      (effects (font (size 1.27 1.27)) hide)
    )
    (pin "1" (uuid e52fb8c4-292f-4f02-8010-bb3cfebb0eb5))
    (pin "2" (uuid e341fa83-ce8f-4732-ba64-6619587f3e29))
  )
)
