(kicad_sch (version 20211123) (generator eeschema)

  (uuid 1b4bd7d0-f030-4a86-8861-1a5baba7094c)

  (paper "A4")

  (title_block
    (title "ATLAS-ITK-PIXEL-MODULES HW INTERLOCK")
    (rev "0.4")
    (comment 1 "All logic is inverted TTL")
  )

  (lib_symbols
    (symbol "Analog_Switch:NC7SB3157P6X" (pin_names (offset 0.127)) (in_bom yes) (on_board yes)
      (property "Reference" "U" (id 0) (at -3.175 4.699 0)
        (effects (font (size 1.27 1.27)) (justify left))
      )
      (property "Value" "NC7SB3157P6X" (id 1) (at -3.175 2.921 0)
        (effects (font (size 1.27 1.27)) (justify left))
      )
      (property "Footprint" "Package_TO_SOT_SMD:SOT-363_SC-70-6" (id 2) (at 0 -7.62 0)
        (effects (font (size 1.27 1.27)) hide)
      )
      (property "Datasheet" "https://www.onsemi.com/pub/Collateral/NC7SB3157-D.PDF" (id 3) (at 0 0 0)
        (effects (font (size 1.27 1.27)) hide)
      )
      (property "ki_keywords" "CMOS Analog Switch" (id 4) (at 0 0 0)
        (effects (font (size 1.27 1.27)) hide)
      )
      (property "ki_description" "Single SPDT Low-Voltage Analog Switch or 2:1 Multiplexer/De-Multiplexer Bus Switch, 10Ohm Ron, SC-70-6" (id 5) (at 0 0 0)
        (effects (font (size 1.27 1.27)) hide)
      )
      (property "ki_fp_filters" "*SC?70*" (id 6) (at 0 0 0)
        (effects (font (size 1.27 1.27)) hide)
      )
      (symbol "NC7SB3157P6X_1_1"
        (rectangle (start -3.81 1.905) (end 3.81 -7.62)
          (stroke (width 0.254) (type default) (color 0 0 0 0))
          (fill (type background))
        )
        (circle (center -2.159 -2.54) (radius 0.508)
          (stroke (width 0.254) (type default) (color 0 0 0 0))
          (fill (type none))
        )
        (polyline
          (pts
            (xy -5.08 -2.54)
            (xy -2.794 -2.54)
          )
          (stroke (width 0) (type default) (color 0 0 0 0))
          (fill (type none))
        )
        (polyline
          (pts
            (xy -1.651 -2.413)
            (xy 2.54 -0.635)
          )
          (stroke (width 0.254) (type default) (color 0 0 0 0))
          (fill (type none))
        )
        (polyline
          (pts
            (xy 0 -7.62)
            (xy 0 -7.112)
          )
          (stroke (width 0) (type default) (color 0 0 0 0))
          (fill (type none))
        )
        (polyline
          (pts
            (xy 0 -6.858)
            (xy 0 -6.604)
          )
          (stroke (width 0) (type default) (color 0 0 0 0))
          (fill (type none))
        )
        (polyline
          (pts
            (xy 0 -6.35)
            (xy 0 -6.096)
          )
          (stroke (width 0) (type default) (color 0 0 0 0))
          (fill (type none))
        )
        (polyline
          (pts
            (xy 0 -5.842)
            (xy 0 -5.588)
          )
          (stroke (width 0) (type default) (color 0 0 0 0))
          (fill (type none))
        )
        (polyline
          (pts
            (xy 0 -5.334)
            (xy 0 -5.08)
          )
          (stroke (width 0) (type default) (color 0 0 0 0))
          (fill (type none))
        )
        (polyline
          (pts
            (xy 0 -4.826)
            (xy 0 -4.572)
          )
          (stroke (width 0) (type default) (color 0 0 0 0))
          (fill (type none))
        )
        (polyline
          (pts
            (xy 0 -4.318)
            (xy 0 -4.064)
          )
          (stroke (width 0) (type default) (color 0 0 0 0))
          (fill (type none))
        )
        (polyline
          (pts
            (xy 0 -3.81)
            (xy 0 -3.556)
          )
          (stroke (width 0) (type default) (color 0 0 0 0))
          (fill (type none))
        )
        (polyline
          (pts
            (xy 0 -3.302)
            (xy 0 -3.048)
          )
          (stroke (width 0) (type default) (color 0 0 0 0))
          (fill (type none))
        )
        (polyline
          (pts
            (xy 0 -2.794)
            (xy 0 -2.54)
          )
          (stroke (width 0) (type default) (color 0 0 0 0))
          (fill (type none))
        )
        (polyline
          (pts
            (xy 0 -2.286)
            (xy 0 -2.032)
          )
          (stroke (width 0) (type default) (color 0 0 0 0))
          (fill (type none))
        )
        (polyline
          (pts
            (xy 0 -2.286)
            (xy 0 -2.032)
          )
          (stroke (width 0) (type default) (color 0 0 0 0))
          (fill (type none))
        )
        (polyline
          (pts
            (xy 5.08 -5.08)
            (xy 2.794 -5.08)
          )
          (stroke (width 0) (type default) (color 0 0 0 0))
          (fill (type none))
        )
        (polyline
          (pts
            (xy 5.08 0)
            (xy 2.794 0)
          )
          (stroke (width 0) (type default) (color 0 0 0 0))
          (fill (type none))
        )
        (circle (center 2.159 -5.08) (radius 0.508)
          (stroke (width 0.254) (type default) (color 0 0 0 0))
          (fill (type none))
        )
        (circle (center 2.159 0) (radius 0.508)
          (stroke (width 0.254) (type default) (color 0 0 0 0))
          (fill (type none))
        )
        (pin passive line (at 7.62 -5.08 180) (length 2.54)
          (name "~" (effects (font (size 1.27 1.27))))
          (number "1" (effects (font (size 1.27 1.27))))
        )
        (pin passive line (at 7.62 0 180) (length 2.54)
          (name "~" (effects (font (size 1.27 1.27))))
          (number "3" (effects (font (size 1.27 1.27))))
        )
        (pin passive line (at -7.62 -2.54 0) (length 2.54)
          (name "~" (effects (font (size 1.27 1.27))))
          (number "4" (effects (font (size 1.27 1.27))))
        )
        (pin input line (at 0 -10.16 90) (length 2.54)
          (name "~" (effects (font (size 1.27 1.27))))
          (number "6" (effects (font (size 1.27 1.27))))
        )
      )
      (symbol "NC7SB3157P6X_2_0"
        (pin power_in line (at 0 -12.7 90) (length 2.54)
          (name "GND" (effects (font (size 1.27 1.27))))
          (number "2" (effects (font (size 1.27 1.27))))
        )
        (pin power_in line (at 0 12.7 270) (length 2.54)
          (name "V+" (effects (font (size 1.27 1.27))))
          (number "5" (effects (font (size 1.27 1.27))))
        )
      )
      (symbol "NC7SB3157P6X_2_1"
        (rectangle (start -3.81 10.16) (end 3.81 -10.16)
          (stroke (width 0.254) (type default) (color 0 0 0 0))
          (fill (type background))
        )
      )
    )
    (symbol "Device:C" (pin_numbers hide) (pin_names (offset 0.254)) (in_bom yes) (on_board yes)
      (property "Reference" "C" (id 0) (at 0.635 2.54 0)
        (effects (font (size 1.27 1.27)) (justify left))
      )
      (property "Value" "C" (id 1) (at 0.635 -2.54 0)
        (effects (font (size 1.27 1.27)) (justify left))
      )
      (property "Footprint" "" (id 2) (at 0.9652 -3.81 0)
        (effects (font (size 1.27 1.27)) hide)
      )
      (property "Datasheet" "~" (id 3) (at 0 0 0)
        (effects (font (size 1.27 1.27)) hide)
      )
      (property "ki_keywords" "cap capacitor" (id 4) (at 0 0 0)
        (effects (font (size 1.27 1.27)) hide)
      )
      (property "ki_description" "Unpolarized capacitor" (id 5) (at 0 0 0)
        (effects (font (size 1.27 1.27)) hide)
      )
      (property "ki_fp_filters" "C_*" (id 6) (at 0 0 0)
        (effects (font (size 1.27 1.27)) hide)
      )
      (symbol "C_0_1"
        (polyline
          (pts
            (xy -2.032 -0.762)
            (xy 2.032 -0.762)
          )
          (stroke (width 0.508) (type default) (color 0 0 0 0))
          (fill (type none))
        )
        (polyline
          (pts
            (xy -2.032 0.762)
            (xy 2.032 0.762)
          )
          (stroke (width 0.508) (type default) (color 0 0 0 0))
          (fill (type none))
        )
      )
      (symbol "C_1_1"
        (pin passive line (at 0 3.81 270) (length 2.794)
          (name "~" (effects (font (size 1.27 1.27))))
          (number "1" (effects (font (size 1.27 1.27))))
        )
        (pin passive line (at 0 -3.81 90) (length 2.794)
          (name "~" (effects (font (size 1.27 1.27))))
          (number "2" (effects (font (size 1.27 1.27))))
        )
      )
    )
    (symbol "Device:R" (pin_numbers hide) (pin_names (offset 0)) (in_bom yes) (on_board yes)
      (property "Reference" "R" (id 0) (at 2.032 0 90)
        (effects (font (size 1.27 1.27)))
      )
      (property "Value" "R" (id 1) (at 0 0 90)
        (effects (font (size 1.27 1.27)))
      )
      (property "Footprint" "" (id 2) (at -1.778 0 90)
        (effects (font (size 1.27 1.27)) hide)
      )
      (property "Datasheet" "~" (id 3) (at 0 0 0)
        (effects (font (size 1.27 1.27)) hide)
      )
      (property "ki_keywords" "R res resistor" (id 4) (at 0 0 0)
        (effects (font (size 1.27 1.27)) hide)
      )
      (property "ki_description" "Resistor" (id 5) (at 0 0 0)
        (effects (font (size 1.27 1.27)) hide)
      )
      (property "ki_fp_filters" "R_*" (id 6) (at 0 0 0)
        (effects (font (size 1.27 1.27)) hide)
      )
      (symbol "R_0_1"
        (rectangle (start -1.016 -2.54) (end 1.016 2.54)
          (stroke (width 0.254) (type default) (color 0 0 0 0))
          (fill (type none))
        )
      )
      (symbol "R_1_1"
        (pin passive line (at 0 3.81 270) (length 1.27)
          (name "~" (effects (font (size 1.27 1.27))))
          (number "1" (effects (font (size 1.27 1.27))))
        )
        (pin passive line (at 0 -3.81 90) (length 1.27)
          (name "~" (effects (font (size 1.27 1.27))))
          (number "2" (effects (font (size 1.27 1.27))))
        )
      )
    )
    (symbol "LEDs_magne:AM23ESGC" (pin_names (offset 1.016)) (in_bom yes) (on_board yes)
      (property "Reference" "D" (id 0) (at 3.81 6.35 0)
        (effects (font (size 1.27 1.27)))
      )
      (property "Value" "AM23ESGC" (id 1) (at -7.62 6.35 0)
        (effects (font (size 1.27 1.27)))
      )
      (property "Footprint" "TO_SOT_Packages_SMD:SOT-23" (id 2) (at 1.27 0 0)
        (effects (font (size 1.27 1.27)) hide)
      )
      (property "Datasheet" "http://www.kingbrightusa.com/images/catalog/SPEC/AM23ESGC.pdf" (id 3) (at 1.27 0 0)
        (effects (font (size 1.27 1.27)) hide)
      )
      (property "ki_description" "RED/GREEN LED with common cathode" (id 4) (at 0 0 0)
        (effects (font (size 1.27 1.27)) hide)
      )
      (symbol "AM23ESGC_0_1"
        (polyline
          (pts
            (xy -5.08 -5.08)
            (xy -5.08 -6.35)
            (xy 2.54 -6.35)
            (xy 2.54 -5.08)
          )
          (stroke (width 0) (type default) (color 0 0 0 0))
          (fill (type none))
        )
      )
      (symbol "AM23ESGC_1_1"
        (polyline
          (pts
            (xy -5.08 -5.08)
            (xy -5.08 -2.54)
          )
          (stroke (width 0) (type default) (color 0 0 0 0))
          (fill (type none))
        )
        (polyline
          (pts
            (xy -3.81 -5.08)
            (xy -6.35 -5.08)
          )
          (stroke (width 0.254) (type default) (color 0 0 0 0))
          (fill (type none))
        )
        (polyline
          (pts
            (xy 2.54 -5.08)
            (xy 2.54 -2.54)
          )
          (stroke (width 0) (type default) (color 0 0 0 0))
          (fill (type none))
        )
        (polyline
          (pts
            (xy 3.81 -5.08)
            (xy 1.27 -5.08)
          )
          (stroke (width 0.254) (type default) (color 0 0 0 0))
          (fill (type none))
        )
        (polyline
          (pts
            (xy -3.81 -2.54)
            (xy -6.35 -2.54)
            (xy -5.08 -5.08)
            (xy -3.81 -2.54)
          )
          (stroke (width 0.254) (type default) (color 0 0 0 0))
          (fill (type none))
        )
        (polyline
          (pts
            (xy 3.81 -2.54)
            (xy 1.27 -2.54)
            (xy 2.54 -5.08)
            (xy 3.81 -2.54)
          )
          (stroke (width 0.254) (type default) (color 0 0 0 0))
          (fill (type none))
        )
        (polyline
          (pts
            (xy -3.048 -4.318)
            (xy -1.524 -5.842)
            (xy -1.524 -5.08)
            (xy -1.524 -5.842)
            (xy -2.286 -5.842)
          )
          (stroke (width 0) (type default) (color 0 0 0 0))
          (fill (type none))
        )
        (polyline
          (pts
            (xy -3.048 -3.048)
            (xy -1.524 -4.572)
            (xy -1.524 -3.81)
            (xy -1.524 -4.572)
            (xy -2.286 -4.572)
          )
          (stroke (width 0) (type default) (color 0 0 0 0))
          (fill (type none))
        )
        (polyline
          (pts
            (xy 4.572 -4.318)
            (xy 6.096 -5.842)
            (xy 6.096 -5.08)
            (xy 6.096 -5.842)
            (xy 5.334 -5.842)
          )
          (stroke (width 0) (type default) (color 0 0 0 0))
          (fill (type none))
        )
        (polyline
          (pts
            (xy 4.572 -3.048)
            (xy 6.096 -4.572)
            (xy 6.096 -3.81)
            (xy 6.096 -4.572)
            (xy 5.334 -4.572)
          )
          (stroke (width 0) (type default) (color 0 0 0 0))
          (fill (type none))
        )
        (pin passive line (at 2.54 0 270) (length 2.54)
          (name "RED" (effects (font (size 1.27 1.27))))
          (number "1" (effects (font (size 1.27 1.27))))
        )
        (pin passive line (at -5.08 0 270) (length 2.54)
          (name "GREEN" (effects (font (size 1.27 1.27))))
          (number "2" (effects (font (size 1.27 1.27))))
        )
        (pin passive line (at -1.27 -8.89 90) (length 2.54)
          (name "C" (effects (font (size 1.27 1.27))))
          (number "3" (effects (font (size 1.27 1.27))))
        )
      )
    )
    (symbol "power:+5V" (power) (pin_names (offset 0)) (in_bom yes) (on_board yes)
      (property "Reference" "#PWR" (id 0) (at 0 -3.81 0)
        (effects (font (size 1.27 1.27)) hide)
      )
      (property "Value" "+5V" (id 1) (at 0 3.556 0)
        (effects (font (size 1.27 1.27)))
      )
      (property "Footprint" "" (id 2) (at 0 0 0)
        (effects (font (size 1.27 1.27)) hide)
      )
      (property "Datasheet" "" (id 3) (at 0 0 0)
        (effects (font (size 1.27 1.27)) hide)
      )
      (property "ki_keywords" "power-flag" (id 4) (at 0 0 0)
        (effects (font (size 1.27 1.27)) hide)
      )
      (property "ki_description" "Power symbol creates a global label with name \"+5V\"" (id 5) (at 0 0 0)
        (effects (font (size 1.27 1.27)) hide)
      )
      (symbol "+5V_0_1"
        (polyline
          (pts
            (xy -0.762 1.27)
            (xy 0 2.54)
          )
          (stroke (width 0) (type default) (color 0 0 0 0))
          (fill (type none))
        )
        (polyline
          (pts
            (xy 0 0)
            (xy 0 2.54)
          )
          (stroke (width 0) (type default) (color 0 0 0 0))
          (fill (type none))
        )
        (polyline
          (pts
            (xy 0 2.54)
            (xy 0.762 1.27)
          )
          (stroke (width 0) (type default) (color 0 0 0 0))
          (fill (type none))
        )
      )
      (symbol "+5V_1_1"
        (pin power_in line (at 0 0 90) (length 0) hide
          (name "+5V" (effects (font (size 1.27 1.27))))
          (number "1" (effects (font (size 1.27 1.27))))
        )
      )
    )
    (symbol "power:GND" (power) (pin_names (offset 0)) (in_bom yes) (on_board yes)
      (property "Reference" "#PWR" (id 0) (at 0 -6.35 0)
        (effects (font (size 1.27 1.27)) hide)
      )
      (property "Value" "GND" (id 1) (at 0 -3.81 0)
        (effects (font (size 1.27 1.27)))
      )
      (property "Footprint" "" (id 2) (at 0 0 0)
        (effects (font (size 1.27 1.27)) hide)
      )
      (property "Datasheet" "" (id 3) (at 0 0 0)
        (effects (font (size 1.27 1.27)) hide)
      )
      (property "ki_keywords" "power-flag" (id 4) (at 0 0 0)
        (effects (font (size 1.27 1.27)) hide)
      )
      (property "ki_description" "Power symbol creates a global label with name \"GND\" , ground" (id 5) (at 0 0 0)
        (effects (font (size 1.27 1.27)) hide)
      )
      (symbol "GND_0_1"
        (polyline
          (pts
            (xy 0 0)
            (xy 0 -1.27)
            (xy 1.27 -1.27)
            (xy 0 -2.54)
            (xy -1.27 -1.27)
            (xy 0 -1.27)
          )
          (stroke (width 0) (type default) (color 0 0 0 0))
          (fill (type none))
        )
      )
      (symbol "GND_1_1"
        (pin power_in line (at 0 0 270) (length 0) hide
          (name "GND" (effects (font (size 1.27 1.27))))
          (number "1" (effects (font (size 1.27 1.27))))
        )
      )
    )
  )

  (junction (at 127 71.12) (diameter 0) (color 0 0 0 0)
    (uuid 0577a640-0bbb-442f-b79a-f56403e3bdfb)
  )
  (junction (at 119.38 111.76) (diameter 0) (color 0 0 0 0)
    (uuid 6486875f-9d37-4f25-b667-12d37e314962)
  )
  (junction (at 119.38 71.12) (diameter 0) (color 0 0 0 0)
    (uuid f88d5f29-98c1-4eec-a417-f8b22e032615)
  )
  (junction (at 127 111.76) (diameter 0) (color 0 0 0 0)
    (uuid fff19570-d898-4dc1-a751-2ce083d08660)
  )

  (wire (pts (xy 127 111.76) (xy 153.67 111.76))
    (stroke (width 0) (type default) (color 0 0 0 0))
    (uuid 058fa49a-fc86-42c5-9c3a-f85b5c80ed95)
  )
  (wire (pts (xy 153.67 111.76) (xy 153.67 110.49))
    (stroke (width 0) (type default) (color 0 0 0 0))
    (uuid 07cc3e28-a568-4789-8694-79ef41dea079)
  )
  (wire (pts (xy 153.67 71.12) (xy 127 71.12))
    (stroke (width 0) (type default) (color 0 0 0 0))
    (uuid 104a0235-ed17-4cf5-a63e-8d666a4e13d4)
  )
  (wire (pts (xy 127 71.12) (xy 119.38 71.12))
    (stroke (width 0) (type default) (color 0 0 0 0))
    (uuid 1eaf7a93-4904-49d7-86b5-fbed8d0b0a2f)
  )
  (wire (pts (xy 119.38 111.76) (xy 127 111.76))
    (stroke (width 0) (type default) (color 0 0 0 0))
    (uuid 2e86ffb9-e314-4324-8a84-20c13cdb4789)
  )
  (wire (pts (xy 153.67 73.66) (xy 153.67 71.12))
    (stroke (width 0) (type default) (color 0 0 0 0))
    (uuid 34bf9a45-703a-4366-9550-f7a7082750f0)
  )
  (wire (pts (xy 151.13 88.9) (xy 149.86 88.9))
    (stroke (width 0) (type default) (color 0 0 0 0))
    (uuid 37825baf-a68f-4e0a-b6d2-26da948a6207)
  )
  (wire (pts (xy 119.38 109.22) (xy 119.38 111.76))
    (stroke (width 0) (type default) (color 0 0 0 0))
    (uuid 3c3709e7-2322-4556-899e-27f057cb0e08)
  )
  (wire (pts (xy 149.86 88.9) (xy 149.86 91.44))
    (stroke (width 0) (type default) (color 0 0 0 0))
    (uuid 68fedfcb-d856-489f-94a2-f333a4cafefa)
  )
  (wire (pts (xy 127 106.68) (xy 127 111.76))
    (stroke (width 0) (type default) (color 0 0 0 0))
    (uuid 6d87e3a6-c338-43c3-ba8a-1013f5137c50)
  )
  (wire (pts (xy 119.38 67.31) (xy 119.38 71.12))
    (stroke (width 0) (type default) (color 0 0 0 0))
    (uuid 8058eb6b-9d90-41ea-85ab-74770bb09a01)
  )
  (wire (pts (xy 156.21 88.9) (xy 157.48 88.9))
    (stroke (width 0) (type default) (color 0 0 0 0))
    (uuid b3b84a51-6929-405b-aaf1-ccc8bda7ea12)
  )
  (wire (pts (xy 157.48 99.06) (xy 157.48 101.6))
    (stroke (width 0) (type default) (color 0 0 0 0))
    (uuid b60f27c1-7b85-4b3c-899e-66c78e3e6341)
  )
  (wire (pts (xy 149.86 99.06) (xy 149.86 101.6))
    (stroke (width 0) (type default) (color 0 0 0 0))
    (uuid be8f0d90-c39c-4317-9f36-c61941fbb37c)
  )
  (wire (pts (xy 143.51 81.28) (xy 146.05 81.28))
    (stroke (width 0) (type default) (color 0 0 0 0))
    (uuid c615827b-f660-4b69-b987-e6e48b0b99af)
  )
  (wire (pts (xy 127 71.12) (xy 127 99.06))
    (stroke (width 0) (type default) (color 0 0 0 0))
    (uuid cc1d3c00-d6ae-4dbe-be2a-da62e6615be4)
  )
  (wire (pts (xy 157.48 88.9) (xy 157.48 91.44))
    (stroke (width 0) (type default) (color 0 0 0 0))
    (uuid d50789f5-36a6-48bc-8853-a6e91259957b)
  )
  (wire (pts (xy 119.38 71.12) (xy 119.38 83.82))
    (stroke (width 0) (type default) (color 0 0 0 0))
    (uuid f8da9fae-ebad-4356-80ed-02bdf1169e5d)
  )

  (hierarchical_label "Cntrl" (shape input) (at 143.51 81.28 180)
    (effects (font (size 1.27 1.27)) (justify right))
    (uuid bb984b99-78c9-4c68-94d5-2a3a0b747896)
  )

  (symbol (lib_id "Device:R") (at 157.48 95.25 0) (unit 1)
    (in_bom yes) (on_board yes)
    (uuid 00000000-0000-0000-0000-00005ebfbd43)
    (property "Reference" "R82" (id 0) (at 159.258 94.0816 0)
      (effects (font (size 1.27 1.27)) (justify left))
    )
    (property "Value" "R 316" (id 1) (at 158.75 96.52 0)
      (effects (font (size 1.27 1.27)) (justify left))
    )
    (property "Footprint" "Resistor_SMD:R_0805_2012Metric_Pad1.20x1.40mm_HandSolder" (id 2) (at 155.702 95.25 90)
      (effects (font (size 1.27 1.27)) hide)
    )
    (property "Datasheet" "~" (id 3) (at 157.48 95.25 0)
      (effects (font (size 1.27 1.27)) hide)
    )
    (property "Tolerance" "1%" (id 4) (at 157.48 95.25 0)
      (effects (font (size 1.27 1.27)) hide)
    )
    (property "Digi-Key_PN" "P316CCT-ND" (id 5) (at 157.48 95.25 0)
      (effects (font (size 1.27 1.27)) hide)
    )
    (pin "1" (uuid 65651252-34eb-40c6-9365-b5393435a24e))
    (pin "2" (uuid 1b15b56a-f210-4629-bd41-6c186d5320b8))
  )

  (symbol (lib_id "LEDs_magne:AM23ESGC") (at 154.94 101.6 0) (unit 1)
    (in_bom yes) (on_board yes)
    (uuid 00000000-0000-0000-0000-00005ebfbd44)
    (property "Reference" "D16" (id 0) (at 161.7472 105.1814 0)
      (effects (font (size 1.27 1.27)) (justify left))
    )
    (property "Value" "AM23ESGC" (id 1) (at 161.7472 107.4928 0)
      (effects (font (size 1.27 1.27)) (justify left))
    )
    (property "Footprint" "Package_TO_SOT_SMD:SOT-23_Handsoldering" (id 2) (at 156.21 101.6 0)
      (effects (font (size 1.27 1.27)) hide)
    )
    (property "Datasheet" "http://www.kingbrightusa.com/images/catalog/SPEC/AM23ESGC.pdf" (id 3) (at 156.21 101.6 0)
      (effects (font (size 1.27 1.27)) hide)
    )
    (property "Digi-Key_PN" "754-1633-1-ND" (id 4) (at 154.94 101.6 0)
      (effects (font (size 1.27 1.27)) hide)
    )
    (pin "1" (uuid 81d4d9c1-f320-47b7-9e38-fd04bfdf892d))
    (pin "2" (uuid 8f0e8575-caa7-44ba-8d53-bc2764988fa1))
    (pin "3" (uuid 24b51e01-1825-4731-9038-aa0af11488b6))
  )

  (symbol (lib_id "Device:R") (at 149.86 95.25 0) (unit 1)
    (in_bom yes) (on_board yes)
    (uuid 00000000-0000-0000-0000-00005ec616b3)
    (property "Reference" "R81" (id 0) (at 146.05 93.98 0)
      (effects (font (size 1.27 1.27)) (justify left))
    )
    (property "Value" "R 255" (id 1) (at 142.24 96.52 0)
      (effects (font (size 1.27 1.27)) (justify left))
    )
    (property "Footprint" "Resistor_SMD:R_0805_2012Metric_Pad1.20x1.40mm_HandSolder" (id 2) (at 148.082 95.25 90)
      (effects (font (size 1.27 1.27)) hide)
    )
    (property "Datasheet" "~" (id 3) (at 149.86 95.25 0)
      (effects (font (size 1.27 1.27)) hide)
    )
    (property "Tolerance" "1%" (id 4) (at 149.86 95.25 0)
      (effects (font (size 1.27 1.27)) hide)
    )
    (property "Digi-Key_PN" "	P255CCT-ND" (id 5) (at 149.86 95.25 0)
      (effects (font (size 1.27 1.27)) hide)
    )
    (pin "1" (uuid 2bb58373-bb8d-4d8b-8253-82f57fc4b73a))
    (pin "2" (uuid 03c10723-8b08-457a-b7db-f3d971cead51))
  )

  (symbol (lib_id "Device:C") (at 127 102.87 0) (unit 1)
    (in_bom yes) (on_board yes)
    (uuid 00000000-0000-0000-0000-00005ec616b6)
    (property "Reference" "C78" (id 0) (at 129.921 101.7016 0)
      (effects (font (size 1.27 1.27)) (justify left))
    )
    (property "Value" "C 100n" (id 1) (at 129.921 104.013 0)
      (effects (font (size 1.27 1.27)) (justify left))
    )
    (property "Footprint" "Capacitor_SMD:C_0805_2012Metric_Pad1.18x1.45mm_HandSolder" (id 2) (at 127.9652 106.68 0)
      (effects (font (size 1.27 1.27)) hide)
    )
    (property "Datasheet" "~" (id 3) (at 127 102.87 0)
      (effects (font (size 1.27 1.27)) hide)
    )
    (property "Voltage - rated" "16" (id 4) (at 127 102.87 0)
      (effects (font (size 1.27 1.27)) hide)
    )
    (property "Tolerance" "20%" (id 5) (at 127 102.87 0)
      (effects (font (size 1.27 1.27)) hide)
    )
    (property "Digi-Key_PN" "399-8000-1-ND" (id 6) (at 127 102.87 0)
      (effects (font (size 1.27 1.27)) hide)
    )
    (property "Farnell_PN" "718683" (id 7) (at 127 102.87 0)
      (effects (font (size 1.27 1.27)) hide)
    )
    (pin "1" (uuid 99f26f38-d26a-49f7-81d5-7214eeeeb1b8))
    (pin "2" (uuid 7321fc56-f529-41c2-8133-2f569442534d))
  )

  (symbol (lib_id "Analog_Switch:NC7SB3157P6X") (at 156.21 81.28 270) (unit 1)
    (in_bom yes) (on_board yes)
    (uuid 00000000-0000-0000-0000-00005edab983)
    (property "Reference" "U40" (id 0) (at 158.877 80.1116 90)
      (effects (font (size 1.27 1.27)) (justify left))
    )
    (property "Value" "NC7SB3157P6X" (id 1) (at 158.877 82.423 90)
      (effects (font (size 1.27 1.27)) (justify left))
    )
    (property "Footprint" "Package_TO_SOT_SMD:SOT-363_SC-70-6" (id 2) (at 148.59 81.28 0)
      (effects (font (size 1.27 1.27)) hide)
    )
    (property "Datasheet" "https://www.fairchildsemi.com/datasheets/NC/NC7SB3157.pdf" (id 3) (at 156.21 81.28 0)
      (effects (font (size 1.27 1.27)) hide)
    )
    (property "Digi-Key_PN" "NC7SB3157P6XCT-ND" (id 4) (at 156.21 81.28 0)
      (effects (font (size 1.27 1.27)) hide)
    )
    (pin "1" (uuid d3dd68fd-da8a-4eb7-a8d5-028af41fb886))
    (pin "3" (uuid ecc5707a-1733-4e21-8d32-88ef21bf8c8b))
    (pin "4" (uuid 5f66d752-cf30-43dd-bb72-dfed75a8bf93))
    (pin "6" (uuid aa0137bc-2a56-48b5-bed6-56f4a2bd972e))
    (pin "2" (uuid ceadae8c-b924-4615-b93d-5165ffceae0e))
    (pin "5" (uuid a4ded8fe-8444-4591-849c-b92d0602b72a))
  )

  (symbol (lib_id "Analog_Switch:NC7SB3157P6X") (at 119.38 96.52 0) (unit 2)
    (in_bom yes) (on_board yes)
    (uuid 00000000-0000-0000-0000-00005edac49f)
    (property "Reference" "U40" (id 0) (at 123.952 95.3516 0)
      (effects (font (size 1.27 1.27)) (justify left))
    )
    (property "Value" "NC7SB3157P6X" (id 1) (at 123.952 97.663 0)
      (effects (font (size 1.27 1.27)) (justify left))
    )
    (property "Footprint" "Package_TO_SOT_SMD:SOT-363_SC-70-6" (id 2) (at 119.38 104.14 0)
      (effects (font (size 1.27 1.27)) hide)
    )
    (property "Datasheet" "https://www.fairchildsemi.com/datasheets/NC/NC7SB3157.pdf" (id 3) (at 119.38 96.52 0)
      (effects (font (size 1.27 1.27)) hide)
    )
    (property "Digi-Key_PN" "NC7SB3157P6XCT-ND" (id 4) (at 119.38 96.52 0)
      (effects (font (size 1.27 1.27)) hide)
    )
    (pin "1" (uuid 9ab1ba24-2b33-48f9-8821-a98f28cda14e))
    (pin "3" (uuid fa36fc9d-8f97-45d9-9951-9fbef4af7dd0))
    (pin "4" (uuid 8c3892c2-2bad-4dc7-8d0e-2b636c1c87c5))
    (pin "6" (uuid 801f44e0-4401-412c-8fb6-e61eac3f807d))
    (pin "2" (uuid b7ceb5a5-6051-49d8-85f1-e6356e1d46ba))
    (pin "5" (uuid e2caa85e-cfef-4c8a-a9c6-65410da4e7e6))
  )

  (symbol (lib_id "power:+5V") (at 119.38 67.31 0) (unit 1)
    (in_bom yes) (on_board yes)
    (uuid 00000000-0000-0000-0000-00005efa38b5)
    (property "Reference" "#PWR0121" (id 0) (at 119.38 71.12 0)
      (effects (font (size 1.27 1.27)) hide)
    )
    (property "Value" "+5V" (id 1) (at 119.761 62.9158 0))
    (property "Footprint" "" (id 2) (at 119.38 67.31 0)
      (effects (font (size 1.27 1.27)) hide)
    )
    (property "Datasheet" "" (id 3) (at 119.38 67.31 0)
      (effects (font (size 1.27 1.27)) hide)
    )
    (pin "1" (uuid 25f5598c-88ec-461e-95d9-dccb4b20d1a9))
  )

  (symbol (lib_id "power:GND") (at 119.38 111.76 0) (unit 1)
    (in_bom yes) (on_board yes)
    (uuid 00000000-0000-0000-0000-00005efa3a2a)
    (property "Reference" "#PWR0122" (id 0) (at 119.38 118.11 0)
      (effects (font (size 1.27 1.27)) hide)
    )
    (property "Value" "GND" (id 1) (at 119.507 116.1542 0))
    (property "Footprint" "" (id 2) (at 119.38 111.76 0)
      (effects (font (size 1.27 1.27)) hide)
    )
    (property "Datasheet" "" (id 3) (at 119.38 111.76 0)
      (effects (font (size 1.27 1.27)) hide)
    )
    (pin "1" (uuid 66bb7c00-28a7-48a7-b459-7009d9e748a6))
  )
)
