EESchema Schematic File Version 4
EELAYER 30 0
EELAYER END
$Descr A4 11693 8268
encoding utf-8
Sheet 29 34
Title ""
Date ""
Rev ""
Comp ""
Comment1 ""
Comment2 ""
Comment3 ""
Comment4 ""
$EndDescr
Wire Wire Line
	6200 3900 6200 4000
Wire Wire Line
	5900 3900 5900 4000
Wire Wire Line
	6200 3500 6200 3600
$Comp
L Device:R R?
U 1 1 5EC616B3
P 5900 3750
AR Path="/5EC616B3" Ref="R?"  Part="1" 
AR Path="/5EB41214/5EC616B3" Ref="R?"  Part="1" 
AR Path="/5EB41214/5EBBD8A5/5EC616B3" Ref="R?"  Part="1" 
AR Path="/5ED2BC2A/5EBBD8A5/5EC616B3" Ref="R?"  Part="1" 
AR Path="/5EB41214/5EE0AFAE/5EC616B3" Ref="R?"  Part="1" 
AR Path="/5ED2BC2A/5EE0E694/5EC616B3" Ref="R?"  Part="1" 
AR Path="/5EE0AC5D/5EBBD8A5/5EC616B3" Ref="R?"  Part="1" 
AR Path="/5EE0E313/5EBBD8A5/5EC616B3" Ref="R?"  Part="1" 
AR Path="/5EE55D87/5EC616B3" Ref="R?"  Part="1" 
AR Path="/5EE5AAE3/5EE61F79/5EC616B3" Ref="R?"  Part="1" 
AR Path="/5EE77D5A/5EBBD8A5/5EC616B3" Ref="R?"  Part="1" 
AR Path="/5EE8A13E/5EE79806/5EC616B3" Ref="R?"  Part="1" 
AR Path="/5EE8A13E/5EEC632A/5EC616B3" Ref="R?"  Part="1" 
AR Path="/5EE0AC5D/5EE8A622/5EC616B3" Ref="R?"  Part="1" 
AR Path="/5EE0E313/5EE79806/5EC616B3" Ref="R?"  Part="1" 
AR Path="/5EE8A13E/5EBF17AF/5EC616B3" Ref="R?"  Part="1" 
AR Path="/5EBFB816/5EE0AFAE/5EC616B3" Ref="R?"  Part="1" 
AR Path="/5ECA2575/5EE0E694/5EC616B3" Ref="R?"  Part="1" 
AR Path="/5ECAC95D/5EE0E694/5EC616B3" Ref="R?"  Part="1" 
AR Path="/5ED2BC2A/5ECD5689/5EC616B3" Ref="R?"  Part="1" 
AR Path="/5EB41214/5F0724C9/5EC616B3" Ref="R?"  Part="1" 
AR Path="/5EB41214/5F076AF2/5EC616B3" Ref="R?"  Part="1" 
AR Path="/5ED2BC2A/5F07EE75/5EC616B3" Ref="R?"  Part="1" 
AR Path="/5EB41214/5ED0D263/5EC616B3" Ref="R?"  Part="1" 
AR Path="/5EED7553/5EEDA7EE/5EC616B3" Ref="R?"  Part="1" 
AR Path="/5EEDC7D6/5EF6CA07/5EC616B3" Ref="R81"  Part="1" 
AR Path="/5EEDC7D6/5F87FF30/5EC616B3" Ref="R?"  Part="1" 
F 0 "R81" H 5750 3800 50  0000 L CNN
F 1 "R 255" H 5600 3700 50  0000 L CNN
F 2 "Resistor_SMD:R_0805_2012Metric_Pad1.15x1.40mm_HandSolder" V 5830 3750 50  0001 C CNN
F 3 "~" H 5900 3750 50  0001 C CNN
F 4 "1%" H 5900 3750 50  0001 C CNN "Tolerance"
F 5 "	P255CCT-ND" H 5900 3750 50  0001 C CNN "Digi-Key_PN"
	1    5900 3750
	1    0    0    -1  
$EndComp
$Comp
L Device:R R?
U 1 1 5EBFBD43
P 6200 3750
AR Path="/5EBFBD43" Ref="R?"  Part="1" 
AR Path="/5EB41214/5EBFBD43" Ref="R?"  Part="1" 
AR Path="/5EB41214/5EBBD8A5/5EBFBD43" Ref="R?"  Part="1" 
AR Path="/5ED2BC2A/5EBBD8A5/5EBFBD43" Ref="R?"  Part="1" 
AR Path="/5EB41214/5EE0AFAE/5EBFBD43" Ref="R?"  Part="1" 
AR Path="/5ED2BC2A/5EE0E694/5EBFBD43" Ref="R?"  Part="1" 
AR Path="/5EE0AC5D/5EBBD8A5/5EBFBD43" Ref="R?"  Part="1" 
AR Path="/5EE0E313/5EBBD8A5/5EBFBD43" Ref="R?"  Part="1" 
AR Path="/5EE55D87/5EBFBD43" Ref="R?"  Part="1" 
AR Path="/5EE5AAE3/5EE61F79/5EBFBD43" Ref="R?"  Part="1" 
AR Path="/5EE77D5A/5EBBD8A5/5EBFBD43" Ref="R?"  Part="1" 
AR Path="/5EE8A13E/5EE79806/5EBFBD43" Ref="R?"  Part="1" 
AR Path="/5EE8A13E/5EEC632A/5EBFBD43" Ref="R?"  Part="1" 
AR Path="/5EE0AC5D/5EE8A622/5EBFBD43" Ref="R?"  Part="1" 
AR Path="/5EE0E313/5EE79806/5EBFBD43" Ref="R?"  Part="1" 
AR Path="/5EE8A13E/5EBF17AF/5EBFBD43" Ref="R?"  Part="1" 
AR Path="/5EBFB816/5EE0AFAE/5EBFBD43" Ref="R?"  Part="1" 
AR Path="/5ECA2575/5EE0E694/5EBFBD43" Ref="R?"  Part="1" 
AR Path="/5ECAC95D/5EE0E694/5EBFBD43" Ref="R?"  Part="1" 
AR Path="/5ED2BC2A/5ECD5689/5EBFBD43" Ref="R?"  Part="1" 
AR Path="/5EB41214/5F0724C9/5EBFBD43" Ref="R?"  Part="1" 
AR Path="/5EB41214/5F076AF2/5EBFBD43" Ref="R?"  Part="1" 
AR Path="/5ED2BC2A/5F07EE75/5EBFBD43" Ref="R?"  Part="1" 
AR Path="/5EB41214/5ED0D263/5EBFBD43" Ref="R?"  Part="1" 
AR Path="/5EED7553/5EEDA7EE/5EBFBD43" Ref="R?"  Part="1" 
AR Path="/5EEDC7D6/5EF6CA07/5EBFBD43" Ref="R82"  Part="1" 
AR Path="/5EEDC7D6/5F87FF30/5EBFBD43" Ref="R?"  Part="1" 
F 0 "R82" H 6270 3796 50  0000 L CNN
F 1 "R 316" H 6250 3700 50  0000 L CNN
F 2 "Resistor_SMD:R_0805_2012Metric_Pad1.15x1.40mm_HandSolder" V 6130 3750 50  0001 C CNN
F 3 "~" H 6200 3750 50  0001 C CNN
F 4 "1%" H 6200 3750 50  0001 C CNN "Tolerance"
F 5 "P316CCT-ND" H 6200 3750 50  0001 C CNN "Digi-Key_PN"
	1    6200 3750
	1    0    0    -1  
$EndComp
$Comp
L LEDs_magne:AM23ESGC D?
U 1 1 5EBFBD44
P 6100 4000
AR Path="/5EB41214/5EBFBD44" Ref="D?"  Part="1" 
AR Path="/5EB41214/5EBBD8A5/5EBFBD44" Ref="D?"  Part="1" 
AR Path="/5ED2BC2A/5EBBD8A5/5EBFBD44" Ref="D?"  Part="1" 
AR Path="/5EB41214/5EE0AFAE/5EBFBD44" Ref="D?"  Part="1" 
AR Path="/5ED2BC2A/5EE0E694/5EBFBD44" Ref="D?"  Part="1" 
AR Path="/5EE0AC5D/5EBBD8A5/5EBFBD44" Ref="D?"  Part="1" 
AR Path="/5EE0E313/5EBBD8A5/5EBFBD44" Ref="D?"  Part="1" 
AR Path="/5EE55D87/5EBFBD44" Ref="D?"  Part="1" 
AR Path="/5EE5AAE3/5EE61F79/5EBFBD44" Ref="D?"  Part="1" 
AR Path="/5EE77D5A/5EBBD8A5/5EBFBD44" Ref="D?"  Part="1" 
AR Path="/5EE8A13E/5EE79806/5EBFBD44" Ref="D?"  Part="1" 
AR Path="/5EE8A13E/5EEC632A/5EBFBD44" Ref="D?"  Part="1" 
AR Path="/5EE0AC5D/5EE8A622/5EBFBD44" Ref="D?"  Part="1" 
AR Path="/5EE0E313/5EE79806/5EBFBD44" Ref="D?"  Part="1" 
AR Path="/5EE8A13E/5EBF17AF/5EBFBD44" Ref="D?"  Part="1" 
AR Path="/5EBFB816/5EE0AFAE/5EBFBD44" Ref="D?"  Part="1" 
AR Path="/5ECA2575/5EE0E694/5EBFBD44" Ref="D?"  Part="1" 
AR Path="/5ECAC95D/5EE0E694/5EBFBD44" Ref="D?"  Part="1" 
AR Path="/5ED2BC2A/5ECD5689/5EBFBD44" Ref="D?"  Part="1" 
AR Path="/5EB41214/5F0724C9/5EBFBD44" Ref="D?"  Part="1" 
AR Path="/5EB41214/5F076AF2/5EBFBD44" Ref="D?"  Part="1" 
AR Path="/5ED2BC2A/5F07EE75/5EBFBD44" Ref="D?"  Part="1" 
AR Path="/5EB41214/5ED0D263/5EBFBD44" Ref="D?"  Part="1" 
AR Path="/5EED7553/5EEDA7EE/5EBFBD44" Ref="D?"  Part="1" 
AR Path="/5EEDC7D6/5EF6CA07/5EBFBD44" Ref="D16"  Part="1" 
AR Path="/5EEDC7D6/5F87FF30/5EBFBD44" Ref="D?"  Part="1" 
F 0 "D16" H 6368 3859 50  0000 L CNN
F 1 "AM23ESGC" H 6368 3768 50  0000 L CNN
F 2 "Package_TO_SOT_SMD:SOT-23_Handsoldering" H 6150 4000 50  0001 C CNN
F 3 "http://www.kingbrightusa.com/images/catalog/SPEC/AM23ESGC.pdf" H 6150 4000 50  0001 C CNN
F 4 "754-1633-1-ND" H 6100 4000 50  0001 C CNN "Digi-Key_PN"
	1    6100 4000
	1    0    0    -1  
$EndComp
Wire Wire Line
	4700 4300 4700 4400
Wire Wire Line
	4700 4400 5000 4400
Wire Wire Line
	6050 4400 6050 4350
Text HLabel 5650 3200 0    50   Input ~ 0
Cntrl
Wire Wire Line
	5950 3500 5900 3500
Wire Wire Line
	5900 3500 5900 3600
Wire Wire Line
	6150 3500 6200 3500
$Comp
L Device:C C?
U 1 1 5EC616B6
P 5000 4050
AR Path="/5EB41214/5EE0AFAE/5EC616B6" Ref="C?"  Part="1" 
AR Path="/5ED2BC2A/5EE0E694/5EC616B6" Ref="C?"  Part="1" 
AR Path="/5EE0AC5D/5EBBD8A5/5EC616B6" Ref="C?"  Part="1" 
AR Path="/5EE0E313/5EBBD8A5/5EC616B6" Ref="C?"  Part="1" 
AR Path="/5EE55D87/5EC616B6" Ref="C?"  Part="1" 
AR Path="/5EE5AAE3/5EE61F79/5EC616B6" Ref="C?"  Part="1" 
AR Path="/5EE77D5A/5EBBD8A5/5EC616B6" Ref="C?"  Part="1" 
AR Path="/5EE8A13E/5EE79806/5EC616B6" Ref="C?"  Part="1" 
AR Path="/5EE8A13E/5EEC632A/5EC616B6" Ref="C?"  Part="1" 
AR Path="/5EE0AC5D/5EE8A622/5EC616B6" Ref="C?"  Part="1" 
AR Path="/5EE0E313/5EE79806/5EC616B6" Ref="C?"  Part="1" 
AR Path="/5EE8A13E/5EBF17AF/5EC616B6" Ref="C?"  Part="1" 
AR Path="/5EBFB816/5EE0AFAE/5EC616B6" Ref="C?"  Part="1" 
AR Path="/5ECA2575/5EE0E694/5EC616B6" Ref="C?"  Part="1" 
AR Path="/5ECAC95D/5EE0E694/5EC616B6" Ref="C?"  Part="1" 
AR Path="/5ED2BC2A/5ECD5689/5EC616B6" Ref="C?"  Part="1" 
AR Path="/5EB41214/5F0724C9/5EC616B6" Ref="C?"  Part="1" 
AR Path="/5EB41214/5F076AF2/5EC616B6" Ref="C?"  Part="1" 
AR Path="/5ED2BC2A/5F07EE75/5EC616B6" Ref="C?"  Part="1" 
AR Path="/5EB41214/5ED0D263/5EC616B6" Ref="C?"  Part="1" 
AR Path="/5EED7553/5EEDA7EE/5EC616B6" Ref="C?"  Part="1" 
AR Path="/5EEDC7D6/5EF6CA07/5EC616B6" Ref="C78"  Part="1" 
AR Path="/5EEDC7D6/5F87FF30/5EC616B6" Ref="C?"  Part="1" 
F 0 "C78" H 5115 4096 50  0000 L CNN
F 1 "C 100n" H 5115 4005 50  0000 L CNN
F 2 "Capacitor_SMD:C_0805_2012Metric_Pad1.15x1.40mm_HandSolder" H 5038 3900 50  0001 C CNN
F 3 "~" H 5000 4050 50  0001 C CNN
F 4 "16" H 5000 4050 50  0001 C CNN "Voltage - rated"
F 5 "20%" H 5000 4050 50  0001 C CNN "Tolerance"
F 6 "399-8000-1-ND" H 5000 4050 50  0001 C CNN "Digi-Key_PN"
F 7 "718683" H 5000 4050 50  0001 C CNN "Farnell_PN"
	1    5000 4050
	1    0    0    -1  
$EndComp
Wire Wire Line
	5000 4200 5000 4400
Connection ~ 5000 4400
Wire Wire Line
	5000 4400 6050 4400
Wire Wire Line
	6050 2900 6050 2800
Wire Wire Line
	6050 2800 5000 2800
Connection ~ 4700 2800
Wire Wire Line
	4700 2800 4700 3300
Wire Wire Line
	4700 2650 4700 2800
Wire Wire Line
	5650 3200 5750 3200
$Comp
L Analog_Switch:NC7SB3157P6X U?
U 1 1 5EDAB983
P 6150 3200
AR Path="/5ED2BC2A/5F07EE75/5EDAB983" Ref="U?"  Part="1" 
AR Path="/5EB41214/5F076AF2/5EDAB983" Ref="U?"  Part="1" 
AR Path="/5EB41214/5ED0D263/5EDAB983" Ref="U?"  Part="1" 
AR Path="/5EED7553/5EEDA7EE/5EDAB983" Ref="U?"  Part="1" 
AR Path="/5EEDC7D6/5EF6CA07/5EDAB983" Ref="U40"  Part="1" 
AR Path="/5EEDC7D6/5F87FF30/5EDAB983" Ref="U?"  Part="1" 
F 0 "U40" V 6104 3305 50  0000 L CNN
F 1 "NC7SB3157P6X" V 6195 3305 50  0000 L CNN
F 2 "Package_TO_SOT_SMD:SOT-363_SC-70-6" H 6150 2900 50  0001 C CNN
F 3 "https://www.fairchildsemi.com/datasheets/NC/NC7SB3157.pdf" H 6150 3200 50  0001 C CNN
F 4 "NC7SB3157P6XCT-ND" H 6150 3200 50  0001 C CNN "Digi-Key_PN"
	1    6150 3200
	0    1    1    0   
$EndComp
$Comp
L Analog_Switch:NC7SB3157P6X U?
U 2 1 5EDAC49F
P 4700 3800
AR Path="/5ED2BC2A/5F07EE75/5EDAC49F" Ref="U?"  Part="2" 
AR Path="/5EB41214/5F076AF2/5EDAC49F" Ref="U?"  Part="2" 
AR Path="/5EB41214/5ED0D263/5EDAC49F" Ref="U?"  Part="2" 
AR Path="/5EED7553/5EEDA7EE/5EDAC49F" Ref="U?"  Part="2" 
AR Path="/5EEDC7D6/5EF6CA07/5EDAC49F" Ref="U40"  Part="2" 
AR Path="/5EEDC7D6/5F87FF30/5EDAC49F" Ref="U?"  Part="2" 
F 0 "U40" H 4880 3846 50  0000 L CNN
F 1 "NC7SB3157P6X" H 4880 3755 50  0000 L CNN
F 2 "Package_TO_SOT_SMD:SOT-363_SC-70-6" H 4700 3500 50  0001 C CNN
F 3 "https://www.fairchildsemi.com/datasheets/NC/NC7SB3157.pdf" H 4700 3800 50  0001 C CNN
F 4 "NC7SB3157P6XCT-ND" H 4700 3800 50  0001 C CNN "Digi-Key_PN"
	2    4700 3800
	1    0    0    -1  
$EndComp
Wire Wire Line
	5000 2800 5000 3900
Connection ~ 5000 2800
Wire Wire Line
	5000 2800 4700 2800
$Comp
L power:+5V #PWR0121
U 1 1 5EFA38B5
P 4700 2650
AR Path="/5EEDC7D6/5EF6CA07/5EFA38B5" Ref="#PWR0121"  Part="1" 
AR Path="/5EEDC7D6/5F87FF30/5EFA38B5" Ref="#PWR?"  Part="1" 
F 0 "#PWR0121" H 4700 2500 50  0001 C CNN
F 1 "+5V" H 4715 2823 50  0000 C CNN
F 2 "" H 4700 2650 50  0001 C CNN
F 3 "" H 4700 2650 50  0001 C CNN
	1    4700 2650
	1    0    0    -1  
$EndComp
$Comp
L power:GND #PWR0122
U 1 1 5EFA3A2A
P 4700 4400
AR Path="/5EEDC7D6/5EF6CA07/5EFA3A2A" Ref="#PWR0122"  Part="1" 
AR Path="/5EEDC7D6/5F87FF30/5EFA3A2A" Ref="#PWR?"  Part="1" 
F 0 "#PWR0122" H 4700 4150 50  0001 C CNN
F 1 "GND" H 4705 4227 50  0000 C CNN
F 2 "" H 4700 4400 50  0001 C CNN
F 3 "" H 4700 4400 50  0001 C CNN
	1    4700 4400
	1    0    0    -1  
$EndComp
Connection ~ 4700 4400
$EndSCHEMATC
