EESchema Schematic File Version 4
EELAYER 30 0
EELAYER END
$Descr A4 11693 8268
encoding utf-8
Sheet 7 34
Title ""
Date ""
Rev ""
Comp ""
Comment1 ""
Comment2 ""
Comment3 ""
Comment4 ""
$EndDescr
Wire Wire Line
	6200 3900 6200 4000
Wire Wire Line
	5900 3900 5900 4000
Wire Wire Line
	6200 3500 6200 3600
$Comp
L Device:R R?
U 1 1 5ED7E0C5
P 5900 3750
AR Path="/5ED7E0C5" Ref="R?"  Part="1" 
AR Path="/5EB41214/5ED7E0C5" Ref="R?"  Part="1" 
AR Path="/5EB41214/5EBBD8A5/5ED7E0C5" Ref="R?"  Part="1" 
AR Path="/5ED2BC2A/5EBBD8A5/5ED7E0C5" Ref="R?"  Part="1" 
AR Path="/5EB41214/5EE0AFAE/5ED7E0C5" Ref="R?"  Part="1" 
AR Path="/5ED2BC2A/5EE0E694/5ED7E0C5" Ref="R?"  Part="1" 
AR Path="/5EE0AC5D/5EBBD8A5/5ED7E0C5" Ref="R?"  Part="1" 
AR Path="/5EE0E313/5EBBD8A5/5ED7E0C5" Ref="R?"  Part="1" 
AR Path="/5EE55D87/5ED7E0C5" Ref="R?"  Part="1" 
AR Path="/5EE5AAE3/5EE61F79/5ED7E0C5" Ref="R?"  Part="1" 
AR Path="/5EE77D5A/5EBBD8A5/5ED7E0C5" Ref="R?"  Part="1" 
AR Path="/5EE8A13E/5EE79806/5ED7E0C5" Ref="R?"  Part="1" 
AR Path="/5EE8A13E/5EEC632A/5ED7E0C5" Ref="R?"  Part="1" 
AR Path="/5EE0AC5D/5EE8A622/5ED7E0C5" Ref="R?"  Part="1" 
AR Path="/5EE0E313/5EE79806/5ED7E0C5" Ref="R?"  Part="1" 
AR Path="/5EE8A13E/5EBF17AF/5ED7E0C5" Ref="R?"  Part="1" 
AR Path="/5EBFB816/5EE0AFAE/5ED7E0C5" Ref="R?"  Part="1" 
AR Path="/5ECA2575/5EE0E694/5ED7E0C5" Ref="R?"  Part="1" 
AR Path="/5ECAC95D/5EE0E694/5ED7E0C5" Ref="R?"  Part="1" 
AR Path="/5ED2BC2A/5ECD5689/5ED7E0C5" Ref="R?"  Part="1" 
AR Path="/5EB41214/5F0724C9/5ED7E0C5" Ref="R?"  Part="1" 
AR Path="/5ECA36FF/5EE61F79/5ED7E0C5" Ref="R?"  Part="1" 
AR Path="/5EE5AAE3/5ED7E0D0/5ED7E0C5" Ref="R?"  Part="1" 
AR Path="/5ED08686/5ED1C478/5ED7E0C5" Ref="R64"  Part="1" 
AR Path="/5EE0AC5D/5EDAF55D/5ED7E0C5" Ref="R6"  Part="1" 
AR Path="/5EE0E313/5EDB0036/5ED7E0C5" Ref="R?"  Part="1" 
AR Path="/5EE0E313/5EDB0B50/5ED7E0C5" Ref="R13"  Part="1" 
AR Path="/5EE5AAE3/5EDB1EB2/5ED7E0C5" Ref="R17"  Part="1" 
AR Path="/5EE77D5A/5EDB229D/5ED7E0C5" Ref="R?"  Part="1" 
AR Path="/5EE77D5A/5EDB2B01/5ED7E0C5" Ref="R21"  Part="1" 
AR Path="/5ECA36FF/5EDB3381/5ED7E0C5" Ref="R?"  Part="1" 
AR Path="/5ECA36FF/5EDB35CF/5ED7E0C5" Ref="R51"  Part="1" 
AR Path="/5ECDAC29/5EE5CC9B/5ED7E0C5" Ref="R?"  Part="1" 
AR Path="/5EE0E313/5FDA4C58/5ED7E0C5" Ref="R13"  Part="1" 
AR Path="/5EE0AC5D/5FDA6785/5ED7E0C5" Ref="R6"  Part="1" 
F 0 "R64" H 5750 3800 50  0000 L CNN
F 1 "R 255" H 5150 3700 50  0000 L CNN
F 2 "Resistor_SMD:R_0805_2012Metric_Pad1.15x1.40mm_HandSolder" V 5830 3750 50  0001 C CNN
F 3 "~" H 5900 3750 50  0001 C CNN
F 4 "1%" H 5900 3750 50  0001 C CNN "Tolerance"
F 5 "	P255CCT-ND" H 5900 3750 50  0001 C CNN "Digi-Key_PN"
	1    5900 3750
	1    0    0    -1  
$EndComp
$Comp
L Device:R R?
U 1 1 5EC616B4
P 6200 3750
AR Path="/5EC616B4" Ref="R?"  Part="1" 
AR Path="/5EB41214/5EC616B4" Ref="R?"  Part="1" 
AR Path="/5EB41214/5EBBD8A5/5EC616B4" Ref="R?"  Part="1" 
AR Path="/5ED2BC2A/5EBBD8A5/5EC616B4" Ref="R?"  Part="1" 
AR Path="/5EB41214/5EE0AFAE/5EC616B4" Ref="R?"  Part="1" 
AR Path="/5ED2BC2A/5EE0E694/5EC616B4" Ref="R?"  Part="1" 
AR Path="/5EE0AC5D/5EBBD8A5/5EC616B4" Ref="R?"  Part="1" 
AR Path="/5EE0E313/5EBBD8A5/5EC616B4" Ref="R?"  Part="1" 
AR Path="/5EE55D87/5EC616B4" Ref="R?"  Part="1" 
AR Path="/5EE5AAE3/5EE61F79/5EC616B4" Ref="R?"  Part="1" 
AR Path="/5EE77D5A/5EBBD8A5/5EC616B4" Ref="R?"  Part="1" 
AR Path="/5EE8A13E/5EE79806/5EC616B4" Ref="R?"  Part="1" 
AR Path="/5EE8A13E/5EEC632A/5EC616B4" Ref="R?"  Part="1" 
AR Path="/5EE0AC5D/5EE8A622/5EC616B4" Ref="R?"  Part="1" 
AR Path="/5EE0E313/5EE79806/5EC616B4" Ref="R?"  Part="1" 
AR Path="/5EE8A13E/5EBF17AF/5EC616B4" Ref="R?"  Part="1" 
AR Path="/5EBFB816/5EE0AFAE/5EC616B4" Ref="R?"  Part="1" 
AR Path="/5ECA2575/5EE0E694/5EC616B4" Ref="R?"  Part="1" 
AR Path="/5ECAC95D/5EE0E694/5EC616B4" Ref="R?"  Part="1" 
AR Path="/5ED2BC2A/5ECD5689/5EC616B4" Ref="R?"  Part="1" 
AR Path="/5EB41214/5F0724C9/5EC616B4" Ref="R?"  Part="1" 
AR Path="/5ECA36FF/5EE61F79/5EC616B4" Ref="R?"  Part="1" 
AR Path="/5EE5AAE3/5ED7E0D0/5EC616B4" Ref="R?"  Part="1" 
AR Path="/5ED08686/5ED1C478/5EC616B4" Ref="R65"  Part="1" 
AR Path="/5EE0AC5D/5EDAF55D/5EC616B4" Ref="R7"  Part="1" 
AR Path="/5EE0E313/5EDB0036/5EC616B4" Ref="R?"  Part="1" 
AR Path="/5EE0E313/5EDB0B50/5EC616B4" Ref="R14"  Part="1" 
AR Path="/5EE5AAE3/5EDB1EB2/5EC616B4" Ref="R18"  Part="1" 
AR Path="/5EE77D5A/5EDB229D/5EC616B4" Ref="R?"  Part="1" 
AR Path="/5EE77D5A/5EDB2B01/5EC616B4" Ref="R22"  Part="1" 
AR Path="/5ECA36FF/5EDB3381/5EC616B4" Ref="R?"  Part="1" 
AR Path="/5ECA36FF/5EDB35CF/5EC616B4" Ref="R52"  Part="1" 
AR Path="/5ECDAC29/5EE5CC9B/5EC616B4" Ref="R?"  Part="1" 
AR Path="/5EE0E313/5FDA4C58/5EC616B4" Ref="R14"  Part="1" 
AR Path="/5EE0AC5D/5FDA6785/5EC616B4" Ref="R7"  Part="1" 
F 0 "R65" H 6270 3796 50  0000 L CNN
F 1 "R 316" H 6250 3700 50  0000 L CNN
F 2 "Resistor_SMD:R_0805_2012Metric_Pad1.15x1.40mm_HandSolder" V 6130 3750 50  0001 C CNN
F 3 "~" H 6200 3750 50  0001 C CNN
F 4 "1%" H 6200 3750 50  0001 C CNN "Tolerance"
F 5 "P316CCT-ND" H 6200 3750 50  0001 C CNN "Digi-Key_PN"
	1    6200 3750
	1    0    0    -1  
$EndComp
$Comp
L LEDs_magne:AM23ESGC D?
U 1 1 5ED7E0C9
P 6100 4000
AR Path="/5EB41214/5ED7E0C9" Ref="D?"  Part="1" 
AR Path="/5EB41214/5EBBD8A5/5ED7E0C9" Ref="D?"  Part="1" 
AR Path="/5ED2BC2A/5EBBD8A5/5ED7E0C9" Ref="D?"  Part="1" 
AR Path="/5EB41214/5EE0AFAE/5ED7E0C9" Ref="D?"  Part="1" 
AR Path="/5ED2BC2A/5EE0E694/5ED7E0C9" Ref="D?"  Part="1" 
AR Path="/5EE0AC5D/5EBBD8A5/5ED7E0C9" Ref="D?"  Part="1" 
AR Path="/5EE0E313/5EBBD8A5/5ED7E0C9" Ref="D?"  Part="1" 
AR Path="/5EE55D87/5ED7E0C9" Ref="D?"  Part="1" 
AR Path="/5EE5AAE3/5EE61F79/5ED7E0C9" Ref="D?"  Part="1" 
AR Path="/5EE77D5A/5EBBD8A5/5ED7E0C9" Ref="D?"  Part="1" 
AR Path="/5EE8A13E/5EE79806/5ED7E0C9" Ref="D?"  Part="1" 
AR Path="/5EE8A13E/5EEC632A/5ED7E0C9" Ref="D?"  Part="1" 
AR Path="/5EE0AC5D/5EE8A622/5ED7E0C9" Ref="D?"  Part="1" 
AR Path="/5EE0E313/5EE79806/5ED7E0C9" Ref="D?"  Part="1" 
AR Path="/5EE8A13E/5EBF17AF/5ED7E0C9" Ref="D?"  Part="1" 
AR Path="/5EBFB816/5EE0AFAE/5ED7E0C9" Ref="D?"  Part="1" 
AR Path="/5ECA2575/5EE0E694/5ED7E0C9" Ref="D?"  Part="1" 
AR Path="/5ECAC95D/5EE0E694/5ED7E0C9" Ref="D?"  Part="1" 
AR Path="/5ED2BC2A/5ECD5689/5ED7E0C9" Ref="D?"  Part="1" 
AR Path="/5EB41214/5F0724C9/5ED7E0C9" Ref="D?"  Part="1" 
AR Path="/5ECA36FF/5EE61F79/5ED7E0C9" Ref="D?"  Part="1" 
AR Path="/5EE5AAE3/5ED7E0D0/5ED7E0C9" Ref="D?"  Part="1" 
AR Path="/5ED08686/5ED1C478/5ED7E0C9" Ref="D12"  Part="1" 
AR Path="/5EE0AC5D/5EDAF55D/5ED7E0C9" Ref="D1"  Part="1" 
AR Path="/5EE0E313/5EDB0036/5ED7E0C9" Ref="D?"  Part="1" 
AR Path="/5EE0E313/5EDB0B50/5ED7E0C9" Ref="D2"  Part="1" 
AR Path="/5EE5AAE3/5EDB1EB2/5ED7E0C9" Ref="D3"  Part="1" 
AR Path="/5EE77D5A/5EDB229D/5ED7E0C9" Ref="D?"  Part="1" 
AR Path="/5EE77D5A/5EDB2B01/5ED7E0C9" Ref="D4"  Part="1" 
AR Path="/5ECA36FF/5EDB3381/5ED7E0C9" Ref="D?"  Part="1" 
AR Path="/5ECA36FF/5EDB35CF/5ED7E0C9" Ref="D9"  Part="1" 
AR Path="/5ECDAC29/5EE5CC9B/5ED7E0C9" Ref="D?"  Part="1" 
AR Path="/5EE0E313/5FDA4C58/5ED7E0C9" Ref="D2"  Part="1" 
AR Path="/5EE0AC5D/5FDA6785/5ED7E0C9" Ref="D1"  Part="1" 
F 0 "D12" H 6368 3859 50  0000 L CNN
F 1 "AM23ESGC" H 6368 3768 50  0000 L CNN
F 2 "Package_TO_SOT_SMD:SOT-23_Handsoldering" H 6150 4000 50  0001 C CNN
F 3 "http://www.kingbrightusa.com/images/catalog/SPEC/AM23ESGC.pdf" H 6150 4000 50  0001 C CNN
F 4 "754-1633-1-ND" H 6100 4000 50  0001 C CNN "Digi-Key_PN"
	1    6100 4000
	1    0    0    -1  
$EndComp
$Comp
L Analog_Switch:NC7SB3157P6X U?
U 1 1 5EC616B2
P 6150 3200
AR Path="/5EB41214/5EE0AFAE/5EC616B2" Ref="U?"  Part="2" 
AR Path="/5ED2BC2A/5EE0E694/5EC616B2" Ref="U?"  Part="2" 
AR Path="/5EE0AC5D/5EBBD8A5/5EC616B2" Ref="U?"  Part="2" 
AR Path="/5EE0E313/5EBBD8A5/5EC616B2" Ref="U?"  Part="2" 
AR Path="/5EE55D87/5EC616B2" Ref="U?"  Part="2" 
AR Path="/5EE5AAE3/5EE61F79/5EC616B2" Ref="U?"  Part="1" 
AR Path="/5EE77D5A/5EBBD8A5/5EC616B2" Ref="U?"  Part="2" 
AR Path="/5EE8A13E/5EE79806/5EC616B2" Ref="U?"  Part="2" 
AR Path="/5EE8A13E/5EEC632A/5EC616B2" Ref="U?"  Part="2" 
AR Path="/5EE0AC5D/5EE8A622/5EC616B2" Ref="U?"  Part="2" 
AR Path="/5EE0E313/5EE79806/5EC616B2" Ref="U?"  Part="2" 
AR Path="/5EE8A13E/5EBF17AF/5EC616B2" Ref="U?"  Part="2" 
AR Path="/5EBFB816/5EE0AFAE/5EC616B2" Ref="U?"  Part="2" 
AR Path="/5ECA2575/5EE0E694/5EC616B2" Ref="U?"  Part="2" 
AR Path="/5ECAC95D/5EE0E694/5EC616B2" Ref="U?"  Part="2" 
AR Path="/5ED2BC2A/5ECD5689/5EC616B2" Ref="U?"  Part="2" 
AR Path="/5EB41214/5F0724C9/5EC616B2" Ref="U?"  Part="2" 
AR Path="/5ECA36FF/5EE61F79/5EC616B2" Ref="U?"  Part="1" 
AR Path="/5EE5AAE3/5ED7E0D0/5EC616B2" Ref="U?"  Part="2" 
AR Path="/5ED08686/5ED1C478/5EC616B2" Ref="U31"  Part="1" 
AR Path="/5EE0AC5D/5EDAF55D/5EC616B2" Ref="U4"  Part="1" 
AR Path="/5EE0E313/5EDB0036/5EC616B2" Ref="U?"  Part="1" 
AR Path="/5EE0E313/5EDB0B50/5EC616B2" Ref="U7"  Part="1" 
AR Path="/5EE5AAE3/5EDB1EB2/5EC616B2" Ref="U10"  Part="1" 
AR Path="/5EE77D5A/5EDB229D/5EC616B2" Ref="U?"  Part="1" 
AR Path="/5EE77D5A/5EDB2B01/5EC616B2" Ref="U14"  Part="1" 
AR Path="/5ECA36FF/5EDB3381/5EC616B2" Ref="U?"  Part="1" 
AR Path="/5ECA36FF/5EDB35CF/5EC616B2" Ref="U25"  Part="1" 
AR Path="/5ECDAC29/5EE5CC9B/5EC616B2" Ref="U?"  Part="1" 
AR Path="/5EE0E313/5FDA4C58/5EC616B2" Ref="U7"  Part="1" 
AR Path="/5EE0AC5D/5FDA6785/5EC616B2" Ref="U4"  Part="1" 
F 0 "U31" V 5950 3450 50  0000 L CNN
F 1 "NC7SB3157P6X" V 6050 3450 50  0000 L CNN
F 2 "Package_TO_SOT_SMD:SOT-363_SC-70-6" H 6150 2900 50  0001 C CNN
F 3 "https://www.onsemi.com/pub/Collateral/NC7SB3157-D.PDF" H 6150 3200 50  0001 C CNN
F 4 "NC7SB3157P6XCT-ND" H 6150 3200 50  0001 C CNN "Digi-Key_PN"
	1    6150 3200
	0    1    1    0   
$EndComp
Wire Wire Line
	4700 4300 4700 4400
Wire Wire Line
	4700 4400 5000 4400
Wire Wire Line
	6050 4400 6050 4350
Text HLabel 5650 3200 0    50   Input ~ 0
Cntrl
Wire Wire Line
	5650 3200 5750 3200
Wire Wire Line
	5950 3500 5900 3500
Wire Wire Line
	5900 3500 5900 3600
Wire Wire Line
	6150 3500 6200 3500
$Comp
L Device:C C?
U 1 1 5ECA4916
P 5000 4050
AR Path="/5EB41214/5EE0AFAE/5ECA4916" Ref="C?"  Part="1" 
AR Path="/5ED2BC2A/5EE0E694/5ECA4916" Ref="C?"  Part="1" 
AR Path="/5EE0AC5D/5EBBD8A5/5ECA4916" Ref="C?"  Part="1" 
AR Path="/5EE0E313/5EBBD8A5/5ECA4916" Ref="C?"  Part="1" 
AR Path="/5EE55D87/5ECA4916" Ref="C?"  Part="1" 
AR Path="/5EE5AAE3/5EE61F79/5ECA4916" Ref="C?"  Part="1" 
AR Path="/5EE77D5A/5EBBD8A5/5ECA4916" Ref="C?"  Part="1" 
AR Path="/5EE8A13E/5EE79806/5ECA4916" Ref="C?"  Part="1" 
AR Path="/5EE8A13E/5EEC632A/5ECA4916" Ref="C?"  Part="1" 
AR Path="/5EE0AC5D/5EE8A622/5ECA4916" Ref="C?"  Part="1" 
AR Path="/5EE0E313/5EE79806/5ECA4916" Ref="C?"  Part="1" 
AR Path="/5EE8A13E/5EBF17AF/5ECA4916" Ref="C?"  Part="1" 
AR Path="/5EBFB816/5EE0AFAE/5ECA4916" Ref="C?"  Part="1" 
AR Path="/5ECA2575/5EE0E694/5ECA4916" Ref="C?"  Part="1" 
AR Path="/5ECAC95D/5EE0E694/5ECA4916" Ref="C?"  Part="1" 
AR Path="/5ED2BC2A/5ECD5689/5ECA4916" Ref="C?"  Part="1" 
AR Path="/5EB41214/5F0724C9/5ECA4916" Ref="C?"  Part="1" 
AR Path="/5ECA36FF/5EE61F79/5ECA4916" Ref="C?"  Part="1" 
AR Path="/5EE5AAE3/5ED7E0D0/5ECA4916" Ref="C?"  Part="1" 
AR Path="/5ED08686/5ED1C478/5ECA4916" Ref="C61"  Part="1" 
AR Path="/5EE0AC5D/5EDAF55D/5ECA4916" Ref="C6"  Part="1" 
AR Path="/5EE0E313/5EDB0036/5ECA4916" Ref="C?"  Part="1" 
AR Path="/5EE0E313/5EDB0B50/5ECA4916" Ref="C11"  Part="1" 
AR Path="/5EE5AAE3/5EDB1EB2/5ECA4916" Ref="C15"  Part="1" 
AR Path="/5EE77D5A/5EDB229D/5ECA4916" Ref="C?"  Part="1" 
AR Path="/5EE77D5A/5EDB2B01/5ECA4916" Ref="C21"  Part="1" 
AR Path="/5ECA36FF/5EDB3381/5ECA4916" Ref="C?"  Part="1" 
AR Path="/5ECA36FF/5EDB35CF/5ECA4916" Ref="C47"  Part="1" 
AR Path="/5ECDAC29/5EE5CC9B/5ECA4916" Ref="C?"  Part="1" 
AR Path="/5EE0E313/5FDA4C58/5ECA4916" Ref="C11"  Part="1" 
AR Path="/5EE0AC5D/5FDA6785/5ECA4916" Ref="C6"  Part="1" 
F 0 "C61" H 5115 4096 50  0000 L CNN
F 1 "C 100n" H 5115 4005 50  0000 L CNN
F 2 "Capacitor_SMD:C_0805_2012Metric_Pad1.15x1.40mm_HandSolder" H 5038 3900 50  0001 C CNN
F 3 "~" H 5000 4050 50  0001 C CNN
F 4 "16" H 5000 4050 50  0001 C CNN "Voltage - rated"
F 5 "20%" H 5000 4050 50  0001 C CNN "Tolerance"
F 6 "399-8000-1-ND" H 5000 4050 50  0001 C CNN "Digi-Key_PN"
F 7 "718683" H 5000 4050 50  0001 C CNN "Farnell_PN"
	1    5000 4050
	1    0    0    -1  
$EndComp
Wire Wire Line
	5000 4200 5000 4400
Connection ~ 5000 4400
Wire Wire Line
	5000 4400 6050 4400
Wire Wire Line
	5000 3900 5000 3300
Wire Wire Line
	5000 3300 4700 3300
Wire Wire Line
	4700 2650 4700 2800
Wire Wire Line
	6050 2900 6050 2800
Wire Wire Line
	6050 2800 4700 2800
Connection ~ 4700 2800
Wire Wire Line
	4700 2800 4700 3300
$Comp
L power:GND #PWR?
U 1 1 5F07043F
P 4700 4400
AR Path="/5EE0AC5D/5EE8A622/5F07043F" Ref="#PWR?"  Part="1" 
AR Path="/5EB41214/5EE0AFAE/5F07043F" Ref="#PWR?"  Part="1" 
AR Path="/5EB41214/5F0724C9/5F07043F" Ref="#PWR?"  Part="1" 
AR Path="/5EE0E313/5EE79806/5F07043F" Ref="#PWR?"  Part="1" 
AR Path="/5EE5AAE3/5EE61F79/5F07043F" Ref="#PWR?"  Part="1" 
AR Path="/5EE77D5A/5EBBD8A5/5F07043F" Ref="#PWR?"  Part="1" 
AR Path="/5ED2BC2A/5EE0E694/5F07043F" Ref="#PWR?"  Part="1" 
AR Path="/5ECA36FF/5EE61F79/5F07043F" Ref="#PWR?"  Part="1" 
AR Path="/5EE5AAE3/5ED7E0D0/5F07043F" Ref="#PWR?"  Part="1" 
AR Path="/5ED08686/5ED1C478/5F07043F" Ref="#PWR084"  Part="1" 
AR Path="/5EE0AC5D/5EDAF55D/5F07043F" Ref="#PWR09"  Part="1" 
AR Path="/5EE0E313/5EDB0036/5F07043F" Ref="#PWR?"  Part="1" 
AR Path="/5EE0E313/5EDB0B50/5F07043F" Ref="#PWR016"  Part="1" 
AR Path="/5EE5AAE3/5EDB1EB2/5F07043F" Ref="#PWR022"  Part="1" 
AR Path="/5EE77D5A/5EDB229D/5F07043F" Ref="#PWR?"  Part="1" 
AR Path="/5EE77D5A/5EDB2B01/5F07043F" Ref="#PWR031"  Part="1" 
AR Path="/5ECA36FF/5EDB3381/5F07043F" Ref="#PWR?"  Part="1" 
AR Path="/5ECA36FF/5EDB35CF/5F07043F" Ref="#PWR064"  Part="1" 
AR Path="/5ECDAC29/5EE5CC9B/5F07043F" Ref="#PWR?"  Part="1" 
AR Path="/5EE0E313/5FDA4C58/5F07043F" Ref="#PWR0140"  Part="1" 
AR Path="/5EE0AC5D/5FDA6785/5F07043F" Ref="#PWR0138"  Part="1" 
F 0 "#PWR084" H 4700 4150 50  0001 C CNN
F 1 "GND" H 4705 4227 50  0000 C CNN
F 2 "" H 4700 4400 50  0001 C CNN
F 3 "" H 4700 4400 50  0001 C CNN
	1    4700 4400
	1    0    0    -1  
$EndComp
Connection ~ 4700 4400
$Comp
L power:+5V #PWR?
U 1 1 5F070D6F
P 4700 2650
AR Path="/5EE0AC5D/5EE8A622/5F070D6F" Ref="#PWR?"  Part="1" 
AR Path="/5EB41214/5EE0AFAE/5F070D6F" Ref="#PWR?"  Part="1" 
AR Path="/5EB41214/5F0724C9/5F070D6F" Ref="#PWR?"  Part="1" 
AR Path="/5EE0E313/5EE79806/5F070D6F" Ref="#PWR?"  Part="1" 
AR Path="/5EE5AAE3/5EE61F79/5F070D6F" Ref="#PWR?"  Part="1" 
AR Path="/5EE77D5A/5EBBD8A5/5F070D6F" Ref="#PWR?"  Part="1" 
AR Path="/5ED2BC2A/5EE0E694/5F070D6F" Ref="#PWR?"  Part="1" 
AR Path="/5ECA36FF/5EE61F79/5F070D6F" Ref="#PWR?"  Part="1" 
AR Path="/5EE5AAE3/5ED7E0D0/5F070D6F" Ref="#PWR?"  Part="1" 
AR Path="/5ED08686/5ED1C478/5F070D6F" Ref="#PWR083"  Part="1" 
AR Path="/5EE0AC5D/5EDAF55D/5F070D6F" Ref="#PWR08"  Part="1" 
AR Path="/5EE0E313/5EDB0036/5F070D6F" Ref="#PWR?"  Part="1" 
AR Path="/5EE0E313/5EDB0B50/5F070D6F" Ref="#PWR015"  Part="1" 
AR Path="/5EE5AAE3/5EDB1EB2/5F070D6F" Ref="#PWR021"  Part="1" 
AR Path="/5EE77D5A/5EDB229D/5F070D6F" Ref="#PWR?"  Part="1" 
AR Path="/5EE77D5A/5EDB2B01/5F070D6F" Ref="#PWR030"  Part="1" 
AR Path="/5ECA36FF/5EDB3381/5F070D6F" Ref="#PWR?"  Part="1" 
AR Path="/5ECA36FF/5EDB35CF/5F070D6F" Ref="#PWR063"  Part="1" 
AR Path="/5ECDAC29/5EE5CC9B/5F070D6F" Ref="#PWR?"  Part="1" 
AR Path="/5EE0E313/5FDA4C58/5F070D6F" Ref="#PWR0141"  Part="1" 
AR Path="/5EE0AC5D/5FDA6785/5F070D6F" Ref="#PWR0139"  Part="1" 
F 0 "#PWR083" H 4700 2500 50  0001 C CNN
F 1 "+5V" H 4715 2823 50  0000 C CNN
F 2 "" H 4700 2650 50  0001 C CNN
F 3 "" H 4700 2650 50  0001 C CNN
	1    4700 2650
	1    0    0    -1  
$EndComp
$Comp
L Analog_Switch:NC7SB3157P6X U?
U 2 1 5EC616B1
P 4700 3800
AR Path="/5EB41214/5EE0AFAE/5EC616B1" Ref="U?"  Part="1" 
AR Path="/5ED2BC2A/5EE0E694/5EC616B1" Ref="U?"  Part="1" 
AR Path="/5EE0AC5D/5EBBD8A5/5EC616B1" Ref="U?"  Part="1" 
AR Path="/5EE0E313/5EBBD8A5/5EC616B1" Ref="U?"  Part="1" 
AR Path="/5EE55D87/5EC616B1" Ref="U?"  Part="1" 
AR Path="/5EE5AAE3/5EE61F79/5EC616B1" Ref="U?"  Part="2" 
AR Path="/5EE77D5A/5EBBD8A5/5EC616B1" Ref="U?"  Part="1" 
AR Path="/5EE8A13E/5EE79806/5EC616B1" Ref="U?"  Part="1" 
AR Path="/5EE8A13E/5EEC632A/5EC616B1" Ref="U?"  Part="1" 
AR Path="/5EE0AC5D/5EE8A622/5EC616B1" Ref="U?"  Part="1" 
AR Path="/5EE0E313/5EE79806/5EC616B1" Ref="U?"  Part="1" 
AR Path="/5EE8A13E/5EBF17AF/5EC616B1" Ref="U?"  Part="1" 
AR Path="/5EBFB816/5EE0AFAE/5EC616B1" Ref="U?"  Part="1" 
AR Path="/5ECA2575/5EE0E694/5EC616B1" Ref="U?"  Part="1" 
AR Path="/5ECAC95D/5EE0E694/5EC616B1" Ref="U?"  Part="1" 
AR Path="/5ED2BC2A/5ECD5689/5EC616B1" Ref="U?"  Part="1" 
AR Path="/5EB41214/5F0724C9/5EC616B1" Ref="U?"  Part="1" 
AR Path="/5ECA36FF/5EE61F79/5EC616B1" Ref="U?"  Part="2" 
AR Path="/5EE5AAE3/5ED7E0D0/5EC616B1" Ref="U?"  Part="1" 
AR Path="/5ED08686/5ED1C478/5EC616B1" Ref="U31"  Part="2" 
AR Path="/5EE0AC5D/5EDAF55D/5EC616B1" Ref="U4"  Part="2" 
AR Path="/5EE0E313/5EDB0036/5EC616B1" Ref="U?"  Part="2" 
AR Path="/5EE0E313/5EDB0B50/5EC616B1" Ref="U7"  Part="2" 
AR Path="/5EE5AAE3/5EDB1EB2/5EC616B1" Ref="U10"  Part="2" 
AR Path="/5EE77D5A/5EDB229D/5EC616B1" Ref="U?"  Part="2" 
AR Path="/5EE77D5A/5EDB2B01/5EC616B1" Ref="U14"  Part="2" 
AR Path="/5ECA36FF/5EDB3381/5EC616B1" Ref="U?"  Part="2" 
AR Path="/5ECA36FF/5EDB35CF/5EC616B1" Ref="U25"  Part="2" 
AR Path="/5ECDAC29/5EE5CC9B/5EC616B1" Ref="U?"  Part="2" 
AR Path="/5EE0E313/5FDA4C58/5EC616B1" Ref="U7"  Part="2" 
AR Path="/5EE0AC5D/5FDA6785/5EC616B1" Ref="U4"  Part="2" 
F 0 "U31" H 4200 4000 50  0000 L CNN
F 1 "NC7SB3157P6X" H 3850 4150 50  0000 L CNN
F 2 "Package_TO_SOT_SMD:SOT-363_SC-70-6" H 4700 3500 50  0001 C CNN
F 3 "https://www.onsemi.com/pub/Collateral/NC7SB3157-D.PDF" H 4700 3800 50  0001 C CNN
F 4 "NC7SB3157P6XCT-ND" H 4700 3800 50  0001 C CNN "Digi-Key_PN"
	2    4700 3800
	1    0    0    -1  
$EndComp
Connection ~ 4700 3300
$EndSCHEMATC
