EESchema Schematic File Version 4
EELAYER 30 0
EELAYER END
$Descr A4 11693 8268
encoding utf-8
Sheet 14 34
Title ""
Date ""
Rev ""
Comp ""
Comment1 ""
Comment2 ""
Comment3 ""
Comment4 ""
$EndDescr
$Comp
L Transistor_BJT:BC807 Q?
U 1 1 5F12A40E
P 4700 3000
AR Path="/5EBFF7D9/5F12A40E" Ref="Q?"  Part="1" 
AR Path="/5EBFF7D9/5F12875E/5F12A40E" Ref="Q2"  Part="1" 
AR Path="/5EBFF7D9/5F131600/5F12A40E" Ref="Q?"  Part="1" 
AR Path="/5EBFF7D9/5F1316D2/5F12A40E" Ref="Q3"  Part="1" 
AR Path="/5EBFF7D9/5F1317EC/5F12A40E" Ref="Q4"  Part="1" 
F 0 "Q4" H 4891 2954 50  0000 L CNN
F 1 "BC807-16W,115" H 4891 3045 50  0000 L CNN
F 2 "Package_TO_SOT_SMD:SOT-23" H 4900 2925 50  0001 L CIN
F 3 "http://www.fairchildsemi.com/ds/BC/BC807.pdf" H 4700 3000 50  0001 L CNN
F 4 "1727-4835-1-ND" H 4700 3000 50  0001 C CNN "Digi-Key_PN"
	1    4700 3000
	1    0    0    1   
$EndComp
Wire Wire Line
	4800 3200 4800 3350
$Comp
L Device:R R?
U 1 1 5F12A415
P 4250 3000
AR Path="/5EBFF7D9/5F12A415" Ref="R?"  Part="1" 
AR Path="/5EBFF7D9/5F12875E/5F12A415" Ref="R38"  Part="1" 
AR Path="/5EBFF7D9/5F131600/5F12A415" Ref="R?"  Part="1" 
AR Path="/5EBFF7D9/5F1316D2/5F12A415" Ref="R40"  Part="1" 
AR Path="/5EBFF7D9/5F1317EC/5F12A415" Ref="R42"  Part="1" 
F 0 "R42" V 4457 3000 50  0000 C CNN
F 1 "R 16K" V 4366 3000 50  0000 C CNN
F 2 "Resistor_SMD:R_0805_2012Metric_Pad1.15x1.40mm_HandSolder" V 4180 3000 50  0001 C CNN
F 3 "~" H 4250 3000 50  0001 C CNN
F 4 "1%" H 4250 3000 50  0001 C CNN "Tolerance"
F 5 "311-16.0KCRCT-ND" H 4250 3000 50  0001 C CNN "Digi-Key_PN"
	1    4250 3000
	0    -1   -1   0   
$EndComp
Wire Wire Line
	4400 3000 4500 3000
$Comp
L power:+5V #PWR?
U 1 1 5F12A41C
P 4800 2700
AR Path="/5EBFF7D9/5F12A41C" Ref="#PWR?"  Part="1" 
AR Path="/5EBFF7D9/5F12875E/5F12A41C" Ref="#PWR049"  Part="1" 
AR Path="/5EBFF7D9/5F131600/5F12A41C" Ref="#PWR?"  Part="1" 
AR Path="/5EBFF7D9/5F1316D2/5F12A41C" Ref="#PWR051"  Part="1" 
AR Path="/5EBFF7D9/5F1317EC/5F12A41C" Ref="#PWR053"  Part="1" 
F 0 "#PWR053" H 4800 2550 50  0001 C CNN
F 1 "+5V" H 4815 2873 50  0000 C CNN
F 2 "" H 4800 2700 50  0001 C CNN
F 3 "" H 4800 2700 50  0001 C CNN
	1    4800 2700
	1    0    0    -1  
$EndComp
$Comp
L Device:R R?
U 1 1 5F12A422
P 4800 3500
AR Path="/5EBFF7D9/5F12A422" Ref="R?"  Part="1" 
AR Path="/5EBFF7D9/5F12875E/5F12A422" Ref="R39"  Part="1" 
AR Path="/5EBFF7D9/5F131600/5F12A422" Ref="R?"  Part="1" 
AR Path="/5EBFF7D9/5F1316D2/5F12A422" Ref="R41"  Part="1" 
AR Path="/5EBFF7D9/5F1317EC/5F12A422" Ref="R43"  Part="1" 
F 0 "R43" H 4870 3546 50  0000 L CNN
F 1 "R 316" H 4870 3455 50  0000 L CNN
F 2 "Resistor_SMD:R_0805_2012Metric_Pad1.15x1.40mm_HandSolder" V 4730 3500 50  0001 C CNN
F 3 "~" H 4800 3500 50  0001 C CNN
F 4 "1%" H 4800 3500 50  0001 C CNN "Tolerance"
F 5 "P316CCT-ND" H 4800 3500 50  0001 C CNN "Digi-Key_PN"
	1    4800 3500
	1    0    0    -1  
$EndComp
Wire Wire Line
	4800 2700 4800 2800
$Comp
L dk_LED-Indication-Discrete:LH_R974-LP-1 D?
U 1 1 5F12C5BE
P 4800 3950
AR Path="/5EBFF7D9/5F12C5BE" Ref="D?"  Part="1" 
AR Path="/5EBFF7D9/5F12875E/5F12C5BE" Ref="D6"  Part="1" 
AR Path="/5EBFF7D9/5F131600/5F12C5BE" Ref="D?"  Part="1" 
AR Path="/5EBFF7D9/5F1316D2/5F12C5BE" Ref="D7"  Part="1" 
AR Path="/5EBFF7D9/5F1317EC/5F12C5BE" Ref="D8"  Part="1" 
F 0 "D8" V 4697 4128 60  0000 L CNN
F 1 "LH R974-LP-1" V 4803 4128 60  0000 L CNN
F 2 "digikey-footprints:0805" H 5000 4150 60  0001 L CNN
F 3 "https://dammedia.osram.info/media/resource/hires/osram-dam-2493888/LH%20R974.pdf" H 5000 4250 60  0001 L CNN
F 4 "475-1415-1-ND" H 5000 4350 60  0001 L CNN "Digi-Key_PN"
F 5 "LH R974-LP-1" H 5000 4450 60  0001 L CNN "MPN"
F 6 "Optoelectronics" H 5000 4550 60  0001 L CNN "Category"
F 7 "LED Indication - Discrete" H 5000 4650 60  0001 L CNN "Family"
F 8 "https://dammedia.osram.info/media/resource/hires/osram-dam-2493888/LH%20R974.pdf" H 5000 4750 60  0001 L CNN "DK_Datasheet_Link"
F 9 "/product-detail/en/osram-opto-semiconductors-inc/LH-R974-LP-1/475-1415-1-ND/1802604" H 5000 4850 60  0001 L CNN "DK_Detail_Page"
F 10 "LED RED DIFFUSED 0805 SMD" H 5000 4950 60  0001 L CNN "Description"
F 11 "OSRAM Opto Semiconductors Inc." H 5000 5050 60  0001 L CNN "Manufacturer"
F 12 "Active" H 5000 5150 60  0001 L CNN "Status"
	1    4800 3950
	0    1    1    0   
$EndComp
Wire Wire Line
	4800 3750 4800 3650
Text HLabel 3950 3000 0    50   Input ~ 0
!EN
Wire Wire Line
	3950 3000 4100 3000
$Comp
L power:GND #PWR050
U 1 1 5F12FFBA
P 4800 4150
AR Path="/5EBFF7D9/5F12875E/5F12FFBA" Ref="#PWR050"  Part="1" 
AR Path="/5EBFF7D9/5F131600/5F12FFBA" Ref="#PWR?"  Part="1" 
AR Path="/5EBFF7D9/5F1316D2/5F12FFBA" Ref="#PWR052"  Part="1" 
AR Path="/5EBFF7D9/5F1317EC/5F12FFBA" Ref="#PWR054"  Part="1" 
F 0 "#PWR054" H 4800 3900 50  0001 C CNN
F 1 "GND" H 4805 3977 50  0000 C CNN
F 2 "" H 4800 4150 50  0001 C CNN
F 3 "" H 4800 4150 50  0001 C CNN
	1    4800 4150
	1    0    0    -1  
$EndComp
Wire Wire Line
	4800 4050 4800 4150
$Comp
L Device:C C41
U 1 1 5F001366
P 5800 3350
AR Path="/5EBFF7D9/5F1317EC/5F001366" Ref="C41"  Part="1" 
AR Path="/5EBFF7D9/5F12875E/5F001366" Ref="C39"  Part="1" 
AR Path="/5EBFF7D9/5F1316D2/5F001366" Ref="C40"  Part="1" 
F 0 "C41" H 5915 3396 50  0000 L CNN
F 1 "C 2.2u" H 5915 3305 50  0000 L CNN
F 2 "Capacitor_SMD:C_0805_2012Metric_Pad1.15x1.40mm_HandSolder" H 5838 3200 50  0001 C CNN
F 3 "~" H 5800 3350 50  0001 C CNN
F 4 "490-4787-1-ND" H 5800 3350 50  0001 C CNN "Digi-Key_PN"
F 5 "1458904" H 5800 3350 50  0001 C CNN "Farnell_PN"
	1    5800 3350
	1    0    0    -1  
$EndComp
Wire Wire Line
	5800 3200 5800 2700
Wire Wire Line
	5800 2700 4800 2700
Connection ~ 4800 2700
Wire Wire Line
	5800 3500 5800 4150
Wire Wire Line
	5800 4150 4800 4150
Connection ~ 4800 4150
$EndSCHEMATC
