EESchema Schematic File Version 4
EELAYER 30 0
EELAYER END
$Descr A4 11693 8268
encoding utf-8
Sheet 31 34
Title ""
Date ""
Rev ""
Comp ""
Comment1 ""
Comment2 ""
Comment3 ""
Comment4 ""
$EndDescr
Wire Wire Line
	5350 3800 5350 4100
Wire Wire Line
	5900 3800 5350 3800
Wire Wire Line
	5900 3500 5900 3800
Wire Wire Line
	5250 3550 5350 3550
Wire Wire Line
	5250 3900 5250 3550
Wire Wire Line
	5900 3900 5250 3900
Wire Wire Line
	5900 4150 5900 3900
$Comp
L power:GND #PWR?
U 1 1 5F8D8675
P 5650 4250
AR Path="/5F8D1E66/5F8D8675" Ref="#PWR?"  Part="1" 
AR Path="/5F8D1E66/5F8D7D6A/5F8D8675" Ref="#PWR?"  Part="1" 
AR Path="/5F94411C/5F94BADA/5F8D8675" Ref="#PWR0129"  Part="1" 
F 0 "#PWR0129" H 5650 4000 50  0001 C CNN
F 1 "GND" H 5655 4077 50  0000 C CNN
F 2 "" H 5650 4250 50  0001 C CNN
F 3 "" H 5650 4250 50  0001 C CNN
	1    5650 4250
	1    0    0    -1  
$EndComp
$Comp
L power:GND #PWR?
U 1 1 5F8D867B
P 5650 3600
AR Path="/5F8D1E66/5F8D867B" Ref="#PWR?"  Part="1" 
AR Path="/5F8D1E66/5F8D7D6A/5F8D867B" Ref="#PWR?"  Part="1" 
AR Path="/5F94411C/5F94BADA/5F8D867B" Ref="#PWR0127"  Part="1" 
F 0 "#PWR0127" H 5650 3350 50  0001 C CNN
F 1 "GND" H 5655 3427 50  0000 C CNN
F 2 "" H 5650 3600 50  0001 C CNN
F 3 "" H 5650 3600 50  0001 C CNN
	1    5650 3600
	1    0    0    -1  
$EndComp
$Comp
L power:+5V #PWR?
U 1 1 5F8D8681
P 5650 4050
AR Path="/5F8D1E66/5F8D8681" Ref="#PWR?"  Part="1" 
AR Path="/5F8D1E66/5F8D7D6A/5F8D8681" Ref="#PWR?"  Part="1" 
AR Path="/5F94411C/5F94BADA/5F8D8681" Ref="#PWR0128"  Part="1" 
F 0 "#PWR0128" H 5650 3900 50  0001 C CNN
F 1 "+5V" H 5650 4200 50  0000 C CNN
F 2 "" H 5650 4050 50  0001 C CNN
F 3 "" H 5650 4050 50  0001 C CNN
	1    5650 4050
	1    0    0    -1  
$EndComp
$Comp
L power:+5V #PWR?
U 1 1 5F8D8687
P 5650 3400
AR Path="/5F8D1E66/5F8D8687" Ref="#PWR?"  Part="1" 
AR Path="/5F8D1E66/5F8D7D6A/5F8D8687" Ref="#PWR?"  Part="1" 
AR Path="/5F94411C/5F94BADA/5F8D8687" Ref="#PWR0126"  Part="1" 
F 0 "#PWR0126" H 5650 3250 50  0001 C CNN
F 1 "+5V" H 5665 3573 50  0000 C CNN
F 2 "" H 5650 3400 50  0001 C CNN
F 3 "" H 5650 3400 50  0001 C CNN
	1    5650 3400
	1    0    0    -1  
$EndComp
$Comp
L 74xGxx:74LVC2G02 U?
U 2 1 5F8D868D
P 5650 4150
AR Path="/5F8D1E66/5F8D868D" Ref="U?"  Part="1" 
AR Path="/5F8D1E66/5F8D7D6A/5F8D868D" Ref="U?"  Part="2" 
AR Path="/5F94411C/5F94BADA/5F8D868D" Ref="U44"  Part="2" 
F 0 "U44" H 5850 4050 50  0000 C CNN
F 1 "SN74LVC2G02DCUR" H 6300 4250 50  0000 C CNN
F 2 "Package_SO:VSSOP-8_2.3x2mm_P0.5mm" H 5650 4150 50  0001 C CNN
F 3 "https://www.ti.com/lit/ds/symlink/sn74lvc2g02.pdf?HQS=TI-null-null-digikeymode-df-pf-null-wwe&ts=1602072492374" H 5650 4150 50  0001 C CNN
F 4 "296-13260-1-ND" H 5650 4150 50  0001 C CNN "Digi-Key_PN"
	2    5650 4150
	1    0    0    -1  
$EndComp
$Comp
L 74xGxx:74LVC2G02 U?
U 1 1 5F8D8693
P 5650 3500
AR Path="/5F8D1E66/5F8D8693" Ref="U?"  Part="2" 
AR Path="/5F8D1E66/5F8D7D6A/5F8D8693" Ref="U?"  Part="1" 
AR Path="/5F94411C/5F94BADA/5F8D8693" Ref="U44"  Part="1" 
F 0 "U44" H 5800 3400 50  0000 C CNN
F 1 "SN74LVC2G02DCUR" H 6300 3600 50  0000 C CNN
F 2 "Package_SO:VSSOP-8_2.3x2mm_P0.5mm" H 5650 3500 50  0001 C CNN
F 3 "https://www.ti.com/lit/ds/symlink/sn74lvc2g02.pdf?HQS=TI-null-null-digikeymode-df-pf-null-wwe&ts=1602072492374" H 5650 3500 50  0001 C CNN
F 4 "296-13260-1-ND" H 5650 3500 50  0001 C CNN "Digi-Key_PN"
	1    5650 3500
	1    0    0    -1  
$EndComp
Text HLabel 5350 3450 0    50   Input ~ 0
S
Text HLabel 5350 4200 0    50   Input ~ 0
R
Text HLabel 5900 3500 2    50   Input ~ 0
Q
Text HLabel 5900 4150 2    50   Input ~ 0
~Q
$EndSCHEMATC
