(kicad_sch (version 20211123) (generator eeschema)

  (uuid d0b525fa-3433-460d-b5dc-fc82832fa49f)

  (paper "A4")

  (title_block
    (title "ATLAS-ITK-PIXEL-MODULES HW INTERLOCK")
    (rev "0.4")
    (comment 1 "All logic is inverted TTL")
  )

  (lib_symbols
    (symbol "74xGxx:74AHCT1G02" (pin_names (offset 1.016)) (in_bom yes) (on_board yes)
      (property "Reference" "U" (id 0) (at -2.54 3.81 0)
        (effects (font (size 1.27 1.27)))
      )
      (property "Value" "74AHCT1G02" (id 1) (at 0 -3.81 0)
        (effects (font (size 1.27 1.27)))
      )
      (property "Footprint" "" (id 2) (at 0 0 0)
        (effects (font (size 1.27 1.27)) hide)
      )
      (property "Datasheet" "http://www.ti.com/lit/sg/scyt129e/scyt129e.pdf" (id 3) (at 0 0 0)
        (effects (font (size 1.27 1.27)) hide)
      )
      (property "ki_keywords" "Single Gate NOR LVC CMOS" (id 4) (at 0 0 0)
        (effects (font (size 1.27 1.27)) hide)
      )
      (property "ki_description" "Single NOR Gate, Low-Voltage CMOS" (id 5) (at 0 0 0)
        (effects (font (size 1.27 1.27)) hide)
      )
      (property "ki_fp_filters" "SOT* SG-*" (id 6) (at 0 0 0)
        (effects (font (size 1.27 1.27)) hide)
      )
      (symbol "74AHCT1G02_0_1"
        (arc (start -3.81 -2.54) (mid -2.919 0) (end -3.81 2.54)
          (stroke (width 0.254) (type default) (color 0 0 0 0))
          (fill (type none))
        )
        (arc (start 0 -2.54) (mid 1.5993 -1.6027) (end 2.54 0)
          (stroke (width 0.254) (type default) (color 0 0 0 0))
          (fill (type none))
        )
        (polyline
          (pts
            (xy -3.81 -1.27)
            (xy -3.175 -1.27)
          )
          (stroke (width 0) (type default) (color 0 0 0 0))
          (fill (type none))
        )
        (polyline
          (pts
            (xy -3.81 1.27)
            (xy -3.175 1.27)
          )
          (stroke (width 0) (type default) (color 0 0 0 0))
          (fill (type none))
        )
        (polyline
          (pts
            (xy 0 -2.54)
            (xy -3.81 -2.54)
          )
          (stroke (width 0.254) (type default) (color 0 0 0 0))
          (fill (type background))
        )
        (polyline
          (pts
            (xy 0 2.54)
            (xy -3.81 2.54)
          )
          (stroke (width 0.254) (type default) (color 0 0 0 0))
          (fill (type background))
        )
        (arc (start 2.54 0) (mid 1.6119 1.6152) (end 0 2.54)
          (stroke (width 0.254) (type default) (color 0 0 0 0))
          (fill (type none))
        )
      )
      (symbol "74AHCT1G02_1_1"
        (pin input line (at -7.62 1.27 0) (length 3.81)
          (name "~" (effects (font (size 1.016 1.016))))
          (number "1" (effects (font (size 1.016 1.016))))
        )
        (pin input line (at -7.62 -1.27 0) (length 3.81)
          (name "~" (effects (font (size 1.016 1.016))))
          (number "2" (effects (font (size 1.016 1.016))))
        )
        (pin power_in line (at 0 -2.54 270) (length 0) hide
          (name "GND" (effects (font (size 1.016 1.016))))
          (number "3" (effects (font (size 1.016 1.016))))
        )
        (pin output inverted (at 6.35 0 180) (length 3.81)
          (name "~" (effects (font (size 1.016 1.016))))
          (number "4" (effects (font (size 1.016 1.016))))
        )
        (pin power_in line (at 0 2.54 90) (length 0) hide
          (name "VCC" (effects (font (size 1.016 1.016))))
          (number "5" (effects (font (size 1.016 1.016))))
        )
      )
    )
    (symbol "Device:C_Small" (pin_numbers hide) (pin_names (offset 0.254) hide) (in_bom yes) (on_board yes)
      (property "Reference" "C" (id 0) (at 0.254 1.778 0)
        (effects (font (size 1.27 1.27)) (justify left))
      )
      (property "Value" "C_Small" (id 1) (at 0.254 -2.032 0)
        (effects (font (size 1.27 1.27)) (justify left))
      )
      (property "Footprint" "" (id 2) (at 0 0 0)
        (effects (font (size 1.27 1.27)) hide)
      )
      (property "Datasheet" "~" (id 3) (at 0 0 0)
        (effects (font (size 1.27 1.27)) hide)
      )
      (property "ki_keywords" "capacitor cap" (id 4) (at 0 0 0)
        (effects (font (size 1.27 1.27)) hide)
      )
      (property "ki_description" "Unpolarized capacitor, small symbol" (id 5) (at 0 0 0)
        (effects (font (size 1.27 1.27)) hide)
      )
      (property "ki_fp_filters" "C_*" (id 6) (at 0 0 0)
        (effects (font (size 1.27 1.27)) hide)
      )
      (symbol "C_Small_0_1"
        (polyline
          (pts
            (xy -1.524 -0.508)
            (xy 1.524 -0.508)
          )
          (stroke (width 0.3302) (type default) (color 0 0 0 0))
          (fill (type none))
        )
        (polyline
          (pts
            (xy -1.524 0.508)
            (xy 1.524 0.508)
          )
          (stroke (width 0.3048) (type default) (color 0 0 0 0))
          (fill (type none))
        )
      )
      (symbol "C_Small_1_1"
        (pin passive line (at 0 2.54 270) (length 2.032)
          (name "~" (effects (font (size 1.27 1.27))))
          (number "1" (effects (font (size 1.27 1.27))))
        )
        (pin passive line (at 0 -2.54 90) (length 2.032)
          (name "~" (effects (font (size 1.27 1.27))))
          (number "2" (effects (font (size 1.27 1.27))))
        )
      )
    )
    (symbol "Device:R" (pin_numbers hide) (pin_names (offset 0)) (in_bom yes) (on_board yes)
      (property "Reference" "R" (id 0) (at 2.032 0 90)
        (effects (font (size 1.27 1.27)))
      )
      (property "Value" "R" (id 1) (at 0 0 90)
        (effects (font (size 1.27 1.27)))
      )
      (property "Footprint" "" (id 2) (at -1.778 0 90)
        (effects (font (size 1.27 1.27)) hide)
      )
      (property "Datasheet" "~" (id 3) (at 0 0 0)
        (effects (font (size 1.27 1.27)) hide)
      )
      (property "ki_keywords" "R res resistor" (id 4) (at 0 0 0)
        (effects (font (size 1.27 1.27)) hide)
      )
      (property "ki_description" "Resistor" (id 5) (at 0 0 0)
        (effects (font (size 1.27 1.27)) hide)
      )
      (property "ki_fp_filters" "R_*" (id 6) (at 0 0 0)
        (effects (font (size 1.27 1.27)) hide)
      )
      (symbol "R_0_1"
        (rectangle (start -1.016 -2.54) (end 1.016 2.54)
          (stroke (width 0.254) (type default) (color 0 0 0 0))
          (fill (type none))
        )
      )
      (symbol "R_1_1"
        (pin passive line (at 0 3.81 270) (length 1.27)
          (name "~" (effects (font (size 1.27 1.27))))
          (number "1" (effects (font (size 1.27 1.27))))
        )
        (pin passive line (at 0 -3.81 90) (length 1.27)
          (name "~" (effects (font (size 1.27 1.27))))
          (number "2" (effects (font (size 1.27 1.27))))
        )
      )
    )
    (symbol "Jumper:SolderJumper_2_Bridged" (pin_names (offset 0) hide) (in_bom yes) (on_board yes)
      (property "Reference" "JP" (id 0) (at 0 2.032 0)
        (effects (font (size 1.27 1.27)))
      )
      (property "Value" "SolderJumper_2_Bridged" (id 1) (at 0 -2.54 0)
        (effects (font (size 1.27 1.27)))
      )
      (property "Footprint" "" (id 2) (at 0 0 0)
        (effects (font (size 1.27 1.27)) hide)
      )
      (property "Datasheet" "~" (id 3) (at 0 0 0)
        (effects (font (size 1.27 1.27)) hide)
      )
      (property "ki_keywords" "solder jumper SPST" (id 4) (at 0 0 0)
        (effects (font (size 1.27 1.27)) hide)
      )
      (property "ki_description" "Solder Jumper, 2-pole, closed/bridged" (id 5) (at 0 0 0)
        (effects (font (size 1.27 1.27)) hide)
      )
      (property "ki_fp_filters" "SolderJumper*Bridged*" (id 6) (at 0 0 0)
        (effects (font (size 1.27 1.27)) hide)
      )
      (symbol "SolderJumper_2_Bridged_0_1"
        (rectangle (start -0.508 0.508) (end 0.508 -0.508)
          (stroke (width 0) (type default) (color 0 0 0 0))
          (fill (type outline))
        )
        (arc (start -0.254 1.016) (mid -1.27 0) (end -0.254 -1.016)
          (stroke (width 0) (type default) (color 0 0 0 0))
          (fill (type none))
        )
        (arc (start -0.254 1.016) (mid -1.27 0) (end -0.254 -1.016)
          (stroke (width 0) (type default) (color 0 0 0 0))
          (fill (type outline))
        )
        (polyline
          (pts
            (xy -0.254 1.016)
            (xy -0.254 -1.016)
          )
          (stroke (width 0) (type default) (color 0 0 0 0))
          (fill (type none))
        )
        (polyline
          (pts
            (xy 0.254 1.016)
            (xy 0.254 -1.016)
          )
          (stroke (width 0) (type default) (color 0 0 0 0))
          (fill (type none))
        )
        (arc (start 0.254 -1.016) (mid 1.27 0) (end 0.254 1.016)
          (stroke (width 0) (type default) (color 0 0 0 0))
          (fill (type none))
        )
        (arc (start 0.254 -1.016) (mid 1.27 0) (end 0.254 1.016)
          (stroke (width 0) (type default) (color 0 0 0 0))
          (fill (type outline))
        )
      )
      (symbol "SolderJumper_2_Bridged_1_1"
        (pin passive line (at -3.81 0 0) (length 2.54)
          (name "A" (effects (font (size 1.27 1.27))))
          (number "1" (effects (font (size 1.27 1.27))))
        )
        (pin passive line (at 3.81 0 180) (length 2.54)
          (name "B" (effects (font (size 1.27 1.27))))
          (number "2" (effects (font (size 1.27 1.27))))
        )
      )
    )
    (symbol "Jumper:SolderJumper_2_Open" (pin_names (offset 0) hide) (in_bom yes) (on_board yes)
      (property "Reference" "JP" (id 0) (at 0 2.032 0)
        (effects (font (size 1.27 1.27)))
      )
      (property "Value" "SolderJumper_2_Open" (id 1) (at 0 -2.54 0)
        (effects (font (size 1.27 1.27)))
      )
      (property "Footprint" "" (id 2) (at 0 0 0)
        (effects (font (size 1.27 1.27)) hide)
      )
      (property "Datasheet" "~" (id 3) (at 0 0 0)
        (effects (font (size 1.27 1.27)) hide)
      )
      (property "ki_keywords" "solder jumper SPST" (id 4) (at 0 0 0)
        (effects (font (size 1.27 1.27)) hide)
      )
      (property "ki_description" "Solder Jumper, 2-pole, open" (id 5) (at 0 0 0)
        (effects (font (size 1.27 1.27)) hide)
      )
      (property "ki_fp_filters" "SolderJumper*Open*" (id 6) (at 0 0 0)
        (effects (font (size 1.27 1.27)) hide)
      )
      (symbol "SolderJumper_2_Open_0_1"
        (arc (start -0.254 1.016) (mid -1.27 0) (end -0.254 -1.016)
          (stroke (width 0) (type default) (color 0 0 0 0))
          (fill (type none))
        )
        (arc (start -0.254 1.016) (mid -1.27 0) (end -0.254 -1.016)
          (stroke (width 0) (type default) (color 0 0 0 0))
          (fill (type outline))
        )
        (polyline
          (pts
            (xy -0.254 1.016)
            (xy -0.254 -1.016)
          )
          (stroke (width 0) (type default) (color 0 0 0 0))
          (fill (type none))
        )
        (polyline
          (pts
            (xy 0.254 1.016)
            (xy 0.254 -1.016)
          )
          (stroke (width 0) (type default) (color 0 0 0 0))
          (fill (type none))
        )
        (arc (start 0.254 -1.016) (mid 1.27 0) (end 0.254 1.016)
          (stroke (width 0) (type default) (color 0 0 0 0))
          (fill (type none))
        )
        (arc (start 0.254 -1.016) (mid 1.27 0) (end 0.254 1.016)
          (stroke (width 0) (type default) (color 0 0 0 0))
          (fill (type outline))
        )
      )
      (symbol "SolderJumper_2_Open_1_1"
        (pin passive line (at -3.81 0 0) (length 2.54)
          (name "A" (effects (font (size 1.27 1.27))))
          (number "1" (effects (font (size 1.27 1.27))))
        )
        (pin passive line (at 3.81 0 180) (length 2.54)
          (name "B" (effects (font (size 1.27 1.27))))
          (number "2" (effects (font (size 1.27 1.27))))
        )
      )
    )
    (symbol "dk_Logic-Gates-and-Inverters:SN74LVC1G14DBVR" (pin_names (offset 0)) (in_bom yes) (on_board yes)
      (property "Reference" "U" (id 0) (at -2.54 3.556 0)
        (effects (font (size 1.524 1.524)) (justify right))
      )
      (property "Value" "SN74LVC1G14DBVR" (id 1) (at -0.508 -3.81 0)
        (effects (font (size 1.524 1.524)) (justify left))
      )
      (property "Footprint" "digikey-footprints:SOT-753" (id 2) (at 5.08 5.08 0)
        (effects (font (size 1.524 1.524)) (justify left) hide)
      )
      (property "Datasheet" "http://www.ti.com/general/docs/suppproductinfo.tsp?distId=10&gotoUrl=http%3A%2F%2Fwww.ti.com%2Flit%2Fgpn%2Fsn74lvc1g14" (id 3) (at 5.08 7.62 0)
        (effects (font (size 1.524 1.524)) (justify left) hide)
      )
      (property "Digi-Key_PN" "296-11607-1-ND" (id 4) (at 5.08 10.16 0)
        (effects (font (size 1.524 1.524)) (justify left) hide)
      )
      (property "MPN" "SN74LVC1G14DBVR" (id 5) (at 5.08 12.7 0)
        (effects (font (size 1.524 1.524)) (justify left) hide)
      )
      (property "Category" "Integrated Circuits (ICs)" (id 6) (at 5.08 15.24 0)
        (effects (font (size 1.524 1.524)) (justify left) hide)
      )
      (property "Family" "Logic - Gates and Inverters" (id 7) (at 5.08 17.78 0)
        (effects (font (size 1.524 1.524)) (justify left) hide)
      )
      (property "DK_Datasheet_Link" "http://www.ti.com/general/docs/suppproductinfo.tsp?distId=10&gotoUrl=http%3A%2F%2Fwww.ti.com%2Flit%2Fgpn%2Fsn74lvc1g14" (id 8) (at 5.08 20.32 0)
        (effects (font (size 1.524 1.524)) (justify left) hide)
      )
      (property "DK_Detail_Page" "/product-detail/en/texas-instruments/SN74LVC1G14DBVR/296-11607-1-ND/385746" (id 9) (at 5.08 22.86 0)
        (effects (font (size 1.524 1.524)) (justify left) hide)
      )
      (property "Description" "IC INVERTER SCHMITT 1CH SOT23-5" (id 10) (at 5.08 25.4 0)
        (effects (font (size 1.524 1.524)) (justify left) hide)
      )
      (property "Manufacturer" "Texas Instruments" (id 11) (at 5.08 27.94 0)
        (effects (font (size 1.524 1.524)) (justify left) hide)
      )
      (property "Status" "Active" (id 12) (at 5.08 30.48 0)
        (effects (font (size 1.524 1.524)) (justify left) hide)
      )
      (property "ki_keywords" "296-11607-1-ND 74LVC" (id 13) (at 0 0 0)
        (effects (font (size 1.27 1.27)) hide)
      )
      (property "ki_description" "IC INVERTER SCHMITT 1CH SOT23-5" (id 14) (at 0 0 0)
        (effects (font (size 1.27 1.27)) hide)
      )
      (symbol "SN74LVC1G14DBVR_0_1"
        (rectangle (start -5.08 2.54) (end 2.54 -2.54)
          (stroke (width 0) (type default) (color 0 0 0 0))
          (fill (type background))
        )
        (polyline
          (pts
            (xy -2.54 0)
            (xy -5.08 0)
          )
          (stroke (width 0) (type default) (color 0 0 0 0))
          (fill (type none))
        )
        (polyline
          (pts
            (xy 2.54 0)
            (xy 0.508 0)
          )
          (stroke (width 0) (type default) (color 0 0 0 0))
          (fill (type none))
        )
        (polyline
          (pts
            (xy -2.54 1.27)
            (xy -2.54 -1.27)
            (xy 0 0)
            (xy -2.54 1.27)
          )
          (stroke (width 0) (type default) (color 0 0 0 0))
          (fill (type none))
        )
        (circle (center 0.254 0) (radius 0.254)
          (stroke (width 0) (type default) (color 0 0 0 0))
          (fill (type none))
        )
      )
      (symbol "SN74LVC1G14DBVR_1_1"
        (pin no_connect line (at -2.54 0 0) (length 2.54) hide
          (name "NC" (effects (font (size 1.27 1.27))))
          (number "1" (effects (font (size 1.27 1.27))))
        )
        (pin input line (at -7.62 0 0) (length 2.54)
          (name "A" (effects (font (size 1.27 1.27))))
          (number "2" (effects (font (size 1.27 1.27))))
        )
        (pin power_in line (at -2.54 -5.08 90) (length 2.54)
          (name "GND" (effects (font (size 1.27 1.27))))
          (number "3" (effects (font (size 1.27 1.27))))
        )
        (pin output line (at 5.08 0 180) (length 2.54)
          (name "Y" (effects (font (size 1.27 1.27))))
          (number "4" (effects (font (size 1.27 1.27))))
        )
        (pin power_in line (at 0 5.08 270) (length 2.54)
          (name "VCC" (effects (font (size 1.27 1.27))))
          (number "5" (effects (font (size 1.27 1.27))))
        )
      )
    )
    (symbol "dk_Tactile-Switches:1825910-6" (pin_names (offset 1.016)) (in_bom yes) (on_board yes)
      (property "Reference" "S" (id 0) (at 0 4.572 0)
        (effects (font (size 1.524 1.524)))
      )
      (property "Value" "1825910-6" (id 1) (at 0.127 -5.08 0)
        (effects (font (size 1.524 1.524)))
      )
      (property "Footprint" "digikey-footprints:Switch_Tactile_THT_6x6mm" (id 2) (at 5.08 5.08 0)
        (effects (font (size 1.524 1.524)) (justify left) hide)
      )
      (property "Datasheet" "https://www.te.com/commerce/DocumentDelivery/DDEController?Action=srchrtrv&DocNm=1825910&DocType=Customer+Drawing&DocLang=English" (id 3) (at 5.08 7.62 0)
        (effects (font (size 1.524 1.524)) (justify left) hide)
      )
      (property "Digi-Key_PN" "450-1650-ND" (id 4) (at 5.08 10.16 0)
        (effects (font (size 1.524 1.524)) (justify left) hide)
      )
      (property "MPN" "1825910-6" (id 5) (at 5.08 12.7 0)
        (effects (font (size 1.524 1.524)) (justify left) hide)
      )
      (property "Category" "Switches" (id 6) (at 5.08 15.24 0)
        (effects (font (size 1.524 1.524)) (justify left) hide)
      )
      (property "Family" "Tactile Switches" (id 7) (at 5.08 17.78 0)
        (effects (font (size 1.524 1.524)) (justify left) hide)
      )
      (property "DK_Datasheet_Link" "https://www.te.com/commerce/DocumentDelivery/DDEController?Action=srchrtrv&DocNm=1825910&DocType=Customer+Drawing&DocLang=English" (id 8) (at 5.08 20.32 0)
        (effects (font (size 1.524 1.524)) (justify left) hide)
      )
      (property "DK_Detail_Page" "/product-detail/en/te-connectivity-alcoswitch-switches/1825910-6/450-1650-ND/1632536" (id 9) (at 5.08 22.86 0)
        (effects (font (size 1.524 1.524)) (justify left) hide)
      )
      (property "Description" "SWITCH TACTILE SPST-NO 0.05A 24V" (id 10) (at 5.08 25.4 0)
        (effects (font (size 1.524 1.524)) (justify left) hide)
      )
      (property "Manufacturer" "TE Connectivity ALCOSWITCH Switches" (id 11) (at 5.08 27.94 0)
        (effects (font (size 1.524 1.524)) (justify left) hide)
      )
      (property "Status" "Active" (id 12) (at 5.08 30.48 0)
        (effects (font (size 1.524 1.524)) (justify left) hide)
      )
      (property "ki_keywords" "450-1650-ND FSMJ" (id 13) (at 0 0 0)
        (effects (font (size 1.27 1.27)) hide)
      )
      (property "ki_description" "SWITCH TACTILE SPST-NO 0.05A 24V" (id 14) (at 0 0 0)
        (effects (font (size 1.27 1.27)) hide)
      )
      (symbol "1825910-6_0_1"
        (circle (center -1.524 0) (radius 0.254)
          (stroke (width 0) (type default) (color 0 0 0 0))
          (fill (type none))
        )
        (polyline
          (pts
            (xy -2.54 2.54)
            (xy -2.54 -2.54)
          )
          (stroke (width 0) (type default) (color 0 0 0 0))
          (fill (type none))
        )
        (polyline
          (pts
            (xy -1.778 0)
            (xy -2.54 0)
          )
          (stroke (width 0) (type default) (color 0 0 0 0))
          (fill (type none))
        )
        (polyline
          (pts
            (xy -1.778 1.27)
            (xy 1.778 1.27)
          )
          (stroke (width 0) (type default) (color 0 0 0 0))
          (fill (type none))
        )
        (polyline
          (pts
            (xy 2.54 -2.54)
            (xy 2.54 2.54)
          )
          (stroke (width 0) (type default) (color 0 0 0 0))
          (fill (type none))
        )
        (polyline
          (pts
            (xy 2.54 0)
            (xy 1.778 0)
          )
          (stroke (width 0) (type default) (color 0 0 0 0))
          (fill (type none))
        )
        (circle (center 1.524 0) (radius 0.254)
          (stroke (width 0) (type default) (color 0 0 0 0))
          (fill (type none))
        )
      )
      (symbol "1825910-6_1_1"
        (polyline
          (pts
            (xy -1.016 2.794)
            (xy 0.889 2.794)
          )
          (stroke (width 0) (type default) (color 0 0 0 0))
          (fill (type none))
        )
        (polyline
          (pts
            (xy 0 2.794)
            (xy 0 1.27)
          )
          (stroke (width 0) (type default) (color 0 0 0 0))
          (fill (type none))
        )
        (pin passive line (at -5.08 2.54 0) (length 2.54)
          (name "~" (effects (font (size 1.27 1.27))))
          (number "1" (effects (font (size 1.27 1.27))))
        )
        (pin passive line (at -5.08 -2.54 0) (length 2.54)
          (name "~" (effects (font (size 1.27 1.27))))
          (number "2" (effects (font (size 1.27 1.27))))
        )
        (pin passive line (at 5.08 2.54 180) (length 2.54)
          (name "~" (effects (font (size 1.27 1.27))))
          (number "3" (effects (font (size 1.27 1.27))))
        )
        (pin passive line (at 5.08 -2.54 180) (length 2.54)
          (name "~" (effects (font (size 1.27 1.27))))
          (number "4" (effects (font (size 1.27 1.27))))
        )
      )
    )
    (symbol "power:+5V" (power) (pin_names (offset 0)) (in_bom yes) (on_board yes)
      (property "Reference" "#PWR" (id 0) (at 0 -3.81 0)
        (effects (font (size 1.27 1.27)) hide)
      )
      (property "Value" "+5V" (id 1) (at 0 3.556 0)
        (effects (font (size 1.27 1.27)))
      )
      (property "Footprint" "" (id 2) (at 0 0 0)
        (effects (font (size 1.27 1.27)) hide)
      )
      (property "Datasheet" "" (id 3) (at 0 0 0)
        (effects (font (size 1.27 1.27)) hide)
      )
      (property "ki_keywords" "power-flag" (id 4) (at 0 0 0)
        (effects (font (size 1.27 1.27)) hide)
      )
      (property "ki_description" "Power symbol creates a global label with name \"+5V\"" (id 5) (at 0 0 0)
        (effects (font (size 1.27 1.27)) hide)
      )
      (symbol "+5V_0_1"
        (polyline
          (pts
            (xy -0.762 1.27)
            (xy 0 2.54)
          )
          (stroke (width 0) (type default) (color 0 0 0 0))
          (fill (type none))
        )
        (polyline
          (pts
            (xy 0 0)
            (xy 0 2.54)
          )
          (stroke (width 0) (type default) (color 0 0 0 0))
          (fill (type none))
        )
        (polyline
          (pts
            (xy 0 2.54)
            (xy 0.762 1.27)
          )
          (stroke (width 0) (type default) (color 0 0 0 0))
          (fill (type none))
        )
      )
      (symbol "+5V_1_1"
        (pin power_in line (at 0 0 90) (length 0) hide
          (name "+5V" (effects (font (size 1.27 1.27))))
          (number "1" (effects (font (size 1.27 1.27))))
        )
      )
    )
    (symbol "power:GND" (power) (pin_names (offset 0)) (in_bom yes) (on_board yes)
      (property "Reference" "#PWR" (id 0) (at 0 -6.35 0)
        (effects (font (size 1.27 1.27)) hide)
      )
      (property "Value" "GND" (id 1) (at 0 -3.81 0)
        (effects (font (size 1.27 1.27)))
      )
      (property "Footprint" "" (id 2) (at 0 0 0)
        (effects (font (size 1.27 1.27)) hide)
      )
      (property "Datasheet" "" (id 3) (at 0 0 0)
        (effects (font (size 1.27 1.27)) hide)
      )
      (property "ki_keywords" "power-flag" (id 4) (at 0 0 0)
        (effects (font (size 1.27 1.27)) hide)
      )
      (property "ki_description" "Power symbol creates a global label with name \"GND\" , ground" (id 5) (at 0 0 0)
        (effects (font (size 1.27 1.27)) hide)
      )
      (symbol "GND_0_1"
        (polyline
          (pts
            (xy 0 0)
            (xy 0 -1.27)
            (xy 1.27 -1.27)
            (xy 0 -2.54)
            (xy -1.27 -1.27)
            (xy 0 -1.27)
          )
          (stroke (width 0) (type default) (color 0 0 0 0))
          (fill (type none))
        )
      )
      (symbol "GND_1_1"
        (pin power_in line (at 0 0 270) (length 0) hide
          (name "GND" (effects (font (size 1.27 1.27))))
          (number "1" (effects (font (size 1.27 1.27))))
        )
      )
    )
  )

  (junction (at 149.733 104.267) (diameter 0) (color 0 0 0 0)
    (uuid 1d4770b9-3eda-42cc-b17e-2f0662c68f4f)
  )
  (junction (at 82.423 102.997) (diameter 0) (color 0 0 0 0)
    (uuid 1dc69418-a00d-437e-afb6-ba801d9e029f)
  )
  (junction (at 92.583 97.917) (diameter 0) (color 0 0 0 0)
    (uuid 2db5e8e4-469e-4e3d-8498-223fbde60120)
  )
  (junction (at 177.673 104.267) (diameter 0) (color 0 0 0 0)
    (uuid 3498a802-b017-490b-b0c8-5da73fd652dc)
  )
  (junction (at 107.823 85.217) (diameter 0) (color 0 0 0 0)
    (uuid 3d5b47b6-874c-4f21-9ae7-ade2e7c1c132)
  )
  (junction (at 60.833 122.047) (diameter 0) (color 0 0 0 0)
    (uuid 67008f95-0918-4c57-b87f-f590384668ed)
  )
  (junction (at 107.823 127.127) (diameter 0) (color 0 0 0 0)
    (uuid 734f807e-141a-4d29-8608-fe1ab204fa63)
  )
  (junction (at 149.733 85.217) (diameter 0) (color 0 0 0 0)
    (uuid 86a7afda-6622-46f4-a83a-e4a4fc3aacb9)
  )
  (junction (at 100.203 108.077) (diameter 0) (color 0 0 0 0)
    (uuid 93f62d30-cfee-4030-8402-59ecf7d31ff5)
  )
  (junction (at 82.423 127.127) (diameter 0) (color 0 0 0 0)
    (uuid 94bcea25-cc98-4906-9a78-716a8eb9203c)
  )
  (junction (at 92.583 102.997) (diameter 0) (color 0 0 0 0)
    (uuid 966d50f3-2e6d-4125-80e5-37555295f0cf)
  )
  (junction (at 149.733 127.127) (diameter 0) (color 0 0 0 0)
    (uuid 9c767c3e-4542-43b0-9d6d-f9b3b831b73c)
  )
  (junction (at 177.673 127.127) (diameter 0) (color 0 0 0 0)
    (uuid 9d54d137-813c-4351-ad17-b788dd84bdc1)
  )
  (junction (at 107.823 95.377) (diameter 0) (color 0 0 0 0)
    (uuid b0d91b9a-6a76-4ea3-ba45-8720597d4d32)
  )
  (junction (at 72.263 127.127) (diameter 0) (color 0 0 0 0)
    (uuid b2dfbac2-0224-4ce6-b98f-17267df8644d)
  )
  (junction (at 162.433 85.217) (diameter 0) (color 0 0 0 0)
    (uuid ba0c8660-5579-43e2-95d9-fb24dccff608)
  )
  (junction (at 159.893 127.127) (diameter 0) (color 0 0 0 0)
    (uuid ddfefcd5-00f6-4e76-8bd3-790757299291)
  )
  (junction (at 185.293 109.347) (diameter 0) (color 0 0 0 0)
    (uuid ecee1f30-8852-4708-8aaf-d604ef74650d)
  )

  (wire (pts (xy 60.833 127.127) (xy 72.263 127.127))
    (stroke (width 0) (type default) (color 0 0 0 0))
    (uuid 006a274a-a1cd-4697-9e15-b0d39767ed51)
  )
  (wire (pts (xy 82.423 127.127) (xy 107.823 127.127))
    (stroke (width 0) (type default) (color 0 0 0 0))
    (uuid 0fd753f5-d366-44be-9c92-c1d3f15d6a50)
  )
  (wire (pts (xy 162.433 85.217) (xy 192.913 85.217))
    (stroke (width 0) (type default) (color 0 0 0 0))
    (uuid 256f9ea8-408a-4604-a9ef-fad3bb5b6547)
  )
  (wire (pts (xy 72.263 127.127) (xy 82.423 127.127))
    (stroke (width 0) (type default) (color 0 0 0 0))
    (uuid 29108a20-7352-49b8-a4f3-bfb3b4b2fccb)
  )
  (wire (pts (xy 92.583 97.917) (xy 92.583 102.997))
    (stroke (width 0) (type default) (color 0 0 0 0))
    (uuid 2a219e7b-c3bb-4984-b1d3-265a45a18b7d)
  )
  (wire (pts (xy 185.293 109.347) (xy 201.803 109.347))
    (stroke (width 0) (type default) (color 0 0 0 0))
    (uuid 318d885b-7d45-42fd-b7e4-6283194ef243)
  )
  (wire (pts (xy 147.193 104.267) (xy 149.733 104.267))
    (stroke (width 0) (type default) (color 0 0 0 0))
    (uuid 3ea6df98-c3dd-4a01-82de-409766715739)
  )
  (wire (pts (xy 149.733 123.317) (xy 149.733 127.127))
    (stroke (width 0) (type default) (color 0 0 0 0))
    (uuid 4283c148-7783-47f4-83d1-54223e07f12f)
  )
  (wire (pts (xy 177.673 105.537) (xy 177.673 104.267))
    (stroke (width 0) (type default) (color 0 0 0 0))
    (uuid 4603777b-3cb9-44b2-8eae-fc149babf382)
  )
  (wire (pts (xy 100.203 105.537) (xy 100.203 108.077))
    (stroke (width 0) (type default) (color 0 0 0 0))
    (uuid 4ef446da-29b5-4b06-be45-41747349a0d1)
  )
  (wire (pts (xy 192.913 85.217) (xy 192.913 114.427))
    (stroke (width 0) (type default) (color 0 0 0 0))
    (uuid 53ffe83b-a601-4fca-befe-f0df9ad3ec4b)
  )
  (wire (pts (xy 107.823 127.127) (xy 107.823 106.807))
    (stroke (width 0) (type default) (color 0 0 0 0))
    (uuid 666d220a-0393-48df-b692-7a608348d300)
  )
  (wire (pts (xy 162.433 99.187) (xy 162.433 85.217))
    (stroke (width 0) (type default) (color 0 0 0 0))
    (uuid 7d15e833-3ec1-442b-b493-689145fb9035)
  )
  (wire (pts (xy 177.673 127.127) (xy 190.373 127.127))
    (stroke (width 0) (type default) (color 0 0 0 0))
    (uuid 87eeb910-799e-46fb-9d1c-eb67fea94304)
  )
  (wire (pts (xy 197.993 119.507) (xy 201.803 119.507))
    (stroke (width 0) (type default) (color 0 0 0 0))
    (uuid 88bdc328-98ab-4447-93a8-c6b5384f4120)
  )
  (wire (pts (xy 177.673 104.267) (xy 185.293 104.267))
    (stroke (width 0) (type default) (color 0 0 0 0))
    (uuid 9151df85-53ef-420a-beb9-89f7f15e16ce)
  )
  (wire (pts (xy 149.733 94.107) (xy 149.733 95.377))
    (stroke (width 0) (type default) (color 0 0 0 0))
    (uuid 93d38aa3-cfa9-4789-867e-529a4a406d06)
  )
  (wire (pts (xy 107.823 127.127) (xy 149.733 127.127))
    (stroke (width 0) (type default) (color 0 0 0 0))
    (uuid 944abe09-6c7d-466a-93b9-0a2fbf1622b4)
  )
  (wire (pts (xy 149.733 104.267) (xy 149.733 115.697))
    (stroke (width 0) (type default) (color 0 0 0 0))
    (uuid 955834c4-39f1-44a2-bb81-a62795a31451)
  )
  (wire (pts (xy 149.733 85.217) (xy 149.733 86.487))
    (stroke (width 0) (type default) (color 0 0 0 0))
    (uuid 9a4056ef-38b7-4b90-a850-7fb14e67c2b3)
  )
  (wire (pts (xy 176.403 104.267) (xy 177.673 104.267))
    (stroke (width 0) (type default) (color 0 0 0 0))
    (uuid a210f41b-78e1-4609-a21a-0c622ffcf658)
  )
  (wire (pts (xy 100.203 108.077) (xy 119.253 108.077))
    (stroke (width 0) (type default) (color 0 0 0 0))
    (uuid a4f5fd43-7887-4a9d-836c-2d5c9fac36d7)
  )
  (wire (pts (xy 60.833 120.777) (xy 60.833 122.047))
    (stroke (width 0) (type default) (color 0 0 0 0))
    (uuid aebae416-1092-4e1c-a0cc-c31af3a6212a)
  )
  (wire (pts (xy 107.823 95.377) (xy 107.823 85.217))
    (stroke (width 0) (type default) (color 0 0 0 0))
    (uuid b10c2192-e8b6-4224-a605-20036e03fecf)
  )
  (wire (pts (xy 72.263 122.047) (xy 60.833 122.047))
    (stroke (width 0) (type default) (color 0 0 0 0))
    (uuid b2868d59-92f1-4bff-8009-3f756ff89c26)
  )
  (wire (pts (xy 98.806 108.077) (xy 100.203 108.077))
    (stroke (width 0) (type default) (color 0 0 0 0))
    (uuid b6641e58-c013-4bff-80fc-cb783c3747b2)
  )
  (wire (pts (xy 114.173 104.267) (xy 119.253 104.267))
    (stroke (width 0) (type default) (color 0 0 0 0))
    (uuid bd72f688-451c-43cf-a5ce-749df0cf99bb)
  )
  (wire (pts (xy 190.373 127.127) (xy 190.373 124.587))
    (stroke (width 0) (type default) (color 0 0 0 0))
    (uuid c696ce48-a277-4bc7-bbfc-76db214005f0)
  )
  (wire (pts (xy 107.823 85.217) (xy 149.733 85.217))
    (stroke (width 0) (type default) (color 0 0 0 0))
    (uuid c6aa9782-4e72-4205-adb3-6c890fc1e114)
  )
  (wire (pts (xy 167.513 104.267) (xy 168.783 104.267))
    (stroke (width 0) (type default) (color 0 0 0 0))
    (uuid ca5cdec7-fdf7-4430-a7a9-6e8d0860ab15)
  )
  (wire (pts (xy 82.423 97.917) (xy 82.423 102.997))
    (stroke (width 0) (type default) (color 0 0 0 0))
    (uuid ce7ce2b8-c860-47b7-800b-6e270e4c4b09)
  )
  (wire (pts (xy 149.733 127.127) (xy 159.893 127.127))
    (stroke (width 0) (type default) (color 0 0 0 0))
    (uuid d4b0bb44-b687-4670-95ff-33a9eac27792)
  )
  (wire (pts (xy 149.733 104.267) (xy 154.813 104.267))
    (stroke (width 0) (type default) (color 0 0 0 0))
    (uuid d56d8409-db3b-4339-aa8e-3c4a8117fc4a)
  )
  (wire (pts (xy 185.293 119.507) (xy 185.293 109.347))
    (stroke (width 0) (type default) (color 0 0 0 0))
    (uuid dca180e4-62db-4ab4-8e0e-24cf4af917d4)
  )
  (wire (pts (xy 133.223 104.267) (xy 139.573 104.267))
    (stroke (width 0) (type default) (color 0 0 0 0))
    (uuid e426eaab-62de-4c62-adb2-bb9179548e74)
  )
  (wire (pts (xy 149.733 102.997) (xy 149.733 104.267))
    (stroke (width 0) (type default) (color 0 0 0 0))
    (uuid ec2ce87a-ea51-4594-92ee-00a0f339c6f7)
  )
  (wire (pts (xy 149.733 85.217) (xy 162.433 85.217))
    (stroke (width 0) (type default) (color 0 0 0 0))
    (uuid ec6939b1-4a60-4241-a335-0087dfae59ae)
  )
  (wire (pts (xy 82.423 102.997) (xy 82.423 127.127))
    (stroke (width 0) (type default) (color 0 0 0 0))
    (uuid f198f039-41f5-4958-8a5d-386ff901a1a8)
  )
  (wire (pts (xy 92.583 102.997) (xy 100.203 102.997))
    (stroke (width 0) (type default) (color 0 0 0 0))
    (uuid f2787ef2-2384-420b-88d0-4e0557462f88)
  )
  (wire (pts (xy 92.583 95.377) (xy 92.583 97.917))
    (stroke (width 0) (type default) (color 0 0 0 0))
    (uuid f41ba0e7-f8ed-42d7-a7bc-14e89393681b)
  )
  (wire (pts (xy 159.893 127.127) (xy 177.673 127.127))
    (stroke (width 0) (type default) (color 0 0 0 0))
    (uuid f4e72aba-75a7-45fe-b693-3496f03fda2b)
  )
  (wire (pts (xy 107.823 101.727) (xy 107.823 95.377))
    (stroke (width 0) (type default) (color 0 0 0 0))
    (uuid fa325d06-8d70-4102-8b4e-599b52afb287)
  )
  (wire (pts (xy 177.673 127.127) (xy 177.673 110.617))
    (stroke (width 0) (type default) (color 0 0 0 0))
    (uuid fa687b73-88d7-4fae-abdc-947908644203)
  )
  (wire (pts (xy 100.203 95.377) (xy 107.823 95.377))
    (stroke (width 0) (type default) (color 0 0 0 0))
    (uuid fd5ae084-b554-4507-b3ee-d00d9e08f2b8)
  )
  (wire (pts (xy 185.293 109.347) (xy 185.293 104.267))
    (stroke (width 0) (type default) (color 0 0 0 0))
    (uuid fd74c92c-73c1-4692-beac-c4ebe8def023)
  )
  (wire (pts (xy 159.893 109.347) (xy 159.893 127.127))
    (stroke (width 0) (type default) (color 0 0 0 0))
    (uuid fee0580c-d7f7-4897-9dd9-75f3b02786fc)
  )

  (text "The jumpers JP3 and JP4 are meant to be set once (or rarely).\nDepending on their combination of open/closed, different \nHW interlock behaviour is obtained.\n\nIf JP3 is open, fixed limits are in use. The limits are set \nby JP4. Closing JP4 selects nominal limits. Opening JP4 \nselects extended limits.\n\nIf JP3 is closed, switching limits are in use. When the HW\ninterlock is armed, nominal limits are automatically selected. \nThe user can then click switch S3 to enable extended temperature \nlimits."
    (at 108.204 72.009 0)
    (effects (font (size 1.27 1.27)) (justify left bottom))
    (uuid 48fdf075-9c7d-42db-b573-9135dd823dd1)
  )

  (global_label "!ARM" (shape input) (at 98.806 108.077 180) (fields_autoplaced)
    (effects (font (size 1.27 1.27)) (justify right))
    (uuid 4fd4e6cc-d482-4a67-bfc8-b7a741798938)
    (property "Intersheet References" "${INTERSHEET_REFS}" (id 0) (at -14.224 15.367 0)
      (effects (font (size 1.27 1.27)) hide)
    )
  )
  (global_label "T_SELECT" (shape input) (at 185.293 104.267 0) (fields_autoplaced)
    (effects (font (size 1.27 1.27)) (justify left))
    (uuid f50f7103-055c-4c05-a844-bb03863a1456)
    (property "Intersheet References" "${INTERSHEET_REFS}" (id 0) (at -12.827 15.367 0)
      (effects (font (size 1.27 1.27)) hide)
    )
  )

  (symbol (lib_id "power:+5V") (at 107.823 85.217 0) (unit 1)
    (in_bom yes) (on_board yes)
    (uuid 00000000-0000-0000-0000-00005f94f9d3)
    (property "Reference" "#PWR0124" (id 0) (at 107.823 89.027 0)
      (effects (font (size 1.27 1.27)) hide)
    )
    (property "Value" "+5V" (id 1) (at 108.204 80.8228 0))
    (property "Footprint" "" (id 2) (at 107.823 85.217 0)
      (effects (font (size 1.27 1.27)) hide)
    )
    (property "Datasheet" "" (id 3) (at 107.823 85.217 0)
      (effects (font (size 1.27 1.27)) hide)
    )
    (pin "1" (uuid 441d5a14-67bf-45a3-bdb7-25f4891789c9))
  )

  (symbol (lib_id "dk_Tactile-Switches:1825910-6") (at 87.503 100.457 0) (unit 1)
    (in_bom yes) (on_board yes)
    (uuid 00000000-0000-0000-0000-00005f94f9e4)
    (property "Reference" "S3" (id 0) (at 83.693 90.297 0)
      (effects (font (size 1.524 1.524)))
    )
    (property "Value" "1825910-6" (id 1) (at 82.423 92.837 0)
      (effects (font (size 1.524 1.524)))
    )
    (property "Footprint" "digikey-footprints:Switch_Tactile_THT_6x6mm" (id 2) (at 92.583 95.377 0)
      (effects (font (size 1.524 1.524)) (justify left) hide)
    )
    (property "Datasheet" "https://www.te.com/commerce/DocumentDelivery/DDEController?Action=srchrtrv&DocNm=1825910&DocType=Customer+Drawing&DocLang=English" (id 3) (at 92.583 92.837 0)
      (effects (font (size 1.524 1.524)) (justify left) hide)
    )
    (property "Digi-Key_PN" "450-1650-ND" (id 4) (at 92.583 90.297 0)
      (effects (font (size 1.524 1.524)) (justify left) hide)
    )
    (property "MPN" "1825910-6" (id 5) (at 92.583 87.757 0)
      (effects (font (size 1.524 1.524)) (justify left) hide)
    )
    (property "Category" "Switches" (id 6) (at 92.583 85.217 0)
      (effects (font (size 1.524 1.524)) (justify left) hide)
    )
    (property "Family" "Tactile Switches" (id 7) (at 92.583 82.677 0)
      (effects (font (size 1.524 1.524)) (justify left) hide)
    )
    (property "DK_Datasheet_Link" "https://www.te.com/commerce/DocumentDelivery/DDEController?Action=srchrtrv&DocNm=1825910&DocType=Customer+Drawing&DocLang=English" (id 8) (at 92.583 80.137 0)
      (effects (font (size 1.524 1.524)) (justify left) hide)
    )
    (property "DK_Detail_Page" "/product-detail/en/te-connectivity-alcoswitch-switches/1825910-6/450-1650-ND/1632536" (id 9) (at 92.583 77.597 0)
      (effects (font (size 1.524 1.524)) (justify left) hide)
    )
    (property "Description" "SWITCH TACTILE SPST-NO 0.05A 24V" (id 10) (at 92.583 75.057 0)
      (effects (font (size 1.524 1.524)) (justify left) hide)
    )
    (property "Manufacturer" "TE Connectivity ALCOSWITCH Switches" (id 11) (at 92.583 72.517 0)
      (effects (font (size 1.524 1.524)) (justify left) hide)
    )
    (property "Status" "Active" (id 12) (at 92.583 69.977 0)
      (effects (font (size 1.524 1.524)) (justify left) hide)
    )
    (pin "1" (uuid 3a5d8a65-a5c1-4c49-96d7-3dbb674fed51))
    (pin "2" (uuid 610d5ae7-eec1-4f9f-9d98-a41f3d42012f))
    (pin "3" (uuid 9255570c-4ee8-4bcd-a738-87b50fad93bf))
    (pin "4" (uuid 35d7cec7-321f-4c72-8342-31802c272f23))
  )

  (symbol (lib_id "power:GND") (at 107.823 127.127 0) (unit 1)
    (in_bom yes) (on_board yes)
    (uuid 00000000-0000-0000-0000-00005f951812)
    (property "Reference" "#PWR0125" (id 0) (at 107.823 133.477 0)
      (effects (font (size 1.27 1.27)) hide)
    )
    (property "Value" "GND" (id 1) (at 107.95 131.5212 0))
    (property "Footprint" "" (id 2) (at 107.823 127.127 0)
      (effects (font (size 1.27 1.27)) hide)
    )
    (property "Datasheet" "" (id 3) (at 107.823 127.127 0)
      (effects (font (size 1.27 1.27)) hide)
    )
    (pin "1" (uuid 56d54a9d-17db-4385-8791-b3af2649a442))
  )

  (symbol (lib_id "Device:R") (at 96.393 95.377 270) (mirror x) (unit 1)
    (in_bom yes) (on_board yes)
    (uuid 00000000-0000-0000-0000-00005f95396d)
    (property "Reference" "R83" (id 0) (at 95.25 93.218 90))
    (property "Value" "R 16K" (id 1) (at 96.52 91.059 90))
    (property "Footprint" "Resistor_SMD:R_0805_2012Metric_Pad1.20x1.40mm_HandSolder" (id 2) (at 96.393 97.155 90)
      (effects (font (size 1.27 1.27)) hide)
    )
    (property "Datasheet" "~" (id 3) (at 96.393 95.377 0)
      (effects (font (size 1.27 1.27)) hide)
    )
    (property "Tolerance" "1%" (id 4) (at 96.393 95.377 0)
      (effects (font (size 1.27 1.27)) hide)
    )
    (property "Digi-Key_PN" "311-16.0KCRCT-ND" (id 5) (at 96.393 95.377 0)
      (effects (font (size 1.27 1.27)) hide)
    )
    (pin "1" (uuid 2c869e82-a351-4e6d-8ab9-d4b698002b7f))
    (pin "2" (uuid f0c65ade-8360-4dff-9ffd-08c1973b4c36))
  )

  (symbol (lib_id "74xGxx:74AHCT1G02") (at 107.823 104.267 0) (unit 1)
    (in_bom yes) (on_board yes)
    (uuid 00000000-0000-0000-0000-00005f9546a4)
    (property "Reference" "U41" (id 0) (at 107.188 97.4852 0))
    (property "Value" "74AHCT1G02" (id 1) (at 107.188 99.7966 0))
    (property "Footprint" "Package_TO_SOT_SMD:SOT-353_SC-70-5" (id 2) (at 107.823 104.267 0)
      (effects (font (size 1.27 1.27)) hide)
    )
    (property "Datasheet" "http://www.ti.com/lit/sg/scyt129e/scyt129e.pdf" (id 3) (at 107.823 104.267 0)
      (effects (font (size 1.27 1.27)) hide)
    )
    (property "Digi-Key_PN" "1727-4204-1-ND" (id 4) (at 107.823 104.267 0)
      (effects (font (size 1.27 1.27)) hide)
    )
    (pin "1" (uuid 8e388b92-d5fc-4002-9ab9-766527b90adc))
    (pin "2" (uuid 536c0e7f-af86-4279-9aff-5fddc494fb64))
    (pin "3" (uuid ade0cfa4-d919-4bc4-9c1e-cf99d942ee75))
    (pin "4" (uuid 3ca2cc8b-593f-4aaa-908a-c6b56c607e10))
    (pin "5" (uuid 855d68b5-01f4-43b8-8e66-4e6ba656cad9))
  )

  (symbol (lib_id "dk_Logic-Gates-and-Inverters:SN74LVC1G14DBVR") (at 192.913 119.507 0) (unit 1)
    (in_bom yes) (on_board yes)
    (uuid 00000000-0000-0000-0000-00005f9c818b)
    (property "Reference" "U43" (id 0) (at 195.453 114.427 0)
      (effects (font (size 1.524 1.524)) (justify left))
    )
    (property "Value" "SN74LVC1G14DBVR" (id 1) (at 194.183 125.857 0)
      (effects (font (size 1.524 1.524)) (justify left))
    )
    (property "Footprint" "digikey-footprints:SOT-753" (id 2) (at 197.993 114.427 0)
      (effects (font (size 1.524 1.524)) (justify left) hide)
    )
    (property "Datasheet" "http://www.ti.com/general/docs/suppproductinfo.tsp?distId=10&gotoUrl=http%3A%2F%2Fwww.ti.com%2Flit%2Fgpn%2Fsn74lvc1g14" (id 3) (at 197.993 111.887 0)
      (effects (font (size 1.524 1.524)) (justify left) hide)
    )
    (property "Digi-Key_PN" "296-11607-1-ND" (id 4) (at 197.993 109.347 0)
      (effects (font (size 1.524 1.524)) (justify left) hide)
    )
    (property "MPN" "SN74LVC1G14DBVR" (id 5) (at 197.993 106.807 0)
      (effects (font (size 1.524 1.524)) (justify left) hide)
    )
    (property "Category" "Integrated Circuits (ICs)" (id 6) (at 197.993 104.267 0)
      (effects (font (size 1.524 1.524)) (justify left) hide)
    )
    (property "Family" "Logic - Gates and Inverters" (id 7) (at 197.993 101.727 0)
      (effects (font (size 1.524 1.524)) (justify left) hide)
    )
    (property "DK_Datasheet_Link" "http://www.ti.com/general/docs/suppproductinfo.tsp?distId=10&gotoUrl=http%3A%2F%2Fwww.ti.com%2Flit%2Fgpn%2Fsn74lvc1g14" (id 8) (at 197.993 99.187 0)
      (effects (font (size 1.524 1.524)) (justify left) hide)
    )
    (property "DK_Detail_Page" "/product-detail/en/texas-instruments/SN74LVC1G14DBVR/296-11607-1-ND/385746" (id 9) (at 197.993 96.647 0)
      (effects (font (size 1.524 1.524)) (justify left) hide)
    )
    (property "Description" "IC INVERTER SCHMITT 1CH SOT23-5" (id 10) (at 197.993 94.107 0)
      (effects (font (size 1.524 1.524)) (justify left) hide)
    )
    (property "Manufacturer" "Texas Instruments" (id 11) (at 197.993 91.567 0)
      (effects (font (size 1.524 1.524)) (justify left) hide)
    )
    (property "Status" "Active" (id 12) (at 197.993 89.027 0)
      (effects (font (size 1.524 1.524)) (justify left) hide)
    )
    (pin "1" (uuid f007d269-a05c-436f-bd3c-be9ca764cb96))
    (pin "2" (uuid b3d8a05a-38dd-48cf-8a67-4d526934183a))
    (pin "3" (uuid 4bba5170-eb89-4744-b273-d2cd9adccba1))
    (pin "4" (uuid d8a042a5-8107-4d76-a463-978a807d16b9))
    (pin "5" (uuid 799f57f6-8046-457a-a47d-064abf3ccf34))
  )

  (symbol (lib_id "Device:C_Small") (at 60.833 124.587 0) (unit 1)
    (in_bom yes) (on_board yes)
    (uuid 00000000-0000-0000-0000-00005f9cc6ec)
    (property "Reference" "C79" (id 0) (at 63.1698 123.4186 0)
      (effects (font (size 1.27 1.27)) (justify left))
    )
    (property "Value" "C 100n" (id 1) (at 63.1698 125.73 0)
      (effects (font (size 1.27 1.27)) (justify left))
    )
    (property "Footprint" "Capacitor_SMD:C_0805_2012Metric_Pad1.18x1.45mm_HandSolder" (id 2) (at 60.833 124.587 0)
      (effects (font (size 1.27 1.27)) hide)
    )
    (property "Datasheet" "~" (id 3) (at 60.833 124.587 0)
      (effects (font (size 1.27 1.27)) hide)
    )
    (property "Voltage - rated" "16" (id 4) (at 60.833 124.587 0)
      (effects (font (size 1.27 1.27)) hide)
    )
    (property "Tolerance" "20%" (id 5) (at 60.833 124.587 0)
      (effects (font (size 1.27 1.27)) hide)
    )
    (property "Digi-Key_PN" "399-8000-1-ND" (id 6) (at 60.833 124.587 0)
      (effects (font (size 1.27 1.27)) hide)
    )
    (property "Farnell_PN" "718683" (id 7) (at 60.833 124.587 0)
      (effects (font (size 1.27 1.27)) hide)
    )
    (pin "1" (uuid 4d79fafe-48b6-4385-b076-d8c56b10f696))
    (pin "2" (uuid cc82eb93-425a-4731-a8dd-dbd77757bc83))
  )

  (symbol (lib_id "Device:C_Small") (at 72.263 124.587 0) (unit 1)
    (in_bom yes) (on_board yes)
    (uuid 00000000-0000-0000-0000-00005f9cca1d)
    (property "Reference" "C80" (id 0) (at 74.5998 123.4186 0)
      (effects (font (size 1.27 1.27)) (justify left))
    )
    (property "Value" "C 100n" (id 1) (at 74.5998 125.73 0)
      (effects (font (size 1.27 1.27)) (justify left))
    )
    (property "Footprint" "Capacitor_SMD:C_0805_2012Metric_Pad1.18x1.45mm_HandSolder" (id 2) (at 72.263 124.587 0)
      (effects (font (size 1.27 1.27)) hide)
    )
    (property "Datasheet" "~" (id 3) (at 72.263 124.587 0)
      (effects (font (size 1.27 1.27)) hide)
    )
    (property "Voltage - rated" "16" (id 4) (at 72.263 124.587 0)
      (effects (font (size 1.27 1.27)) hide)
    )
    (property "Tolerance" "20%" (id 5) (at 72.263 124.587 0)
      (effects (font (size 1.27 1.27)) hide)
    )
    (property "Digi-Key_PN" "399-8000-1-ND" (id 6) (at 72.263 124.587 0)
      (effects (font (size 1.27 1.27)) hide)
    )
    (property "Farnell_PN" "718683" (id 7) (at 72.263 124.587 0)
      (effects (font (size 1.27 1.27)) hide)
    )
    (pin "1" (uuid d855b42f-b7b5-487b-b11b-1c9656ecca6d))
    (pin "2" (uuid 38ca6ae5-c5d7-4ece-bb2e-c4bf3e0e7c02))
  )

  (symbol (lib_id "power:+5V") (at 60.833 120.777 0) (unit 1)
    (in_bom yes) (on_board yes)
    (uuid 00000000-0000-0000-0000-00005f9cd403)
    (property "Reference" "#PWR0123" (id 0) (at 60.833 124.587 0)
      (effects (font (size 1.27 1.27)) hide)
    )
    (property "Value" "+5V" (id 1) (at 61.214 116.3828 0))
    (property "Footprint" "" (id 2) (at 60.833 120.777 0)
      (effects (font (size 1.27 1.27)) hide)
    )
    (property "Datasheet" "" (id 3) (at 60.833 120.777 0)
      (effects (font (size 1.27 1.27)) hide)
    )
    (pin "1" (uuid cf129bd7-f44c-4a43-814e-9ce5e2fd523b))
  )

  (symbol (lib_id "Jumper:SolderJumper_2_Open") (at 143.383 104.267 0) (unit 1)
    (in_bom yes) (on_board yes)
    (uuid 00000000-0000-0000-0000-00005fae4182)
    (property "Reference" "JP3" (id 0) (at 142.113 100.457 0))
    (property "Value" "SolderJumper_2_Open" (id 1) (at 143.383 106.807 0))
    (property "Footprint" "Resistor_SMD:R_0603_1608Metric_Pad0.98x0.95mm_HandSolder" (id 2) (at 143.383 104.267 0)
      (effects (font (size 1.27 1.27)) hide)
    )
    (property "Datasheet" "~" (id 3) (at 143.383 104.267 0)
      (effects (font (size 1.27 1.27)) hide)
    )
    (pin "1" (uuid ab6aae2d-fef6-4f1b-a6bf-a8d6a41f2a7e))
    (pin "2" (uuid cf56b76d-ac4d-4fa0-a361-d9d6bc037ddc))
  )

  (symbol (lib_id "Jumper:SolderJumper_2_Bridged") (at 149.733 99.187 270) (unit 1)
    (in_bom yes) (on_board yes)
    (uuid 00000000-0000-0000-0000-00005fae6ed8)
    (property "Reference" "JP4" (id 0) (at 145.923 96.647 90)
      (effects (font (size 1.27 1.27)) (justify left))
    )
    (property "Value" "SolderJumper_2_Bridged" (id 1) (at 125.349 95.504 90)
      (effects (font (size 1.27 1.27)) (justify left))
    )
    (property "Footprint" "Resistor_SMD:R_0603_1608Metric_Pad0.98x0.95mm_HandSolder" (id 2) (at 149.733 99.187 0)
      (effects (font (size 1.27 1.27)) hide)
    )
    (property "Datasheet" "~" (id 3) (at 149.733 99.187 0)
      (effects (font (size 1.27 1.27)) hide)
    )
    (pin "1" (uuid 9585a485-055c-48b4-8ed0-39dd6988898f))
    (pin "2" (uuid 53622b98-673b-427c-b665-5c283cd40ee4))
  )

  (symbol (lib_id "Device:R") (at 149.733 90.297 0) (mirror x) (unit 1)
    (in_bom yes) (on_board yes)
    (uuid 00000000-0000-0000-0000-00005fae7c1a)
    (property "Reference" "R84" (id 0) (at 153.289 89.281 0))
    (property "Value" "R 16K" (id 1) (at 154.432 91.694 0))
    (property "Footprint" "Resistor_SMD:R_0805_2012Metric_Pad1.20x1.40mm_HandSolder" (id 2) (at 147.955 90.297 90)
      (effects (font (size 1.27 1.27)) hide)
    )
    (property "Datasheet" "~" (id 3) (at 149.733 90.297 0)
      (effects (font (size 1.27 1.27)) hide)
    )
    (property "Tolerance" "1%" (id 4) (at 149.733 90.297 0)
      (effects (font (size 1.27 1.27)) hide)
    )
    (property "Digi-Key_PN" "311-16.0KCRCT-ND" (id 5) (at 149.733 90.297 0)
      (effects (font (size 1.27 1.27)) hide)
    )
    (pin "1" (uuid a4fae90e-ec7c-4dca-900b-1ebdabd504eb))
    (pin "2" (uuid 127ad4f4-af19-43b2-8d7e-9c77542d4232))
  )

  (symbol (lib_id "dk_Logic-Gates-and-Inverters:SN74LVC1G14DBVR") (at 162.433 104.267 0) (unit 1)
    (in_bom yes) (on_board yes)
    (uuid 00000000-0000-0000-0000-00005faeadf1)
    (property "Reference" "U42" (id 0) (at 155.702 100.203 0)
      (effects (font (size 1.524 1.524)) (justify left))
    )
    (property "Value" "SN74LVC1G14DBVR" (id 1) (at 153.289 96.901 0)
      (effects (font (size 1.524 1.524)) (justify left))
    )
    (property "Footprint" "digikey-footprints:SOT-753" (id 2) (at 167.513 99.187 0)
      (effects (font (size 1.524 1.524)) (justify left) hide)
    )
    (property "Datasheet" "http://www.ti.com/general/docs/suppproductinfo.tsp?distId=10&gotoUrl=http%3A%2F%2Fwww.ti.com%2Flit%2Fgpn%2Fsn74lvc1g14" (id 3) (at 167.513 96.647 0)
      (effects (font (size 1.524 1.524)) (justify left) hide)
    )
    (property "Digi-Key_PN" "296-11607-1-ND" (id 4) (at 167.513 94.107 0)
      (effects (font (size 1.524 1.524)) (justify left) hide)
    )
    (property "MPN" "SN74LVC1G14DBVR" (id 5) (at 167.513 91.567 0)
      (effects (font (size 1.524 1.524)) (justify left) hide)
    )
    (property "Category" "Integrated Circuits (ICs)" (id 6) (at 167.513 89.027 0)
      (effects (font (size 1.524 1.524)) (justify left) hide)
    )
    (property "Family" "Logic - Gates and Inverters" (id 7) (at 167.513 86.487 0)
      (effects (font (size 1.524 1.524)) (justify left) hide)
    )
    (property "DK_Datasheet_Link" "http://www.ti.com/general/docs/suppproductinfo.tsp?distId=10&gotoUrl=http%3A%2F%2Fwww.ti.com%2Flit%2Fgpn%2Fsn74lvc1g14" (id 8) (at 167.513 83.947 0)
      (effects (font (size 1.524 1.524)) (justify left) hide)
    )
    (property "DK_Detail_Page" "/product-detail/en/texas-instruments/SN74LVC1G14DBVR/296-11607-1-ND/385746" (id 9) (at 167.513 81.407 0)
      (effects (font (size 1.524 1.524)) (justify left) hide)
    )
    (property "Description" "IC INVERTER SCHMITT 1CH SOT23-5" (id 10) (at 167.513 78.867 0)
      (effects (font (size 1.524 1.524)) (justify left) hide)
    )
    (property "Manufacturer" "Texas Instruments" (id 11) (at 167.513 76.327 0)
      (effects (font (size 1.524 1.524)) (justify left) hide)
    )
    (property "Status" "Active" (id 12) (at 167.513 73.787 0)
      (effects (font (size 1.524 1.524)) (justify left) hide)
    )
    (pin "1" (uuid dab9f272-c964-4299-843c-73fec1fda72a))
    (pin "2" (uuid b1c042ac-ea4d-44ed-b8dc-7fdad986e3f7))
    (pin "3" (uuid d80c573b-8733-4cf8-8b77-00e6c6c159d2))
    (pin "4" (uuid 0dc7917f-7b74-4fb9-95a1-1a0ad1fe6d54))
    (pin "5" (uuid 9b202bab-d987-47b6-9af2-f720c28e6691))
  )

  (symbol (lib_id "Device:R") (at 149.733 119.507 0) (unit 1)
    (in_bom yes) (on_board yes)
    (uuid 00000000-0000-0000-0000-00005faef74b)
    (property "Reference" "R85" (id 0) (at 147.193 120.777 90)
      (effects (font (size 1.27 1.27)) (justify left))
    )
    (property "Value" "R 84.5K" (id 1) (at 152.273 123.317 90)
      (effects (font (size 1.27 1.27)) (justify left))
    )
    (property "Footprint" "Resistor_SMD:R_0805_2012Metric_Pad1.20x1.40mm_HandSolder" (id 2) (at 147.955 119.507 90)
      (effects (font (size 1.27 1.27)) hide)
    )
    (property "Datasheet" "" (id 3) (at 149.733 119.507 0)
      (effects (font (size 1.27 1.27)) hide)
    )
    (property "Tolerance" "0.1%" (id 4) (at 149.733 119.507 0)
      (effects (font (size 1.27 1.27)) hide)
    )
    (property "Digi-Key_PN" "P84.5KDACT-ND" (id 5) (at 149.733 119.507 0)
      (effects (font (size 1.27 1.27)) hide)
    )
    (pin "1" (uuid 4eb1f854-da7b-47c3-91f0-c87125f31868))
    (pin "2" (uuid 749586ed-62fb-4e64-9bd2-1a21235c8593))
  )

  (symbol (lib_id "Device:R") (at 172.593 104.267 270) (unit 1)
    (in_bom yes) (on_board yes)
    (uuid 00000000-0000-0000-0000-00005fb61892)
    (property "Reference" "R86" (id 0) (at 172.593 99.0092 90))
    (property "Value" "R 10" (id 1) (at 172.593 101.3206 90))
    (property "Footprint" "Resistor_SMD:R_0603_1608Metric" (id 2) (at 172.593 102.489 90)
      (effects (font (size 1.27 1.27)) hide)
    )
    (property "Datasheet" "~" (id 3) (at 172.593 104.267 0)
      (effects (font (size 1.27 1.27)) hide)
    )
    (property "Tolerance" "" (id 4) (at 172.593 104.267 0)
      (effects (font (size 1.27 1.27)) hide)
    )
    (property "Digi-Key_PN" "RMCF0603FT10R0CT-ND" (id 5) (at 172.593 104.267 0)
      (effects (font (size 1.27 1.27)) hide)
    )
    (pin "1" (uuid 9647643f-9928-4394-b231-b81d5deca010))
    (pin "2" (uuid 1f9565b6-6764-4a53-a6ed-ec2c11d4e225))
  )

  (symbol (lib_id "Device:C_Small") (at 177.673 108.077 0) (unit 1)
    (in_bom yes) (on_board yes)
    (uuid 00000000-0000-0000-0000-00005fb6189f)
    (property "Reference" "C81" (id 0) (at 180.0098 106.9086 0)
      (effects (font (size 1.27 1.27)) (justify left))
    )
    (property "Value" "C 470p" (id 1) (at 180.0098 109.22 0)
      (effects (font (size 1.27 1.27)) (justify left))
    )
    (property "Footprint" "Capacitor_SMD:C_0603_1608Metric" (id 2) (at 177.673 108.077 0)
      (effects (font (size 1.27 1.27)) hide)
    )
    (property "Datasheet" "~" (id 3) (at 177.673 108.077 0)
      (effects (font (size 1.27 1.27)) hide)
    )
    (property "Voltage - rated" "16" (id 4) (at 177.673 108.077 0)
      (effects (font (size 1.27 1.27)) hide)
    )
    (property "Tolerance" "20%" (id 5) (at 177.673 108.077 0)
      (effects (font (size 1.27 1.27)) hide)
    )
    (property "Digi-Key_PN" "399-10051-1-ND" (id 6) (at 177.673 108.077 0)
      (effects (font (size 1.27 1.27)) hide)
    )
    (property "Farnell_PN" "" (id 7) (at 177.673 108.077 0)
      (effects (font (size 1.27 1.27)) hide)
    )
    (pin "1" (uuid 73ae1d95-2669-4614-9e7e-9f0b917e2f6d))
    (pin "2" (uuid 7976e170-c431-4f35-8201-cc6bb6d353a9))
  )

  (sheet (at 119.253 101.727) (size 13.97 8.89) (fields_autoplaced)
    (stroke (width 0) (type solid) (color 0 0 0 0))
    (fill (color 0 0 0 0.0000))
    (uuid 00000000-0000-0000-0000-00005f94bada)
    (property "Sheet name" "SR Latch" (id 0) (at 119.253 101.0154 0)
      (effects (font (size 1.27 1.27)) (justify left bottom))
    )
    (property "Sheet file" "sr_latch.kicad_sch" (id 1) (at 119.253 111.2016 0)
      (effects (font (size 1.27 1.27)) (justify left top))
    )
    (pin "S" input (at 119.253 104.267 180)
      (effects (font (size 1.27 1.27)) (justify left))
      (uuid 819e5a5f-bfff-4577-a6be-e7d667ae52cf)
    )
    (pin "R" input (at 119.253 108.077 180)
      (effects (font (size 1.27 1.27)) (justify left))
      (uuid a5270a81-9459-45d3-ac4f-5137e95f50a3)
    )
    (pin "Q" input (at 133.223 104.267 0)
      (effects (font (size 1.27 1.27)) (justify right))
      (uuid f1c6ead1-1719-482a-892e-ce815ff7854d)
    )
    (pin "~{Q}" input (at 133.223 108.077 0)
      (effects (font (size 1.27 1.27)) (justify right))
      (uuid aa913322-e4e6-47c4-926b-cdab35311e52)
    )
  )

  (sheet (at 201.803 116.967) (size 13.97 5.08) (fields_autoplaced)
    (stroke (width 0) (type solid) (color 0 0 0 0))
    (fill (color 0 0 0 0.0000))
    (uuid 00000000-0000-0000-0000-00005f9c29b9)
    (property "Sheet name" "Extended temperature limits indicator" (id 0) (at 201.803 116.2554 0)
      (effects (font (size 1.27 1.27)) (justify left bottom))
    )
    (property "Sheet file" "green_led_indicator.kicad_sch" (id 1) (at 201.803 122.6316 0)
      (effects (font (size 1.27 1.27)) (justify left top))
    )
    (pin "!EN" input (at 201.803 119.507 180)
      (effects (font (size 1.27 1.27)) (justify left))
      (uuid 929e8453-502e-428f-916c-4e17c631daeb)
    )
  )

  (sheet (at 201.803 106.807) (size 13.97 5.08) (fields_autoplaced)
    (stroke (width 0) (type solid) (color 0 0 0 0))
    (fill (color 0 0 0 0.0000))
    (uuid 00000000-0000-0000-0000-00005f9c8de4)
    (property "Sheet name" "Nominal temperature limits indicator" (id 0) (at 201.803 106.0954 0)
      (effects (font (size 1.27 1.27)) (justify left bottom))
    )
    (property "Sheet file" "green_led_indicator.kicad_sch" (id 1) (at 201.803 112.4716 0)
      (effects (font (size 1.27 1.27)) (justify left top))
    )
    (pin "!EN" input (at 201.803 109.347 180)
      (effects (font (size 1.27 1.27)) (justify left))
      (uuid b631eb35-47d4-488f-823e-0f9d3a7fccdb)
    )
  )
)
