EESchema Schematic File Version 4
EELAYER 30 0
EELAYER END
$Descr A4 11693 8268
encoding utf-8
Sheet 13 34
Title ""
Date ""
Rev ""
Comp ""
Comment1 ""
Comment2 ""
Comment3 ""
Comment4 ""
$EndDescr
$Comp
L Transistor_BJT:BC807 Q1
U 1 1 5EC092E6
P 8300 3900
F 0 "Q1" H 8491 3854 50  0000 L CNN
F 1 "BC807-16W,115" H 8491 3945 50  0000 L CNN
F 2 "Package_TO_SOT_SMD:SOT-23" H 8500 3825 50  0001 L CIN
F 3 "http://www.fairchildsemi.com/ds/BC/BC807.pdf" H 8300 3900 50  0001 L CNN
F 4 "1727-4835-1-ND" H 8300 3900 50  0001 C CNN "Digi-Key_PN"
	1    8300 3900
	1    0    0    1   
$EndComp
$Comp
L Device:R R37
U 1 1 5EC0B2AD
P 7850 3900
F 0 "R37" V 8057 3900 50  0000 C CNN
F 1 "R 16K" V 7966 3900 50  0000 C CNN
F 2 "Resistor_SMD:R_0805_2012Metric_Pad1.15x1.40mm_HandSolder" V 7780 3900 50  0001 C CNN
F 3 "~" H 7850 3900 50  0001 C CNN
F 4 "1%" H 7850 3900 50  0001 C CNN "Tolerance"
F 5 "311-16.0KCRCT-ND" H 7850 3900 50  0001 C CNN "Digi-Key_PN"
	1    7850 3900
	0    -1   -1   0   
$EndComp
Wire Wire Line
	8000 3900 8100 3900
$Comp
L power:+5V #PWR048
U 1 1 5EC0C50A
P 8400 3050
F 0 "#PWR048" H 8400 2900 50  0001 C CNN
F 1 "+5V" H 8415 3223 50  0000 C CNN
F 2 "" H 8400 3050 50  0001 C CNN
F 3 "" H 8400 3050 50  0001 C CNN
	1    8400 3050
	1    0    0    -1  
$EndComp
$Comp
L power:GND #PWR047
U 1 1 5EC0D102
P 7150 5100
F 0 "#PWR047" H 7150 4850 50  0001 C CNN
F 1 "GND" H 7155 4927 50  0000 C CNN
F 2 "" H 7150 5100 50  0001 C CNN
F 3 "" H 7150 5100 50  0001 C CNN
	1    7150 5100
	1    0    0    -1  
$EndComp
Text HLabel 5050 3400 0    50   Input ~ 0
V_alarm
Text HLabel 5100 4000 0    50   Input ~ 0
T_hi_alarm
Text HLabel 5100 4550 0    50   Input ~ 0
T_lo_alarm
Wire Wire Line
	8400 3050 8400 3100
$Sheet
S 5550 3050 550  200 
U 5F12875E
F0 "Red LED indicator" 50
F1 "R_LED_indicator.sch" 50
F2 "!EN" I L 5550 3150 50 
$EndSheet
$Sheet
S 5550 3550 550  200 
U 5F1316D2
F0 "sheet5F1316CF" 50
F1 "R_LED_indicator.sch" 50
F2 "!EN" I L 5550 3650 50 
$EndSheet
$Sheet
S 5550 4150 550  200 
U 5F1317EC
F0 "sheet5F1317E9" 50
F1 "R_LED_indicator.sch" 50
F2 "!EN" I L 5550 4250 50 
$EndSheet
Wire Wire Line
	7450 3700 6850 3700
Wire Wire Line
	6850 3700 6850 3800
Wire Wire Line
	5050 3400 5450 3400
Wire Wire Line
	5100 4000 5450 4000
Wire Wire Line
	5100 4550 5450 4550
Wire Wire Line
	5550 3150 5450 3150
Wire Wire Line
	5450 3150 5450 3400
Wire Wire Line
	5550 3650 5450 3650
Wire Wire Line
	5450 3650 5450 4000
Wire Wire Line
	5550 4250 5450 4250
Wire Wire Line
	5450 4250 5450 4550
Connection ~ 7150 5100
Connection ~ 8400 3100
Wire Wire Line
	7450 3900 7700 3900
$Comp
L Device:C_Small C?
U 1 1 5ECFBCD5
P 9300 4750
AR Path="/5EB41214/5ECFBCD5" Ref="C?"  Part="1" 
AR Path="/5ED2BC2A/5ECFBCD5" Ref="C?"  Part="1" 
AR Path="/5EE136D8/5ECFBCD5" Ref="C?"  Part="1" 
AR Path="/5ECDAC29/5ECFBCD5" Ref="C?"  Part="1" 
AR Path="/5EBFF7D9/5ECFBCD5" Ref="C37"  Part="1" 
F 0 "C37" H 9392 4796 50  0000 L CNN
F 1 "C 100n" H 9392 4705 50  0000 L CNN
F 2 "Capacitor_SMD:C_0805_2012Metric_Pad1.15x1.40mm_HandSolder" H 9300 4750 50  0001 C CNN
F 3 "~" H 9300 4750 50  0001 C CNN
F 4 "16" H 9300 4750 50  0001 C CNN "Voltage - rated"
F 5 "20%" H 9300 4750 50  0001 C CNN "Tolerance"
F 6 "399-8000-1-ND" H 9300 4750 50  0001 C CNN "Digi-Key_PN"
F 7 "718683" H 9300 4750 50  0001 C CNN "Farnell_PN"
	1    9300 4750
	1    0    0    -1  
$EndComp
Wire Wire Line
	9300 4850 9300 5100
$Comp
L Device:C_Small C?
U 1 1 5ED023DA
P 9750 4750
AR Path="/5EB41214/5ED023DA" Ref="C?"  Part="1" 
AR Path="/5ED2BC2A/5ED023DA" Ref="C?"  Part="1" 
AR Path="/5EE0AC5D/5ED023DA" Ref="C?"  Part="1" 
AR Path="/5EE0E313/5ED023DA" Ref="C?"  Part="1" 
AR Path="/5EE77D5A/5ED023DA" Ref="C?"  Part="1" 
AR Path="/5EE8A13E/5ED023DA" Ref="C?"  Part="1" 
AR Path="/5EBFF7D9/5ED023DA" Ref="C38"  Part="1" 
F 0 "C38" H 9842 4796 50  0000 L CNN
F 1 "C 2.2u" H 9842 4705 50  0000 L CNN
F 2 "Capacitor_SMD:C_0805_2012Metric_Pad1.15x1.40mm_HandSolder" H 9750 4750 50  0001 C CNN
F 3 "~" H 9750 4750 50  0001 C CNN
F 4 "16" H 9750 4750 50  0001 C CNN "Voltage - rated"
F 5 "20%" H 9750 4750 50  0001 C CNN "Tolerance"
F 6 "490-4787-1-ND" H 9750 4750 50  0001 C CNN "Digi-Key_PN"
F 7 "1458904" H 9750 4750 50  0001 C CNN "Farnell_PN"
	1    9750 4750
	1    0    0    -1  
$EndComp
Wire Wire Line
	9750 4850 9750 5100
Wire Wire Line
	9750 5100 9300 5100
Wire Wire Line
	9750 4650 9750 4100
Wire Wire Line
	9750 4100 9300 4100
Wire Wire Line
	9300 4100 9300 4650
Wire Wire Line
	7150 5100 8400 5100
Wire Wire Line
	8400 5100 9300 5100
Connection ~ 8400 5100
Connection ~ 9300 5100
Wire Wire Line
	9300 4100 9300 3100
Connection ~ 9300 4100
Wire Wire Line
	9300 3100 8400 3100
$Comp
L logic_gates_magne:SN74LVC2G08IDCTRQ1 U21
U 1 1 5EF37F5C
P 6950 4200
F 0 "U21" H 7150 5481 50  0000 C CNN
F 1 "SN74LVC2G08IDCTRQ1" H 7150 5390 50  0000 C CNN
F 2 "digikey-footprints:MSOP-8_W2.80mm" H 6950 4200 50  0001 C CNN
F 3 "http://www.ti.com/lit/ds/symlink/sn74lvc2g08-q1.pdf?HQS=TI-null-null-digikeymode-df-pf-null-wwe&ts=1590658391813" H 6950 4200 50  0001 C CNN
F 4 "296-36980-1-ND" H 6950 4200 50  0001 C CNN "Digi-Key_PN"
	1    6950 4200
	1    0    0    -1  
$EndComp
Wire Wire Line
	7150 4300 7150 5100
Wire Wire Line
	8400 3100 8400 3700
Wire Wire Line
	7150 3100 8400 3100
Wire Wire Line
	7450 3700 7450 3500
Wire Wire Line
	6700 4000 6700 3600
Wire Wire Line
	6700 3600 6850 3600
Wire Wire Line
	6850 4550 6850 4000
Wire Wire Line
	8400 4900 8400 5100
$Comp
L buzzers_magne:CX-0905C BZ1
U 1 1 5EC0415E
P 8500 4800
F 0 "BZ1" H 8100 4850 50  0000 L CNN
F 1 "CMI-9605-0580T" H 7950 4750 50  0000 L CNN
F 2 "magne_footprints:MagneticBuzzer_CUI_CX-0905C" H 8500 4800 50  0001 C CNN
F 3 "" H 8500 4800 50  0001 C CNN
F 4 "" H 8500 4800 50  0001 C CNN "Tolerance"
F 5 "102-1285-ND" H 8500 4800 50  0001 C CNN "Digi-Key_PN"
F 6 "3212606" H 8500 4800 50  0001 C CNN "Farnell_PN"
	1    8500 4800
	1    0    0    -1  
$EndComp
Wire Wire Line
	8400 4100 8400 4700
Wire Wire Line
	5450 3400 6850 3400
Connection ~ 5450 3400
Wire Wire Line
	5450 4000 6700 4000
Connection ~ 5450 4000
Wire Wire Line
	5450 4550 6850 4550
Connection ~ 5450 4550
$EndSCHEMATC
