(kicad_sch (version 20211123) (generator eeschema)

  (uuid 3a77c443-878a-47b2-a4ca-0a4894ab301a)

  (paper "A4")

  (title_block
    (title "ATLAS-ITK-PIXEL-MODULES HW INTERLOCK")
    (rev "0.4")
    (comment 1 "All logic is inverted TTL")
  )

  (lib_symbols
    (symbol "DCDC-converters_magne:ADuM5010ARSZ" (pin_names (offset 1.016)) (in_bom yes) (on_board yes)
      (property "Reference" "U" (id 0) (at 17.78 15.24 0)
        (effects (font (size 1.27 1.27)))
      )
      (property "Value" "ADuM5010ARSZ" (id 1) (at 2.54 15.24 0)
        (effects (font (size 1.27 1.27)))
      )
      (property "Footprint" "Package_SO:SSOP-20_5.3x7.2mm_P0.65mm" (id 2) (at 15.24 -3.81 0)
        (effects (font (size 1.27 1.27)) hide)
      )
      (property "Datasheet" "" (id 3) (at 15.24 -3.81 0)
        (effects (font (size 1.27 1.27)) hide)
      )
      (symbol "ADuM5010ARSZ_0_1"
        (polyline
          (pts
            (xy 8.89 0.635)
            (xy 8.89 1.905)
          )
          (stroke (width 0) (type default) (color 0 0 0 0))
          (fill (type none))
        )
        (rectangle (start 0 0) (end 17.78 12.7)
          (stroke (width 0) (type default) (color 0 0 0 0))
          (fill (type background))
        )
      )
      (symbol "ADuM5010ARSZ_1_1"
        (polyline
          (pts
            (xy 8.89 3.175)
            (xy 8.89 4.445)
          )
          (stroke (width 0) (type default) (color 0 0 0 0))
          (fill (type none))
        )
        (polyline
          (pts
            (xy 8.89 5.715)
            (xy 8.89 6.985)
          )
          (stroke (width 0) (type default) (color 0 0 0 0))
          (fill (type none))
        )
        (polyline
          (pts
            (xy 8.89 8.255)
            (xy 8.89 9.525)
          )
          (stroke (width 0) (type default) (color 0 0 0 0))
          (fill (type none))
        )
        (polyline
          (pts
            (xy 8.89 10.795)
            (xy 8.89 12.065)
          )
          (stroke (width 0) (type default) (color 0 0 0 0))
          (fill (type none))
        )
        (pin no_connect line (at -2.54 5.08 0) (length 2.54)
          (name "NC" (effects (font (size 1.27 1.27))))
          (number "1" (effects (font (size 1.27 1.27))))
        )
        (pin input line (at -2.54 2.54 0) (length 2.54) hide
          (name "GNDP" (effects (font (size 1.27 1.27))))
          (number "10" (effects (font (size 1.27 1.27))))
        )
        (pin input line (at 20.32 2.54 180) (length 2.54) hide
          (name "GNDISO" (effects (font (size 1.27 1.27))))
          (number "11" (effects (font (size 1.27 1.27))))
        )
        (pin power_in line (at 20.32 10.16 180) (length 2.54)
          (name "VISO" (effects (font (size 1.27 1.27))))
          (number "12" (effects (font (size 1.27 1.27))))
        )
        (pin power_in line (at 20.32 7.62 180) (length 2.54)
          (name "VSEL" (effects (font (size 1.27 1.27))))
          (number "13" (effects (font (size 1.27 1.27))))
        )
        (pin no_connect line (at 20.32 5.08 180) (length 2.54)
          (name "NC" (effects (font (size 1.27 1.27))))
          (number "14" (effects (font (size 1.27 1.27))))
        )
        (pin input line (at 20.32 2.54 180) (length 2.54) hide
          (name "GNDISO" (effects (font (size 1.27 1.27))))
          (number "15" (effects (font (size 1.27 1.27))))
        )
        (pin input line (at 20.32 2.54 180) (length 2.54) hide
          (name "GNDISO" (effects (font (size 1.27 1.27))))
          (number "16" (effects (font (size 1.27 1.27))))
        )
        (pin no_connect line (at 20.32 5.08 180) (length 2.54) hide
          (name "NC" (effects (font (size 1.27 1.27))))
          (number "17" (effects (font (size 1.27 1.27))))
        )
        (pin no_connect line (at 20.32 5.08 180) (length 2.54) hide
          (name "NC" (effects (font (size 1.27 1.27))))
          (number "18" (effects (font (size 1.27 1.27))))
        )
        (pin power_in line (at 20.32 2.54 180) (length 2.54)
          (name "GNDISO" (effects (font (size 1.27 1.27))))
          (number "19" (effects (font (size 1.27 1.27))))
        )
        (pin power_in line (at -2.54 2.54 0) (length 2.54)
          (name "GNDP" (effects (font (size 1.27 1.27))))
          (number "2" (effects (font (size 1.27 1.27))))
        )
        (pin no_connect line (at 20.32 5.08 180) (length 2.54) hide
          (name "NC" (effects (font (size 1.27 1.27))))
          (number "20" (effects (font (size 1.27 1.27))))
        )
        (pin no_connect line (at -2.54 5.08 0) (length 2.54) hide
          (name "NC" (effects (font (size 1.27 1.27))))
          (number "3" (effects (font (size 1.27 1.27))))
        )
        (pin no_connect line (at -2.54 5.08 0) (length 2.54) hide
          (name "NC" (effects (font (size 1.27 1.27))))
          (number "4" (effects (font (size 1.27 1.27))))
        )
        (pin input line (at -2.54 2.54 0) (length 2.54) hide
          (name "GNDP" (effects (font (size 1.27 1.27))))
          (number "5" (effects (font (size 1.27 1.27))))
        )
        (pin input line (at -2.54 2.54 0) (length 2.54) hide
          (name "GNDP" (effects (font (size 1.27 1.27))))
          (number "6" (effects (font (size 1.27 1.27))))
        )
        (pin no_connect line (at -2.54 5.08 0) (length 2.54) hide
          (name "NC" (effects (font (size 1.27 1.27))))
          (number "7" (effects (font (size 1.27 1.27))))
        )
        (pin input line (at -2.54 7.62 0) (length 2.54)
          (name "PDIS" (effects (font (size 1.27 1.27))))
          (number "8" (effects (font (size 1.27 1.27))))
        )
        (pin power_in line (at -2.54 10.16 0) (length 2.54)
          (name "VDDP" (effects (font (size 1.27 1.27))))
          (number "9" (effects (font (size 1.27 1.27))))
        )
      )
    )
    (symbol "Device:C" (pin_numbers hide) (pin_names (offset 0.254)) (in_bom yes) (on_board yes)
      (property "Reference" "C" (id 0) (at 0.635 2.54 0)
        (effects (font (size 1.27 1.27)) (justify left))
      )
      (property "Value" "C" (id 1) (at 0.635 -2.54 0)
        (effects (font (size 1.27 1.27)) (justify left))
      )
      (property "Footprint" "" (id 2) (at 0.9652 -3.81 0)
        (effects (font (size 1.27 1.27)) hide)
      )
      (property "Datasheet" "~" (id 3) (at 0 0 0)
        (effects (font (size 1.27 1.27)) hide)
      )
      (property "ki_keywords" "cap capacitor" (id 4) (at 0 0 0)
        (effects (font (size 1.27 1.27)) hide)
      )
      (property "ki_description" "Unpolarized capacitor" (id 5) (at 0 0 0)
        (effects (font (size 1.27 1.27)) hide)
      )
      (property "ki_fp_filters" "C_*" (id 6) (at 0 0 0)
        (effects (font (size 1.27 1.27)) hide)
      )
      (symbol "C_0_1"
        (polyline
          (pts
            (xy -2.032 -0.762)
            (xy 2.032 -0.762)
          )
          (stroke (width 0.508) (type default) (color 0 0 0 0))
          (fill (type none))
        )
        (polyline
          (pts
            (xy -2.032 0.762)
            (xy 2.032 0.762)
          )
          (stroke (width 0.508) (type default) (color 0 0 0 0))
          (fill (type none))
        )
      )
      (symbol "C_1_1"
        (pin passive line (at 0 3.81 270) (length 2.794)
          (name "~" (effects (font (size 1.27 1.27))))
          (number "1" (effects (font (size 1.27 1.27))))
        )
        (pin passive line (at 0 -3.81 90) (length 2.794)
          (name "~" (effects (font (size 1.27 1.27))))
          (number "2" (effects (font (size 1.27 1.27))))
        )
      )
    )
    (symbol "Device:C_Small" (pin_numbers hide) (pin_names (offset 0.254) hide) (in_bom yes) (on_board yes)
      (property "Reference" "C" (id 0) (at 0.254 1.778 0)
        (effects (font (size 1.27 1.27)) (justify left))
      )
      (property "Value" "C_Small" (id 1) (at 0.254 -2.032 0)
        (effects (font (size 1.27 1.27)) (justify left))
      )
      (property "Footprint" "" (id 2) (at 0 0 0)
        (effects (font (size 1.27 1.27)) hide)
      )
      (property "Datasheet" "~" (id 3) (at 0 0 0)
        (effects (font (size 1.27 1.27)) hide)
      )
      (property "ki_keywords" "capacitor cap" (id 4) (at 0 0 0)
        (effects (font (size 1.27 1.27)) hide)
      )
      (property "ki_description" "Unpolarized capacitor, small symbol" (id 5) (at 0 0 0)
        (effects (font (size 1.27 1.27)) hide)
      )
      (property "ki_fp_filters" "C_*" (id 6) (at 0 0 0)
        (effects (font (size 1.27 1.27)) hide)
      )
      (symbol "C_Small_0_1"
        (polyline
          (pts
            (xy -1.524 -0.508)
            (xy 1.524 -0.508)
          )
          (stroke (width 0.3302) (type default) (color 0 0 0 0))
          (fill (type none))
        )
        (polyline
          (pts
            (xy -1.524 0.508)
            (xy 1.524 0.508)
          )
          (stroke (width 0.3048) (type default) (color 0 0 0 0))
          (fill (type none))
        )
      )
      (symbol "C_Small_1_1"
        (pin passive line (at 0 2.54 270) (length 2.032)
          (name "~" (effects (font (size 1.27 1.27))))
          (number "1" (effects (font (size 1.27 1.27))))
        )
        (pin passive line (at 0 -2.54 90) (length 2.032)
          (name "~" (effects (font (size 1.27 1.27))))
          (number "2" (effects (font (size 1.27 1.27))))
        )
      )
    )
    (symbol "Device:R" (pin_numbers hide) (pin_names (offset 0)) (in_bom yes) (on_board yes)
      (property "Reference" "R" (id 0) (at 2.032 0 90)
        (effects (font (size 1.27 1.27)))
      )
      (property "Value" "R" (id 1) (at 0 0 90)
        (effects (font (size 1.27 1.27)))
      )
      (property "Footprint" "" (id 2) (at -1.778 0 90)
        (effects (font (size 1.27 1.27)) hide)
      )
      (property "Datasheet" "~" (id 3) (at 0 0 0)
        (effects (font (size 1.27 1.27)) hide)
      )
      (property "ki_keywords" "R res resistor" (id 4) (at 0 0 0)
        (effects (font (size 1.27 1.27)) hide)
      )
      (property "ki_description" "Resistor" (id 5) (at 0 0 0)
        (effects (font (size 1.27 1.27)) hide)
      )
      (property "ki_fp_filters" "R_*" (id 6) (at 0 0 0)
        (effects (font (size 1.27 1.27)) hide)
      )
      (symbol "R_0_1"
        (rectangle (start -1.016 -2.54) (end 1.016 2.54)
          (stroke (width 0.254) (type default) (color 0 0 0 0))
          (fill (type none))
        )
      )
      (symbol "R_1_1"
        (pin passive line (at 0 3.81 270) (length 1.27)
          (name "~" (effects (font (size 1.27 1.27))))
          (number "1" (effects (font (size 1.27 1.27))))
        )
        (pin passive line (at 0 -3.81 90) (length 1.27)
          (name "~" (effects (font (size 1.27 1.27))))
          (number "2" (effects (font (size 1.27 1.27))))
        )
      )
    )
    (symbol "digital_isolators_magne:SI8662EC-B" (pin_names (offset 1.016)) (in_bom yes) (on_board yes)
      (property "Reference" "U" (id 0) (at 22.86 33.02 0)
        (effects (font (size 1.27 1.27)))
      )
      (property "Value" "SI8662EC-B" (id 1) (at -6.35 34.29 0)
        (effects (font (size 1.27 1.27)))
      )
      (property "Footprint" "" (id 2) (at 0 0 0)
        (effects (font (size 1.27 1.27)) hide)
      )
      (property "Datasheet" "" (id 3) (at 0 0 0)
        (effects (font (size 1.27 1.27)) hide)
      )
      (symbol "SI8662EC-B_1_1"
        (polyline
          (pts
            (xy 6.35 2.54)
            (xy 6.35 1.27)
          )
          (stroke (width 0) (type default) (color 0 0 0 0))
          (fill (type none))
        )
        (polyline
          (pts
            (xy 6.35 5.08)
            (xy 6.35 3.81)
          )
          (stroke (width 0) (type default) (color 0 0 0 0))
          (fill (type none))
        )
        (polyline
          (pts
            (xy 6.35 7.62)
            (xy 6.35 6.35)
          )
          (stroke (width 0) (type default) (color 0 0 0 0))
          (fill (type none))
        )
        (polyline
          (pts
            (xy 6.35 10.16)
            (xy 6.35 8.89)
          )
          (stroke (width 0) (type default) (color 0 0 0 0))
          (fill (type none))
        )
        (polyline
          (pts
            (xy 6.35 12.7)
            (xy 6.35 11.43)
          )
          (stroke (width 0) (type default) (color 0 0 0 0))
          (fill (type none))
        )
        (polyline
          (pts
            (xy 6.35 15.24)
            (xy 6.35 13.97)
          )
          (stroke (width 0) (type default) (color 0 0 0 0))
          (fill (type none))
        )
        (polyline
          (pts
            (xy 6.35 17.78)
            (xy 6.35 16.51)
          )
          (stroke (width 0) (type default) (color 0 0 0 0))
          (fill (type none))
        )
        (polyline
          (pts
            (xy 6.35 20.32)
            (xy 6.35 19.05)
          )
          (stroke (width 0) (type default) (color 0 0 0 0))
          (fill (type none))
        )
        (polyline
          (pts
            (xy 6.35 22.86)
            (xy 6.35 21.59)
          )
          (stroke (width 0) (type default) (color 0 0 0 0))
          (fill (type none))
        )
        (polyline
          (pts
            (xy 6.35 25.4)
            (xy 6.35 24.13)
          )
          (stroke (width 0) (type default) (color 0 0 0 0))
          (fill (type none))
        )
        (polyline
          (pts
            (xy 6.35 25.4)
            (xy 6.35 24.13)
          )
          (stroke (width 0) (type default) (color 0 0 0 0))
          (fill (type none))
        )
        (polyline
          (pts
            (xy 6.35 27.94)
            (xy 6.35 26.67)
          )
          (stroke (width 0) (type default) (color 0 0 0 0))
          (fill (type none))
        )
        (polyline
          (pts
            (xy 8.89 2.54)
            (xy 8.89 1.27)
          )
          (stroke (width 0) (type default) (color 0 0 0 0))
          (fill (type none))
        )
        (polyline
          (pts
            (xy 8.89 5.08)
            (xy 8.89 3.81)
          )
          (stroke (width 0) (type default) (color 0 0 0 0))
          (fill (type none))
        )
        (polyline
          (pts
            (xy 8.89 7.62)
            (xy 8.89 6.35)
          )
          (stroke (width 0) (type default) (color 0 0 0 0))
          (fill (type none))
        )
        (polyline
          (pts
            (xy 8.89 10.16)
            (xy 8.89 8.89)
          )
          (stroke (width 0) (type default) (color 0 0 0 0))
          (fill (type none))
        )
        (polyline
          (pts
            (xy 8.89 12.7)
            (xy 8.89 11.43)
          )
          (stroke (width 0) (type default) (color 0 0 0 0))
          (fill (type none))
        )
        (polyline
          (pts
            (xy 8.89 15.24)
            (xy 8.89 13.97)
          )
          (stroke (width 0) (type default) (color 0 0 0 0))
          (fill (type none))
        )
        (polyline
          (pts
            (xy 8.89 17.78)
            (xy 8.89 16.51)
          )
          (stroke (width 0) (type default) (color 0 0 0 0))
          (fill (type none))
        )
        (polyline
          (pts
            (xy 8.89 20.32)
            (xy 8.89 19.05)
          )
          (stroke (width 0) (type default) (color 0 0 0 0))
          (fill (type none))
        )
        (polyline
          (pts
            (xy 8.89 22.86)
            (xy 8.89 21.59)
          )
          (stroke (width 0) (type default) (color 0 0 0 0))
          (fill (type none))
        )
        (polyline
          (pts
            (xy 8.89 25.4)
            (xy 8.89 24.13)
          )
          (stroke (width 0) (type default) (color 0 0 0 0))
          (fill (type none))
        )
        (polyline
          (pts
            (xy 8.89 25.4)
            (xy 8.89 24.13)
          )
          (stroke (width 0) (type default) (color 0 0 0 0))
          (fill (type none))
        )
        (polyline
          (pts
            (xy 8.89 27.94)
            (xy 8.89 26.67)
          )
          (stroke (width 0) (type default) (color 0 0 0 0))
          (fill (type none))
        )
        (polyline
          (pts
            (xy 6.985 8.89)
            (xy 8.255 9.525)
            (xy 8.255 8.255)
            (xy 6.985 8.89)
          )
          (stroke (width 0) (type default) (color 0 0 0 0))
          (fill (type none))
        )
        (polyline
          (pts
            (xy 6.985 11.43)
            (xy 8.255 12.065)
            (xy 8.255 10.795)
            (xy 6.985 11.43)
          )
          (stroke (width 0) (type default) (color 0 0 0 0))
          (fill (type none))
        )
        (polyline
          (pts
            (xy 6.985 14.605)
            (xy 6.985 13.335)
            (xy 8.255 13.97)
            (xy 6.985 14.605)
          )
          (stroke (width 0) (type default) (color 0 0 0 0))
          (fill (type none))
        )
        (polyline
          (pts
            (xy 6.985 17.145)
            (xy 6.985 15.875)
            (xy 8.255 16.51)
            (xy 6.985 17.145)
          )
          (stroke (width 0) (type default) (color 0 0 0 0))
          (fill (type none))
        )
        (polyline
          (pts
            (xy 6.985 19.685)
            (xy 6.985 18.415)
            (xy 8.255 19.05)
            (xy 6.985 19.685)
          )
          (stroke (width 0) (type default) (color 0 0 0 0))
          (fill (type none))
        )
        (polyline
          (pts
            (xy 6.985 22.225)
            (xy 6.985 20.955)
            (xy 8.255 21.59)
            (xy 6.985 22.225)
          )
          (stroke (width 0) (type default) (color 0 0 0 0))
          (fill (type none))
        )
        (rectangle (start 0 29.21) (end 15.24 0)
          (stroke (width 0.254) (type default) (color 0 0 0 0))
          (fill (type background))
        )
        (pin power_in line (at -2.54 26.67 0) (length 2.54)
          (name "VDD1" (effects (font (size 1.27 1.27))))
          (number "1" (effects (font (size 1.27 1.27))))
        )
        (pin input line (at 17.78 8.89 180) (length 2.54)
          (name "B6" (effects (font (size 1.27 1.27))))
          (number "10" (effects (font (size 1.27 1.27))))
        )
        (pin input line (at 17.78 11.43 180) (length 2.54)
          (name "B5" (effects (font (size 1.27 1.27))))
          (number "11" (effects (font (size 1.27 1.27))))
        )
        (pin output line (at 17.78 13.97 180) (length 2.54)
          (name "B4" (effects (font (size 1.27 1.27))))
          (number "12" (effects (font (size 1.27 1.27))))
        )
        (pin output line (at 17.78 16.51 180) (length 2.54)
          (name "B3" (effects (font (size 1.27 1.27))))
          (number "13" (effects (font (size 1.27 1.27))))
        )
        (pin output line (at 17.78 19.05 180) (length 2.54)
          (name "B2" (effects (font (size 1.27 1.27))))
          (number "14" (effects (font (size 1.27 1.27))))
        )
        (pin output line (at 17.78 21.59 180) (length 2.54)
          (name "B1" (effects (font (size 1.27 1.27))))
          (number "15" (effects (font (size 1.27 1.27))))
        )
        (pin power_in line (at 17.78 26.67 180) (length 2.54)
          (name "VDD2" (effects (font (size 1.27 1.27))))
          (number "16" (effects (font (size 1.27 1.27))))
        )
        (pin input line (at -2.54 21.59 0) (length 2.54)
          (name "A1" (effects (font (size 1.27 1.27))))
          (number "2" (effects (font (size 1.27 1.27))))
        )
        (pin input line (at -2.54 19.05 0) (length 2.54)
          (name "A2" (effects (font (size 1.27 1.27))))
          (number "3" (effects (font (size 1.27 1.27))))
        )
        (pin input line (at -2.54 16.51 0) (length 2.54)
          (name "A3" (effects (font (size 1.27 1.27))))
          (number "4" (effects (font (size 1.27 1.27))))
        )
        (pin input line (at -2.54 13.97 0) (length 2.54)
          (name "A4" (effects (font (size 1.27 1.27))))
          (number "5" (effects (font (size 1.27 1.27))))
        )
        (pin output line (at -2.54 11.43 0) (length 2.54)
          (name "A5" (effects (font (size 1.27 1.27))))
          (number "6" (effects (font (size 1.27 1.27))))
        )
        (pin output line (at -2.54 8.89 0) (length 2.54)
          (name "A6" (effects (font (size 1.27 1.27))))
          (number "7" (effects (font (size 1.27 1.27))))
        )
        (pin power_in line (at -2.54 3.81 0) (length 2.54)
          (name "GND1" (effects (font (size 1.27 1.27))))
          (number "8" (effects (font (size 1.27 1.27))))
        )
        (pin power_in line (at 17.78 3.81 180) (length 2.54)
          (name "GND2" (effects (font (size 1.27 1.27))))
          (number "9" (effects (font (size 1.27 1.27))))
        )
      )
    )
    (symbol "dk_Test-Points:5011" (pin_numbers hide) (pin_names (offset 1.016) hide) (in_bom yes) (on_board yes)
      (property "Reference" "TP" (id 0) (at -1.27 1.27 0)
        (effects (font (size 1.27 1.27)) (justify right))
      )
      (property "Value" "5011" (id 1) (at 0 -2.54 0)
        (effects (font (size 1.27 1.27)) hide)
      )
      (property "Footprint" "digikey-footprints:Test_Point_D1.02mm" (id 2) (at 5.08 5.08 0)
        (effects (font (size 1.524 1.524)) (justify left) hide)
      )
      (property "Datasheet" "http://www.keyelco.com/product-pdf.cfm?p=1320" (id 3) (at 5.08 7.62 0)
        (effects (font (size 1.524 1.524)) (justify left) hide)
      )
      (property "Digi-Key_PN" "36-5011-ND" (id 4) (at 5.08 10.16 0)
        (effects (font (size 1.524 1.524)) (justify left) hide)
      )
      (property "MPN" "5011" (id 5) (at 5.08 12.7 0)
        (effects (font (size 1.524 1.524)) (justify left) hide)
      )
      (property "Category" "Test and Measurement" (id 6) (at 5.08 15.24 0)
        (effects (font (size 1.524 1.524)) (justify left) hide)
      )
      (property "Family" "Test Points" (id 7) (at 5.08 17.78 0)
        (effects (font (size 1.524 1.524)) (justify left) hide)
      )
      (property "DK_Datasheet_Link" "http://www.keyelco.com/product-pdf.cfm?p=1320" (id 8) (at 5.08 20.32 0)
        (effects (font (size 1.524 1.524)) (justify left) hide)
      )
      (property "DK_Detail_Page" "/product-detail/en/keystone-electronics/5011/36-5011-ND/255333" (id 9) (at 5.08 22.86 0)
        (effects (font (size 1.524 1.524)) (justify left) hide)
      )
      (property "Description" "PC TEST POINT MULTIPURPOSE BLACK" (id 10) (at 5.08 25.4 0)
        (effects (font (size 1.524 1.524)) (justify left) hide)
      )
      (property "Manufacturer" "Keystone Electronics" (id 11) (at 5.08 27.94 0)
        (effects (font (size 1.524 1.524)) (justify left) hide)
      )
      (property "Status" "Active" (id 12) (at 5.08 30.48 0)
        (effects (font (size 1.524 1.524)) (justify left) hide)
      )
      (property "ki_keywords" "36-5011-ND THM" (id 13) (at 0 0 0)
        (effects (font (size 1.27 1.27)) hide)
      )
      (property "ki_description" "PC TEST POINT MULTIPURPOSE BLACK" (id 14) (at 0 0 0)
        (effects (font (size 1.27 1.27)) hide)
      )
      (symbol "5011_0_1"
        (circle (center 0 0) (radius 0.5588)
          (stroke (width 0) (type default) (color 0 0 0 0))
          (fill (type none))
        )
      )
      (symbol "5011_1_1"
        (pin passive line (at 0 2.54 270) (length 1.905)
          (name "~" (effects (font (size 1.27 1.27))))
          (number "1" (effects (font (size 1.27 1.27))))
        )
      )
    )
    (symbol "power:+5V" (power) (pin_names (offset 0)) (in_bom yes) (on_board yes)
      (property "Reference" "#PWR" (id 0) (at 0 -3.81 0)
        (effects (font (size 1.27 1.27)) hide)
      )
      (property "Value" "+5V" (id 1) (at 0 3.556 0)
        (effects (font (size 1.27 1.27)))
      )
      (property "Footprint" "" (id 2) (at 0 0 0)
        (effects (font (size 1.27 1.27)) hide)
      )
      (property "Datasheet" "" (id 3) (at 0 0 0)
        (effects (font (size 1.27 1.27)) hide)
      )
      (property "ki_keywords" "power-flag" (id 4) (at 0 0 0)
        (effects (font (size 1.27 1.27)) hide)
      )
      (property "ki_description" "Power symbol creates a global label with name \"+5V\"" (id 5) (at 0 0 0)
        (effects (font (size 1.27 1.27)) hide)
      )
      (symbol "+5V_0_1"
        (polyline
          (pts
            (xy -0.762 1.27)
            (xy 0 2.54)
          )
          (stroke (width 0) (type default) (color 0 0 0 0))
          (fill (type none))
        )
        (polyline
          (pts
            (xy 0 0)
            (xy 0 2.54)
          )
          (stroke (width 0) (type default) (color 0 0 0 0))
          (fill (type none))
        )
        (polyline
          (pts
            (xy 0 2.54)
            (xy 0.762 1.27)
          )
          (stroke (width 0) (type default) (color 0 0 0 0))
          (fill (type none))
        )
      )
      (symbol "+5V_1_1"
        (pin power_in line (at 0 0 90) (length 0) hide
          (name "+5V" (effects (font (size 1.27 1.27))))
          (number "1" (effects (font (size 1.27 1.27))))
        )
      )
    )
    (symbol "power:+5VA" (power) (pin_names (offset 0)) (in_bom yes) (on_board yes)
      (property "Reference" "#PWR" (id 0) (at 0 -3.81 0)
        (effects (font (size 1.27 1.27)) hide)
      )
      (property "Value" "+5VA" (id 1) (at 0 3.556 0)
        (effects (font (size 1.27 1.27)))
      )
      (property "Footprint" "" (id 2) (at 0 0 0)
        (effects (font (size 1.27 1.27)) hide)
      )
      (property "Datasheet" "" (id 3) (at 0 0 0)
        (effects (font (size 1.27 1.27)) hide)
      )
      (property "ki_keywords" "power-flag" (id 4) (at 0 0 0)
        (effects (font (size 1.27 1.27)) hide)
      )
      (property "ki_description" "Power symbol creates a global label with name \"+5VA\"" (id 5) (at 0 0 0)
        (effects (font (size 1.27 1.27)) hide)
      )
      (symbol "+5VA_0_1"
        (polyline
          (pts
            (xy -0.762 1.27)
            (xy 0 2.54)
          )
          (stroke (width 0) (type default) (color 0 0 0 0))
          (fill (type none))
        )
        (polyline
          (pts
            (xy 0 0)
            (xy 0 2.54)
          )
          (stroke (width 0) (type default) (color 0 0 0 0))
          (fill (type none))
        )
        (polyline
          (pts
            (xy 0 2.54)
            (xy 0.762 1.27)
          )
          (stroke (width 0) (type default) (color 0 0 0 0))
          (fill (type none))
        )
      )
      (symbol "+5VA_1_1"
        (pin power_in line (at 0 0 90) (length 0) hide
          (name "+5VA" (effects (font (size 1.27 1.27))))
          (number "1" (effects (font (size 1.27 1.27))))
        )
      )
    )
    (symbol "power:GND" (power) (pin_names (offset 0)) (in_bom yes) (on_board yes)
      (property "Reference" "#PWR" (id 0) (at 0 -6.35 0)
        (effects (font (size 1.27 1.27)) hide)
      )
      (property "Value" "GND" (id 1) (at 0 -3.81 0)
        (effects (font (size 1.27 1.27)))
      )
      (property "Footprint" "" (id 2) (at 0 0 0)
        (effects (font (size 1.27 1.27)) hide)
      )
      (property "Datasheet" "" (id 3) (at 0 0 0)
        (effects (font (size 1.27 1.27)) hide)
      )
      (property "ki_keywords" "power-flag" (id 4) (at 0 0 0)
        (effects (font (size 1.27 1.27)) hide)
      )
      (property "ki_description" "Power symbol creates a global label with name \"GND\" , ground" (id 5) (at 0 0 0)
        (effects (font (size 1.27 1.27)) hide)
      )
      (symbol "GND_0_1"
        (polyline
          (pts
            (xy 0 0)
            (xy 0 -1.27)
            (xy 1.27 -1.27)
            (xy 0 -2.54)
            (xy -1.27 -1.27)
            (xy 0 -1.27)
          )
          (stroke (width 0) (type default) (color 0 0 0 0))
          (fill (type none))
        )
      )
      (symbol "GND_1_1"
        (pin power_in line (at 0 0 270) (length 0) hide
          (name "GND" (effects (font (size 1.27 1.27))))
          (number "1" (effects (font (size 1.27 1.27))))
        )
      )
    )
    (symbol "power:GND1" (power) (pin_names (offset 0)) (in_bom yes) (on_board yes)
      (property "Reference" "#PWR" (id 0) (at 0 -6.35 0)
        (effects (font (size 1.27 1.27)) hide)
      )
      (property "Value" "GND1" (id 1) (at 0 -3.81 0)
        (effects (font (size 1.27 1.27)))
      )
      (property "Footprint" "" (id 2) (at 0 0 0)
        (effects (font (size 1.27 1.27)) hide)
      )
      (property "Datasheet" "" (id 3) (at 0 0 0)
        (effects (font (size 1.27 1.27)) hide)
      )
      (property "ki_keywords" "power-flag" (id 4) (at 0 0 0)
        (effects (font (size 1.27 1.27)) hide)
      )
      (property "ki_description" "Power symbol creates a global label with name \"GND1\" , ground" (id 5) (at 0 0 0)
        (effects (font (size 1.27 1.27)) hide)
      )
      (symbol "GND1_0_1"
        (polyline
          (pts
            (xy 0 0)
            (xy 0 -1.27)
            (xy 1.27 -1.27)
            (xy 0 -2.54)
            (xy -1.27 -1.27)
            (xy 0 -1.27)
          )
          (stroke (width 0) (type default) (color 0 0 0 0))
          (fill (type none))
        )
      )
      (symbol "GND1_1_1"
        (pin power_in line (at 0 0 270) (length 0) hide
          (name "GND1" (effects (font (size 1.27 1.27))))
          (number "1" (effects (font (size 1.27 1.27))))
        )
      )
    )
    (symbol "voltage_references_magne:ADR5044B" (pin_names (offset 1.016)) (in_bom yes) (on_board yes)
      (property "Reference" "U" (id 0) (at -5.08 7.62 0)
        (effects (font (size 1.27 1.27)))
      )
      (property "Value" "ADR5044B" (id 1) (at 7.62 7.62 0)
        (effects (font (size 1.27 1.27)))
      )
      (property "Footprint" "Package_TO_SOT_SMD:SOT-323_SC-70_Handsoldering" (id 2) (at 0 0 0)
        (effects (font (size 1.27 1.27)) hide)
      )
      (property "Datasheet" "https://www.analog.com/media/en/technical-documentation/data-sheets/ADR5040_5041_5043_5044_5045.pdf" (id 3) (at 0 0 0)
        (effects (font (size 1.27 1.27)) hide)
      )
      (symbol "ADR5044B_1_1"
        (polyline
          (pts
            (xy -1.27 1.27)
            (xy -1.27 -1.27)
          )
          (stroke (width 0.254) (type default) (color 0 0 0 0))
          (fill (type none))
        )
        (polyline
          (pts
            (xy 1.27 0)
            (xy -1.27 0)
          )
          (stroke (width 0) (type default) (color 0 0 0 0))
          (fill (type none))
        )
        (polyline
          (pts
            (xy 1.27 1.27)
            (xy 1.27 -1.27)
            (xy -1.27 0)
            (xy 1.27 1.27)
          )
          (stroke (width 0.254) (type default) (color 0 0 0 0))
          (fill (type none))
        )
        (pin passive line (at -3.81 0 0) (length 2.54)
          (name "+" (effects (font (size 1.27 1.27))))
          (number "1" (effects (font (size 1.27 1.27))))
        )
        (pin passive line (at 3.81 0 180) (length 2.54)
          (name "-" (effects (font (size 1.27 1.27))))
          (number "2" (effects (font (size 1.27 1.27))))
        )
        (pin no_connect line (at -3.81 0 0) (length 2.54) hide
          (name "T" (effects (font (size 1.27 1.27))))
          (number "3" (effects (font (size 1.27 1.27))))
        )
      )
    )
  )

  (junction (at 105.41 52.07) (diameter 0) (color 0 0 0 0)
    (uuid 0c702776-a3d8-406b-80ff-d01da8a405d2)
  )
  (junction (at 143.51 133.35) (diameter 0) (color 0 0 0 0)
    (uuid 117a4d53-8603-4e97-be4a-11110242d38e)
  )
  (junction (at 165.1 59.69) (diameter 0) (color 0 0 0 0)
    (uuid 1db34522-4584-45d4-8c96-2c3aa00a3404)
  )
  (junction (at 177.8 52.07) (diameter 0) (color 0 0 0 0)
    (uuid 21f2892c-a859-4e84-b783-d09c4da60fde)
  )
  (junction (at 91.44 123.19) (diameter 0) (color 0 0 0 0)
    (uuid 2c16bc18-b64c-44eb-b56d-f49c58c35588)
  )
  (junction (at 109.22 52.07) (diameter 0) (color 0 0 0 0)
    (uuid 3de062ba-fe77-4872-b594-2724213f04ef)
  )
  (junction (at 203.2 123.19) (diameter 0) (color 0 0 0 0)
    (uuid 42068896-edfb-435b-b1b4-4732345aca18)
  )
  (junction (at 203.2 110.49) (diameter 0) (color 0 0 0 0)
    (uuid 463faa1f-c7b4-4bbf-bb80-1d0f720ea00b)
  )
  (junction (at 143.51 59.69) (diameter 0) (color 0 0 0 0)
    (uuid 4df7f91e-8266-4a35-865b-83d2eaafe65b)
  )
  (junction (at 116.84 133.35) (diameter 0) (color 0 0 0 0)
    (uuid 511ddbdd-5bb1-493e-91c8-fc064a8641da)
  )
  (junction (at 109.22 59.69) (diameter 0) (color 0 0 0 0)
    (uuid 5f1be077-ba39-4952-84bb-fb53153432c1)
  )
  (junction (at 153.67 52.07) (diameter 0) (color 0 0 0 0)
    (uuid 682cfa86-8e7f-449c-aa32-dc706410a99c)
  )
  (junction (at 165.1 52.07) (diameter 0) (color 0 0 0 0)
    (uuid 74088a5e-4d6e-44c0-8a13-49ed51ac6f0c)
  )
  (junction (at 152.4 110.49) (diameter 0) (color 0 0 0 0)
    (uuid 75c1510c-e984-484b-aeb9-c6cd53fe81fc)
  )
  (junction (at 85.09 52.07) (diameter 0) (color 0 0 0 0)
    (uuid 80a88aef-6a2f-4788-a418-6722ec4aabd0)
  )
  (junction (at 105.41 59.69) (diameter 0) (color 0 0 0 0)
    (uuid 837dd3bd-fc4e-4042-95a1-1e4f6c126a34)
  )
  (junction (at 177.8 59.69) (diameter 0) (color 0 0 0 0)
    (uuid 868cd265-6337-479d-ac23-2056fcbeb9a6)
  )
  (junction (at 153.67 59.69) (diameter 0) (color 0 0 0 0)
    (uuid 9dc6fe6c-272d-43a0-b183-0ad02a41d67a)
  )
  (junction (at 115.57 102.87) (diameter 0) (color 0 0 0 0)
    (uuid 9e549b6f-b331-4426-8e56-bc855eb62361)
  )
  (junction (at 116.84 54.61) (diameter 0) (color 0 0 0 0)
    (uuid 9f85fb25-7be4-49be-82d2-565c4aaf3536)
  )
  (junction (at 85.09 59.69) (diameter 0) (color 0 0 0 0)
    (uuid b006cfa7-343e-486f-ac09-ac3f7c2aff98)
  )
  (junction (at 93.98 52.07) (diameter 0) (color 0 0 0 0)
    (uuid ca2ae5db-bf4d-4c90-a0e9-72843481b2ed)
  )
  (junction (at 91.44 133.35) (diameter 0) (color 0 0 0 0)
    (uuid d594b8d0-5019-444f-94f7-0b8aa479ebb8)
  )
  (junction (at 93.98 59.69) (diameter 0) (color 0 0 0 0)
    (uuid ef27671a-a2ef-4995-bfc6-d51237525f26)
  )
  (junction (at 203.2 97.79) (diameter 0) (color 0 0 0 0)
    (uuid fae3ec5c-d5c1-43e5-a1b0-a61ee97a3905)
  )

  (wire (pts (xy 203.2 111.76) (xy 203.2 110.49))
    (stroke (width 0) (type default) (color 0 0 0 0))
    (uuid 084a4d90-7bdd-43f0-8fa0-4a77cab8d85b)
  )
  (wire (pts (xy 109.22 54.61) (xy 109.22 59.69))
    (stroke (width 0) (type default) (color 0 0 0 0))
    (uuid 08d9b655-9975-4942-a1e1-7fa537ee14a7)
  )
  (wire (pts (xy 120.65 120.65) (xy 114.3 120.65))
    (stroke (width 0) (type default) (color 0 0 0 0))
    (uuid 0aead1fb-be2e-47da-ad89-43cec8b90f2e)
  )
  (wire (pts (xy 152.4 110.49) (xy 194.31 110.49))
    (stroke (width 0) (type default) (color 0 0 0 0))
    (uuid 0dd180eb-b7f0-45d1-91e0-4fbe4f0b7e0e)
  )
  (wire (pts (xy 203.2 124.46) (xy 203.2 123.19))
    (stroke (width 0) (type default) (color 0 0 0 0))
    (uuid 0ef086aa-bcb5-4058-a3cc-c5aabd870fdf)
  )
  (wire (pts (xy 91.44 132.08) (xy 91.44 133.35))
    (stroke (width 0) (type default) (color 0 0 0 0))
    (uuid 1027296c-24d6-4f8e-bbf8-ee233bae9d7d)
  )
  (wire (pts (xy 201.93 110.49) (xy 203.2 110.49))
    (stroke (width 0) (type default) (color 0 0 0 0))
    (uuid 153e17ed-4f1b-408d-af0b-2bfd8f24d2df)
  )
  (wire (pts (xy 140.97 107.95) (xy 194.31 107.95))
    (stroke (width 0) (type default) (color 0 0 0 0))
    (uuid 18515650-7986-4a6f-9d65-5d30cd0df880)
  )
  (wire (pts (xy 143.51 133.35) (xy 146.05 133.35))
    (stroke (width 0) (type default) (color 0 0 0 0))
    (uuid 19e91f16-a033-48b0-830b-845c3bda5f62)
  )
  (wire (pts (xy 154.94 100.33) (xy 152.4 100.33))
    (stroke (width 0) (type default) (color 0 0 0 0))
    (uuid 1c97e883-355c-4768-bd51-c2ccb02e0000)
  )
  (wire (pts (xy 109.22 59.69) (xy 105.41 59.69))
    (stroke (width 0) (type default) (color 0 0 0 0))
    (uuid 227d92b3-7907-4b2d-b775-22c0060f9179)
  )
  (wire (pts (xy 120.65 133.35) (xy 120.65 125.73))
    (stroke (width 0) (type default) (color 0 0 0 0))
    (uuid 27666b1c-f075-440b-9320-2010626e6be3)
  )
  (wire (pts (xy 93.98 59.69) (xy 105.41 59.69))
    (stroke (width 0) (type default) (color 0 0 0 0))
    (uuid 297cacfe-eead-43a4-b3cb-5c8a280036d4)
  )
  (wire (pts (xy 91.44 102.87) (xy 91.44 113.665))
    (stroke (width 0) (type default) (color 0 0 0 0))
    (uuid 2a92d97d-ed71-472f-b43e-3c6e7cc893cf)
  )
  (wire (pts (xy 203.2 123.19) (xy 210.82 123.19))
    (stroke (width 0) (type default) (color 0 0 0 0))
    (uuid 3ad4f186-ce1c-4248-affc-b1664c749c26)
  )
  (wire (pts (xy 153.67 59.69) (xy 165.1 59.69))
    (stroke (width 0) (type default) (color 0 0 0 0))
    (uuid 3b305751-555f-4b34-93a3-3823430b1978)
  )
  (wire (pts (xy 114.3 110.49) (xy 120.65 110.49))
    (stroke (width 0) (type default) (color 0 0 0 0))
    (uuid 3c5b7faa-a022-4545-b0a1-d76189a47e16)
  )
  (wire (pts (xy 165.1 52.07) (xy 153.67 52.07))
    (stroke (width 0) (type default) (color 0 0 0 0))
    (uuid 4a42f24c-8b47-48ff-bab3-e060971505ca)
  )
  (wire (pts (xy 91.44 121.285) (xy 91.44 123.19))
    (stroke (width 0) (type default) (color 0 0 0 0))
    (uuid 568d89c0-35d5-4327-ae65-b9d4e23b83a1)
  )
  (wire (pts (xy 115.57 102.235) (xy 115.57 102.87))
    (stroke (width 0) (type default) (color 0 0 0 0))
    (uuid 5728fa8a-fc60-48ce-a6f0-a1775395ced4)
  )
  (wire (pts (xy 120.65 115.57) (xy 114.3 115.57))
    (stroke (width 0) (type default) (color 0 0 0 0))
    (uuid 5a368291-ef63-4ec3-bd4d-894d2055ec77)
  )
  (wire (pts (xy 73.66 59.69) (xy 85.09 59.69))
    (stroke (width 0) (type default) (color 0 0 0 0))
    (uuid 5c897a03-b940-47a4-8539-75b648916f05)
  )
  (wire (pts (xy 152.4 100.33) (xy 152.4 110.49))
    (stroke (width 0) (type default) (color 0 0 0 0))
    (uuid 61d629a7-ad0d-4d20-b359-22164a5be4ce)
  )
  (wire (pts (xy 119.38 59.69) (xy 109.22 59.69))
    (stroke (width 0) (type default) (color 0 0 0 0))
    (uuid 69f22fbe-6ea1-4dda-9c94-d8992b5544ca)
  )
  (wire (pts (xy 203.2 97.79) (xy 210.82 97.79))
    (stroke (width 0) (type default) (color 0 0 0 0))
    (uuid 6b9cfdd1-3dba-457e-b895-92c8a34563b6)
  )
  (wire (pts (xy 143.51 59.69) (xy 142.24 59.69))
    (stroke (width 0) (type default) (color 0 0 0 0))
    (uuid 6c2c9368-b7c9-463f-b150-769954020dfe)
  )
  (wire (pts (xy 116.84 49.53) (xy 116.84 54.61))
    (stroke (width 0) (type default) (color 0 0 0 0))
    (uuid 6e27fa7f-fa54-490e-a044-d20daa73b8c6)
  )
  (wire (pts (xy 144.78 102.87) (xy 144.78 102.235))
    (stroke (width 0) (type default) (color 0 0 0 0))
    (uuid 6f51c280-8a0b-4fb6-9b1a-c6dca33b4f28)
  )
  (wire (pts (xy 93.98 52.07) (xy 105.41 52.07))
    (stroke (width 0) (type default) (color 0 0 0 0))
    (uuid 76c01311-5068-4df9-b566-5c2435b78887)
  )
  (wire (pts (xy 114.3 118.11) (xy 120.65 118.11))
    (stroke (width 0) (type default) (color 0 0 0 0))
    (uuid 79461819-68dc-4d53-9951-e7fe5eddf1f1)
  )
  (wire (pts (xy 201.93 97.79) (xy 203.2 97.79))
    (stroke (width 0) (type default) (color 0 0 0 0))
    (uuid 798f9842-b1e4-43b9-ba70-62c166d6c6fd)
  )
  (wire (pts (xy 119.38 52.07) (xy 109.22 52.07))
    (stroke (width 0) (type default) (color 0 0 0 0))
    (uuid 7ae63d72-6fc7-469e-a835-564665a7569b)
  )
  (wire (pts (xy 116.84 133.35) (xy 120.65 133.35))
    (stroke (width 0) (type default) (color 0 0 0 0))
    (uuid 7d4a777c-c105-4dab-882a-074df030767d)
  )
  (wire (pts (xy 109.22 52.07) (xy 105.41 52.07))
    (stroke (width 0) (type default) (color 0 0 0 0))
    (uuid 825509c2-4eeb-4a9a-884f-7ad0130ab102)
  )
  (wire (pts (xy 203.2 99.06) (xy 203.2 97.79))
    (stroke (width 0) (type default) (color 0 0 0 0))
    (uuid 8513d500-bb2f-4d28-b703-7fd0ee6b0f09)
  )
  (wire (pts (xy 140.97 110.49) (xy 152.4 110.49))
    (stroke (width 0) (type default) (color 0 0 0 0))
    (uuid 88850654-d722-4412-8de1-6834d4f2efef)
  )
  (wire (pts (xy 88.9 123.19) (xy 91.44 123.19))
    (stroke (width 0) (type default) (color 0 0 0 0))
    (uuid 8c8b1cee-65e8-4bc9-a75c-5ffc9573a2c3)
  )
  (wire (pts (xy 177.8 52.07) (xy 165.1 52.07))
    (stroke (width 0) (type default) (color 0 0 0 0))
    (uuid 9011893a-2892-463e-90a7-dbf690e77ce4)
  )
  (wire (pts (xy 120.65 107.95) (xy 114.3 107.95))
    (stroke (width 0) (type default) (color 0 0 0 0))
    (uuid 931ecd97-98fe-4356-a072-c8ced3f10e3c)
  )
  (wire (pts (xy 93.98 59.69) (xy 85.09 59.69))
    (stroke (width 0) (type default) (color 0 0 0 0))
    (uuid 9785e55d-80e3-412e-ade8-9eee7c53c466)
  )
  (wire (pts (xy 119.38 54.61) (xy 116.84 54.61))
    (stroke (width 0) (type default) (color 0 0 0 0))
    (uuid 97f11ef2-0d90-497a-92d9-e6941f9dfc96)
  )
  (wire (pts (xy 85.09 52.07) (xy 73.66 52.07))
    (stroke (width 0) (type default) (color 0 0 0 0))
    (uuid 99937353-32d3-437c-98f5-a74149327b82)
  )
  (wire (pts (xy 140.97 133.35) (xy 143.51 133.35))
    (stroke (width 0) (type default) (color 0 0 0 0))
    (uuid 9a2ec14c-18a9-4da5-a7f6-c084b762f550)
  )
  (wire (pts (xy 140.97 102.87) (xy 144.78 102.87))
    (stroke (width 0) (type default) (color 0 0 0 0))
    (uuid 9a6ba123-7224-4eea-839c-e9360ec6dbd9)
  )
  (wire (pts (xy 201.93 123.19) (xy 203.2 123.19))
    (stroke (width 0) (type default) (color 0 0 0 0))
    (uuid a17e0a3d-5d15-482e-9c71-0d9719ed71d9)
  )
  (wire (pts (xy 93.98 52.07) (xy 85.09 52.07))
    (stroke (width 0) (type default) (color 0 0 0 0))
    (uuid a1f90da0-8e7b-4503-9131-9ea89fe87bfb)
  )
  (wire (pts (xy 115.57 102.87) (xy 91.44 102.87))
    (stroke (width 0) (type default) (color 0 0 0 0))
    (uuid a884b5f6-e36b-4fb8-8439-6b58f395528f)
  )
  (wire (pts (xy 194.31 115.57) (xy 194.31 123.19))
    (stroke (width 0) (type default) (color 0 0 0 0))
    (uuid a9e48feb-d328-44c4-a97f-9972c65a4eca)
  )
  (wire (pts (xy 109.22 49.53) (xy 109.22 52.07))
    (stroke (width 0) (type default) (color 0 0 0 0))
    (uuid aff83556-c935-4def-8d18-6ee6bf603328)
  )
  (wire (pts (xy 203.2 110.49) (xy 210.82 110.49))
    (stroke (width 0) (type default) (color 0 0 0 0))
    (uuid b6361c9b-0d7a-4aab-a9de-066e243a620f)
  )
  (wire (pts (xy 153.67 52.07) (xy 142.24 52.07))
    (stroke (width 0) (type default) (color 0 0 0 0))
    (uuid be7fef9e-74c5-49cf-9143-96a11daf9667)
  )
  (wire (pts (xy 165.1 59.69) (xy 177.8 59.69))
    (stroke (width 0) (type default) (color 0 0 0 0))
    (uuid c0451cc3-103f-4940-be6e-b30fb996bfeb)
  )
  (wire (pts (xy 115.57 102.87) (xy 120.65 102.87))
    (stroke (width 0) (type default) (color 0 0 0 0))
    (uuid d2adf94a-a184-4de9-9822-ab23ba213771)
  )
  (wire (pts (xy 116.84 133.35) (xy 91.44 133.35))
    (stroke (width 0) (type default) (color 0 0 0 0))
    (uuid d31c3241-44b7-45fe-b988-bbbe3a176195)
  )
  (wire (pts (xy 143.51 54.61) (xy 143.51 59.69))
    (stroke (width 0) (type default) (color 0 0 0 0))
    (uuid d4052735-49d3-47dc-ad81-306071124f8f)
  )
  (wire (pts (xy 194.31 107.95) (xy 194.31 97.79))
    (stroke (width 0) (type default) (color 0 0 0 0))
    (uuid d5561933-a191-47a5-9fec-f22eed5073e9)
  )
  (wire (pts (xy 144.78 120.65) (xy 140.97 120.65))
    (stroke (width 0) (type default) (color 0 0 0 0))
    (uuid d56c7a11-d39d-4f08-bd40-90b6be004f7d)
  )
  (wire (pts (xy 140.97 125.73) (xy 140.97 133.35))
    (stroke (width 0) (type default) (color 0 0 0 0))
    (uuid dffdce6a-5e05-4f1c-bdf8-c3bfb348c7e0)
  )
  (wire (pts (xy 143.51 59.69) (xy 153.67 59.69))
    (stroke (width 0) (type default) (color 0 0 0 0))
    (uuid e1bae0c9-6f8d-4383-a217-c55995b174d4)
  )
  (wire (pts (xy 91.44 123.19) (xy 91.44 124.46))
    (stroke (width 0) (type default) (color 0 0 0 0))
    (uuid ee8ff3c7-daf8-40dc-8360-8cb4deb41be0)
  )
  (wire (pts (xy 143.51 54.61) (xy 142.24 54.61))
    (stroke (width 0) (type default) (color 0 0 0 0))
    (uuid f1007854-0431-4f4d-b90d-b1c7ef44b1ca)
  )
  (wire (pts (xy 140.97 115.57) (xy 194.31 115.57))
    (stroke (width 0) (type default) (color 0 0 0 0))
    (uuid f7fd4077-96c1-4b9f-97e2-e40de10928f4)
  )
  (wire (pts (xy 140.97 118.11) (xy 144.78 118.11))
    (stroke (width 0) (type default) (color 0 0 0 0))
    (uuid ff63348e-677e-412f-a5c2-02f9e35ee34e)
  )

  (text "Power regulator for VSense circuits. \nAll module voltage sensing is galvanically isolated from the \ntrigger board due. This is required because the DUT ground and\ntrigger board ground are not connected."
    (at 102.87 40.64 0)
    (effects (font (size 1.27 1.27)) (justify left bottom))
    (uuid 0dd9db3c-1dae-4adc-b68e-03c588900647)
  )
  (text "Signals interconnect for VSense circuits to the rest of the trigger board.\n4.096 voltage reference is created using an ADR5044B diode."
    (at 99.06 91.44 0)
    (effects (font (size 1.27 1.27)) (justify left bottom))
    (uuid bb153bda-1819-40a7-91b3-b985edad6946)
  )

  (global_label "!LE_LVsens" (shape input) (at 114.3 118.11 180) (fields_autoplaced)
    (effects (font (size 1.27 1.27)) (justify right))
    (uuid 42352fde-fd07-41f5-acc6-826ecee59c3f)
    (property "Intersheet References" "${INTERSHEET_REFS}" (id 0) (at -22.86 22.86 0)
      (effects (font (size 1.27 1.27)) hide)
    )
  )
  (global_label "!LE" (shape input) (at 144.78 118.11 0) (fields_autoplaced)
    (effects (font (size 1.27 1.27)) (justify left))
    (uuid 51af67a8-0cda-431d-8427-38ee0e94a14a)
    (property "Intersheet References" "${INTERSHEET_REFS}" (id 0) (at -22.86 22.86 0)
      (effects (font (size 1.27 1.27)) hide)
    )
  )
  (global_label "!ARM_LVsens" (shape input) (at 114.3 120.65 180) (fields_autoplaced)
    (effects (font (size 1.27 1.27)) (justify right))
    (uuid 5576e3bc-29e9-4b36-8be6-ef041d56f925)
    (property "Intersheet References" "${INTERSHEET_REFS}" (id 0) (at -22.86 22.86 0)
      (effects (font (size 1.27 1.27)) hide)
    )
  )
  (global_label "!V_arm" (shape input) (at 210.82 97.79 0) (fields_autoplaced)
    (effects (font (size 1.27 1.27)) (justify left))
    (uuid 683512a0-596f-4478-b64f-ae1ed5a60bba)
    (property "Intersheet References" "${INTERSHEET_REFS}" (id 0) (at -13.97 22.86 0)
      (effects (font (size 1.27 1.27)) hide)
    )
  )
  (global_label "4.096V_ref" (shape input) (at 88.9 123.19 180) (fields_autoplaced)
    (effects (font (size 1.27 1.27)) (justify right))
    (uuid 95daac8c-4f79-4266-b1c5-727b69199616)
    (property "Intersheet References" "${INTERSHEET_REFS}" (id 0) (at -5.08 22.86 0)
      (effects (font (size 1.27 1.27)) hide)
    )
  )
  (global_label "!ARM" (shape input) (at 144.78 120.65 0) (fields_autoplaced)
    (effects (font (size 1.27 1.27)) (justify left))
    (uuid 99816309-82dd-4a52-8b12-ac22e0155e4d)
    (property "Intersheet References" "${INTERSHEET_REFS}" (id 0) (at -22.86 22.86 0)
      (effects (font (size 1.27 1.27)) hide)
    )
  )

  (hierarchical_label "VSens_interlock" (shape input) (at 114.3 110.49 180)
    (effects (font (size 1.27 1.27)) (justify right))
    (uuid 837d06bf-b473-4399-8bfa-20d8a3abc806)
  )
  (hierarchical_label "VSens_ARM_alarm_out" (shape input) (at 210.82 123.19 0)
    (effects (font (size 1.27 1.27)) (justify left))
    (uuid 84b8e36a-2ad4-4b30-9dec-86c088168935)
  )
  (hierarchical_label "VSens_interlock_out" (shape input) (at 210.82 110.49 0)
    (effects (font (size 1.27 1.27)) (justify left))
    (uuid d37fd388-8bce-4143-bcd9-f02cd77173f5)
  )
  (hierarchical_label "VSens_ARM" (shape input) (at 114.3 107.95 180)
    (effects (font (size 1.27 1.27)) (justify right))
    (uuid dce91125-1e44-48ba-a19f-ff3a871ece85)
  )
  (hierarchical_label "VSens_ARM_alarm" (shape input) (at 114.3 115.57 180)
    (effects (font (size 1.27 1.27)) (justify right))
    (uuid fa4c83fb-d7cb-43a0-9ace-87df777601b0)
  )

  (symbol (lib_id "dk_Test-Points:5011") (at 73.66 49.53 0) (mirror x) (unit 1)
    (in_bom yes) (on_board yes)
    (uuid 00000000-0000-0000-0000-00005ee606b2)
    (property "Reference" "TP9" (id 0) (at 72.39 50.7238 0)
      (effects (font (size 1.27 1.27)) (justify right))
    )
    (property "Value" "5011" (id 1) (at 73.66 46.99 0)
      (effects (font (size 1.27 1.27)) hide)
    )
    (property "Footprint" "TestPoint:TestPoint_Pad_D1.0mm" (id 2) (at 78.74 54.61 0)
      (effects (font (size 1.524 1.524)) (justify left) hide)
    )
    (property "Datasheet" "http://www.keyelco.com/product-pdf.cfm?p=1320" (id 3) (at 78.74 57.15 0)
      (effects (font (size 1.524 1.524)) (justify left) hide)
    )
    (property "Digi-Key_PN" "" (id 4) (at 78.74 59.69 0)
      (effects (font (size 1.524 1.524)) (justify left) hide)
    )
    (property "MPN" "5011" (id 5) (at 78.74 62.23 0)
      (effects (font (size 1.524 1.524)) (justify left) hide)
    )
    (property "Category" "Test and Measurement" (id 6) (at 78.74 64.77 0)
      (effects (font (size 1.524 1.524)) (justify left) hide)
    )
    (property "Family" "Test Points" (id 7) (at 78.74 67.31 0)
      (effects (font (size 1.524 1.524)) (justify left) hide)
    )
    (property "DK_Datasheet_Link" "http://www.keyelco.com/product-pdf.cfm?p=1320" (id 8) (at 78.74 69.85 0)
      (effects (font (size 1.524 1.524)) (justify left) hide)
    )
    (property "DK_Detail_Page" "/product-detail/en/keystone-electronics/5011/36-5011-ND/255333" (id 9) (at 78.74 72.39 0)
      (effects (font (size 1.524 1.524)) (justify left) hide)
    )
    (property "Description" "PC TEST POINT MULTIPURPOSE BLACK" (id 10) (at 78.74 74.93 0)
      (effects (font (size 1.524 1.524)) (justify left) hide)
    )
    (property "Manufacturer" "Keystone Electronics" (id 11) (at 78.74 77.47 0)
      (effects (font (size 1.524 1.524)) (justify left) hide)
    )
    (property "Status" "Active" (id 12) (at 78.74 80.01 0)
      (effects (font (size 1.524 1.524)) (justify left) hide)
    )
    (pin "1" (uuid e8a23f30-5e33-4452-aa40-038a1e314c8f))
  )

  (symbol (lib_id "digital_isolators_magne:SI8662EC-B") (at 123.19 129.54 0) (unit 1)
    (in_bom yes) (on_board yes)
    (uuid 00000000-0000-0000-0000-00005eeae74f)
    (property "Reference" "U38" (id 0) (at 130.81 96.0882 0))
    (property "Value" "SI8662EC-B" (id 1) (at 130.81 98.3996 0))
    (property "Footprint" "Package_SO:SOIC-16_3.9x9.9mm_P1.27mm" (id 2) (at 123.19 129.54 0)
      (effects (font (size 1.27 1.27)) hide)
    )
    (property "Datasheet" "https://www.silabs.com/documents/public/data-sheets/Si866x.pdf" (id 3) (at 123.19 129.54 0)
      (effects (font (size 1.27 1.27)) hide)
    )
    (property "Digi-Key_PN" "336-4947-1-ND" (id 4) (at 123.19 129.54 0)
      (effects (font (size 1.27 1.27)) hide)
    )
    (pin "1" (uuid 60d22705-984a-4021-8f62-c49a9b9eb12f))
    (pin "10" (uuid 6deec247-353c-4acb-89ea-a2e3f9c567a6))
    (pin "11" (uuid c9985793-5e03-4fff-8e1c-5031fafb0429))
    (pin "12" (uuid ed48491b-7b04-4ffe-a135-eb72146776c5))
    (pin "13" (uuid 03b6802a-490a-41a4-bab0-22001937fcb1))
    (pin "14" (uuid 283ea6cc-c50e-4d1a-8892-67a1f89ad14f))
    (pin "15" (uuid daaf19a3-a3e3-4c27-8f94-86c3bd815741))
    (pin "16" (uuid dc2e4d7d-a7fe-4bd3-82d7-6a7ccb21c6dc))
    (pin "2" (uuid 592cd2b9-ef63-48f4-9bab-3f2eda111df1))
    (pin "3" (uuid 185a577a-0cde-415c-a73a-f0e16e979377))
    (pin "4" (uuid e12b392e-2e42-469e-9df1-1b279daedf27))
    (pin "5" (uuid a077dc79-3733-4f16-bc90-af0a5240a667))
    (pin "6" (uuid f6400a31-a116-4b6a-974c-3edaf5cce459))
    (pin "7" (uuid 6dd13f02-a118-4ab2-a668-f0568b9413bb))
    (pin "8" (uuid e1874a99-5c91-44eb-9092-79305bc6a54e))
    (pin "9" (uuid 12efaf6b-85ca-470a-8c23-ba0fedf138c4))
  )

  (symbol (lib_id "power:+5V") (at 177.8 52.07 0) (mirror y) (unit 1)
    (in_bom yes) (on_board yes)
    (uuid 00000000-0000-0000-0000-00005eede58a)
    (property "Reference" "#PWR0116" (id 0) (at 177.8 55.88 0)
      (effects (font (size 1.27 1.27)) hide)
    )
    (property "Value" "+5V" (id 1) (at 177.419 47.6758 0))
    (property "Footprint" "" (id 2) (at 177.8 52.07 0)
      (effects (font (size 1.27 1.27)) hide)
    )
    (property "Datasheet" "" (id 3) (at 177.8 52.07 0)
      (effects (font (size 1.27 1.27)) hide)
    )
    (pin "1" (uuid b901d2f0-ee39-4c24-bb46-dcab6fea5320))
  )

  (symbol (lib_id "power:GND") (at 177.8 59.69 0) (mirror y) (unit 1)
    (in_bom yes) (on_board yes)
    (uuid 00000000-0000-0000-0000-00005eede590)
    (property "Reference" "#PWR0117" (id 0) (at 177.8 66.04 0)
      (effects (font (size 1.27 1.27)) hide)
    )
    (property "Value" "GND" (id 1) (at 177.673 64.0842 0))
    (property "Footprint" "" (id 2) (at 177.8 59.69 0)
      (effects (font (size 1.27 1.27)) hide)
    )
    (property "Datasheet" "" (id 3) (at 177.8 59.69 0)
      (effects (font (size 1.27 1.27)) hide)
    )
    (pin "1" (uuid 5bbea13b-cba3-4bad-a88c-d3971447760d))
  )

  (symbol (lib_id "power:GND") (at 146.05 133.35 0) (unit 1)
    (in_bom yes) (on_board yes)
    (uuid 00000000-0000-0000-0000-00005eede5d2)
    (property "Reference" "#PWR0115" (id 0) (at 146.05 139.7 0)
      (effects (font (size 1.27 1.27)) hide)
    )
    (property "Value" "GND" (id 1) (at 146.177 137.7442 0))
    (property "Footprint" "" (id 2) (at 146.05 133.35 0)
      (effects (font (size 1.27 1.27)) hide)
    )
    (property "Datasheet" "" (id 3) (at 146.05 133.35 0)
      (effects (font (size 1.27 1.27)) hide)
    )
    (pin "1" (uuid 01c9919c-6e63-4c70-8aef-a34f6ae816cd))
  )

  (symbol (lib_id "power:+5V") (at 144.78 102.235 0) (unit 1)
    (in_bom yes) (on_board yes)
    (uuid 00000000-0000-0000-0000-00005eede5d9)
    (property "Reference" "#PWR0114" (id 0) (at 144.78 106.045 0)
      (effects (font (size 1.27 1.27)) hide)
    )
    (property "Value" "+5V" (id 1) (at 145.161 97.8408 0))
    (property "Footprint" "" (id 2) (at 144.78 102.235 0)
      (effects (font (size 1.27 1.27)) hide)
    )
    (property "Datasheet" "" (id 3) (at 144.78 102.235 0)
      (effects (font (size 1.27 1.27)) hide)
    )
    (pin "1" (uuid 25d60f50-0a8d-43ef-be7a-b2c715e1a58f))
  )

  (symbol (lib_id "Device:C_Small") (at 116.84 130.81 0) (unit 1)
    (in_bom yes) (on_board yes)
    (uuid 00000000-0000-0000-0000-00005eede5e3)
    (property "Reference" "C70" (id 0) (at 119.1768 129.6416 0)
      (effects (font (size 1.27 1.27)) (justify left))
    )
    (property "Value" "C 100n" (id 1) (at 119.1768 131.953 0)
      (effects (font (size 1.27 1.27)) (justify left))
    )
    (property "Footprint" "Capacitor_SMD:C_0805_2012Metric_Pad1.18x1.45mm_HandSolder" (id 2) (at 116.84 130.81 0)
      (effects (font (size 1.27 1.27)) hide)
    )
    (property "Datasheet" "~" (id 3) (at 116.84 130.81 0)
      (effects (font (size 1.27 1.27)) hide)
    )
    (property "Voltage - rated" "16" (id 4) (at 116.84 130.81 0)
      (effects (font (size 1.27 1.27)) hide)
    )
    (property "Tolerance" "20%" (id 5) (at 116.84 130.81 0)
      (effects (font (size 1.27 1.27)) hide)
    )
    (property "Digi-Key_PN" "399-8000-1-ND" (id 6) (at 116.84 130.81 0)
      (effects (font (size 1.27 1.27)) hide)
    )
    (property "Farnell_PN" "1759265" (id 7) (at 116.84 130.81 0)
      (effects (font (size 1.27 1.27)) hide)
    )
    (pin "1" (uuid f78072a3-116b-4045-b093-f13f69081932))
    (pin "2" (uuid 7ebc1cd0-bf72-4033-9e51-a2992f5390b9))
  )

  (symbol (lib_id "Device:C_Small") (at 143.51 130.81 0) (unit 1)
    (in_bom yes) (on_board yes)
    (uuid 00000000-0000-0000-0000-00005eede5eb)
    (property "Reference" "C71" (id 0) (at 145.8468 129.6416 0)
      (effects (font (size 1.27 1.27)) (justify left))
    )
    (property "Value" "C 100n" (id 1) (at 145.8468 131.953 0)
      (effects (font (size 1.27 1.27)) (justify left))
    )
    (property "Footprint" "Capacitor_SMD:C_0805_2012Metric_Pad1.18x1.45mm_HandSolder" (id 2) (at 143.51 130.81 0)
      (effects (font (size 1.27 1.27)) hide)
    )
    (property "Datasheet" "~" (id 3) (at 143.51 130.81 0)
      (effects (font (size 1.27 1.27)) hide)
    )
    (property "Voltage - rated" "16" (id 4) (at 143.51 130.81 0)
      (effects (font (size 1.27 1.27)) hide)
    )
    (property "Tolerance" "20%" (id 5) (at 143.51 130.81 0)
      (effects (font (size 1.27 1.27)) hide)
    )
    (property "Digi-Key_PN" "399-8000-1-ND" (id 6) (at 143.51 130.81 0)
      (effects (font (size 1.27 1.27)) hide)
    )
    (property "Farnell_PN" "1759265" (id 7) (at 143.51 130.81 0)
      (effects (font (size 1.27 1.27)) hide)
    )
    (pin "1" (uuid a9b26c99-a310-490c-b0f6-429ba7fd0798))
    (pin "2" (uuid c92b9991-b7c6-4d67-bc03-9b50af1f27d0))
  )

  (symbol (lib_id "power:+5V") (at 143.51 128.27 0) (unit 1)
    (in_bom yes) (on_board yes)
    (uuid 00000000-0000-0000-0000-00005eede5f9)
    (property "Reference" "#PWR0113" (id 0) (at 143.51 132.08 0)
      (effects (font (size 1.27 1.27)) hide)
    )
    (property "Value" "+5V" (id 1) (at 143.891 123.8758 0))
    (property "Footprint" "" (id 2) (at 143.51 128.27 0)
      (effects (font (size 1.27 1.27)) hide)
    )
    (property "Datasheet" "" (id 3) (at 143.51 128.27 0)
      (effects (font (size 1.27 1.27)) hide)
    )
    (pin "1" (uuid 2fe29a88-8734-475c-af3d-255f384f4010))
  )

  (symbol (lib_id "power:GND1") (at 85.09 59.69 0) (mirror y) (unit 1)
    (in_bom yes) (on_board yes)
    (uuid 00000000-0000-0000-0000-00005eede655)
    (property "Reference" "#PWR0110" (id 0) (at 85.09 66.04 0)
      (effects (font (size 1.27 1.27)) hide)
    )
    (property "Value" "GND1" (id 1) (at 84.963 64.0842 0))
    (property "Footprint" "" (id 2) (at 85.09 59.69 0)
      (effects (font (size 1.27 1.27)) hide)
    )
    (property "Datasheet" "" (id 3) (at 85.09 59.69 0)
      (effects (font (size 1.27 1.27)) hide)
    )
    (pin "1" (uuid 92f51a68-2669-42f3-b473-854624d6222b))
  )

  (symbol (lib_id "power:+5VA") (at 85.09 52.07 0) (mirror y) (unit 1)
    (in_bom yes) (on_board yes)
    (uuid 00000000-0000-0000-0000-00005eede661)
    (property "Reference" "#PWR0109" (id 0) (at 85.09 55.88 0)
      (effects (font (size 1.27 1.27)) hide)
    )
    (property "Value" "+5VA" (id 1) (at 84.709 47.6758 0))
    (property "Footprint" "" (id 2) (at 85.09 52.07 0)
      (effects (font (size 1.27 1.27)) hide)
    )
    (property "Datasheet" "" (id 3) (at 85.09 52.07 0)
      (effects (font (size 1.27 1.27)) hide)
    )
    (pin "1" (uuid b65470e4-8b5a-4725-9d67-11ae2ca6b727))
  )

  (symbol (lib_id "power:GND1") (at 91.44 133.35 0) (mirror y) (unit 1)
    (in_bom yes) (on_board yes)
    (uuid 00000000-0000-0000-0000-00005eede679)
    (property "Reference" "#PWR0108" (id 0) (at 91.44 139.7 0)
      (effects (font (size 1.27 1.27)) hide)
    )
    (property "Value" "GND1" (id 1) (at 91.313 137.7442 0))
    (property "Footprint" "" (id 2) (at 91.44 133.35 0)
      (effects (font (size 1.27 1.27)) hide)
    )
    (property "Datasheet" "" (id 3) (at 91.44 133.35 0)
      (effects (font (size 1.27 1.27)) hide)
    )
    (pin "1" (uuid 4f53f8e6-8f55-43cc-8ab6-a2970971dcd0))
  )

  (symbol (lib_id "power:+5VA") (at 115.57 102.235 0) (mirror y) (unit 1)
    (in_bom yes) (on_board yes)
    (uuid 00000000-0000-0000-0000-00005eede67f)
    (property "Reference" "#PWR0111" (id 0) (at 115.57 106.045 0)
      (effects (font (size 1.27 1.27)) hide)
    )
    (property "Value" "+5VA" (id 1) (at 115.189 97.8408 0))
    (property "Footprint" "" (id 2) (at 115.57 102.235 0)
      (effects (font (size 1.27 1.27)) hide)
    )
    (property "Datasheet" "" (id 3) (at 115.57 102.235 0)
      (effects (font (size 1.27 1.27)) hide)
    )
    (pin "1" (uuid ed60edbb-d58c-4c34-8d66-31f6439364d5))
  )

  (symbol (lib_id "power:+5VA") (at 116.84 128.27 0) (mirror y) (unit 1)
    (in_bom yes) (on_board yes)
    (uuid 00000000-0000-0000-0000-00005eede685)
    (property "Reference" "#PWR0112" (id 0) (at 116.84 132.08 0)
      (effects (font (size 1.27 1.27)) hide)
    )
    (property "Value" "+5VA" (id 1) (at 116.459 123.8758 0))
    (property "Footprint" "" (id 2) (at 116.84 128.27 0)
      (effects (font (size 1.27 1.27)) hide)
    )
    (property "Datasheet" "" (id 3) (at 116.84 128.27 0)
      (effects (font (size 1.27 1.27)) hide)
    )
    (pin "1" (uuid 67872d9d-20ce-4e9c-bea8-058c5b564e29))
  )

  (symbol (lib_id "DCDC-converters_magne:ADuM5010ARSZ") (at 139.7 62.23 0) (mirror y) (unit 1)
    (in_bom yes) (on_board yes)
    (uuid 00000000-0000-0000-0000-00005ef8a499)
    (property "Reference" "U39" (id 0) (at 130.81 45.339 0))
    (property "Value" "ADuM5010ARSZ" (id 1) (at 130.81 47.6504 0))
    (property "Footprint" "Package_SO:SSOP-20_5.3x7.2mm_P0.65mm" (id 2) (at 124.46 66.04 0)
      (effects (font (size 1.27 1.27)) hide)
    )
    (property "Datasheet" "https://www.analog.com/media/en/technical-documentation/data-sheets/ADuM5010.pdf" (id 3) (at 124.46 66.04 0)
      (effects (font (size 1.27 1.27)) hide)
    )
    (property "Digi-Key_PN" "ADUM5010ARSZ-RL7CT-ND" (id 4) (at 139.7 62.23 0)
      (effects (font (size 1.27 1.27)) hide)
    )
    (pin "1" (uuid afc2a7ac-b98b-4689-94ee-2fe69bf16320))
    (pin "10" (uuid f015ed41-dd40-457f-9a98-fd50488a6e41))
    (pin "11" (uuid 61ab06f6-f687-4109-a972-a7624719e9b4))
    (pin "12" (uuid 676fad8d-5cce-441e-9f90-b3f753759ee1))
    (pin "13" (uuid 61d5d5e1-5cbc-4966-8400-c7c8ae928ba9))
    (pin "14" (uuid 4a20cef0-360b-404e-a960-f07ccf7658c4))
    (pin "15" (uuid bd34e6af-bec5-4b5b-9578-bae7ff29cd0c))
    (pin "16" (uuid 9a53f9c4-9435-49e6-96c4-a13eea1e857d))
    (pin "17" (uuid 2afb7d9c-9975-439f-93be-bf3654e6e12d))
    (pin "18" (uuid 27185b55-9e23-43d5-9b40-5bcdacfd7c15))
    (pin "19" (uuid 7e657ea5-2f9c-46b6-afbf-423c61fa8b12))
    (pin "2" (uuid 3c0d9a67-0e6a-4010-80c8-c078f94ec663))
    (pin "20" (uuid 0cb2b9c5-6e7d-48a6-a703-f9180c85b093))
    (pin "3" (uuid 5be88003-1e81-4829-aa64-5f95891f5436))
    (pin "4" (uuid 7b8122d3-355b-4cbf-9928-c2f2d23e2be6))
    (pin "5" (uuid 7857af6b-a069-44c2-895d-5af5b2c17258))
    (pin "6" (uuid 6336a289-3094-40f3-b733-5658d8cb282b))
    (pin "7" (uuid 2cf06952-c25e-4bc2-a078-58d04c9753fc))
    (pin "8" (uuid 186ca84c-5fc8-4a37-b795-bda12cf94b6b))
    (pin "9" (uuid 8666c48e-b85b-4e80-b97b-05e8152a1155))
  )

  (symbol (lib_id "Device:C") (at 153.67 55.88 0) (mirror y) (unit 1)
    (in_bom yes) (on_board yes)
    (uuid 00000000-0000-0000-0000-00005ef8c721)
    (property "Reference" "C72" (id 0) (at 150.749 54.7116 0)
      (effects (font (size 1.27 1.27)) (justify left))
    )
    (property "Value" "C 100n" (id 1) (at 150.749 57.023 0)
      (effects (font (size 1.27 1.27)) (justify left))
    )
    (property "Footprint" "Capacitor_SMD:C_0805_2012Metric_Pad1.18x1.45mm_HandSolder" (id 2) (at 152.7048 59.69 0)
      (effects (font (size 1.27 1.27)) hide)
    )
    (property "Datasheet" "~" (id 3) (at 153.67 55.88 0)
      (effects (font (size 1.27 1.27)) hide)
    )
    (property "Digi-Key_PN" "399-8000-1-ND" (id 4) (at 153.67 55.88 0)
      (effects (font (size 1.27 1.27)) hide)
    )
    (pin "1" (uuid e6795861-e61a-4786-850d-2b6aed5d3d2d))
    (pin "2" (uuid a35fdfa1-354a-483b-bcf3-54a68a81f97e))
  )

  (symbol (lib_id "Device:R") (at 113.03 54.61 90) (mirror x) (unit 1)
    (in_bom yes) (on_board yes)
    (uuid 00000000-0000-0000-0000-00005ef90212)
    (property "Reference" "R77" (id 0) (at 113.03 53.34 90))
    (property "Value" "R 16K" (id 1) (at 113.03 57.15 90))
    (property "Footprint" "Resistor_SMD:R_0805_2012Metric_Pad1.20x1.40mm_HandSolder" (id 2) (at 113.03 52.832 90)
      (effects (font (size 1.27 1.27)) hide)
    )
    (property "Datasheet" "~" (id 3) (at 113.03 54.61 0)
      (effects (font (size 1.27 1.27)) hide)
    )
    (property "Tolerance" "1%" (id 4) (at 113.03 54.61 0)
      (effects (font (size 1.27 1.27)) hide)
    )
    (property "Digi-Key_PN" "311-16.0KCRCT-ND" (id 5) (at 113.03 54.61 0)
      (effects (font (size 1.27 1.27)) hide)
    )
    (pin "1" (uuid a7c6441c-c801-447a-83c0-5706f6106c96))
    (pin "2" (uuid bd3b39a2-eca0-4f15-b134-ed6cf18bc1c3))
  )

  (symbol (lib_id "Device:R") (at 113.03 49.53 90) (mirror x) (unit 1)
    (in_bom yes) (on_board yes)
    (uuid 00000000-0000-0000-0000-00005ef90386)
    (property "Reference" "R76" (id 0) (at 113.03 44.2722 90))
    (property "Value" "R 48.7K" (id 1) (at 113.03 46.5836 90))
    (property "Footprint" "Resistor_SMD:R_0805_2012Metric_Pad1.20x1.40mm_HandSolder" (id 2) (at 113.03 47.752 90)
      (effects (font (size 1.27 1.27)) hide)
    )
    (property "Datasheet" "~" (id 3) (at 113.03 49.53 0)
      (effects (font (size 1.27 1.27)) hide)
    )
    (property "Tolerance" "1%" (id 4) (at 113.03 49.53 0)
      (effects (font (size 1.27 1.27)) hide)
    )
    (property "Digi-Key_PN" "541-48.7KCCT-ND" (id 5) (at 113.03 49.53 0)
      (effects (font (size 1.27 1.27)) hide)
    )
    (pin "1" (uuid 5dc3347c-2d10-495e-96d4-b64dcb373890))
    (pin "2" (uuid e9da49af-8d1c-4ae8-a986-310b769b8332))
  )

  (symbol (lib_id "Device:C") (at 105.41 55.88 0) (mirror x) (unit 1)
    (in_bom yes) (on_board yes)
    (uuid 00000000-0000-0000-0000-00005ef91320)
    (property "Reference" "C69" (id 0) (at 102.489 54.7116 0)
      (effects (font (size 1.27 1.27)) (justify right))
    )
    (property "Value" "C 100n" (id 1) (at 102.489 57.023 0)
      (effects (font (size 1.27 1.27)) (justify right))
    )
    (property "Footprint" "Capacitor_SMD:C_0805_2012Metric_Pad1.18x1.45mm_HandSolder" (id 2) (at 106.3752 52.07 0)
      (effects (font (size 1.27 1.27)) hide)
    )
    (property "Datasheet" "~" (id 3) (at 105.41 55.88 0)
      (effects (font (size 1.27 1.27)) hide)
    )
    (property "Digi-Key_PN" "399-8000-1-ND" (id 4) (at 105.41 55.88 0)
      (effects (font (size 1.27 1.27)) hide)
    )
    (pin "1" (uuid d9adebc9-a98e-4fb6-9f65-a4da938dfb78))
    (pin "2" (uuid ef90375a-010b-4398-b99d-ec33deb9e3b3))
  )

  (symbol (lib_id "voltage_references_magne:ADR5044B") (at 91.44 128.27 90) (mirror x) (unit 1)
    (in_bom yes) (on_board yes)
    (uuid 00000000-0000-0000-0000-00005ef9d907)
    (property "Reference" "U37" (id 0) (at 96.52 127 90)
      (effects (font (size 1.27 1.27)) (justify left))
    )
    (property "Value" "ADR5044B" (id 1) (at 88.9 128.27 90)
      (effects (font (size 1.27 1.27)) (justify left))
    )
    (property "Footprint" "Package_TO_SOT_SMD:SOT-323_SC-70_Handsoldering" (id 2) (at 87.63 118.11 0)
      (effects (font (size 1.27 1.27)) hide)
    )
    (property "Datasheet" "https://www.analog.com/media/en/technical-documentation/data-sheets/ADR5040_5041_5043_5044_5045.pdf" (id 3) (at 87.63 134.62 0)
      (effects (font (size 1.27 1.27)) hide)
    )
    (property "Digi-Key_PN" "ADR5044BKSZ-REEL7CT-ND" (id 4) (at 95.25 121.92 0)
      (effects (font (size 1.27 1.27)) hide)
    )
    (pin "1" (uuid 3b1ce62c-b1c9-4f4b-b717-c952e343f1c9))
    (pin "2" (uuid fc39b4ff-fedb-4c7d-bdea-41263bb05ce6))
    (pin "3" (uuid de1ccd39-2871-4a35-b399-0e7c6fbe9e03))
  )

  (symbol (lib_id "Device:R") (at 91.44 117.475 0) (mirror x) (unit 1)
    (in_bom yes) (on_board yes)
    (uuid 00000000-0000-0000-0000-00005ef9e727)
    (property "Reference" "R75" (id 0) (at 86.995 118.745 0))
    (property "Value" "R 316" (id 1) (at 86.36 115.57 0))
    (property "Footprint" "Resistor_SMD:R_0805_2012Metric_Pad1.20x1.40mm_HandSolder" (id 2) (at 89.662 117.475 90)
      (effects (font (size 1.27 1.27)) hide)
    )
    (property "Datasheet" "~" (id 3) (at 91.44 117.475 0)
      (effects (font (size 1.27 1.27)) hide)
    )
    (property "Tolerance" "1%" (id 4) (at 91.44 117.475 0)
      (effects (font (size 1.27 1.27)) hide)
    )
    (property "Digi-Key_PN" "P316CCT-ND" (id 5) (at 91.44 117.475 0)
      (effects (font (size 1.27 1.27)) hide)
    )
    (pin "1" (uuid d0baa9fb-bf47-4c7b-a538-bdea0cfb2afc))
    (pin "2" (uuid cbceceef-0c61-4bdf-b5aa-679ef1f4e08f))
  )

  (symbol (lib_id "Device:R") (at 198.12 110.49 270) (unit 1)
    (in_bom yes) (on_board yes)
    (uuid 00000000-0000-0000-0000-00005f87a7ea)
    (property "Reference" "R79" (id 0) (at 198.12 105.2322 90))
    (property "Value" "R 10" (id 1) (at 198.12 107.5436 90))
    (property "Footprint" "Resistor_SMD:R_0603_1608Metric" (id 2) (at 198.12 108.712 90)
      (effects (font (size 1.27 1.27)) hide)
    )
    (property "Datasheet" "~" (id 3) (at 198.12 110.49 0)
      (effects (font (size 1.27 1.27)) hide)
    )
    (property "Tolerance" "" (id 4) (at 198.12 110.49 0)
      (effects (font (size 1.27 1.27)) hide)
    )
    (property "Digi-Key_PN" "RMCF0603FT10R0CT-ND" (id 5) (at 198.12 110.49 0)
      (effects (font (size 1.27 1.27)) hide)
    )
    (pin "1" (uuid 2ef35621-7593-4e3a-9d32-8091e486ddcb))
    (pin "2" (uuid e131cd24-4436-4ef9-a4b5-03aa98b72cdb))
  )

  (symbol (lib_id "Device:R") (at 198.12 123.19 270) (unit 1)
    (in_bom yes) (on_board yes)
    (uuid 00000000-0000-0000-0000-00005f87ff44)
    (property "Reference" "R80" (id 0) (at 198.12 117.9322 90))
    (property "Value" "R 10" (id 1) (at 198.12 120.2436 90))
    (property "Footprint" "Resistor_SMD:R_0603_1608Metric" (id 2) (at 198.12 121.412 90)
      (effects (font (size 1.27 1.27)) hide)
    )
    (property "Datasheet" "~" (id 3) (at 198.12 123.19 0)
      (effects (font (size 1.27 1.27)) hide)
    )
    (property "Tolerance" "" (id 4) (at 198.12 123.19 0)
      (effects (font (size 1.27 1.27)) hide)
    )
    (property "Digi-Key_PN" "RMCF0603FT10R0CT-ND" (id 5) (at 198.12 123.19 0)
      (effects (font (size 1.27 1.27)) hide)
    )
    (pin "1" (uuid 6c0b0e3a-5d8d-4067-9d18-563e157e0657))
    (pin "2" (uuid 5de76b21-d85d-4594-b44f-8eb5278913e1))
  )

  (symbol (lib_id "power:GND") (at 203.2 116.84 0) (unit 1)
    (in_bom yes) (on_board yes)
    (uuid 00000000-0000-0000-0000-00005f882297)
    (property "Reference" "#PWR0119" (id 0) (at 203.2 123.19 0)
      (effects (font (size 1.27 1.27)) hide)
    )
    (property "Value" "GND" (id 1) (at 203.327 121.2342 0))
    (property "Footprint" "" (id 2) (at 203.2 116.84 0)
      (effects (font (size 1.27 1.27)) hide)
    )
    (property "Datasheet" "" (id 3) (at 203.2 116.84 0)
      (effects (font (size 1.27 1.27)) hide)
    )
    (pin "1" (uuid 7d1c6083-92bf-4f0c-b624-389690e2b402))
  )

  (symbol (lib_id "power:GND") (at 203.2 129.54 0) (unit 1)
    (in_bom yes) (on_board yes)
    (uuid 00000000-0000-0000-0000-00005f884487)
    (property "Reference" "#PWR0120" (id 0) (at 203.2 135.89 0)
      (effects (font (size 1.27 1.27)) hide)
    )
    (property "Value" "GND" (id 1) (at 203.327 133.9342 0))
    (property "Footprint" "" (id 2) (at 203.2 129.54 0)
      (effects (font (size 1.27 1.27)) hide)
    )
    (property "Datasheet" "" (id 3) (at 203.2 129.54 0)
      (effects (font (size 1.27 1.27)) hide)
    )
    (pin "1" (uuid 2a875758-24e2-4831-a56b-843a1f95334b))
  )

  (symbol (lib_id "Device:R") (at 198.12 97.79 270) (unit 1)
    (in_bom yes) (on_board yes)
    (uuid 00000000-0000-0000-0000-00005f8c1bb8)
    (property "Reference" "R78" (id 0) (at 198.12 92.5322 90))
    (property "Value" "R 10" (id 1) (at 198.12 94.8436 90))
    (property "Footprint" "Resistor_SMD:R_0603_1608Metric" (id 2) (at 198.12 96.012 90)
      (effects (font (size 1.27 1.27)) hide)
    )
    (property "Datasheet" "~" (id 3) (at 198.12 97.79 0)
      (effects (font (size 1.27 1.27)) hide)
    )
    (property "Tolerance" "" (id 4) (at 198.12 97.79 0)
      (effects (font (size 1.27 1.27)) hide)
    )
    (property "Digi-Key_PN" "RMCF0603FT10R0CT-ND" (id 5) (at 198.12 97.79 0)
      (effects (font (size 1.27 1.27)) hide)
    )
    (pin "1" (uuid ac4b7077-159d-4fc0-bd4d-50951d36c2d1))
    (pin "2" (uuid 4be715a1-de87-499f-8634-07e2a5d82185))
  )

  (symbol (lib_id "power:GND") (at 203.2 104.14 0) (unit 1)
    (in_bom yes) (on_board yes)
    (uuid 00000000-0000-0000-0000-00005f8c4088)
    (property "Reference" "#PWR0118" (id 0) (at 203.2 110.49 0)
      (effects (font (size 1.27 1.27)) hide)
    )
    (property "Value" "GND" (id 1) (at 203.327 108.5342 0))
    (property "Footprint" "" (id 2) (at 203.2 104.14 0)
      (effects (font (size 1.27 1.27)) hide)
    )
    (property "Datasheet" "" (id 3) (at 203.2 104.14 0)
      (effects (font (size 1.27 1.27)) hide)
    )
    (pin "1" (uuid ab9c3afa-659a-4018-be85-786e05e46588))
  )

  (symbol (lib_id "Device:C_Small") (at 203.2 101.6 0) (unit 1)
    (in_bom yes) (on_board yes)
    (uuid 00000000-0000-0000-0000-00005f91355a)
    (property "Reference" "C75" (id 0) (at 205.5368 100.4316 0)
      (effects (font (size 1.27 1.27)) (justify left))
    )
    (property "Value" "C 470p" (id 1) (at 205.5368 102.743 0)
      (effects (font (size 1.27 1.27)) (justify left))
    )
    (property "Footprint" "Capacitor_SMD:C_0603_1608Metric" (id 2) (at 203.2 101.6 0)
      (effects (font (size 1.27 1.27)) hide)
    )
    (property "Datasheet" "~" (id 3) (at 203.2 101.6 0)
      (effects (font (size 1.27 1.27)) hide)
    )
    (property "Voltage - rated" "16" (id 4) (at 203.2 101.6 0)
      (effects (font (size 1.27 1.27)) hide)
    )
    (property "Tolerance" "20%" (id 5) (at 203.2 101.6 0)
      (effects (font (size 1.27 1.27)) hide)
    )
    (property "Digi-Key_PN" "399-10051-1-ND" (id 6) (at 203.2 101.6 0)
      (effects (font (size 1.27 1.27)) hide)
    )
    (property "Farnell_PN" "" (id 7) (at 203.2 101.6 0)
      (effects (font (size 1.27 1.27)) hide)
    )
    (pin "1" (uuid a10242bb-503a-43ba-b3b5-a69c8cf44f9e))
    (pin "2" (uuid fc2c541c-9409-4d48-8b74-1e8ee1db1ef8))
  )

  (symbol (lib_id "Device:C_Small") (at 203.2 114.3 0) (unit 1)
    (in_bom yes) (on_board yes)
    (uuid 00000000-0000-0000-0000-00005f91458b)
    (property "Reference" "C76" (id 0) (at 205.5368 113.1316 0)
      (effects (font (size 1.27 1.27)) (justify left))
    )
    (property "Value" "C 470p" (id 1) (at 205.5368 115.443 0)
      (effects (font (size 1.27 1.27)) (justify left))
    )
    (property "Footprint" "Capacitor_SMD:C_0603_1608Metric" (id 2) (at 203.2 114.3 0)
      (effects (font (size 1.27 1.27)) hide)
    )
    (property "Datasheet" "~" (id 3) (at 203.2 114.3 0)
      (effects (font (size 1.27 1.27)) hide)
    )
    (property "Voltage - rated" "16" (id 4) (at 203.2 114.3 0)
      (effects (font (size 1.27 1.27)) hide)
    )
    (property "Tolerance" "20%" (id 5) (at 203.2 114.3 0)
      (effects (font (size 1.27 1.27)) hide)
    )
    (property "Digi-Key_PN" "399-10051-1-ND" (id 6) (at 203.2 114.3 0)
      (effects (font (size 1.27 1.27)) hide)
    )
    (property "Farnell_PN" "" (id 7) (at 203.2 114.3 0)
      (effects (font (size 1.27 1.27)) hide)
    )
    (pin "1" (uuid 7e0355e4-f5bf-4a38-a7f9-4d5f3763e899))
    (pin "2" (uuid 233d2b57-f503-4c3a-bc68-cc0d30bbed48))
  )

  (symbol (lib_id "Device:C_Small") (at 203.2 127 0) (unit 1)
    (in_bom yes) (on_board yes)
    (uuid 00000000-0000-0000-0000-00005f91688a)
    (property "Reference" "C77" (id 0) (at 205.5368 125.8316 0)
      (effects (font (size 1.27 1.27)) (justify left))
    )
    (property "Value" "C 470p" (id 1) (at 205.5368 128.143 0)
      (effects (font (size 1.27 1.27)) (justify left))
    )
    (property "Footprint" "Capacitor_SMD:C_0603_1608Metric" (id 2) (at 203.2 127 0)
      (effects (font (size 1.27 1.27)) hide)
    )
    (property "Datasheet" "~" (id 3) (at 203.2 127 0)
      (effects (font (size 1.27 1.27)) hide)
    )
    (property "Voltage - rated" "16" (id 4) (at 203.2 127 0)
      (effects (font (size 1.27 1.27)) hide)
    )
    (property "Tolerance" "20%" (id 5) (at 203.2 127 0)
      (effects (font (size 1.27 1.27)) hide)
    )
    (property "Digi-Key_PN" "399-10051-1-ND" (id 6) (at 203.2 127 0)
      (effects (font (size 1.27 1.27)) hide)
    )
    (property "Farnell_PN" "" (id 7) (at 203.2 127 0)
      (effects (font (size 1.27 1.27)) hide)
    )
    (pin "1" (uuid 56273559-500b-495d-8ba1-f59d183c7ecf))
    (pin "2" (uuid 97572c03-59bf-41ce-a892-4d32da633491))
  )

  (symbol (lib_id "Device:C") (at 85.09 55.88 0) (mirror x) (unit 1)
    (in_bom yes) (on_board yes)
    (uuid 00000000-0000-0000-0000-00005fc04d7c)
    (property "Reference" "C67" (id 0) (at 82.169 54.7116 0)
      (effects (font (size 1.27 1.27)) (justify right))
    )
    (property "Value" "C 4.7u" (id 1) (at 82.169 57.023 0)
      (effects (font (size 1.27 1.27)) (justify right))
    )
    (property "Footprint" "Capacitor_SMD:C_0603_1608Metric_Pad1.05x0.95mm_HandSolder" (id 2) (at 86.0552 52.07 0)
      (effects (font (size 1.27 1.27)) hide)
    )
    (property "Datasheet" "~" (id 3) (at 85.09 55.88 0)
      (effects (font (size 1.27 1.27)) hide)
    )
    (property "Digi-Key_PN" "490-11992-1-ND" (id 4) (at 85.09 55.88 0)
      (effects (font (size 1.27 1.27)) hide)
    )
    (pin "1" (uuid 90beb7e1-45a1-4bd8-b0a4-8f1531f149d2))
    (pin "2" (uuid b9d611d8-2f6a-47e3-a87b-0e0e5bfcad0b))
  )

  (symbol (lib_id "Device:C") (at 93.98 55.88 0) (mirror x) (unit 1)
    (in_bom yes) (on_board yes)
    (uuid 00000000-0000-0000-0000-00005fc05006)
    (property "Reference" "C68" (id 0) (at 91.059 54.7116 0)
      (effects (font (size 1.27 1.27)) (justify right))
    )
    (property "Value" "C 4.7u" (id 1) (at 91.059 57.023 0)
      (effects (font (size 1.27 1.27)) (justify right))
    )
    (property "Footprint" "Capacitor_SMD:C_0603_1608Metric_Pad1.05x0.95mm_HandSolder" (id 2) (at 94.9452 52.07 0)
      (effects (font (size 1.27 1.27)) hide)
    )
    (property "Datasheet" "~" (id 3) (at 93.98 55.88 0)
      (effects (font (size 1.27 1.27)) hide)
    )
    (property "Digi-Key_PN" "490-11992-1-ND" (id 4) (at 93.98 55.88 0)
      (effects (font (size 1.27 1.27)) hide)
    )
    (pin "1" (uuid 1970c855-df6b-49f1-8ec7-19039dc20a9b))
    (pin "2" (uuid cea6335e-73d6-4c77-a21b-b62104b8f79f))
  )

  (symbol (lib_id "Device:C") (at 165.1 55.88 0) (mirror x) (unit 1)
    (in_bom yes) (on_board yes)
    (uuid 00000000-0000-0000-0000-00005fc051a9)
    (property "Reference" "C73" (id 0) (at 162.179 54.7116 0)
      (effects (font (size 1.27 1.27)) (justify right))
    )
    (property "Value" "C 4.7u" (id 1) (at 162.179 57.023 0)
      (effects (font (size 1.27 1.27)) (justify right))
    )
    (property "Footprint" "Capacitor_SMD:C_0603_1608Metric_Pad1.05x0.95mm_HandSolder" (id 2) (at 166.0652 52.07 0)
      (effects (font (size 1.27 1.27)) hide)
    )
    (property "Datasheet" "~" (id 3) (at 165.1 55.88 0)
      (effects (font (size 1.27 1.27)) hide)
    )
    (property "Digi-Key_PN" "490-11992-1-ND" (id 4) (at 165.1 55.88 0)
      (effects (font (size 1.27 1.27)) hide)
    )
    (pin "1" (uuid 8ef7b57a-a397-42c8-a2a4-30c7d27d5126))
    (pin "2" (uuid 80202aa4-6ba8-4921-b75f-c484e9d557af))
  )

  (symbol (lib_id "Device:C") (at 177.8 55.88 0) (mirror x) (unit 1)
    (in_bom yes) (on_board yes)
    (uuid 00000000-0000-0000-0000-00005fc0535e)
    (property "Reference" "C74" (id 0) (at 174.879 54.7116 0)
      (effects (font (size 1.27 1.27)) (justify right))
    )
    (property "Value" "C 4.7u" (id 1) (at 174.879 57.023 0)
      (effects (font (size 1.27 1.27)) (justify right))
    )
    (property "Footprint" "Capacitor_SMD:C_0603_1608Metric_Pad1.05x0.95mm_HandSolder" (id 2) (at 178.7652 52.07 0)
      (effects (font (size 1.27 1.27)) hide)
    )
    (property "Datasheet" "~" (id 3) (at 177.8 55.88 0)
      (effects (font (size 1.27 1.27)) hide)
    )
    (property "Digi-Key_PN" "490-11992-1-ND" (id 4) (at 177.8 55.88 0)
      (effects (font (size 1.27 1.27)) hide)
    )
    (pin "1" (uuid 6cb5f9fd-aecd-4869-a7e2-d52a27b68d49))
    (pin "2" (uuid 106123ef-782f-4407-9614-b3330ecad0c5))
  )

  (symbol (lib_id "dk_Test-Points:5011") (at 73.66 57.15 0) (mirror x) (unit 1)
    (in_bom yes) (on_board yes)
    (uuid 00000000-0000-0000-0000-00005fd25474)
    (property "Reference" "TP10" (id 0) (at 72.39 58.3438 0)
      (effects (font (size 1.27 1.27)) (justify right))
    )
    (property "Value" "5011" (id 1) (at 73.66 54.61 0)
      (effects (font (size 1.27 1.27)) hide)
    )
    (property "Footprint" "TestPoint:TestPoint_Pad_D1.0mm" (id 2) (at 78.74 62.23 0)
      (effects (font (size 1.524 1.524)) (justify left) hide)
    )
    (property "Datasheet" "http://www.keyelco.com/product-pdf.cfm?p=1320" (id 3) (at 78.74 64.77 0)
      (effects (font (size 1.524 1.524)) (justify left) hide)
    )
    (property "Digi-Key_PN" "" (id 4) (at 78.74 67.31 0)
      (effects (font (size 1.524 1.524)) (justify left) hide)
    )
    (property "MPN" "5011" (id 5) (at 78.74 69.85 0)
      (effects (font (size 1.524 1.524)) (justify left) hide)
    )
    (property "Category" "Test and Measurement" (id 6) (at 78.74 72.39 0)
      (effects (font (size 1.524 1.524)) (justify left) hide)
    )
    (property "Family" "Test Points" (id 7) (at 78.74 74.93 0)
      (effects (font (size 1.524 1.524)) (justify left) hide)
    )
    (property "DK_Datasheet_Link" "http://www.keyelco.com/product-pdf.cfm?p=1320" (id 8) (at 78.74 77.47 0)
      (effects (font (size 1.524 1.524)) (justify left) hide)
    )
    (property "DK_Detail_Page" "/product-detail/en/keystone-electronics/5011/36-5011-ND/255333" (id 9) (at 78.74 80.01 0)
      (effects (font (size 1.524 1.524)) (justify left) hide)
    )
    (property "Description" "PC TEST POINT MULTIPURPOSE BLACK" (id 10) (at 78.74 82.55 0)
      (effects (font (size 1.524 1.524)) (justify left) hide)
    )
    (property "Manufacturer" "Keystone Electronics" (id 11) (at 78.74 85.09 0)
      (effects (font (size 1.524 1.524)) (justify left) hide)
    )
    (property "Status" "Active" (id 12) (at 78.74 87.63 0)
      (effects (font (size 1.524 1.524)) (justify left) hide)
    )
    (pin "1" (uuid 8d921b0d-e0af-47aa-81b1-0b24132eb5c7))
  )

  (sheet (at 154.94 97.79) (size 13.97 5.08)
    (stroke (width 0) (type solid) (color 0 0 0 0))
    (fill (color 0 0 0 0.0000))
    (uuid 00000000-0000-0000-0000-00005ef6ca07)
    (property "Sheet name" "sheet5EF6CA04" (id 0) (at 154.94 97.0784 0)
      (effects (font (size 1.27 1.27)) (justify left bottom))
    )
    (property "Sheet file" "R_G_LED_indicator_LVsens.kicad_sch" (id 1) (at 144.78 104.14 0)
      (effects (font (size 1.27 1.27)) (justify left top))
    )
    (pin "Cntrl" input (at 154.94 100.33 180)
      (effects (font (size 1.27 1.27)) (justify left))
      (uuid dd475fdf-49dc-4ef0-9c0d-75c9d8288362)
    )
  )
)
