EESchema Schematic File Version 4
EELAYER 30 0
EELAYER END
$Descr A4 11693 8268
encoding utf-8
Sheet 33 34
Title ""
Date ""
Rev ""
Comp ""
Comment1 ""
Comment2 ""
Comment3 ""
Comment4 ""
$EndDescr
$Comp
L power:+5V #PWR?
U 1 1 5EEDE58A
P 7900 2000
AR Path="/5ED13689/5EEDE58A" Ref="#PWR?"  Part="1" 
AR Path="/5EEDC7D6/5EEDE58A" Ref="#PWR0116"  Part="1" 
F 0 "#PWR0116" H 7900 1850 50  0001 C CNN
F 1 "+5V" H 7915 2173 50  0000 C CNN
F 2 "" H 7900 2000 50  0001 C CNN
F 3 "" H 7900 2000 50  0001 C CNN
	1    7900 2000
	-1   0    0    -1  
$EndComp
$Comp
L power:GND #PWR?
U 1 1 5EEDE590
P 7900 2300
AR Path="/5ED13689/5EEDE590" Ref="#PWR?"  Part="1" 
AR Path="/5EEDC7D6/5EEDE590" Ref="#PWR0117"  Part="1" 
F 0 "#PWR0117" H 7900 2050 50  0001 C CNN
F 1 "GND" H 7905 2127 50  0000 C CNN
F 2 "" H 7900 2300 50  0001 C CNN
F 3 "" H 7900 2300 50  0001 C CNN
	1    7900 2300
	-1   0    0    -1  
$EndComp
Text HLabel 8850 3950 2    50   Input ~ 0
VSens_ARM_alarm_out
$Comp
L power:GND #PWR?
U 1 1 5EEDE5D2
P 6650 4350
AR Path="/5ED2BC2A/5EEDE5D2" Ref="#PWR?"  Part="1" 
AR Path="/5ED13689/5EEDE5D2" Ref="#PWR?"  Part="1" 
AR Path="/5EEDC7D6/5EEDE5D2" Ref="#PWR0115"  Part="1" 
F 0 "#PWR0115" H 6650 4100 50  0001 C CNN
F 1 "GND" H 6655 4177 50  0000 C CNN
F 2 "" H 6650 4350 50  0001 C CNN
F 3 "" H 6650 4350 50  0001 C CNN
	1    6650 4350
	1    0    0    -1  
$EndComp
Wire Wire Line
	6450 3150 6600 3150
$Comp
L power:+5V #PWR?
U 1 1 5EEDE5D9
P 6600 3150
AR Path="/5ED2BC2A/5EEDE5D9" Ref="#PWR?"  Part="1" 
AR Path="/5ED13689/5EEDE5D9" Ref="#PWR?"  Part="1" 
AR Path="/5EEDC7D6/5EEDE5D9" Ref="#PWR0114"  Part="1" 
F 0 "#PWR0114" H 6600 3000 50  0001 C CNN
F 1 "+5V" H 6615 3323 50  0000 C CNN
F 2 "" H 6600 3150 50  0001 C CNN
F 3 "" H 6600 3150 50  0001 C CNN
	1    6600 3150
	1    0    0    -1  
$EndComp
Wire Wire Line
	5450 3150 5650 3150
Text HLabel 8850 3450 2    50   Input ~ 0
VSens_interlock_out
$Comp
L Device:C_Small C?
U 1 1 5EEDE5E3
P 5500 4250
AR Path="/5EB41214/5EEDE5E3" Ref="C?"  Part="1" 
AR Path="/5ED2BC2A/5EEDE5E3" Ref="C?"  Part="1" 
AR Path="/5ECA2575/5EEDE5E3" Ref="C?"  Part="1" 
AR Path="/5ECAC95D/5EEDE5E3" Ref="C?"  Part="1" 
AR Path="/5ED13689/5EEDE5E3" Ref="C?"  Part="1" 
AR Path="/5EEDC7D6/5EEDE5E3" Ref="C70"  Part="1" 
F 0 "C70" H 5592 4296 50  0000 L CNN
F 1 "C 100n" H 5592 4205 50  0000 L CNN
F 2 "Capacitor_SMD:C_0805_2012Metric_Pad1.15x1.40mm_HandSolder" H 5500 4250 50  0001 C CNN
F 3 "~" H 5500 4250 50  0001 C CNN
F 4 "16" H 5500 4250 50  0001 C CNN "Voltage - rated"
F 5 "20%" H 5500 4250 50  0001 C CNN "Tolerance"
F 6 "399-8000-1-ND" H 5500 4250 50  0001 C CNN "Digi-Key_PN"
F 7 "1759265" H 5500 4250 50  0001 C CNN "Farnell_PN"
	1    5500 4250
	1    0    0    -1  
$EndComp
$Comp
L Device:C_Small C?
U 1 1 5EEDE5EB
P 6550 4250
AR Path="/5EB41214/5EEDE5EB" Ref="C?"  Part="1" 
AR Path="/5ED2BC2A/5EEDE5EB" Ref="C?"  Part="1" 
AR Path="/5ECA2575/5EEDE5EB" Ref="C?"  Part="1" 
AR Path="/5ECAC95D/5EEDE5EB" Ref="C?"  Part="1" 
AR Path="/5ED13689/5EEDE5EB" Ref="C?"  Part="1" 
AR Path="/5EEDC7D6/5EEDE5EB" Ref="C71"  Part="1" 
F 0 "C71" H 6642 4296 50  0000 L CNN
F 1 "C 100n" H 6642 4205 50  0000 L CNN
F 2 "Capacitor_SMD:C_0805_2012Metric_Pad1.15x1.40mm_HandSolder" H 6550 4250 50  0001 C CNN
F 3 "~" H 6550 4250 50  0001 C CNN
F 4 "16" H 6550 4250 50  0001 C CNN "Voltage - rated"
F 5 "20%" H 6550 4250 50  0001 C CNN "Tolerance"
F 6 "399-8000-1-ND" H 6550 4250 50  0001 C CNN "Digi-Key_PN"
F 7 "1759265" H 6550 4250 50  0001 C CNN "Farnell_PN"
	1    6550 4250
	1    0    0    -1  
$EndComp
Wire Wire Line
	5500 4350 5650 4350
Wire Wire Line
	5650 4350 5650 4050
Connection ~ 5500 4350
Wire Wire Line
	6450 4350 6550 4350
Connection ~ 6550 4350
Wire Wire Line
	6550 4350 6650 4350
$Comp
L power:+5V #PWR?
U 1 1 5EEDE5F9
P 6550 4150
AR Path="/5ED2BC2A/5EEDE5F9" Ref="#PWR?"  Part="1" 
AR Path="/5ED13689/5EEDE5F9" Ref="#PWR?"  Part="1" 
AR Path="/5EEDC7D6/5EEDE5F9" Ref="#PWR0113"  Part="1" 
F 0 "#PWR0113" H 6550 4000 50  0001 C CNN
F 1 "+5V" H 6565 4323 50  0000 C CNN
F 2 "" H 6550 4150 50  0001 C CNN
F 3 "" H 6550 4150 50  0001 C CNN
	1    6550 4150
	1    0    0    -1  
$EndComp
Wire Wire Line
	6450 3750 6600 3750
Text GLabel 6600 3850 2    50   Input ~ 0
!ARM
Text GLabel 6600 3750 2    50   Input ~ 0
!LE
$Comp
L power:GND1 #PWR?
U 1 1 5EEDE655
P 4250 2300
AR Path="/5ED13689/5EEDE655" Ref="#PWR?"  Part="1" 
AR Path="/5EEDC7D6/5EEDE655" Ref="#PWR0110"  Part="1" 
F 0 "#PWR0110" H 4250 2050 50  0001 C CNN
F 1 "GND1" H 4255 2127 50  0000 C CNN
F 2 "" H 4250 2300 50  0001 C CNN
F 3 "" H 4250 2300 50  0001 C CNN
	1    4250 2300
	-1   0    0    -1  
$EndComp
$Comp
L power:+5VA #PWR?
U 1 1 5EEDE661
P 4250 2000
AR Path="/5ED13689/5EEDE661" Ref="#PWR?"  Part="1" 
AR Path="/5EEDC7D6/5EEDE661" Ref="#PWR0109"  Part="1" 
F 0 "#PWR0109" H 4250 1850 50  0001 C CNN
F 1 "+5VA" H 4265 2173 50  0000 C CNN
F 2 "" H 4250 2000 50  0001 C CNN
F 3 "" H 4250 2000 50  0001 C CNN
	1    4250 2000
	-1   0    0    -1  
$EndComp
$Comp
L power:GND1 #PWR?
U 1 1 5EEDE679
P 4150 4350
AR Path="/5ED13689/5EEDE679" Ref="#PWR?"  Part="1" 
AR Path="/5EEDC7D6/5EEDE679" Ref="#PWR0108"  Part="1" 
F 0 "#PWR0108" H 4150 4100 50  0001 C CNN
F 1 "GND1" H 4155 4177 50  0000 C CNN
F 2 "" H 4150 4350 50  0001 C CNN
F 3 "" H 4150 4350 50  0001 C CNN
	1    4150 4350
	-1   0    0    -1  
$EndComp
$Comp
L power:+5VA #PWR?
U 1 1 5EEDE67F
P 5450 3150
AR Path="/5ED13689/5EEDE67F" Ref="#PWR?"  Part="1" 
AR Path="/5EEDC7D6/5EEDE67F" Ref="#PWR0111"  Part="1" 
F 0 "#PWR0111" H 5450 3000 50  0001 C CNN
F 1 "+5VA" H 5465 3323 50  0000 C CNN
F 2 "" H 5450 3150 50  0001 C CNN
F 3 "" H 5450 3150 50  0001 C CNN
	1    5450 3150
	-1   0    0    -1  
$EndComp
$Comp
L power:+5VA #PWR?
U 1 1 5EEDE685
P 5500 4150
AR Path="/5ED13689/5EEDE685" Ref="#PWR?"  Part="1" 
AR Path="/5EEDC7D6/5EEDE685" Ref="#PWR0112"  Part="1" 
F 0 "#PWR0112" H 5500 4000 50  0001 C CNN
F 1 "+5VA" H 5515 4323 50  0000 C CNN
F 2 "" H 5500 4150 50  0001 C CNN
F 3 "" H 5500 4150 50  0001 C CNN
	1    5500 4150
	-1   0    0    -1  
$EndComp
$Sheet
S 7000 3450 550  200 
U 5EF6CA07
F0 "sheet5EF6CA04" 50
F1 "R_G_LED_indicator_LVsens.sch" 50
F2 "Cntrl" I L 7000 3550 50 
$EndSheet
Wire Wire Line
	6450 4050 6450 4350
Wire Wire Line
	6600 3850 6450 3850
$Comp
L DCDC-converters_magne:ADuM5010ARSZ U39
U 1 1 5EF8A499
P 6400 2400
F 0 "U39" H 6750 3065 50  0000 C CNN
F 1 "ADuM5010ARSZ" H 6750 2974 50  0000 C CNN
F 2 "Package_SO:SSOP-20_5.3x7.2mm_P0.65mm" H 7000 2250 50  0001 C CNN
F 3 "" H 7000 2250 50  0001 C CNN
F 4 "ADUM5010ARSZ-RL7CT-ND" H 6400 2400 50  0001 C CNN "Digi-Key_PN"
	1    6400 2400
	-1   0    0    -1  
$EndComp
$Comp
L Device:C C72
U 1 1 5EF8C721
P 6950 2150
F 0 "C72" H 7065 2196 50  0000 L CNN
F 1 "C 100n" H 7065 2105 50  0000 L CNN
F 2 "Capacitor_SMD:C_0805_2012Metric_Pad1.15x1.40mm_HandSolder" H 6988 2000 50  0001 C CNN
F 3 "~" H 6950 2150 50  0001 C CNN
F 4 "399-8000-1-ND" H 6950 2150 50  0001 C CNN "Digi-Key_PN"
	1    6950 2150
	-1   0    0    -1  
$EndComp
Wire Wire Line
	7900 2000 7400 2000
Wire Wire Line
	6950 2000 6500 2000
Connection ~ 6950 2000
Wire Wire Line
	6500 2300 6950 2300
Wire Wire Line
	6950 2300 7400 2300
Connection ~ 6950 2300
Wire Wire Line
	6500 2100 6500 2200
Wire Wire Line
	6500 2200 6500 2300
Connection ~ 6500 2200
Connection ~ 6500 2300
$Comp
L Device:R R77
U 1 1 5EF90212
P 5350 2100
F 0 "R77" V 5300 2100 50  0000 C CNN
F 1 "R 16K" V 5450 2100 50  0000 C CNN
F 2 "Resistor_SMD:R_0805_2012Metric_Pad1.15x1.40mm_HandSolder" V 5280 2100 50  0001 C CNN
F 3 "~" H 5350 2100 50  0001 C CNN
F 4 "1%" H 5350 2100 50  0001 C CNN "Tolerance"
F 5 "311-16.0KCRCT-ND" H 5350 2100 50  0001 C CNN "Digi-Key_PN"
	1    5350 2100
	0    -1   1    0   
$EndComp
$Comp
L Device:R R76
U 1 1 5EF90386
P 5350 1900
F 0 "R76" V 5143 1900 50  0000 C CNN
F 1 "R 48.7K" V 5234 1900 50  0000 C CNN
F 2 "Resistor_SMD:R_0805_2012Metric_Pad1.15x1.40mm_HandSolder" V 5280 1900 50  0001 C CNN
F 3 "~" H 5350 1900 50  0001 C CNN
F 4 "1%" H 5350 1900 50  0001 C CNN "Tolerance"
F 5 "541-48.7KCCT-ND" H 5350 1900 50  0001 C CNN "Digi-Key_PN"
	1    5350 1900
	0    -1   1    0   
$EndComp
$Comp
L Device:C C69
U 1 1 5EF91320
P 5050 2150
F 0 "C69" H 4935 2104 50  0000 R CNN
F 1 "C 100n" H 4935 2195 50  0000 R CNN
F 2 "Capacitor_SMD:C_0805_2012Metric_Pad1.15x1.40mm_HandSolder" H 5088 2000 50  0001 C CNN
F 3 "~" H 5050 2150 50  0001 C CNN
F 4 "399-8000-1-ND" H 5050 2150 50  0001 C CNN "Digi-Key_PN"
	1    5050 2150
	1    0    0    1   
$EndComp
Wire Wire Line
	5600 2300 5600 2200
Wire Wire Line
	5600 2300 5200 2300
Wire Wire Line
	5600 2000 5200 2000
Wire Wire Line
	5600 2100 5500 2100
Wire Wire Line
	5200 2100 5200 2300
Connection ~ 5200 2300
Wire Wire Line
	5200 2300 5050 2300
Connection ~ 5600 2300
Wire Wire Line
	5500 1900 5500 2100
Connection ~ 5500 2100
Wire Wire Line
	5200 1900 5200 2000
Connection ~ 5200 2000
Wire Wire Line
	5200 2000 5050 2000
Connection ~ 4250 2000
Connection ~ 4250 2300
$Comp
L voltage_references_magne:ADR5044B U?
U 1 1 5EF9D907
P 4150 4150
AR Path="/5EED7553/5EF9D907" Ref="U?"  Part="1" 
AR Path="/5EEDC7D6/5EF9D907" Ref="U37"  Part="1" 
F 0 "U37" V 4104 4238 50  0000 L CNN
F 1 "ADR5044B" V 4195 4238 50  0000 L CNN
F 2 "Package_TO_SOT_SMD:SOT-323_SC-70_Handsoldering" H 4150 4150 50  0001 C CNN
F 3 "https://www.analog.com/media/en/technical-documentation/data-sheets/ADR5040_5041_5043_5044_5045.pdf" H 4150 4150 50  0001 C CNN
F 4 "ADR5044BKSZ-REEL7CT-ND" H 4150 4150 50  0001 C CNN "Digi-Key_PN"
	1    4150 4150
	0    -1   1    0   
$EndComp
$Comp
L Device:R R75
U 1 1 5EF9E727
P 4150 3800
F 0 "R75" H 4050 3850 50  0000 C CNN
F 1 "R 316" H 4000 3750 50  0000 C CNN
F 2 "Resistor_SMD:R_0805_2012Metric_Pad1.15x1.40mm_HandSolder" V 4080 3800 50  0001 C CNN
F 3 "~" H 4150 3800 50  0001 C CNN
F 4 "1%" H 4150 3800 50  0001 C CNN "Tolerance"
F 5 "P316CCT-ND" H 4150 3800 50  0001 C CNN "Digi-Key_PN"
	1    4150 3800
	1    0    0    1   
$EndComp
Wire Wire Line
	4150 3950 4150 4000
Wire Wire Line
	4150 4300 4150 4350
Wire Wire Line
	5450 3150 4150 3150
Wire Wire Line
	4150 3150 4150 3650
Connection ~ 5450 3150
Connection ~ 4150 4350
Text GLabel 3700 3950 0    50   Input ~ 0
4.096V_ref
Wire Wire Line
	5500 4350 4150 4350
Connection ~ 4150 3950
Text GLabel 8850 2950 2    50   Input ~ 0
!V_arm
$Comp
L digital_isolators_magne:SI8662EC-B U38
U 1 1 5EEAE74F
P 5750 4200
F 0 "U38" H 6050 5517 50  0000 C CNN
F 1 "SI8662EC-B" H 6050 5426 50  0000 C CNN
F 2 "Package_SO:SOIC-16_3.9x9.9mm_P1.27mm" H 5750 4200 50  0001 C CNN
F 3 "https://www.silabs.com/documents/public/data-sheets/Si866x.pdf" H 5750 4200 50  0001 C CNN
F 4 "336-4947-1-ND" H 5750 4200 50  0001 C CNN "Digi-Key_PN"
	1    5750 4200
	1    0    0    -1  
$EndComp
Text HLabel 5400 3350 0    50   Input ~ 0
VSens_ARM
Wire Wire Line
	5650 3350 5400 3350
Wire Wire Line
	5650 3650 5400 3650
Wire Wire Line
	5650 3850 5400 3850
Text GLabel 5400 3750 0    50   Input ~ 0
!LE_LVsens
Text GLabel 5400 3850 0    50   Input ~ 0
!ARM_LVsens
Wire Wire Line
	5400 3750 5650 3750
Wire Wire Line
	5400 3450 5650 3450
Text HLabel 5400 3650 0    50   Input ~ 0
VSens_ARM_alarm
Text HLabel 5400 3450 0    50   Input ~ 0
VSens_interlock
Wire Wire Line
	8550 3500 8550 3450
Wire Wire Line
	8550 3450 8850 3450
$Comp
L Device:R R?
U 1 1 5F87A7EA
P 8350 3450
AR Path="/5F87A7EA" Ref="R?"  Part="1" 
AR Path="/5EB41214/5F87A7EA" Ref="R?"  Part="1" 
AR Path="/5ED2BC2A/5F87A7EA" Ref="R?"  Part="1" 
AR Path="/5ECA2575/5F87A7EA" Ref="R?"  Part="1" 
AR Path="/5ECAC95D/5F87A7EA" Ref="R?"  Part="1" 
AR Path="/5EED7553/5F87A7EA" Ref="R?"  Part="1" 
AR Path="/5EEDC7D6/5F87A7EA" Ref="R79"  Part="1" 
F 0 "R79" V 8143 3450 50  0000 C CNN
F 1 "R 10" V 8234 3450 50  0000 C CNN
F 2 "Resistor_SMD:R_0603_1608Metric" V 8280 3450 50  0001 C CNN
F 3 "~" H 8350 3450 50  0001 C CNN
F 4 "" H 8350 3450 50  0001 C CNN "Tolerance"
F 5 "RMCF0603FT10R0CT-ND" H 8350 3450 50  0001 C CNN "Digi-Key_PN"
	1    8350 3450
	0    1    1    0   
$EndComp
Wire Wire Line
	8500 3450 8550 3450
Connection ~ 8550 3450
Wire Wire Line
	8550 4000 8550 3950
Wire Wire Line
	8550 3950 8850 3950
$Comp
L Device:R R?
U 1 1 5F87FF44
P 8350 3950
AR Path="/5F87FF44" Ref="R?"  Part="1" 
AR Path="/5EB41214/5F87FF44" Ref="R?"  Part="1" 
AR Path="/5ED2BC2A/5F87FF44" Ref="R?"  Part="1" 
AR Path="/5ECA2575/5F87FF44" Ref="R?"  Part="1" 
AR Path="/5ECAC95D/5F87FF44" Ref="R?"  Part="1" 
AR Path="/5EED7553/5F87FF44" Ref="R?"  Part="1" 
AR Path="/5EEDC7D6/5F87FF44" Ref="R80"  Part="1" 
F 0 "R80" V 8143 3950 50  0000 C CNN
F 1 "R 10" V 8234 3950 50  0000 C CNN
F 2 "Resistor_SMD:R_0603_1608Metric" V 8280 3950 50  0001 C CNN
F 3 "~" H 8350 3950 50  0001 C CNN
F 4 "" H 8350 3950 50  0001 C CNN "Tolerance"
F 5 "RMCF0603FT10R0CT-ND" H 8350 3950 50  0001 C CNN "Digi-Key_PN"
	1    8350 3950
	0    1    1    0   
$EndComp
Wire Wire Line
	8500 3950 8550 3950
Connection ~ 8550 3950
$Comp
L power:GND #PWR0119
U 1 1 5F882297
P 8550 3700
F 0 "#PWR0119" H 8550 3450 50  0001 C CNN
F 1 "GND" H 8555 3527 50  0000 C CNN
F 2 "" H 8550 3700 50  0001 C CNN
F 3 "" H 8550 3700 50  0001 C CNN
	1    8550 3700
	1    0    0    -1  
$EndComp
$Comp
L power:GND #PWR0120
U 1 1 5F884487
P 8550 4200
F 0 "#PWR0120" H 8550 3950 50  0001 C CNN
F 1 "GND" H 8555 4027 50  0000 C CNN
F 2 "" H 8550 4200 50  0001 C CNN
F 3 "" H 8550 4200 50  0001 C CNN
	1    8550 4200
	1    0    0    -1  
$EndComp
Wire Wire Line
	6450 3450 6900 3450
Wire Wire Line
	8200 3650 8200 3950
Wire Wire Line
	6450 3650 8200 3650
$Comp
L power:GND #PWR0118
U 1 1 5F8C4088
P 8550 3200
F 0 "#PWR0118" H 8550 2950 50  0001 C CNN
F 1 "GND" H 8555 3027 50  0000 C CNN
F 2 "" H 8550 3200 50  0001 C CNN
F 3 "" H 8550 3200 50  0001 C CNN
	1    8550 3200
	1    0    0    -1  
$EndComp
Connection ~ 8550 2950
Wire Wire Line
	8500 2950 8550 2950
$Comp
L Device:R R?
U 1 1 5F8C1BB8
P 8350 2950
AR Path="/5F8C1BB8" Ref="R?"  Part="1" 
AR Path="/5EB41214/5F8C1BB8" Ref="R?"  Part="1" 
AR Path="/5ED2BC2A/5F8C1BB8" Ref="R?"  Part="1" 
AR Path="/5ECA2575/5F8C1BB8" Ref="R?"  Part="1" 
AR Path="/5ECAC95D/5F8C1BB8" Ref="R?"  Part="1" 
AR Path="/5EED7553/5F8C1BB8" Ref="R?"  Part="1" 
AR Path="/5EEDC7D6/5F8C1BB8" Ref="R78"  Part="1" 
AR Path="/5ECDAC29/5F8C1BB8" Ref="R?"  Part="1" 
F 0 "R78" V 8143 2950 50  0000 C CNN
F 1 "R 10" V 8234 2950 50  0000 C CNN
F 2 "Resistor_SMD:R_0603_1608Metric" V 8280 2950 50  0001 C CNN
F 3 "~" H 8350 2950 50  0001 C CNN
F 4 "" H 8350 2950 50  0001 C CNN "Tolerance"
F 5 "RMCF0603FT10R0CT-ND" H 8350 2950 50  0001 C CNN "Digi-Key_PN"
	1    8350 2950
	0    1    1    0   
$EndComp
Wire Wire Line
	8550 2950 8850 2950
Wire Wire Line
	8550 3000 8550 2950
Wire Wire Line
	8200 3350 8200 2950
Wire Wire Line
	6450 3350 8200 3350
$Comp
L Device:C_Small C?
U 1 1 5F91355A
P 8550 3100
AR Path="/5EB41214/5F91355A" Ref="C?"  Part="1" 
AR Path="/5ED2BC2A/5F91355A" Ref="C?"  Part="1" 
AR Path="/5EE0AC5D/5F91355A" Ref="C?"  Part="1" 
AR Path="/5EE0E313/5F91355A" Ref="C?"  Part="1" 
AR Path="/5EE5AAE3/5F91355A" Ref="C?"  Part="1" 
AR Path="/5ECA36FF/5F91355A" Ref="C?"  Part="1" 
AR Path="/5EED7553/5F91355A" Ref="C?"  Part="1" 
AR Path="/5EEDC7D6/5F91355A" Ref="C75"  Part="1" 
AR Path="/5ECDAC29/5F91355A" Ref="C?"  Part="1" 
AR Path="/5EE8A13E/5F91355A" Ref="C?"  Part="1" 
F 0 "C75" H 8642 3146 50  0000 L CNN
F 1 "C 470p" H 8642 3055 50  0000 L CNN
F 2 "Capacitor_SMD:C_0603_1608Metric" H 8550 3100 50  0001 C CNN
F 3 "~" H 8550 3100 50  0001 C CNN
F 4 "16" H 8550 3100 50  0001 C CNN "Voltage - rated"
F 5 "20%" H 8550 3100 50  0001 C CNN "Tolerance"
F 6 "399-10051-1-ND" H 8550 3100 50  0001 C CNN "Digi-Key_PN"
F 7 "" H 8550 3100 50  0001 C CNN "Farnell_PN"
	1    8550 3100
	1    0    0    -1  
$EndComp
$Comp
L Device:C_Small C?
U 1 1 5F91458B
P 8550 3600
AR Path="/5EB41214/5F91458B" Ref="C?"  Part="1" 
AR Path="/5ED2BC2A/5F91458B" Ref="C?"  Part="1" 
AR Path="/5EE0AC5D/5F91458B" Ref="C?"  Part="1" 
AR Path="/5EE0E313/5F91458B" Ref="C?"  Part="1" 
AR Path="/5EE5AAE3/5F91458B" Ref="C?"  Part="1" 
AR Path="/5ECA36FF/5F91458B" Ref="C?"  Part="1" 
AR Path="/5EED7553/5F91458B" Ref="C?"  Part="1" 
AR Path="/5EEDC7D6/5F91458B" Ref="C76"  Part="1" 
AR Path="/5ECDAC29/5F91458B" Ref="C?"  Part="1" 
AR Path="/5EE8A13E/5F91458B" Ref="C?"  Part="1" 
F 0 "C76" H 8642 3646 50  0000 L CNN
F 1 "C 470p" H 8642 3555 50  0000 L CNN
F 2 "Capacitor_SMD:C_0603_1608Metric" H 8550 3600 50  0001 C CNN
F 3 "~" H 8550 3600 50  0001 C CNN
F 4 "16" H 8550 3600 50  0001 C CNN "Voltage - rated"
F 5 "20%" H 8550 3600 50  0001 C CNN "Tolerance"
F 6 "399-10051-1-ND" H 8550 3600 50  0001 C CNN "Digi-Key_PN"
F 7 "" H 8550 3600 50  0001 C CNN "Farnell_PN"
	1    8550 3600
	1    0    0    -1  
$EndComp
$Comp
L Device:C_Small C?
U 1 1 5F91688A
P 8550 4100
AR Path="/5EB41214/5F91688A" Ref="C?"  Part="1" 
AR Path="/5ED2BC2A/5F91688A" Ref="C?"  Part="1" 
AR Path="/5EE0AC5D/5F91688A" Ref="C?"  Part="1" 
AR Path="/5EE0E313/5F91688A" Ref="C?"  Part="1" 
AR Path="/5EE5AAE3/5F91688A" Ref="C?"  Part="1" 
AR Path="/5ECA36FF/5F91688A" Ref="C?"  Part="1" 
AR Path="/5EED7553/5F91688A" Ref="C?"  Part="1" 
AR Path="/5EEDC7D6/5F91688A" Ref="C77"  Part="1" 
AR Path="/5ECDAC29/5F91688A" Ref="C?"  Part="1" 
AR Path="/5EE8A13E/5F91688A" Ref="C?"  Part="1" 
F 0 "C77" H 8642 4146 50  0000 L CNN
F 1 "C 470p" H 8642 4055 50  0000 L CNN
F 2 "Capacitor_SMD:C_0603_1608Metric" H 8550 4100 50  0001 C CNN
F 3 "~" H 8550 4100 50  0001 C CNN
F 4 "16" H 8550 4100 50  0001 C CNN "Voltage - rated"
F 5 "20%" H 8550 4100 50  0001 C CNN "Tolerance"
F 6 "399-10051-1-ND" H 8550 4100 50  0001 C CNN "Digi-Key_PN"
F 7 "" H 8550 4100 50  0001 C CNN "Farnell_PN"
	1    8550 4100
	1    0    0    -1  
$EndComp
Wire Wire Line
	4250 2000 3800 2000
$Comp
L dk_Test-Points:5011 TP9
U 1 1 5EE606B2
P 3800 1900
F 0 "TP9" H 3750 1947 50  0000 R CNN
F 1 "5011" H 3800 1800 50  0001 C CNN
F 2 "TestPoint:TestPoint_Pad_D1.0mm" H 4000 2100 60  0001 L CNN
F 3 "http://www.keyelco.com/product-pdf.cfm?p=1320" H 4000 2200 60  0001 L CNN
F 4 "" H 4000 2300 60  0001 L CNN "Digi-Key_PN"
F 5 "5011" H 4000 2400 60  0001 L CNN "MPN"
F 6 "Test and Measurement" H 4000 2500 60  0001 L CNN "Category"
F 7 "Test Points" H 4000 2600 60  0001 L CNN "Family"
F 8 "http://www.keyelco.com/product-pdf.cfm?p=1320" H 4000 2700 60  0001 L CNN "DK_Datasheet_Link"
F 9 "/product-detail/en/keystone-electronics/5011/36-5011-ND/255333" H 4000 2800 60  0001 L CNN "DK_Detail_Page"
F 10 "PC TEST POINT MULTIPURPOSE BLACK" H 4000 2900 60  0001 L CNN "Description"
F 11 "Keystone Electronics" H 4000 3000 60  0001 L CNN "Manufacturer"
F 12 "Active" H 4000 3100 60  0001 L CNN "Status"
	1    3800 1900
	1    0    0    1   
$EndComp
$Comp
L Device:C C67
U 1 1 5FC04D7C
P 4250 2150
F 0 "C67" H 4135 2104 50  0000 R CNN
F 1 "C 4.7u" H 4135 2195 50  0000 R CNN
F 2 "Capacitor_SMD:C_0603_1608Metric_Pad1.05x0.95mm_HandSolder" H 4288 2000 50  0001 C CNN
F 3 "~" H 4250 2150 50  0001 C CNN
F 4 "490-11992-1-ND" H 4250 2150 50  0001 C CNN "Digi-Key_PN"
	1    4250 2150
	1    0    0    1   
$EndComp
Connection ~ 5050 2300
Connection ~ 5050 2000
$Comp
L Device:C C68
U 1 1 5FC05006
P 4600 2150
F 0 "C68" H 4485 2104 50  0000 R CNN
F 1 "C 4.7u" H 4485 2195 50  0000 R CNN
F 2 "Capacitor_SMD:C_0603_1608Metric_Pad1.05x0.95mm_HandSolder" H 4638 2000 50  0001 C CNN
F 3 "~" H 4600 2150 50  0001 C CNN
F 4 "490-11992-1-ND" H 4600 2150 50  0001 C CNN "Digi-Key_PN"
	1    4600 2150
	1    0    0    1   
$EndComp
Connection ~ 4600 2300
Wire Wire Line
	4600 2300 4250 2300
Connection ~ 4600 2000
Wire Wire Line
	4600 2000 4250 2000
$Comp
L Device:C C73
U 1 1 5FC051A9
P 7400 2150
F 0 "C73" H 7285 2104 50  0000 R CNN
F 1 "C 4.7u" H 7285 2195 50  0000 R CNN
F 2 "Capacitor_SMD:C_0603_1608Metric_Pad1.05x0.95mm_HandSolder" H 7438 2000 50  0001 C CNN
F 3 "~" H 7400 2150 50  0001 C CNN
F 4 "490-11992-1-ND" H 7400 2150 50  0001 C CNN "Digi-Key_PN"
	1    7400 2150
	1    0    0    1   
$EndComp
Connection ~ 7400 2300
Wire Wire Line
	7400 2300 7900 2300
Connection ~ 7400 2000
Wire Wire Line
	7400 2000 6950 2000
$Comp
L Device:C C74
U 1 1 5FC0535E
P 7900 2150
F 0 "C74" H 7785 2104 50  0000 R CNN
F 1 "C 4.7u" H 7785 2195 50  0000 R CNN
F 2 "Capacitor_SMD:C_0603_1608Metric_Pad1.05x0.95mm_HandSolder" H 7938 2000 50  0001 C CNN
F 3 "~" H 7900 2150 50  0001 C CNN
F 4 "490-11992-1-ND" H 7900 2150 50  0001 C CNN "Digi-Key_PN"
	1    7900 2150
	1    0    0    1   
$EndComp
Connection ~ 7900 2000
Wire Wire Line
	4600 2300 5050 2300
Wire Wire Line
	4600 2000 5050 2000
Connection ~ 7900 2300
$Comp
L dk_Test-Points:5011 TP10
U 1 1 5FD25474
P 3800 2200
F 0 "TP10" H 3750 2247 50  0000 R CNN
F 1 "5011" H 3800 2100 50  0001 C CNN
F 2 "TestPoint:TestPoint_Pad_D1.0mm" H 4000 2400 60  0001 L CNN
F 3 "http://www.keyelco.com/product-pdf.cfm?p=1320" H 4000 2500 60  0001 L CNN
F 4 "" H 4000 2600 60  0001 L CNN "Digi-Key_PN"
F 5 "5011" H 4000 2700 60  0001 L CNN "MPN"
F 6 "Test and Measurement" H 4000 2800 60  0001 L CNN "Category"
F 7 "Test Points" H 4000 2900 60  0001 L CNN "Family"
F 8 "http://www.keyelco.com/product-pdf.cfm?p=1320" H 4000 3000 60  0001 L CNN "DK_Datasheet_Link"
F 9 "/product-detail/en/keystone-electronics/5011/36-5011-ND/255333" H 4000 3100 60  0001 L CNN "DK_Detail_Page"
F 10 "PC TEST POINT MULTIPURPOSE BLACK" H 4000 3200 60  0001 L CNN "Description"
F 11 "Keystone Electronics" H 4000 3300 60  0001 L CNN "Manufacturer"
F 12 "Active" H 4000 3400 60  0001 L CNN "Status"
	1    3800 2200
	1    0    0    1   
$EndComp
Wire Wire Line
	3800 2300 4250 2300
Wire Wire Line
	7000 3550 6900 3550
Wire Wire Line
	6900 3550 6900 3450
Connection ~ 6900 3450
Wire Wire Line
	6900 3450 8200 3450
Wire Wire Line
	3700 3950 4150 3950
$EndSCHEMATC
