M48
; DRILL file {KiCad (6.0.6)} date Thu Oct 13 14:22:43 2022
; FORMAT={-:-/ absolute / inch / decimal}
; #@! TF.CreationDate,2022-10-13T14:22:43+02:00
; #@! TF.GenerationSoftware,Kicad,Pcbnew,(6.0.6)
; #@! TF.FileFunction,NonPlated,1,4,NPTH
FMAT,2
INCH
; #@! TA.AperFunction,NonPlated,NPTH,ComponentDrill
T1C0.0354
; #@! TA.AperFunction,NonPlated,NPTH,ComponentDrill
T2C0.1260
%
G90
G05
T1
X1.7592Y-3.4202
X1.7592Y-3.5934
T2
X1.6535Y-2.5984
X1.6535Y-5.315
X4.9606Y-3.0315
X4.9606Y-4.8819
X8.2677Y-3.0315
X8.2677Y-4.8819
T0
M30
