(module 0985-0-15-20-71-14-11-0 (layer F.Cu) (tedit 5EF0BA28)
  (fp_text reference REF** (at 10 -9.5) (layer F.SilkS)
    (effects (font (size 1 1) (thickness 0.15)))
  )
  (fp_text value 0985-0-15-20-71-14-11-0 (at -11 -10) (layer F.Fab)
    (effects (font (size 1 1) (thickness 0.15)))
  )
  (pad 1 thru_hole circle (at 0 0) (size 1 1) (drill 0.41) (layers *.Cu *.Mask))
  (model "C:/Users/magla/OneDrive - University of Bergen/RD53/kicad/Libraries/magne-custom/models/0985-0-15-20-71-14-11-0.wrl"
    (at (xyz 0 0 0))
    (scale (xyz 0.395 0.395 0.395))
    (rotate (xyz 180 0 0))
  )
)
