(module 1-2834016-2 (layer F.Cu) (tedit 5F80254C)
  (fp_text reference REF** (at 5.334 -7.112) (layer F.SilkS)
    (effects (font (size 1 1) (thickness 0.15)))
  )
  (fp_text value 1-2834016-2 (at -6.096 -7.112) (layer F.Fab)
    (effects (font (size 1 1) (thickness 0.15)))
  )
  (fp_line (start -0.9 10.6) (end 7.18 10.6) (layer F.CrtYd) (width 0.12))
  (fp_line (start 7.18 -3) (end 7.18 10.6) (layer F.CrtYd) (width 0.12))
  (fp_line (start -0.9 -3) (end 7.18 -3) (layer F.CrtYd) (width 0.12))
  (fp_line (start -0.9 -3) (end -0.9 10.6) (layer F.CrtYd) (width 0.12))
  (pad 1 thru_hole circle (at 0 0) (size 2.032 2.032) (drill 1.1) (layers *.Cu *.Mask))
  (pad 2 thru_hole circle (at 2.54 0) (size 2.032 2.032) (drill 1.1) (layers *.Cu *.Mask))
  (pad 2 thru_hole circle (at 2.54 5.08) (size 2.032 2.032) (drill 1.1) (layers *.Cu *.Mask))
  (pad 1 thru_hole circle (at 0 5.08) (size 2.032 2.032) (drill 1.1) (layers *.Cu *.Mask))
  (model "C:/Users/magla/OneDrive - University of Bergen/RD53/kicad/Libraries/magne-custom/models/1-2834016-2.step"
    (offset (xyz 1.25 -10.6 0))
    (scale (xyz 1 1 1))
    (rotate (xyz 0 0 -90))
  )
)
