M48
; DRILL file {KiCad (5.1.9)-1} date 02/10/21 22:23:46
; FORMAT={-:-/ absolute / inch / decimal}
; #@! TF.CreationDate,2021-02-10T22:23:46+01:00
; #@! TF.GenerationSoftware,Kicad,Pcbnew,(5.1.9)-1
FMAT,2
INCH
T1C0.0157
T2C0.0236
T3C0.0300
T4C0.0315
T5C0.0354
T6C0.0394
T7C0.0402
T8C0.0433
T9C0.0472
T10C0.0512
T11C0.0700
T12C0.1260
T13C0.1260
%
G90
G05
T1
X4.0592Y-5.0417
X4.3125Y-4.896
X4.3625Y-4.79
X4.4125Y-4.945
X4.4175Y-4.905
X4.474Y-5.494
X4.474Y-5.546
X4.6005Y-3.654
X4.6475Y-4.975
X4.6805Y-3.709
X4.7817Y-4.1885
X4.811Y-4.2563
X4.8725Y-5.035
X4.8886Y-4.1798
X4.8975Y-4.3
X4.9175Y-3.495
X4.9175Y-4.66
X4.9325Y-5.09
X4.9425Y-4.768
X4.9425Y-4.98
X4.9725Y-5.475
X5.0075Y-3.475
X5.0175Y-4.375
X5.0275Y-5.675
X5.0625Y-4.65
X5.1125Y-3.425
X5.1125Y-3.3658
X5.5425Y-5.545
X5.5681Y-2.8444
X5.5925Y-4.11
X5.614Y-4.21
X5.6225Y-5.76
X5.6725Y-3.735
X5.6775Y-3.33
X5.6925Y-4.11
X5.771Y-2.87
X5.8175Y-3.885
X5.8175Y-3.66
X5.821Y-3.4045
X5.8575Y-2.8
X5.8725Y-2.9
X5.9125Y-3.34
X5.9125Y-3.685
X5.9198Y-3.2977
X5.9375Y-2.71
X5.9425Y-2.75
X5.9425Y-3.43
X5.9534Y-3.6341
X5.9625Y-3.745
X6.0875Y-5.48
X6.0899Y-3.3946
X6.0925Y-3.12
X6.1353Y-5.2628
X6.2375Y-5.545
X6.2375Y-5.645
X6.2375Y-5.695
X6.2375Y-5.745
X6.2675Y-5.625
X6.2675Y-5.675
X6.2675Y-5.725
X6.2675Y-5.775
X6.2825Y-3.195
X6.3675Y-5.625
X6.3675Y-5.675
X6.3675Y-5.725
X6.3675Y-5.775
X6.3975Y-5.545
X6.3975Y-5.595
X6.3975Y-5.645
X6.3975Y-5.695
X6.3975Y-5.745
X6.5125Y-3.62
X6.635Y-3.4525
X6.6375Y-3.545
X6.6625Y-3.385
X6.6675Y-3.885
X6.7275Y-2.985
X6.7529Y-3.2004
X6.79Y-3.14
X6.8875Y-3.52
X6.8882Y-5.0767
X6.9325Y-5.0767
X6.9925Y-3.895
X6.9925Y-5.065
X7.1375Y-2.835
X7.2475Y-5.325
X7.2475Y-5.515
X7.4375Y-3.705
X7.6075Y-3.45
X7.609Y-3.7465
X7.6725Y-3.255
X7.6848Y-4.1327
X7.7025Y-2.745
X7.7075Y-5.285
X7.7471Y-3.0585
X7.7525Y-2.7315
X7.7825Y-5.235
X7.8175Y-5.69
X7.9325Y-4.325
X7.9625Y-2.835
X7.9823Y-4.3252
X8.0225Y-4.325
X8.055Y-4.0825
X8.0575Y-3.585
X8.1075Y-3.7
X8.2275Y-2.72
X8.2375Y-2.83
X8.3025Y-3.705
X8.3875Y-3.855
X8.4175Y-3.28
X8.4775Y-3.23
T2
X3.6975Y-3.91
X3.7075Y-4.935
X4.0932Y-3.9093
X4.1255Y-5.606
X4.1875Y-4.945
X4.21Y-5.438
X4.2125Y-3.75
X4.2165Y-4.79
X4.3375Y-5.045
X4.42Y-5.805
X4.466Y-3.386
X4.4721Y-4.0271
X4.5046Y-5.6379
X4.52Y-2.984
X4.5344Y-4.4331
X4.5375Y-5.035
X4.5825Y-4.225
X4.5855Y-3.554
X4.5925Y-4.0
X4.596Y-3.824
X4.6105Y-4.782
X4.7155Y-3.594
X4.7325Y-4.836
X4.76Y-3.942
X4.762Y-5.644
X4.7646Y-5.4638
X4.7745Y-4.73
X4.7986Y-4.1225
X4.815Y-4.385
X4.885Y-5.4225
X4.9175Y-4.37
X4.925Y-5.805
X4.9479Y-2.8596
X4.9825Y-3.58
X4.9825Y-3.755
X5.0475Y-2.74
X5.0775Y-5.795
X5.0818Y-4.0057
X5.0818Y-4.5707
X5.0821Y-4.2704
X5.0875Y-4.86
X5.1075Y-5.735
X5.1975Y-5.465
X5.2075Y-4.485
X5.2125Y-3.92
X5.2125Y-4.19
X5.2175Y-3.665
X5.2175Y-4.7804
X5.2538Y-5.645
X5.2925Y-2.925
X5.2975Y-2.735
X5.3075Y-5.42
X5.3325Y-3.585
X5.3605Y-5.203
X5.3725Y-3.385
X5.3825Y-3.235
X5.3825Y-3.465
X5.3875Y-2.795
X5.4125Y-3.92
X5.4125Y-4.195
X5.4175Y-4.485
X5.4275Y-3.135
X5.4575Y-4.7325
X5.4575Y-5.775
X5.4925Y-3.735
X5.5025Y-3.585
X5.5075Y-3.28
X5.5168Y-2.9793
X5.588Y-2.7255
X5.6325Y-5.675
X5.6475Y-5.415
X5.6645Y-5.205
X5.6679Y-2.7025
X5.6825Y-3.38
X5.6825Y-3.685
X5.7275Y-2.965
X5.7375Y-5.755
X5.7775Y-5.665
X5.8275Y-3.215
X5.8275Y-5.605
X5.8425Y-3.465
X5.8425Y-3.56
X5.8425Y-5.21
X5.8425Y-5.415
X5.9025Y-5.675
X6.0025Y-3.23
X6.0175Y-2.825
X6.0175Y-3.0
X6.0175Y-3.56
X6.0425Y-5.57
X6.0825Y-5.7
X6.0868Y-4.0093
X6.0868Y-4.2807
X6.0871Y-4.5796
X6.0975Y-3.745
X6.12Y-3.66
X6.1375Y-3.435
X6.2175Y-3.9425
X6.2175Y-4.21
X6.2175Y-4.5
X6.237Y-5.1729
X6.2425Y-3.125
X6.2425Y-5.46
X6.3225Y-3.04
X6.395Y-3.7
X6.4125Y-3.475
X6.4225Y-3.14
X6.4675Y-3.88
X6.4675Y-4.1625
X6.4675Y-4.455
X6.5125Y-5.4
X6.5125Y-5.47
X6.5145Y-5.221
X6.5575Y-5.52
X6.5575Y-5.685
X6.5884Y-3.1778
X6.6Y-3.0275
X6.6Y-3.2998
X6.6025Y-3.41
X6.6625Y-3.705
X6.7425Y-3.7
X6.7775Y-3.365
X6.7925Y-3.55
X7.0688Y-5.36
X7.0725Y-5.1737
X7.0725Y-5.54
X7.2275Y-3.89
X7.2675Y-4.14
X7.2675Y-4.405
X7.2675Y-4.675
X7.3875Y-3.515
X7.4425Y-2.99
X7.4525Y-3.34
X7.5175Y-3.575
X7.5475Y-4.04
X7.5475Y-4.31
X7.5525Y-4.575
X7.5525Y-4.845
X7.5625Y-5.2801
X7.5675Y-5.475
X7.5675Y-5.6601
X7.5975Y-2.88
X7.6025Y-3.19
X7.6065Y-5.1775
X7.6125Y-5.36
X7.6125Y-5.55
X7.6475Y-2.76
X7.6875Y-3.69
X7.7308Y-4.3173
X7.7375Y-4.05
X7.7375Y-4.58
X7.7425Y-4.85
X7.7975Y-2.64
X7.8025Y-5.18
X7.8225Y-3.37
X7.8385Y-2.7975
X7.8525Y-2.91
X7.8904Y-3.4251
X7.9625Y-5.1675
X7.9625Y-5.33
X7.9875Y-3.415
X7.9925Y-3.245
X8.0235Y-2.95
X8.0625Y-2.735
X8.1375Y-5.615
X8.1375Y-5.805
X8.1825Y-3.745
X8.2275Y-3.78
X8.2375Y-3.91
X8.2575Y-3.67
T3
X4.56Y-3.1
X4.56Y-3.2
X4.56Y-3.3
X4.56Y-3.4
X4.86Y-3.1
X4.86Y-3.2
X4.86Y-3.3
X4.86Y-3.4
T4
X4.6925Y-4.375
X4.6925Y-4.475
X4.6925Y-4.575
T5
X7.1475Y-3.5081
X7.1475Y-3.6066
X7.1475Y-3.705
T6
X4.3475Y-3.98
X4.3475Y-4.08
X4.795Y-2.865
X4.795Y-2.965
X5.0001Y-2.9601
X5.0001Y-3.0601
X5.1001Y-2.9601
X5.1001Y-3.0601
X5.2001Y-2.9601
X5.2001Y-3.0601
X7.7606Y-5.5
X7.9575Y-5.5
X8.1675Y-4.3616
X8.1675Y-4.4707
X8.1675Y-4.5797
X8.1675Y-4.6888
X8.1675Y-4.7978
X8.1675Y-4.9069
X8.1675Y-5.0159
X8.1675Y-5.125
X8.2793Y-4.4161
X8.2793Y-4.5252
X8.2793Y-4.6343
X8.2793Y-4.7433
X8.2793Y-4.8524
X8.2793Y-4.9614
X8.2793Y-5.0705
T7
X4.362Y-2.666
X4.362Y-2.766
X4.362Y-2.866
X6.4125Y-2.81
X6.5125Y-2.81
X6.6125Y-2.81
X6.7125Y-2.81
T8
X3.8955Y-4.2
X3.8955Y-4.3
X3.8955Y-4.4
X3.8955Y-4.5
X3.8955Y-4.6
X3.8955Y-4.7
X3.8975Y-3.134
X3.8975Y-3.234
X3.8975Y-3.334
X3.8975Y-3.434
X3.8975Y-3.534
X3.8975Y-3.634
X3.9015Y-5.256
X3.9015Y-5.356
X4.0955Y-4.2
X4.0955Y-4.3
X4.0955Y-4.4
X4.0955Y-4.5
X4.0955Y-4.6
X4.0955Y-4.7
X4.0975Y-3.134
X4.0975Y-3.234
X4.0975Y-3.334
X4.0975Y-3.434
X4.0975Y-3.534
X4.0975Y-3.634
X4.1015Y-5.256
X4.1015Y-5.356
X5.7125Y-3.09
X5.8125Y-3.09
X5.9125Y-3.09
T9
X7.0425Y-2.6741
X7.0425Y-2.93
X7.0425Y-3.0491
X7.0425Y-3.305
X7.2197Y-2.6741
X7.2197Y-2.93
X7.2197Y-3.0491
X7.2197Y-3.305
X8.2425Y-3.0131
X8.2425Y-3.21
T10
X8.2356Y-3.535
X8.4325Y-3.535
T11
X4.8966Y-5.205
X7.8725Y-3.68
T12
X8.2234Y-4.0878
X8.2234Y-5.3988
T13
X3.8125Y-2.745
X3.8125Y-5.6977
X8.3784Y-2.745
X8.3784Y-5.6977
T0
M30
